<?xml version="1.0" encoding="utf-8"?>
<!-- Generator: Adobe Illustrator 16.0.2, SVG Export Plug-In . SVG Version: 6.00 Build 0)  -->
<!DOCTYPE svg PUBLIC "-//W3C//DTD SVG 1.1//EN" "http://www.w3.org/Graphics/SVG/1.1/DTD/svg11.dtd">
<svg version="1.1" id="圖層_1" xmlns="http://www.w3.org/2000/svg" xmlns:xlink="http://www.w3.org/1999/xlink" x="0px" y="0px"
	 width="10px" height="10px" viewBox="0 0 10 10" enable-background="new 0 0 10 10" xml:space="preserve">
<g>
	<g>
		<path fill="#B3B3B3" d="M1.112,7.52l0.072-0.36h0.287v0.36H1.185H1.112L1.112,7.52z M1.185,7.52L1.185,7.52H1.112H1.185
			L1.185,7.52z M1.256,7.232L1.185,7.376l0,0l0,0l0,0L1.256,7.232L1.256,7.232z M1.185,7.52L1.185,7.52H1.112H1.185L1.185,7.52z
			 M1.112,7.16L1.112,7.16l0.144,0.072L1.112,7.52H1.04L1.112,7.16z M1.112,7.16L1.112,7.16L0.968,7.088L1.112,7.16L1.112,7.16z
			 M0.824,7.376L1.04,7.088L1.112,7.16L1.04,7.52L0.896,7.448L0.824,7.376L0.824,7.376z M0.896,7.448H0.824V7.376L0.896,7.448
			L0.896,7.448z M1.112,7.088L1.112,7.088v0.144L0.824,7.376L0.752,7.232L1.112,7.088z M1.112,7.088L1.112,7.088v0.216V7.088
			L1.112,7.088z M0.68,7.088l0.36-0.072l0.072,0.072l-0.36,0.144L0.68,7.088L0.68,7.088z M0.68,7.088L0.68,7.088L0.68,7.088
			L0.68,7.088L0.68,7.088z M0.896,1.688L1.04,1.904v5.184H0.68V1.904L0.896,1.688L0.896,1.688z M0.68,1.904V1.688h0.217L0.68,1.904
			L0.68,1.904z M6.368,1.904L6.225,2.048H0.896v-0.36h5.328L6.368,1.904L6.368,1.904z M6.225,1.688h0.144v0.216L6.225,1.688
			L6.225,1.688z M6.225,6.08L6.008,5.864v-3.96h0.36v3.96L6.225,6.08L6.225,6.08z M6.368,5.864V6.08H6.225L6.368,5.864L6.368,5.864z
			 M0.896,5.72h5.328v0.36H0.896V5.72z"/>
	</g>
	<g>
		<rect x="2.984" y="7.16" fill="#B3B3B3" width="4.104" height="0.36"/>
	</g>
	<g>
		<path fill="#B3B3B3" d="M7.521,3.848L7.521,3.848H6.225v-0.36h1.296V3.848L7.521,3.848z M7.521,3.488L7.521,3.488L7.521,3.488
			L7.521,3.488L7.521,3.488z M7.521,3.848V3.632l0,0l0,0l0,0V3.848L7.521,3.848z M7.521,3.488L7.521,3.488L7.521,3.488L7.521,3.488
			L7.521,3.488z M7.809,3.488l-0.145,0.36H7.521v-0.36h0.144H7.809L7.809,3.488z M7.664,3.488h0.072h0.072H7.664L7.664,3.488z
			 M7.952,3.632L7.736,3.848L7.592,3.776l0.217-0.288L7.88,3.56L7.952,3.632L7.952,3.632z M7.88,3.56l0.072,0.072l0,0L7.88,3.56
			L7.88,3.56z M8.024,3.704L7.736,3.92L7.664,3.848l0.288-0.216L8.024,3.704L8.024,3.704z M8.024,3.704L8.024,3.704L8.024,3.704
			L8.024,3.704L8.024,3.704z M8.096,3.848L7.809,3.992L7.736,3.92l0.288-0.216L8.096,3.848L8.096,3.848z M8.096,3.848L8.096,3.848
			L8.096,3.848L8.096,3.848L8.096,3.848z M8.456,5.432V5.36L7.809,3.992l0.287-0.144l0.648,1.368L8.456,5.432z M8.456,5.432
			L8.456,5.432V5.36V5.432L8.456,5.432z M9.104,5.432L8.888,5.72L8.456,5.432l0.216-0.288L9.104,5.432L9.104,5.432z M9.104,5.432
			L9.104,5.432L9.104,5.432L9.104,5.432L9.104,5.432z M8.888,5.72L8.96,5.576l0,0l0,0l0,0L8.888,5.72L8.888,5.72z M9.104,5.432
			L9.104,5.432L9.104,5.432L9.104,5.432L9.104,5.432z M9.248,5.576L8.96,5.792L8.888,5.72l0.217-0.288l0.071,0.072L9.248,5.576
			L9.248,5.576z M9.176,5.504v0.072h0.072L9.176,5.504L9.176,5.504z M9.32,5.72L9.032,5.864L8.888,5.72l0.36-0.144L9.32,5.648V5.72
			L9.32,5.72z M9.32,5.648L9.32,5.648V5.72V5.648L9.32,5.648z M9.32,5.864L9.032,5.936L8.96,5.864L9.32,5.72v0.072V5.864L9.32,5.864
			z M9.32,5.792L9.32,5.792v0.072V5.792L9.32,5.792z M9.032,5.936L9.032,5.936V5.864H9.32v0.072H9.032L9.032,5.936z M9.32,5.936
			L9.32,5.936L9.32,5.936L9.32,5.936L9.32,5.936z M9.32,7.088H9.032V5.936H9.32V7.088L9.32,7.088z M9.32,7.088L9.32,7.088
			L9.32,7.088L9.32,7.088L9.32,7.088z M9.032,7.016l0.144,0.072l0,0l0,0l0,0L9.032,7.016L9.032,7.016z M9.32,7.088L9.32,7.088
			L9.32,7.088L9.32,7.088L9.32,7.088z M8.96,7.088L8.96,7.088l0.072-0.072L9.32,7.088v0.144L8.96,7.088z M8.96,7.088L8.96,7.088
			L8.888,7.304L8.96,7.088L8.96,7.088z M9.176,7.448L8.96,7.232V7.088l0.36,0.144L9.248,7.376L9.176,7.448L9.176,7.448z
			 M9.248,7.376v0.072H9.176L9.248,7.376L9.248,7.376z M8.96,7.16L8.96,7.16l0.072-0.072l0.144,0.36L9.032,7.52L8.96,7.16z
			 M8.96,7.16L8.96,7.16L8.816,7.232L8.96,7.16L8.96,7.16z M8.888,7.52L8.816,7.232L8.96,7.16l0.072,0.36H8.96H8.888L8.888,7.52z
			 M8.96,7.52H8.888l0,0H8.96L8.96,7.52z M8.601,7.16h0.287v0.36H8.601V7.16z"/>
	</g>
	<g>
		<path fill="#B3B3B3" d="M6.656,4.28L6.8,4.064h1.296v0.36H6.8L6.656,4.28z M6.656,4.28V4.064H6.8L6.656,4.28L6.656,4.28z
			 M6.8,5.432L6.656,5.288V4.28h0.36v1.008L6.8,5.432z M6.8,5.432H6.656V5.288L6.8,5.432L6.8,5.432z M8.601,5.432H6.8V5.144h1.801
			V5.432z"/>
	</g>
	<g>
		<path fill="#B3B3B3" d="M2.769,7.376h0.216l0,0l0,0l0,0H2.769L2.769,7.376z M3.128,7.376L3.128,7.376L3.128,7.376L3.128,7.376
			L3.128,7.376z M3.128,7.592L2.769,7.52V7.376h0.359V7.52V7.592L3.128,7.592z M3.128,7.52L3.128,7.52v0.072V7.52L3.128,7.52z
			 M2.696,7.592L2.696,7.592l0.072-0.144l0.359,0.144L3.057,7.736L2.696,7.592z M2.696,7.592L2.696,7.592L2.696,7.592L2.696,7.592
			L2.696,7.592z M2.984,7.88L2.696,7.736V7.592l0.36,0.144L2.984,7.808V7.88L2.984,7.88z M2.984,7.808V7.88l0,0V7.808L2.984,7.808z
			 M2.624,7.736L2.624,7.736l0.072-0.072L2.984,7.88L2.84,8.024L2.624,7.736L2.624,7.736z M2.84,8.024L2.84,8.024L2.84,8.024
			L2.84,8.024L2.84,8.024z M2.696,8.168L2.48,7.88l0.144-0.144L2.84,8.024L2.769,8.096L2.696,8.168L2.696,8.168z M2.769,8.096
			L2.696,8.168l0,0L2.769,8.096L2.769,8.096z M2.408,7.88H2.48l0.071-0.072l0.145,0.36H2.552L2.408,7.88z M2.408,7.88H2.48l0,0
			H2.408L2.408,7.88z M2.336,8.312l-0.071-0.36L2.408,7.88l0.216,0.288L2.408,8.24L2.336,8.312L2.336,8.312z M2.408,8.24v0.072
			H2.336L2.408,8.24L2.408,8.24z M2.192,7.952L2.192,7.952h0.144v0.36H2.192V7.952L2.192,7.952z M2.192,8.312L2.192,8.312
			L2.192,8.312L2.192,8.312L2.192,8.312z M2.192,7.952v0.144l0,0l0,0l0,0V7.952L2.192,7.952z M2.192,8.312L2.192,8.312L2.192,8.312
			L2.192,8.312L2.192,8.312z M1.977,8.24l0.071-0.288h0.145v0.36H2.048L1.977,8.24L1.977,8.24z M2.048,8.312L2.048,8.312L1.977,8.24
			L2.048,8.312L2.048,8.312z M1.977,7.88L1.977,7.88L2.12,7.952L1.977,8.24L1.832,8.168L1.977,7.88z M1.977,7.88L1.977,7.88
			L1.977,7.88L1.977,7.88L1.977,7.88z M1.688,8.096l0.144-0.288L1.977,7.88L1.832,8.168H1.76L1.688,8.096L1.688,8.096z M1.76,8.168
			H1.688V8.096L1.76,8.168L1.76,8.168z M1.544,8.024l0.288-0.288L1.904,7.88L1.688,8.096L1.544,8.024L1.544,8.024z M1.544,8.024
			L1.544,8.024L1.328,7.808L1.544,8.024L1.544,8.024z M1.4,7.808l0.288-0.144l0.144,0.072L1.544,8.024L1.472,7.88L1.4,7.808
			L1.4,7.808z M1.472,7.88H1.4V7.808L1.472,7.88L1.472,7.88z M1.688,7.592L1.688,7.592L1.76,7.736L1.4,7.808V7.736L1.688,7.592z
			 M1.688,7.592L1.688,7.592L1.688,7.592L1.688,7.592L1.688,7.592z M1.328,7.52l0.288-0.072l0.072,0.144L1.4,7.736L1.328,7.592V7.52
			L1.328,7.52z M1.328,7.592V7.52l0,0V7.592L1.328,7.592z M1.616,7.376L1.616,7.376V7.52H1.328V7.376H1.616L1.616,7.376z
			 M1.328,7.376L1.328,7.376L1.328,7.376L1.328,7.376L1.328,7.376z M1.616,7.376H1.472l0,0l0,0l0,0H1.616L1.616,7.376z M1.328,7.376
			L1.328,7.376L1.328,7.376L1.328,7.376L1.328,7.376z M1.328,7.16l0.288,0.072v0.144H1.328V7.232V7.16L1.328,7.16z M1.328,7.232
			V7.16l0,0V7.232L1.328,7.232z M1.688,7.088V7.16L1.616,7.304L1.328,7.16L1.4,7.016L1.688,7.088z M1.688,7.088V7.16l0,0V7.088
			L1.688,7.088z M1.472,6.8L1.76,7.016L1.688,7.088L1.4,7.016V6.872L1.472,6.8L1.472,6.8z M1.4,6.872L1.4,6.872L1.472,6.8L1.4,6.872
			L1.4,6.872z M1.544,6.728l0.288,0.216L1.688,7.088L1.472,6.8L1.544,6.728L1.544,6.728z M1.544,6.728L1.544,6.728L1.328,6.944
			L1.544,6.728L1.544,6.728z M1.76,6.584l0.145,0.288L1.832,6.944L1.544,6.728l0.145-0.144H1.76L1.76,6.584z M1.688,6.584
			L1.688,6.584H1.76H1.688L1.688,6.584z M1.977,6.872L1.977,6.872H1.832L1.76,6.584l0.072-0.072L1.977,6.872z M1.977,6.872
			L1.977,6.872L1.977,6.872L1.977,6.872L1.977,6.872z M2.048,6.44L2.12,6.8L1.977,6.872l-0.145-0.36L1.977,6.44H2.048L2.048,6.44z
			 M1.977,6.44h0.071l0,0H1.977L1.977,6.44z M2.192,6.8L2.192,6.8H2.048V6.44h0.145V6.8L2.192,6.8z M2.192,6.44L2.192,6.44
			L2.192,6.44L2.192,6.44L2.192,6.44z M2.192,6.8V6.656l0,0l0,0l0,0V6.8L2.192,6.8z M2.192,6.44L2.192,6.44L2.192,6.44L2.192,6.44
			L2.192,6.44z M2.408,6.44L2.336,6.8H2.192V6.44h0.144H2.408L2.408,6.44z M2.336,6.44h0.072l0,0H2.336L2.336,6.44z M2.48,6.872
			H2.408L2.265,6.8l0.144-0.36l0.216,0.072L2.48,6.872z M2.48,6.872H2.408l0,0H2.48L2.48,6.872z M2.769,6.584L2.552,6.872H2.48
			l0.071-0.36l0.145,0.072H2.769L2.769,6.584z M2.696,6.584L2.696,6.584h0.072H2.696L2.696,6.584z M2.624,6.944L2.624,6.944
			L2.48,6.872l0.288-0.288L2.84,6.728L2.624,6.944L2.624,6.944z M2.84,6.728L2.84,6.728L2.84,6.728L2.84,6.728L2.84,6.728z
			 M2.984,6.872L2.696,7.088L2.624,6.944L2.84,6.728L2.984,6.8V6.872L2.984,6.872z M2.984,6.8v0.072l0,0V6.8L2.984,6.8z M2.696,7.16
			V7.088V7.016l0.288-0.144l0.072,0.144L2.696,7.16z M2.696,7.16L2.696,7.16V7.088V7.16L2.696,7.16z M3.128,7.232L2.769,7.304
			L2.696,7.16l0.36-0.144L3.128,7.16V7.232L3.128,7.232z M3.128,7.16L3.128,7.16v0.072V7.16L3.128,7.16z M2.769,7.376L2.769,7.376
			V7.232h0.359v0.144H2.769L2.769,7.376z M3.128,7.376L3.128,7.376L3.128,7.376L3.128,7.376L3.128,7.376z M2.769,7.376h0.216l0,0
			l0,0l0,0H2.769L2.769,7.376z M3.128,7.376L3.128,7.376L3.128,7.376L3.128,7.376z"/>
	</g>
	<g>
		<path fill="#B3B3B3" d="M8.384,7.376h0.217l0,0l0,0l0,0H8.384L8.384,7.376z M8.744,7.376L8.744,7.376L8.744,7.376L8.744,7.376
			L8.744,7.376z M8.744,7.592L8.384,7.52V7.376h0.36V7.52V7.592L8.744,7.592z M8.744,7.52L8.744,7.52v0.072V7.52L8.744,7.52z
			 M8.313,7.592h0.071l0.072-0.144l0.288,0.144L8.672,7.736L8.313,7.592z M8.313,7.592h0.071l0,0H8.313L8.313,7.592z M8.601,7.88
			L8.313,7.736V7.592l0.359,0.144v0.072L8.601,7.88L8.601,7.88z M8.672,7.808L8.601,7.88l0,0L8.672,7.808L8.672,7.808z M8.24,7.736
			L8.24,7.736l0.144-0.072L8.601,7.88L8.456,8.024L8.24,7.736L8.24,7.736z M8.456,8.024L8.456,8.024L8.456,8.024L8.456,8.024
			L8.456,8.024z M8.313,8.168L8.096,7.88L8.24,7.736l0.216,0.288L8.384,8.096L8.313,8.168L8.313,8.168z M8.384,8.096v0.072H8.313
			L8.384,8.096L8.384,8.096z M8.096,7.88L8.096,7.88l0.072-0.072l0.145,0.36H8.168L8.096,7.88z M8.096,7.88L8.096,7.88L8.096,7.88
			L8.096,7.88L8.096,7.88z M8.024,8.312l-0.072-0.36L8.096,7.88L8.24,8.168L8.096,8.24L8.024,8.312L8.024,8.312z M8.096,8.24
			L8.024,8.312l0,0L8.096,8.24L8.096,8.24z M7.88,7.952L7.88,7.952h0.145v0.36H7.88V7.952L7.88,7.952z M7.88,8.312L7.88,8.312
			L7.88,8.312L7.88,8.312L7.88,8.312z M7.88,7.952v0.144l0,0l0,0l0,0V7.952L7.88,7.952z M7.88,8.312L7.88,8.312L7.88,8.312
			L7.88,8.312L7.88,8.312z M7.592,8.24l0.072-0.288H7.88v0.36H7.664L7.592,8.24L7.592,8.24z M7.664,8.312L7.664,8.312L7.592,8.24
			L7.664,8.312L7.664,8.312z M7.592,7.88L7.592,7.88l0.217,0.072L7.592,8.24L7.448,8.168L7.592,7.88z M7.592,7.88L7.592,7.88
			L7.592,7.88L7.592,7.88L7.592,7.88z M7.304,8.096l0.217-0.288L7.592,7.88L7.521,8.168H7.376L7.304,8.096L7.304,8.096z
			 M7.376,8.168L7.376,8.168L7.304,8.096L7.376,8.168L7.376,8.168z M7.448,7.736L7.448,7.736L7.592,7.88L7.304,8.096L7.232,8.024
			L7.448,7.736L7.448,7.736z M7.232,8.024L7.232,8.024L7.232,8.024L7.232,8.024L7.232,8.024z M7.017,7.808l0.359-0.144l0.072,0.072
			L7.232,8.024L7.088,7.88L7.017,7.808L7.017,7.808z M7.088,7.88L7.088,7.88L7.017,7.808L7.088,7.88L7.088,7.88z M7.304,7.592h0.072
			v0.144L7.017,7.808V7.736L7.304,7.592z M7.304,7.592h0.072l0,0H7.304L7.304,7.592z M6.944,7.52l0.288-0.072l0.071,0.144
			L7.017,7.736L6.944,7.592V7.52L6.944,7.52z M6.944,7.592V7.52l0,0V7.592L6.944,7.592z M7.304,7.376L7.304,7.376V7.52H6.944V7.376
			H7.304L7.304,7.376z M6.944,7.376L6.944,7.376L6.944,7.376L6.944,7.376L6.944,7.376z M7.304,7.376H7.088l0,0l0,0l0,0H7.304
			L7.304,7.376z M6.944,7.376L6.944,7.376L6.944,7.376L6.944,7.376L6.944,7.376z M6.944,7.16l0.359,0.072v0.144H6.944V7.232V7.16
			L6.944,7.16z M6.944,7.232V7.16l0,0V7.232L6.944,7.232z M7.376,7.088L7.304,7.16L7.232,7.304L6.944,7.16l0.072-0.144L7.376,7.088z
			 M7.376,7.088V7.16H7.304L7.376,7.088L7.376,7.088z M7.088,6.8l0.288,0.216v0.072L7.017,7.016V6.872L7.088,6.8L7.088,6.8z
			 M7.017,6.872h0.071V6.8L7.017,6.872L7.017,6.872z M7.448,6.944L7.448,6.944L7.376,7.088L7.088,6.8l0.145-0.072L7.448,6.944
			L7.448,6.944z M7.232,6.728L7.232,6.728L7.232,6.728L7.232,6.728L7.232,6.728z M7.376,6.584l0.216,0.288L7.448,6.944L7.232,6.728
			l0.071-0.144H7.376L7.376,6.584z M7.304,6.584h0.072l0,0H7.304L7.304,6.584z M7.592,6.872L7.592,6.872H7.521L7.376,6.584
			l0.145-0.072L7.592,6.872z M7.592,6.872L7.592,6.872L7.592,6.872L7.592,6.872L7.592,6.872z M7.664,6.44L7.809,6.8L7.592,6.872
			l-0.144-0.36L7.592,6.44H7.664L7.664,6.44z M7.592,6.44h0.072l0,0H7.592L7.592,6.44z M7.88,6.8L7.88,6.8H7.664V6.44H7.88V6.8
			L7.88,6.8z M7.88,6.44L7.88,6.44L7.88,6.44L7.88,6.44L7.88,6.44z M7.88,6.8V6.656l0,0l0,0l0,0V6.8L7.88,6.8z M7.88,6.44L7.88,6.44
			L7.88,6.44L7.88,6.44L7.88,6.44z M8.096,6.44L8.024,6.8H7.88V6.44h0.145H8.096L8.096,6.44z M8.024,6.44L8.024,6.44h0.071H8.024
			L8.024,6.44z M8.096,6.872L8.096,6.872L7.952,6.8l0.144-0.36L8.24,6.512L8.096,6.872z M8.096,6.872L8.096,6.872L8.096,6.872
			L8.096,6.872L8.096,6.872z M8.384,6.584L8.168,6.872H8.096l0.072-0.36l0.145,0.072H8.384L8.384,6.584z M8.313,6.584h0.071l0,0
			H8.313L8.313,6.584z M8.24,6.944L8.24,6.944L8.096,6.872l0.288-0.288l0.072,0.144L8.24,6.944L8.24,6.944z M8.456,6.728
			L8.456,6.728L8.456,6.728L8.456,6.728L8.456,6.728z M8.672,6.872L8.384,7.088L8.24,6.944l0.216-0.216L8.601,6.8L8.672,6.872
			L8.672,6.872z M8.601,6.8v0.072h0.071L8.601,6.8L8.601,6.8z M8.384,7.16L8.313,7.088V7.016l0.359-0.144v0.144L8.384,7.16z
			 M8.384,7.16L8.384,7.16L8.313,7.088L8.384,7.16L8.384,7.16z M8.744,7.232L8.456,7.304L8.384,7.16l0.288-0.144L8.744,7.16V7.232
			L8.744,7.232z M8.744,7.16L8.744,7.16v0.072V7.16L8.744,7.16z M8.384,7.376L8.384,7.376V7.232h0.36v0.144H8.384L8.384,7.376z
			 M8.744,7.376L8.744,7.376L8.744,7.376L8.744,7.376L8.744,7.376z M8.384,7.376h0.217l0,0l0,0l0,0H8.384L8.384,7.376z M8.744,7.376
			L8.744,7.376L8.744,7.376L8.744,7.376z"/>
	</g>
</g>
</svg>
