<?xml version="1.0" encoding="utf-8"?>
<!-- Generator: Adobe Illustrator 16.0.2, SVG Export Plug-In . SVG Version: 6.00 Build 0)  -->
<!DOCTYPE svg PUBLIC "-//W3C//DTD SVG 1.1//EN" "http://www.w3.org/Graphics/SVG/1.1/DTD/svg11.dtd">
<svg version="1.1" id="圖層_1" xmlns="http://www.w3.org/2000/svg" xmlns:xlink="http://www.w3.org/1999/xlink" x="0px" y="0px"
	 width="54.133px" height="67.497px" viewBox="0 0 54.133 67.497" enable-background="new 0 0 54.133 67.497" xml:space="preserve">
<polygon fill-rule="evenodd" clip-rule="evenodd" fill="#CCCCCC" points="36.463,33.749 27.103,40.588 17.671,47.429 17.671,33.749 
	17.671,20.068 27.103,26.909 "/>
</svg>
