<?xml version="1.0" encoding="utf-8"?>
<!-- Generator: Adobe Illustrator 16.0.2, SVG Export Plug-In . SVG Version: 6.00 Build 0)  -->
<!DOCTYPE svg PUBLIC "-//W3C//DTD SVG 1.1//EN" "http://www.w3.org/Graphics/SVG/1.1/DTD/svg11.dtd">
<svg version="1.1" id="圖層_1" xmlns="http://www.w3.org/2000/svg" xmlns:xlink="http://www.w3.org/1999/xlink" x="0px" y="0px"
	 width="1256.98px" height="67.497px" viewBox="0 0 1256.98 67.497" enable-background="new 0 0 1256.98 67.497"
	 xml:space="preserve">
<g>
	<path fill="#CCCCCC" d="M625.322,47.645v-2.88c0.216,0,0.432,0.072,0.576,0.072c1.152,0.216,2.088,0,2.736-0.648
		c0.288-0.288,0.432-0.792,0.432-1.512c0.216-2.016,0.216-3.096,0-3.312c-0.144-0.144-0.216-0.216-0.288-0.216h-3.456v-2.664h5.616
		c0.144,0,0.36,0.072,0.576,0.144c0.288,0.216,0.432,0.648,0.432,1.296c0,4.68-0.36,7.416-1.008,8.352
		c-0.432,0.576-1.008,0.936-1.728,1.152C628.202,47.789,626.906,47.861,625.322,47.645L625.322,47.645z M625.322,44.045l2.088-0.72
		c-0.432-1.224-1.008-2.52-1.8-3.96l-0.288,0.072V44.045L625.322,44.045z M625.322,35.765v-2.736
		c0.144-0.072,0.288-0.288,0.288-0.576h-0.288v-2.592h0.288c0-0.288-0.144-0.432-0.288-0.504v-2.664h2.232
		c0.504,0,0.792,0.216,0.792,0.72v7.344c0,0.648-0.36,1.008-1.008,1.008H625.322L625.322,35.765z M625.322,25.901h3.744
		c0.288,0,0.432,0.144,0.36,0.36c-0.216,1.08-0.432,1.944-0.648,2.736c0.864,0.216,1.729,0.432,2.592,0.72
		c0.504-1.728,0.864-3.456,1.08-5.256c0.072-0.72-0.216-1.08-0.936-1.152h-6.192V25.901z M625.322,23.309v2.592h-4.104v-2.592
		H625.322L625.322,23.309z M625.322,26.693v2.664c-0.144-0.072-0.216-0.072-0.36-0.072h-3.744v-2.592H625.322L625.322,26.693z
		 M625.322,29.861v2.592h-4.104v-2.592H625.322L625.322,29.861z M625.322,33.029v2.736h-4.104v-2.664h3.744
		C625.106,33.101,625.178,33.101,625.322,33.029L625.322,33.029z M625.322,36.485v2.664h-4.104v-2.664H625.322L625.322,36.485z
		 M625.322,39.437v4.608l-0.36,0.144c-0.504-1.224-1.08-2.52-1.729-3.816L625.322,39.437L625.322,39.437z M625.322,44.765
		c-0.576-0.144-1.296-0.36-2.088-0.72v3.168c0.792,0.216,1.512,0.36,2.088,0.432V44.765L625.322,44.765z M621.218,44.909
		l2.016-0.504c-0.432-1.512-0.936-3.024-1.44-4.392l-0.576,0.144V44.909z M621.218,23.309v2.592h-3.744l0.936,2.52
		c-0.36,0.072-0.792,0.216-1.152,0.288v-5.4h0.504v-1.368h2.88v1.368H621.218L621.218,23.309z M621.218,26.693h-0.576v2.592h0.576
		V26.693L621.218,26.693z M621.218,29.861v2.592h-0.36v-2.592H621.218L621.218,29.861z M621.218,33.101v2.664h-3.96v-2.664H621.218
		L621.218,33.101z M621.218,36.485v2.664h-3.96v-2.664H621.218L621.218,36.485z M621.218,40.157v4.752l-0.576,0.144
		c-0.288-1.224-0.792-2.664-1.44-4.248L621.218,40.157L621.218,40.157z M617.258,46.421v-5.832l1.08-0.144
		c0.432,2.592,0.647,4.536,0.647,5.904L617.258,46.421L617.258,46.421z M617.258,32.453v-2.592h0.648v2.592H617.258z
		 M617.258,23.309v5.4c-1.296,0.288-2.664,0.432-3.96,0.504c-0.144,0-0.216,0-0.216,0.072c-0.072,0-0.144,0.144-0.144,0.36v0.216
		h4.32v2.592h-4.32c0,0.432,0.216,0.648,0.648,0.648h3.672v2.664h-2.088c-0.145,0.216-0.288,0.432-0.36,0.72h2.448v2.664h-4.176
		c-0.432,0.36-0.864,0.792-1.296,1.152v-3.888c0.144-0.216,0.216-0.432,0.288-0.648h-0.288v-9.216
		c1.656-0.144,3.312-0.36,5.04-0.648h-5.04v-2.592H617.258L617.258,23.309z M617.258,40.589v5.832l-1.008,0.072
		c-0.072-2.088-0.36-3.96-0.792-5.688L617.258,40.589L617.258,40.589z M611.786,46.493c1.152-1.368,2.376-3.24,3.456-5.616
		l-2.52-0.936c-0.288,0.648-0.576,1.224-0.936,1.872V46.493z M611.786,23.309v2.592h-1.8c-0.144-0.072-0.216,0-0.216,0.216v3.528
		h-2.736v-5.832c0.072-0.36,0.288-0.504,0.576-0.504H611.786L611.786,23.309z M611.786,26.549l-0.792,0.144
		c-0.288,0-0.504,0.072-0.576,0.216c-0.072,0.216-0.144,0.432-0.216,0.72v7.128c0,0.648,0.36,1.008,1.008,1.008h0.576V26.549
		L611.786,26.549z M611.786,36.413v3.888c-1.008,0.792-2.088,1.512-3.384,2.232l-1.872-2.304
		C609.194,38.861,610.994,37.564,611.786,36.413L611.786,36.413z M611.786,41.813c-0.936,1.44-2.088,2.736-3.528,3.888l2.376,1.872
		c0.432-0.36,0.792-0.72,1.152-1.08V41.813L611.786,41.813z M592.058,42.965v-2.376h4.896v-1.224h-4.896v-2.304h4.896v-1.224h-4.896
		v-2.304h4.896v-0.936h-4.896v-2.304h4.896V29.5l0,0c0-0.216-0.144-0.288-0.36-0.288h-4.536v-7.272h1.224v1.368h7.344v2.376h-7.344
		v1.08h5.472c0.647,0.072,0.936,0.36,0.936,0.864v12.96h1.584v2.376h-4.752c1.512,0.72,2.952,1.656,4.32,2.736l-1.584,2.16
		c-1.44-0.936-3.096-1.944-5.184-3.024l1.224-1.872H592.058z M592.058,21.941v7.272h-4.392c-0.36,0-0.504,0.072-0.504,0.288v0.792
		h4.896v2.304h-4.896v0.936h4.896v2.304h-4.896v1.224h4.896v2.304h-4.896v1.224h4.896v2.376h-3.456l1.008,1.656
		c-1.512,1.152-3.528,2.232-5.904,3.168l-1.224-2.448c1.944-0.864,3.528-1.656,4.68-2.376h-4.896v-2.088
		c-3.384,2.088-5.4,3.168-5.904,3.384l-1.296-2.376c1.296-0.576,2.304-1.08,3.024-1.512v-9.576h-2.376v-2.736h2.376v-5.904h2.736
		v5.904h2.088v2.736h-2.088v7.92c0.576-0.432,1.152-0.792,1.584-1.08l1.728,1.944c-0.432,0.36-0.864,0.72-1.296,1.008h1.584v-12.96
		c0.072-0.576,0.432-0.864,0.936-0.864h5.112v-1.08h-7.416v-2.376h7.416v-1.368H592.058L592.058,21.941z M561.242,42.029v-2.88
		l4.248-0.648v-16.56h2.736v16.128l1.728-0.36l0.432,2.88l-2.16,0.288v6.336h-2.736v-5.904L561.242,42.029L561.242,42.029z
		 M561.242,35.98c0.36,0.432,0.792,0.936,1.296,1.44l2.088-2.088c-1.224-1.368-2.304-2.448-3.384-3.456V35.98L561.242,35.98z
		 M561.242,28.708c0.576,0.576,1.152,1.296,1.8,2.016l2.088-2.088c-1.368-1.512-2.664-2.808-3.888-3.888V28.708z M561.242,24.749
		v3.96c-1.368-1.368-2.448-2.376-3.456-3.024l1.872-2.16C560.162,23.885,560.666,24.245,561.242,24.749L561.242,24.749z
		 M561.242,31.876v4.104c-1.44-1.44-2.664-2.592-3.672-3.312l1.872-2.16C560.018,30.941,560.594,31.373,561.242,31.876
		L561.242,31.876z M561.242,39.149v2.88l-4.608,0.72v-2.88L561.242,39.149L561.242,39.149z M556.634,38.861v-1.296l0.648,0.72
		L556.634,38.861L556.634,38.861z M556.634,33.965v-2.736h0.288v2.736H556.634L556.634,33.965z M556.634,27.341v-3.24l0.864,0.288
		C557.282,25.253,556.994,26.261,556.634,27.341z M556.634,24.101v3.24c-0.36,1.008-0.792,2.088-1.224,3.24l-0.36-0.072v-6.84
		L556.634,24.101L556.634,24.101z M556.634,31.229v2.736h-1.584v-2.736H556.634L556.634,31.229z M556.634,37.564v1.296l-1.44,1.368
		l-0.144-0.144V35.98L556.634,37.564L556.634,37.564z M556.634,39.869l-0.864,0.144l0.648,2.736h0.216V39.869z M555.05,23.668v6.84
		l-2.16-0.792c1.08-2.448,1.8-4.536,2.088-6.12L555.05,23.668L555.05,23.668z M555.05,31.229h-2.376v-9.288h-2.736v9.288h-2.592
		v2.736h1.8c-0.432,1.152-1.08,2.232-1.8,3.312v4.464c0.72-1.008,1.584-2.304,2.592-4.032v9.432h2.736v-10.08
		c0.936,1.008,1.728,2.016,2.376,3.024V35.98l-1.8-2.016h1.8V31.229L555.05,31.229z M547.346,30.509v-6.912l0.288-0.072
		c0.792,1.728,1.44,3.816,2.016,6.336L547.346,30.509z M547.346,23.597v6.912l-0.216,0.072c-0.648-2.664-1.296-4.752-2.016-6.336
		L547.346,23.597L547.346,23.597z M547.346,31.229v2.736h-2.232v-2.736H547.346L547.346,31.229z M547.346,37.277v4.464
		c-0.216,0.288-0.432,0.576-0.576,0.792l-2.52-1.296C545.474,39.941,546.482,38.645,547.346,37.277L547.346,37.277z M527.042,44.261
		v-2.376h6.624c0.072-0.072,0.144-0.144,0.144-0.144v-1.152h-6.768v-2.304h6.768v-1.08h-6.768v-2.304h6.768v-0.936
		c-0.072-0.072-0.144-0.072-0.144-0.072h-6.624v-2.376h7.848c-2.448-0.936-4.392-2.16-5.688-3.744
		c-0.576,0.792-1.296,1.512-2.16,2.16v-3.672c0.144-0.216,0.36-0.432,0.504-0.648h-0.504v-2.448h10.584l1.512,1.44
		c-1.152,1.44-2.304,2.808-3.456,4.176l-2.232-1.656c0.576-0.576,1.08-1.08,1.584-1.512h-4.32c1.728,2.376,4.608,3.672,8.784,3.888
		l-0.864,2.736c-0.648,0-1.368-0.072-2.016-0.288v11.88c-0.072,0.288-0.216,0.432-0.432,0.432h-2.376
		c1.152,0.072,2.952,0.504,5.472,1.224l-0.792,2.52c-2.016-0.648-4.824-1.224-8.28-1.656l0.504-2.088H527.042L527.042,44.261z
		 M527.042,22.949v-0.144l0.072,0.072L527.042,22.949z M527.042,22.805v0.144c-0.072,0.072-0.144,0.144-0.144,0.216h0.144v2.448
		h-2.016c-1.152,1.152-2.016,1.872-2.52,2.16l-1.944-1.944c1.8-1.152,3.24-2.52,4.176-4.32L527.042,22.805L527.042,22.805z
		 M527.042,26.261c-1.08,1.224-2.304,2.088-3.744,2.592c-0.504,0.072-1.224,0.216-2.088,0.432l1.008,2.232h-4.464v12.744h1.944
		c-0.576,0.144-1.296,0.216-1.944,0.288v2.808c2.16-0.288,4.104-0.72,5.76-1.224l-0.432-1.872h3.96v-2.376h-6.696
		c-0.072,0-0.144-0.072-0.144-0.144v-1.152h6.84v-2.304h-6.84v-1.08h6.84v-2.304h-6.84v-0.936c-0.072-0.072,0-0.072,0.144-0.072
		h6.696v-2.376h-3.168c1.728-0.792,2.808-1.296,3.168-1.584l0,0V26.261L527.042,26.261z M517.754,31.373
		c1.08-0.648,2.16-1.44,3.384-2.52l-1.872-1.944c-0.504,0.432-1.008,0.792-1.512,1.152V31.373L517.754,31.373z M517.754,25.613
		h3.024v-2.664h-3.024V25.613z M517.754,22.949v2.664h-3.096v-2.664H517.754L517.754,22.949z M517.754,28.061v3.312
		c-0.864,0.432-1.656,0.792-2.448,1.008l-1.44-2.448C515.306,29.5,516.53,28.853,517.754,28.061L517.754,28.061z M517.754,31.517
		h-0.072c-0.216,0-0.288,0.072-0.288,0.288v12.024c0,0.216,0.072,0.36,0.288,0.432h0.072V31.517L517.754,31.517z M517.754,44.549
		v2.808c-0.937,0.144-1.8,0.216-2.736,0.288l-0.504-2.592C515.738,44.909,516.746,44.693,517.754,44.549L517.754,44.549z
		 M500.978,43.109v-2.52h4.176v-1.152h-4.176v-2.52h4.176v-0.864c0.072-0.144,0-0.216-0.216-0.216h-3.96v-2.592h6.264
		c0.432,0,0.648,0.216,0.648,0.648v11.736c0,0.792-0.432,1.368-1.296,1.8c-1.08,0.432-2.736,0.432-5.04,0l-0.072-3.024
		c1.512,0.504,2.52,0.72,3.024,0.648c0.432-0.288,0.648-0.576,0.648-0.864v-1.08H500.978L500.978,43.109z M500.978,32.453V21.941
		h1.152v1.152h6.12v2.592h-6.12v0.864h5.328v2.664h-5.328v0.648h6.479v2.592H500.978z M500.978,21.941v10.512h-7.848v-2.592h6.264
		v-0.648h-4.896v-2.664h4.896v-0.864h-5.688v-2.592h5.688v-1.152H500.978L500.978,21.941z M500.978,33.245v2.592h-3.96
		c-0.216-0.072-0.288,0-0.288,0.216v0.864h4.248v2.52h-4.248v1.152h4.248v2.52h-4.248v3.888h-2.736V33.893
		c0-0.432,0.288-0.648,0.72-0.648H500.978L500.978,33.245z M487.874,45.701v-2.736h1.224c0.36,0.072,0.576-0.072,0.576-0.576v-2.232
		c0-0.36-0.144-0.504-0.432-0.504h-1.368v-2.736h3.672c0.576,0.144,0.864,0.432,0.864,0.936v6.984
		c-0.072,0.576-0.36,0.864-0.864,0.864H487.874L487.874,45.701z M487.874,35.837v-2.736h3.96v2.736H487.874L487.874,35.837z
		 M487.874,32.237V29.5h3.96v2.736H487.874L487.874,32.237z M487.874,28.781v-2.736h4.536v2.736H487.874L487.874,28.781z
		 M487.874,25.109v-2.736h3.744v2.736H487.874z M487.874,22.373v2.736h-3.456v-2.736H487.874L487.874,22.373z M487.874,26.045v2.736
		h-4.32v-2.736H487.874L487.874,26.045z M487.874,29.5v2.736h-3.6V29.5H487.874L487.874,29.5z M487.874,33.101v2.736h-3.6v-2.736
		H487.874L487.874,33.101z M487.874,36.917v2.736h-1.296c-0.288,0-0.432,0.144-0.432,0.504v2.808h1.728v2.736h-1.728v1.512h-2.736
		v-9.36c0.072-0.576,0.36-0.936,0.864-0.936H487.874L487.874,36.917z M470.306,40.661v-2.808h3.672v-3.528h-3.672v-2.808h3.672
		v-3.312l0,0c0-0.216-0.144-0.36-0.504-0.36h-3.168v-2.808h5.616c0.648,0,1.008,0.288,1.008,1.008v16.056h-2.952v-1.44H470.306z
		 M470.306,25.037v2.808h-3.672v3.672h3.672v2.808h-3.672v3.528h3.672v2.808h-3.672v6.336h-2.952v-6.336h-3.672v-2.808h3.672v-3.528
		h-3.672v-2.808h3.672v-3.672h-3.672v-2.808h3.672v-3.384h2.952v3.384H470.306z M460.01,25.037v2.808h-3.24
		c-0.288,0-0.432,0.144-0.432,0.36v3.312h3.672v2.808h-3.672v3.528h3.672v2.808h-3.672v1.44h-2.952V26.045
		c0-0.72,0.36-1.008,1.008-1.008H460.01L460.01,25.037z M417.242,43.541v-2.016c1.08-0.072,2.016-0.504,2.808-1.44
		c0.792-0.936,1.152-2.304,1.152-4.248c0-1.872-0.36-3.24-1.152-4.176c-0.72-0.936-1.656-1.368-2.736-1.368h-0.072v-1.944
		c0.144,0,0.216,0,0.36,0c1.224,0,2.304,0.288,3.24,0.936s1.656,1.584,2.16,2.736c0.504,1.152,0.72,2.376,0.72,3.816
		c0,1.44-0.288,2.808-0.792,3.96c-0.576,1.224-1.296,2.16-2.304,2.736c-1.08,0.648-2.088,1.008-3.24,1.008H417.242L417.242,43.541z
		 M436.826,43.181h-2.448V27.485c-0.576,0.576-1.368,1.152-2.304,1.728c-1.008,0.576-1.872,1.008-2.664,1.224v-2.376
		c1.44-0.648,2.592-1.368,3.672-2.304c1.008-0.936,1.728-1.8,2.16-2.664h1.584V43.181L436.826,43.181z M446.042,43.181v-2.808h2.808
		v2.808H446.042z M417.242,28.349v1.944c-1.008,0-1.872,0.504-2.664,1.44c-0.864,1.008-1.224,2.376-1.224,4.248
		c0,1.872,0.36,3.312,1.152,4.176c0.72,0.864,1.656,1.368,2.736,1.368l0,0v2.016c-0.72-0.072-1.44-0.216-2.088-0.576
		c-0.648-0.288-1.152-0.72-1.584-1.296v7.056h-2.448V28.637h2.232v1.944c0.504-0.792,1.152-1.296,1.8-1.656
		C415.73,28.564,416.45,28.349,417.242,28.349L417.242,28.349z M399.89,43.541v-2.016c0.072,0,0.144,0,0.216,0
		c0.864,0,1.656-0.288,2.304-0.72c0.648-0.504,1.152-1.224,1.512-2.304l2.52,0.288c-0.36,1.512-1.152,2.664-2.232,3.528
		c-1.08,0.792-2.448,1.224-4.104,1.224H399.89L399.89,43.541z M399.89,36.557v-2.016h4.032c-0.072-1.224-0.36-2.16-0.864-2.736
		c-0.792-0.936-1.872-1.44-3.096-1.44h-0.072v-2.016h0.072c1.944,0,3.528,0.648,4.752,1.944c1.224,1.368,1.872,3.24,1.872,5.616
		c0,0.144-0.072,0.36-0.072,0.648H399.89z M363.818,36.772l2.52-0.216c0.144,1.008,0.36,1.8,0.792,2.448
		c0.432,0.648,1.152,1.152,2.016,1.584c0.936,0.36,1.944,0.576,3.096,0.576c1.008,0,1.944-0.144,2.664-0.432
		c0.792-0.36,1.368-0.72,1.728-1.296c0.432-0.504,0.576-1.08,0.576-1.656c0-0.648-0.144-1.224-0.504-1.656
		c-0.36-0.504-1.008-0.864-1.8-1.224c-0.576-0.216-1.728-0.504-3.6-0.936c-1.8-0.504-3.096-0.864-3.888-1.296
		c-0.936-0.504-1.656-1.08-2.088-1.872c-0.504-0.72-0.72-1.584-0.72-2.448c0-1.008,0.288-2.016,0.864-2.88
		c0.576-0.864,1.368-1.512,2.52-2.016c1.08-0.432,2.304-0.648,3.672-0.648c1.44,0,2.808,0.216,3.888,0.72
		c1.152,0.504,2.016,1.152,2.664,2.088c0.576,0.936,0.936,2.016,0.936,3.168l-2.52,0.216c-0.144-1.296-0.576-2.232-1.368-2.88
		s-1.944-1.008-3.528-1.008s-2.736,0.36-3.456,0.936c-0.792,0.576-1.152,1.296-1.152,2.088c0,0.72,0.288,1.296,0.792,1.8
		c0.504,0.432,1.872,0.936,4.032,1.44c2.16,0.504,3.6,0.864,4.392,1.224c1.224,0.576,2.016,1.224,2.592,2.088
		c0.576,0.792,0.864,1.8,0.864,2.808c0,1.08-0.288,2.088-0.936,3.024c-0.576,0.936-1.512,1.728-2.664,2.232
		c-1.08,0.504-2.376,0.792-3.816,0.792c-1.8,0-3.312-0.288-4.536-0.792c-1.224-0.576-2.232-1.368-2.952-2.376
		C364.25,39.292,363.89,38.069,363.818,36.772L363.818,36.772z M399.89,28.349v2.016c-1.08,0-2.016,0.36-2.736,1.152
		c-0.792,0.72-1.224,1.728-1.296,3.024h4.032v2.016h-4.176c0.072,1.584,0.504,2.808,1.368,3.672c0.72,0.792,1.656,1.224,2.808,1.296
		v2.016c-2.016-0.072-3.672-0.72-4.824-2.016c-1.296-1.296-1.872-3.096-1.872-5.472c0-2.448,0.576-4.32,1.872-5.688
		C396.29,28.997,397.946,28.349,399.89,28.349L399.89,28.349z M390.026,40.949l0.36,2.232c-0.72,0.144-1.296,0.216-1.872,0.216
		c-0.864,0-1.584-0.144-2.088-0.432s-0.792-0.648-1.008-1.152c-0.216-0.432-0.288-1.368-0.288-2.88v-8.352h-1.8v-1.944h1.8v-3.6
		l2.448-1.44v5.04h2.448v1.944h-2.448v8.496c0,0.72,0,1.152,0.072,1.368c0.144,0.216,0.288,0.36,0.432,0.432
		c0.216,0.144,0.504,0.216,0.864,0.216C389.234,41.093,389.594,41.021,390.026,40.949z"/>
	<path fill="#3F0D81" d="M883.946,42.029v-2.88l4.248-0.648v-16.56h2.736v16.128l1.8-0.36l0.432,2.88l-2.232,0.288v6.336h-2.736
		v-5.904L883.946,42.029L883.946,42.029z M883.946,35.98c0.432,0.432,0.864,0.936,1.296,1.44l2.088-2.088
		c-1.152-1.368-2.304-2.448-3.384-3.456V35.98L883.946,35.98z M883.946,28.708c0.576,0.576,1.224,1.296,1.872,2.016l2.088-2.088
		c-1.368-1.512-2.736-2.808-3.96-3.888V28.708z M883.946,24.749v3.96c-1.296-1.368-2.448-2.376-3.384-3.024l1.872-2.16
		C882.938,23.885,883.442,24.245,883.946,24.749L883.946,24.749z M883.946,31.876v4.104c-1.368-1.44-2.592-2.592-3.6-3.312
		l1.872-2.16C882.794,30.941,883.37,31.373,883.946,31.876L883.946,31.876z M883.946,39.149v2.88l-4.608,0.72v-2.88L883.946,39.149
		L883.946,39.149z M879.338,38.861v-1.296l0.647,0.72L879.338,38.861L879.338,38.861z M879.338,33.965v-2.736h0.36v2.736H879.338
		L879.338,33.965z M879.338,27.341v-3.24l0.864,0.288C879.986,25.253,879.698,26.261,879.338,27.341z M879.338,24.101v3.24
		c-0.288,1.008-0.72,2.088-1.152,3.24l-0.36-0.072v-6.84L879.338,24.101L879.338,24.101z M879.338,31.229v2.736h-1.512v-2.736
		H879.338L879.338,31.229z M879.338,37.564v1.296l-1.368,1.368l-0.144-0.144V35.98L879.338,37.564L879.338,37.564z M879.338,39.869
		l-0.864,0.144l0.648,2.736h0.216V39.869z M877.826,23.668v6.84l-2.16-0.792c1.08-2.448,1.728-4.536,2.088-6.12L877.826,23.668
		L877.826,23.668z M877.826,31.229h-2.376v-9.288h-2.736v9.288h-2.592v2.736h1.8c-0.504,1.152-1.08,2.232-1.8,3.312v4.392
		c0.648-0.936,1.512-2.232,2.592-3.96v9.432h2.736v-10.08c0.864,1.008,1.656,2.016,2.376,3.024V35.98l-1.872-2.016h1.872V31.229
		L877.826,31.229z M870.122,30.509v-6.912l0.288-0.072c0.792,1.728,1.44,3.816,1.944,6.336L870.122,30.509z M870.122,23.597v6.912
		l-0.288,0.072c-0.576-2.664-1.224-4.752-1.944-6.336L870.122,23.597L870.122,23.597z M870.122,31.229v2.736h-2.232v-2.736H870.122
		L870.122,31.229z M870.122,37.277v4.392c-0.216,0.36-0.432,0.648-0.576,0.864l-2.521-1.296
		C868.178,39.941,869.258,38.645,870.122,37.277L870.122,37.277z M849.746,44.261v-2.376h6.696c0.072-0.072,0.072-0.144,0.072-0.144
		v-1.152h-6.768v-2.304h6.768v-1.08h-6.768v-2.304h6.768v-0.936c-0.072-0.072-0.072-0.072-0.072-0.072h-6.696v-2.376h7.92
		c-2.52-0.936-4.392-2.16-5.688-3.744c-0.576,0.792-1.368,1.512-2.232,2.16v-3.672c0.216-0.216,0.36-0.432,0.576-0.648h-0.576
		v-2.448h10.656l1.512,1.44c-1.152,1.44-2.376,2.808-3.528,4.176l-2.16-1.656c0.576-0.576,1.08-1.08,1.512-1.512h-4.248
		c1.656,2.376,4.608,3.672,8.712,3.888l-0.864,2.736c-0.648,0-1.296-0.072-1.944-0.288v11.88c-0.072,0.288-0.216,0.432-0.432,0.432
		h-2.448c1.224,0.072,3.024,0.504,5.472,1.224l-0.72,2.52c-2.088-0.648-4.824-1.224-8.352-1.656l0.576-2.088H849.746L849.746,44.261
		z M849.746,22.949v-0.144l0.144,0.072C849.818,22.876,849.818,22.949,849.746,22.949z M849.746,22.805v0.144
		c-0.072,0.072-0.072,0.144-0.072,0.216h0.072v2.448h-1.944c-1.152,1.152-2.016,1.872-2.52,2.16l-1.944-1.944
		c1.8-1.152,3.168-2.52,4.104-4.32L849.746,22.805L849.746,22.805z M849.746,26.261c-1.008,1.224-2.304,2.088-3.672,2.592
		c-0.576,0.072-1.224,0.216-2.088,0.432l0.937,2.232h-4.464v12.744h1.944c-0.576,0.144-1.224,0.216-1.944,0.288v2.808
		c2.232-0.288,4.104-0.72,5.832-1.224l-0.432-1.872h3.888v-2.376h-6.624c-0.072,0-0.144-0.072-0.144-0.144v-1.152h6.768v-2.304
		h-6.768v-1.08h6.768v-2.304h-6.768v-0.936c-0.072-0.072,0-0.072,0.144-0.072h6.624v-2.376h-3.168
		c1.728-0.792,2.808-1.296,3.168-1.584l0,0V26.261L849.746,26.261z M840.458,31.373c1.08-0.648,2.232-1.44,3.384-2.52l-1.872-1.944
		c-0.432,0.432-0.936,0.792-1.512,1.152V31.373L840.458,31.373z M840.458,25.613h3.096v-2.664h-3.096V25.613z M840.458,22.949v2.664
		h-3.024v-2.664H840.458L840.458,22.949z M840.458,28.061v3.312c-0.792,0.432-1.584,0.792-2.376,1.008l-1.44-2.448
		C838.01,29.5,839.306,28.853,840.458,28.061L840.458,28.061z M840.458,31.517L840.458,31.517c-0.216,0-0.288,0.072-0.288,0.288
		v12.024c0,0.216,0.072,0.36,0.288,0.432l0,0V31.517L840.458,31.517z M840.458,44.549v2.808c-0.864,0.144-1.8,0.216-2.736,0.288
		l-0.432-2.592C838.442,44.909,839.522,44.693,840.458,44.549L840.458,44.549z M825.122,47.5v-2.808
		c0-0.072,0.072-0.072,0.072-0.072c0.145-0.144,0.216-0.36,0.216-0.576v-1.656h-0.288v-2.376h0.288v-1.44l-0.288,0.072v-2.448
		l2.16-0.144l-0.432-0.648l0.072-0.072h-1.8v-2.304h2.592c0.072,0,0.144-0.072,0.144-0.144v-0.864h-2.736v-2.16h2.736v-0.864
		c0-0.072-0.072-0.144-0.144-0.144h-2.592v-2.304h5.112c0.216,0,0.288,0.144,0.288,0.432v7.992c0,0.216-0.072,0.36-0.288,0.36
		h-0.216l2.088,2.736l-2.088,1.512l-0.864-1.08h-1.008v1.512h3.168v2.376h-3.168v2.736c0,0.576-0.072,0.936-0.288,1.152
		c-0.36,0.36-0.72,0.648-1.152,0.864S825.698,47.5,825.122,47.5L825.122,47.5z M825.122,25.613v-2.52h5.4v2.52H825.122z
		 M825.122,23.093v2.52h-2.232v0.936h2.232v2.304h-2.232v1.008h2.232v2.16h-2.232v1.008h2.232v2.304h-2.232v0.936l2.232-0.072v2.448
		l-7.344,0.36v-2.52l2.376-0.072v-1.08h-2.376v-2.304h2.376v-1.008h-2.376v-2.16h2.376v-1.008h-2.376v-2.304h2.376v-0.936h-2.376
		v-2.52h2.376v-1.152h2.736v1.152H825.122L825.122,23.093z M825.122,40.013v2.376h-6.912c1.008,1.008,1.872,1.944,2.52,2.88
		l-2.232,1.512c-0.216-0.288-0.432-0.576-0.72-0.864v-3.384l0.216-0.144h-0.216v-2.376H825.122L825.122,40.013z M825.122,44.693
		c-0.576,0.216-1.44,0.144-2.736-0.288v2.808c1.008,0.288,1.872,0.36,2.736,0.288V44.693z M817.778,23.093v2.52h-4.752v-2.52
		H817.778L817.778,23.093z M817.778,26.549v2.304h-2.231c-0.072,0-0.072,0.072-0.072,0.144v0.864h2.304v2.16h-2.304v0.864
		c0,0.072,0,0.144,0.072,0.144h2.231v2.304h-4.607c-0.288,0-0.432-0.144-0.432-0.36V26.98c0-0.288,0.144-0.432,0.432-0.432H817.778
		L817.778,26.549z M817.778,36.485v2.52l-5.184,0.216l-0.216-2.16v-0.432L817.778,36.485L817.778,36.485z M817.778,40.013v2.376
		h-5.399v-2.376H817.778L817.778,40.013z M817.778,42.533v3.384c-0.504-0.648-1.08-1.296-1.8-1.944L817.778,42.533L817.778,42.533z
		 M812.378,23.237v-0.864h0.144C812.45,22.661,812.378,22.949,812.378,23.237z M812.378,22.373v0.864
		c-0.432,1.944-0.864,3.672-1.296,5.184v18.792h-2.736v-12.96c-0.216,0.216-0.36,0.432-0.432,0.72l-2.736-1.08
		c2.52-3.744,4.104-7.704,4.608-11.952L812.378,22.373L812.378,22.373z M812.378,36.629h-0.072l0.072,0.432V36.629L812.378,36.629z
		 M812.378,40.013h-0.216v2.376h0.216V40.013L812.378,40.013z M740.018,43.541v-2.016c1.08-0.072,2.016-0.504,2.736-1.44
		c0.792-0.936,1.224-2.304,1.224-4.248c0-1.872-0.432-3.24-1.152-4.176c-0.792-0.936-1.656-1.368-2.736-1.368h-0.072v-1.944
		c0.072,0,0.216,0,0.288,0c1.224,0,2.376,0.288,3.312,0.936s1.656,1.584,2.088,2.736c0.504,1.152,0.792,2.376,0.792,3.816
		c0,1.44-0.288,2.808-0.864,3.96c-0.504,1.224-1.296,2.16-2.304,2.736c-1.008,0.648-2.088,1.008-3.168,1.008H740.018L740.018,43.541
		z M763.274,40.805v2.376h-13.248c-0.072-0.576,0.072-1.152,0.288-1.728c0.288-0.864,0.864-1.8,1.584-2.664
		c0.72-0.864,1.8-1.872,3.24-3.024c2.16-1.8,3.6-3.168,4.392-4.248c0.792-1.008,1.152-2.016,1.152-2.952
		c0-0.936-0.36-1.8-1.008-2.448c-0.72-0.648-1.656-1.008-2.736-1.008c-1.224,0-2.16,0.36-2.88,1.08
		c-0.72,0.72-1.08,1.656-1.08,2.952l-2.52-0.288c0.144-1.872,0.792-3.312,1.944-4.32c1.152-1.008,2.664-1.44,4.536-1.44
		c1.944,0,3.456,0.504,4.608,1.584c1.08,1.08,1.656,2.376,1.656,3.96c0,0.792-0.144,1.584-0.504,2.376
		c-0.288,0.72-0.864,1.584-1.584,2.448c-0.792,0.864-2.088,2.016-3.816,3.528c-1.512,1.224-2.448,2.088-2.88,2.52
		c-0.36,0.432-0.72,0.864-1.008,1.296H763.274L763.274,40.805z M768.818,43.181v-2.808h2.808v2.808H768.818L768.818,43.181z
		 M783.65,43.541h-8.208v2.952h24.984v-2.952h-13.608V31.373h12.096v-2.952h-12.096v-6.264h-3.168V43.541z M740.018,28.349v1.944
		c-1.008,0-1.944,0.504-2.736,1.44c-0.792,1.008-1.224,2.376-1.224,4.248c0,1.872,0.432,3.312,1.152,4.176
		c0.792,0.864,1.656,1.368,2.736,1.368h0.072v2.016c-0.792-0.072-1.44-0.216-2.088-0.576c-0.648-0.288-1.152-0.72-1.584-1.296v7.056
		h-2.448V28.637h2.232v1.944c0.504-0.792,1.08-1.296,1.8-1.656C738.506,28.564,739.226,28.349,740.018,28.349L740.018,28.349z
		 M722.666,43.541v-2.016c0.072,0,0.144,0,0.144,0c0.936,0,1.728-0.288,2.376-0.72c0.576-0.504,1.08-1.224,1.512-2.304l2.52,0.288
		c-0.432,1.512-1.152,2.664-2.232,3.528c-1.08,0.792-2.448,1.224-4.176,1.224H722.666L722.666,43.541z M722.666,36.557v-2.016h4.032
		c-0.072-1.224-0.432-2.16-0.936-2.736c-0.792-0.936-1.8-1.44-3.024-1.44h-0.072v-2.016l0,0c1.944,0,3.528,0.648,4.752,1.944
		c1.296,1.368,1.872,3.24,1.872,5.616c0,0.144,0,0.36,0,0.648H722.666z M686.594,36.772l2.52-0.216
		c0.072,1.008,0.36,1.8,0.792,2.448c0.432,0.648,1.08,1.152,2.016,1.584c0.936,0.36,1.944,0.576,3.096,0.576
		c1.008,0,1.872-0.144,2.664-0.432c0.792-0.36,1.368-0.72,1.728-1.296c0.36-0.504,0.576-1.08,0.576-1.656
		c0-0.648-0.216-1.224-0.576-1.656c-0.36-0.504-0.936-0.864-1.8-1.224c-0.504-0.216-1.728-0.504-3.528-0.936
		c-1.872-0.504-3.168-0.864-3.888-1.296c-0.936-0.504-1.656-1.08-2.16-1.872c-0.432-0.72-0.72-1.584-0.72-2.448
		c0-1.008,0.288-2.016,0.864-2.88c0.576-0.864,1.44-1.512,2.52-2.016c1.152-0.432,2.376-0.648,3.672-0.648
		c1.512,0,2.808,0.216,3.96,0.72c1.152,0.504,2.016,1.152,2.592,2.088c0.647,0.936,0.936,2.016,1.008,3.168l-2.52,0.216
		c-0.144-1.296-0.648-2.232-1.44-2.88s-1.944-1.008-3.456-1.008c-1.584,0-2.808,0.36-3.528,0.936c-0.72,0.576-1.08,1.296-1.08,2.088
		c0,0.72,0.288,1.296,0.792,1.8c0.504,0.432,1.8,0.936,3.96,1.44c2.16,0.504,3.672,0.864,4.464,1.224
		c1.152,0.576,2.016,1.224,2.592,2.088c0.576,0.792,0.792,1.8,0.792,2.808c0,1.08-0.288,2.088-0.864,3.024
		c-0.648,0.936-1.512,1.728-2.664,2.232c-1.152,0.504-2.448,0.792-3.888,0.792c-1.8,0-3.313-0.288-4.536-0.792
		c-1.224-0.576-2.16-1.368-2.88-2.376C686.954,39.292,686.594,38.069,686.594,36.772L686.594,36.772z M722.666,28.349v2.016
		c-1.152,0-2.016,0.36-2.808,1.152c-0.792,0.72-1.152,1.728-1.296,3.024h4.104v2.016h-4.176c0.072,1.584,0.504,2.808,1.296,3.672
		c0.792,0.792,1.728,1.224,2.88,1.296v2.016c-2.088-0.072-3.672-0.72-4.896-2.016c-1.224-1.296-1.872-3.096-1.872-5.472
		c0-2.448,0.648-4.32,1.872-5.688C719.066,28.997,720.65,28.349,722.666,28.349L722.666,28.349z M712.802,40.949l0.288,2.232
		c-0.648,0.144-1.296,0.216-1.8,0.216c-0.936,0-1.584-0.144-2.088-0.432s-0.864-0.648-1.08-1.152
		c-0.144-0.432-0.288-1.368-0.288-2.88v-8.352h-1.8v-1.944h1.8v-3.6l2.448-1.44v5.04h2.52v1.944h-2.52v8.496
		c0,0.72,0.072,1.152,0.144,1.368c0.072,0.216,0.216,0.36,0.432,0.432c0.216,0.144,0.432,0.216,0.864,0.216
		C711.938,41.093,712.298,41.021,712.802,40.949z"/>
	<polygon fill-rule="evenodd" clip-rule="evenodd" fill="#3F0D81" points="672.41,32.453 663.05,39.292 653.618,46.133 
		653.618,32.453 653.618,18.772 663.05,25.613 	"/>
</g>
</svg>
