<?xml version="1.0" encoding="utf-8"?>
<!-- Generator: Adobe Illustrator 24.0.0, SVG Export Plug-In . SVG Version: 6.00 Build 0)  -->
<svg version="1.1" id="圖層_1" xmlns="http://www.w3.org/2000/svg" xmlns:xlink="http://www.w3.org/1999/xlink" x="0px" y="0px"
	 viewBox="0 0 15.12 15.12" style="enable-background:new 0 0 15.12 15.12;" xml:space="preserve">
<style type="text/css">
	.st0{fill:#9FA0A0;}
</style>
<g>
	<path class="st0" d="M12.89,2.23C11.52,0.86,9.65,0,7.56,0S3.6,0.86,2.23,2.23C0.86,3.6,0,5.47,0,7.56c0,2.09,0.86,4.03,2.23,5.4
		c1.37,1.37,3.24,2.16,5.33,2.16c4.18,0,7.56-3.38,7.56-7.56C15.12,5.47,14.26,3.6,12.89,2.23z M7.56,14.4
		c-1.87,0-3.6-0.79-4.82-2.02S0.72,9.43,0.72,7.56c0-1.87,0.79-3.53,2.02-4.75c1.22-1.3,2.95-2.02,4.82-2.02s3.6,0.72,4.82,2.02
		c1.22,1.22,1.94,2.88,1.94,4.75C14.33,11.3,11.3,14.4,7.56,14.4z"/>
	<polygon class="st0" points="10.01,12.31 10.01,12.24 9.94,12.17 9.86,12.1 9.79,12.1 9.79,12.02 9.72,12.02 9.65,11.95 
		9.58,11.95 9.5,11.95 9.43,11.88 9.29,11.88 9.22,11.88 9.22,11.81 9.22,11.66 9.29,11.38 9.29,11.09 9.29,10.73 9.36,10.37 
		9.43,10.15 9.43,10.01 9.5,9.79 9.5,9.58 9.58,9.5 9.58,9.36 9.65,9.29 9.72,9.14 9.86,8.86 10.01,8.64 9.29,7.92 8.28,6.91 
		8.14,6.91 7.99,6.98 7.78,7.06 7.56,7.06 7.34,7.13 7.13,7.13 6.62,7.2 6.26,7.2 5.9,7.2 5.47,7.27 5.4,7.27 5.33,7.27 5.18,7.27 
		5.11,7.27 4.97,7.27 4.9,7.34 4.75,7.34 4.68,7.42 4.32,7.06 4.03,6.7 3.89,6.55 3.82,6.55 3.82,6.48 3.74,6.48 3.67,6.48 
		3.6,6.48 3.53,6.48 3.53,6.55 3.46,6.55 3.46,6.62 3.38,6.7 3.38,6.77 3.46,6.77 3.46,6.84 3.53,7.06 3.82,7.49 4.03,7.92 
		4.1,7.99 4.03,8.21 4.03,8.35 3.96,8.5 3.96,8.57 3.89,8.71 3.89,8.86 3.89,8.93 3.89,9.07 3.96,9.14 3.96,9.29 4.03,9.36 
		4.03,9.5 4.1,9.58 4.18,9.79 4.25,9.94 4.32,10.08 4.32,10.15 4.39,10.22 4.39,10.3 4.39,10.37 4.39,10.44 4.39,10.51 4.39,10.58 
		4.32,10.73 4.32,10.87 4.25,11.02 4.25,11.16 4.18,11.3 4.18,11.45 4.1,11.52 4.1,11.59 4.1,11.66 4.18,11.74 4.18,11.81 
		4.25,11.95 4.32,12.1 4.39,12.17 4.46,12.31 4.54,12.38 4.61,12.46 4.75,12.53 4.75,12.6 4.82,12.67 4.9,12.67 4.97,12.74 
		5.04,12.74 5.47,12.74 5.62,12.74 5.83,12.74 5.9,12.74 5.9,12.67 5.98,12.67 6.05,12.67 6.12,12.6 6.19,12.53 6.19,12.46 
		6.19,12.31 6.19,12.24 6.12,12.24 6.12,12.17 6.12,12.1 6.05,12.1 6.05,12.02 5.98,12.02 5.9,12.02 5.83,11.95 5.76,11.95 
		5.69,11.95 5.62,11.95 5.47,11.95 5.47,11.88 5.4,11.81 5.4,11.74 5.33,11.66 5.33,11.59 5.33,11.52 5.33,11.45 5.26,11.45 
		5.33,11.38 5.33,11.3 5.4,11.09 5.54,10.94 5.62,10.66 5.76,10.44 5.76,10.3 5.83,10.15 5.83,10.01 5.9,9.94 5.9,9.79 5.9,9.65 
		5.98,9.65 6.12,9.58 6.26,9.58 6.41,9.58 6.55,9.58 6.7,9.58 6.84,9.58 7.13,9.58 7.42,9.58 7.63,9.65 7.78,9.65 7.92,9.65 
		7.99,9.58 8.14,9.58 8.14,9.65 8.21,9.65 8.21,9.72 8.21,9.86 8.21,10.01 8.28,10.15 8.28,10.58 8.35,11.38 8.35,11.74 8.42,11.88 
		8.42,12.02 8.42,12.1 8.42,12.24 8.5,12.31 8.5,12.38 8.57,12.46 8.57,12.53 8.64,12.6 8.71,12.6 8.71,12.67 8.78,12.67 
		8.86,12.67 8.93,12.74 9,12.74 9.29,12.74 9.43,12.74 9.65,12.74 9.72,12.74 9.79,12.67 9.86,12.67 9.94,12.67 9.94,12.6 
		10.01,12.6 10.01,12.53 10.01,12.46 10.08,12.46 10.01,12.38 	"/>
	<polygon class="st0" points="12.53,7.27 12.24,6.98 11.74,6.48 11.16,5.9 10.94,5.62 10.87,5.54 10.8,5.47 10.8,5.4 10.8,5.33 
		10.8,5.26 10.8,5.18 10.8,5.04 10.8,4.97 10.8,4.75 10.8,4.68 10.8,4.61 10.8,4.54 10.8,4.46 10.73,4.46 10.73,4.39 10.66,4.39 
		10.58,4.39 10.58,4.46 10.51,4.46 10.44,4.54 10.37,4.61 10.37,4.68 10.3,4.75 10.22,4.97 10.01,5.18 9.94,5.33 9.79,5.47 
		9.72,5.69 9.58,5.83 9.43,5.98 9.29,6.05 9.29,6.12 9.07,6.26 8.93,6.48 8.78,6.62 8.64,6.7 8.57,6.7 9.29,7.49 10.15,8.35 
		10.3,8.14 10.37,7.92 10.44,7.78 10.44,7.7 10.51,7.63 10.51,7.56 10.58,7.56 10.66,7.63 10.87,7.78 11.02,7.92 11.16,7.99 
		11.23,7.99 11.3,8.06 11.38,8.06 11.52,8.06 11.59,8.14 11.66,8.14 11.74,8.06 11.88,8.06 11.95,8.06 12.02,7.99 12.1,7.92 
		12.24,7.92 12.31,7.85 12.38,7.78 12.38,7.7 12.46,7.7 12.53,7.63 12.6,7.56 12.6,7.49 12.6,7.42 12.6,7.34 	"/>
	<rect x="6.04" y="1.74" transform="matrix(0.7071 -0.7071 0.7071 0.7071 -1.3939 5.7069)" class="st0" width="0.31" height="5.6"/>
</g>
</svg>
