<?xml version="1.0" encoding="utf-8"?>
<!-- Generator: Adobe Illustrator 16.0.0, SVG Export Plug-In . SVG Version: 6.00 Build 0)  -->
<!DOCTYPE svg PUBLIC "-//W3C//DTD SVG 1.1//EN" "http://www.w3.org/Graphics/SVG/1.1/DTD/svg11.dtd">
<svg version="1.1" id="圖層_1" xmlns="http://www.w3.org/2000/svg" xmlns:xlink="http://www.w3.org/1999/xlink" x="0px" y="0px"
	 width="50px" height="50px" viewBox="0 0 50 50" enable-background="new 0 0 50 50" xml:space="preserve">
<g>
	<path fill="#777777" d="M39.977,26.581h-0.69H37.43v-0.929h2.547l0,0l0,0h0.233l0.231-0.231l0,0v-0.229v-0.233v-1.625l0,0V22.87
		l-0.231-0.231l-0.233-0.233l0,0h-0.229l0,0l0,0l0,0l-0.93,0.464l-0.693,0.232l-0.695,0.463v-1.39l1.157-0.464v-3.015l0,0v-0.232
		v-0.231h-0.233l-0.229-0.231H37.43v-1.16h0.695l0,0l0.462,0.232l0.698,0.464l0.463,0.464v0.695v2.784l0,0h0.462h0.231l0.697,0.462
		l0.23,0.463l0.23,0.464v0.464v1.625l0,0l-0.229,0.695l-0.23,0.462l0,0l0.23,0.466l0.229,0.463v3.479l0,0v0.463l-0.229,0.232
		l-0.23,0.465l0,0l-0.465,0.233l-0.466,0.229v3.017l0,0l0,0l-0.231,0.231l-0.229,0.229l0,0h-1.623v1.623l0,0v0.466l-0.233,0.229l0,0
		l-0.461,0.232l0,0v-3.711h0.229h1.396v-2.318H37.43v-1.16h2.317h0.229l0,0h0.231h0.231l0,0v-0.229v-0.232v-3.479l0,0l0,0v-0.229
		l0,0h-0.231L39.977,26.581L39.977,26.581z M37.43,26.581H36.73v-0.929h0.696v0.929H37.43z M36.73,30.984h0.696v1.16H36.73V30.984
		L36.73,30.984z M37.43,16.841v1.16H36.73v-1.16H37.43L37.43,16.841z M37.43,22.175v1.39l-0.466,0.232l0,0L36.73,24.03v-1.392
		l0.465-0.463H37.43L37.43,22.175z M37.43,34.464v3.711l-0.234,0.231H36.73v-1.159h0.465l0,0l0,0l0,0l0,0v-1.623H36.73v-1.16H37.43z
		 M36.73,26.581H35.34h-1.623h-3.479v-0.929h3.479l0,0l0,0l0,0h0.467l0.461-0.231l0,0l0.229-0.462v-0.466v-6.956l0,0v-0.464
		l-0.229-0.464l-0.461-0.231h-0.467h-3.479v-1.161h3.479l0,0l0.928,0.232l0.463,0.231l0.466,0.697l0.233,0.462h0.924v1.16h-0.694
		l0,0l0,0v5.102l0,0l0,0l0,0l0.463-0.464h0.231v1.392l-0.463,0.231l-0.231,0.464l-0.229,0.466v0.462h0.924V26.581L36.73,26.581z
		 M30.238,30.984h6.492v1.16h-6.492V30.984L30.238,30.984z M36.73,34.464v1.16h-0.463l0,0l0,0v1.623l0,0l0,0l0,0l0,0h0.463v1.159
		h-0.463l0,0l-0.461-0.231l-0.468-0.233l0,0v-0.229l-0.231-0.466v-1.623h-4.869v-1.16h5.334H36.73z M30.238,26.581H26.76h-1.624
		V16.146v-0.233l0,0l0.463-0.231l0.229-0.231h0.463l0.466-0.232h3.479v1.161h-3.479l0,0h-0.466l-0.463,0.231l0,0L25.6,17.075v0.464
		v6.956l0,0v0.466l0.229,0.462l0,0l0.463,0.231h0.466h3.479v0.927H30.238z M25.137,30.984h5.101v1.16h-5.101V30.984L25.137,30.984z
		 M30.238,34.464v1.16h-5.101v-1.16H30.238z M25.137,26.581h-1.856h-3.478v-0.929h3.478l0,0l0,0l0,0h0.464l0.464-0.231l0,0
		l0.233-0.462l0.231-0.466v-6.956l0,0l-0.231-0.464l-0.233-0.464l0,0l-0.464-0.231h-0.464h-3.478v-1.161h3.478l0,0l0.464,0.232
		h0.464l0.464,0.231l0.231,0.231l0,0l0.233,0.233V26.581L25.137,26.581z M19.803,30.984h5.334v1.16h-5.334V30.984L19.803,30.984z
		 M25.137,34.464v1.16h-5.334v-1.16H25.137z M19.803,26.581h-3.477h-1.392h-1.392v-0.929h0.697l0,0v-0.461l-0.233-0.466
		l-0.231-0.464l-0.233-0.231v-1.392l0.464,0.464l0,0l0,0V18l0,0l0,0h-0.464v-1.16h0.697l0,0l0.231-0.462l0.464-0.466l0,0l0.23-0.231
		l0.464-0.231h0.233l0.464-0.232h3.477v1.161h-3.477l0,0h-0.464l-0.233,0.231l0,0l-0.231,0.464l-0.233,0.464v6.956l0,0l0.233,0.466
		l0.231,0.462l0,0l0.233,0.232h0.464h3.477v0.927H19.803z M13.542,30.984h6.261v1.16h-6.261V30.984L13.542,30.984z M19.803,34.464
		v1.16h-4.869v1.623l0,0v0.466l-0.233,0.229l0,0l-0.462,0.233l-0.464,0.231h-0.233v-1.159h0.233l0,0l0,0l0,0h0.231v-1.623h-0.464
		v-1.16h0.928H19.803z M13.542,26.581h-0.928v-0.929h0.928V26.581L13.542,26.581z M12.614,30.984h0.928v1.16h-0.928V30.984
		L12.614,30.984z M13.542,16.841v1.16h-0.928v-1.16H13.542L13.542,16.841z M13.542,22.639v1.392l-0.231-0.232l0,0l0,0l0,0
		l-0.464-0.232l-0.233-0.231v-1.159l0,0l0.697,0.463L13.542,22.639L13.542,22.639z M13.542,34.464v1.16h-0.464l0,0l0,0v1.623l0,0
		l0,0l0,0l0,0h0.464v1.159h-0.464l0,0l-0.463-0.231l0,0v-3.711H13.542z M12.614,26.581h-2.087h-0.231l0,0l-0.232,0.231H9.6l0,0
		v0.229l0,0v3.479l0,0v0.231v0.229l0,0h0.464h0.232h2.318v1.16h-2.087l0,0v2.318h2.087l0,0v3.711l-0.464-0.232l0,0l-0.231-0.229
		v-0.466v-1.623h-1.855l0,0H9.832L9.6,35.395v-0.231l0,0v-3.245l0,0l-0.462-0.232l0,0l-0.466-0.465v-0.232L8.44,30.521v-3.479l0,0
		l0.231-0.463l0.233-0.468l0,0L8.671,25.65L8.44,24.958v-1.625l0,0l0.231-0.695l0.233-0.463l0.464-0.464l0.463-0.231l0,0h0.231
		v-2.784l0,0v-0.695l0.464-0.464l0.464-0.464l0.697-0.232h0.926v1.16h-0.926l0,0l-0.233,0.231h-0.232l-0.231,0.231v0.232v3.015l0,0
		l0.928,0.231l0.695,0.233v1.159l-0.695-0.231l-0.696-0.232l-0.927-0.464l0,0l-0.232,0.233L9.832,22.87H9.6v0.464v1.625l0,0v0.233
		l0.232,0.229l0,0l0.231,0.231h0.232l0,0h2.318L12.614,26.581L12.614,26.581z"/>
	<path fill="#777777" d="M25.137,1.074c6.492,0,12.753,2.782,17.161,7.188c4.406,4.406,7.188,10.435,7.188,17.16
		c0,13.452-11.135,24.348-24.349,24.348V47.45c12.058,0,21.796-9.972,21.796-22.029c0-6.03-2.547-11.594-6.492-15.536
		c-3.943-3.943-9.274-6.493-15.304-6.493V1.074z M25.137,49.768c-6.725,0-12.987-2.779-17.392-7.187
		c-4.407-4.406-7.188-10.437-7.188-17.16c0-13.449,11.131-24.347,24.58-24.347v2.318c-12.29,0-22.029,9.97-22.029,22.029
		c0,6.029,2.551,11.597,6.492,15.537c3.942,3.94,9.276,6.492,15.538,6.492L25.137,49.768L25.137,49.768z"/>
</g>
</svg>
