<?xml version="1.0" encoding="utf-8"?>
<!-- Generator: Adobe Illustrator 16.0.0, SVG Export Plug-In . SVG Version: 6.00 Build 0)  -->
<!DOCTYPE svg PUBLIC "-//W3C//DTD SVG 1.1//EN" "http://www.w3.org/Graphics/SVG/1.1/DTD/svg11.dtd">
<svg version="1.1" id="圖層_1" xmlns="http://www.w3.org/2000/svg" xmlns:xlink="http://www.w3.org/1999/xlink" x="0px" y="0px"
	 width="56.693px" height="56.693px" viewBox="0 0 56.693 56.693" enable-background="new 0 0 56.693 56.693" xml:space="preserve">
<g display="none">
	<polygon display="inline" fill-rule="evenodd" clip-rule="evenodd" fill="#C9CACA" points="36.205,24.109 36.205,24.109 
		36.408,24.583 36.589,25.056 36.746,25.552 36.882,26.048 36.972,26.544 37.041,27.04 37.085,27.559 37.107,28.078 37.107,28.212 
		37.13,28.348 37.22,28.596 37.333,28.821 37.49,29.024 37.693,29.182 37.941,29.317 38.189,29.385 38.326,29.408 38.46,29.431 
		38.595,29.408 38.73,29.385 38.978,29.317 39.205,29.182 39.408,29.024 39.587,28.821 39.701,28.596 39.791,28.348 39.812,28.212 
		39.812,28.078 39.791,27.401 39.746,26.747 39.654,26.093 39.519,25.439 39.339,24.786 39.136,24.154 38.912,23.545 38.64,22.914 
		38.437,22.554 38.234,22.193 38.031,21.832 37.806,21.471 37.558,21.133 37.31,20.817 37.062,20.479 36.792,20.186 36.498,19.87 
		36.205,19.577 35.912,19.307 35.597,19.036 35.281,18.766 34.943,18.518 34.605,18.27 34.267,18.044 33.906,17.841 33.544,17.638 
		33.183,17.458 32.824,17.3 32.462,17.142 32.08,16.984 31.697,16.849 31.312,16.736 30.929,16.624 30.546,16.533 30.164,16.466 
		29.757,16.398 29.352,16.331 28.945,16.308 28.563,16.263 28.156,16.263 28.021,16.263 27.886,16.285 27.615,16.353 27.39,16.488 
		27.187,16.646 27.029,16.849 26.894,17.074 26.804,17.323 26.781,17.458 26.781,17.593 26.781,17.729 26.804,17.864 26.871,18.134 
		27.006,18.36 27.164,18.563 27.367,18.721 27.592,18.856 27.84,18.946 27.976,18.969 28.111,18.969 28.765,18.991 29.396,19.081 
		30.027,19.194 30.636,19.352 31.222,19.555 31.787,19.78 32.349,20.073 32.89,20.389 33.41,20.727 33.882,21.11 34.357,21.539 
		34.785,21.99 35.191,22.463 35.552,22.982 35.89,23.523 	"/>
	<polygon display="inline" fill-rule="evenodd" clip-rule="evenodd" fill="#C9CACA" points="44.052,20.299 44.052,20.299 
		43.759,19.735 43.466,19.194 43.126,18.653 42.789,18.112 42.427,17.593 42.044,17.097 41.662,16.601 41.255,16.128 40.828,15.677 
		40.376,15.249 39.925,14.82 39.453,14.392 38.957,14.008 38.46,13.625 37.941,13.264 37.4,12.926 36.882,12.61 36.341,12.317 
		35.8,12.046 35.236,11.776 34.695,11.551 34.109,11.325 33.544,11.122 32.958,10.942 32.373,10.784 31.787,10.648 31.177,10.536 
		30.568,10.423 29.982,10.355 29.374,10.288 28.765,10.265 28.134,10.243 27.998,10.243 27.863,10.265 27.615,10.355 27.367,10.468 
		27.187,10.626 27.006,10.829 26.894,11.055 26.804,11.303 26.781,11.438 26.781,11.573 26.781,11.731 26.804,11.866 26.871,12.114 
		27.006,12.34 27.164,12.542 27.367,12.701 27.592,12.836 27.84,12.926 27.976,12.948 28.111,12.948 28.652,12.971 29.193,12.994 
		29.734,13.039 30.253,13.106 30.794,13.196 31.291,13.309 31.808,13.422 32.328,13.557 32.824,13.715 33.32,13.896 33.792,14.098 
		34.267,14.301 34.74,14.527 35.191,14.752 35.642,15 36.093,15.271 36.521,15.564 36.949,15.857 37.355,16.173 37.761,16.511 
		38.144,16.849 38.527,17.21 38.888,17.57 39.25,17.954 39.587,18.36 39.925,18.766 40.242,19.194 40.535,19.622 40.828,20.073 
		41.097,20.524 41.369,20.998 41.617,21.471 41.955,22.26 42.271,23.072 42.541,23.884 42.744,24.695 42.902,25.53 43.037,26.364 
		43.105,27.221 43.126,28.078 43.126,28.212 43.15,28.348 43.24,28.596 43.353,28.821 43.511,29.024 43.714,29.182 43.939,29.317 
		44.21,29.385 44.345,29.408 44.48,29.431 44.615,29.408 44.751,29.385 45,29.317 45.224,29.182 45.427,29.024 45.607,28.821 
		45.72,28.596 45.81,28.348 45.833,28.212 45.833,28.078 45.833,27.559 45.81,27.063 45.765,26.567 45.72,26.071 45.652,25.575 
		45.585,25.079 45.494,24.583 45.382,24.086 45.269,23.613 45.134,23.117 44.976,22.644 44.818,22.17 44.66,21.697 44.458,21.223 
		44.255,20.772 	"/>
	<polygon display="inline" fill-rule="evenodd" clip-rule="evenodd" fill="#C9CACA" points="39.498,34.324 39.498,34.324 
		39.294,34.142 39.091,33.985 38.867,33.849 38.64,33.737 38.392,33.646 38.144,33.58 37.896,33.534 37.626,33.534 37.445,33.534 
		37.242,33.556 37.062,33.58 36.882,33.646 36.701,33.692 36.521,33.782 36.363,33.873 36.183,33.962 33.32,35.811 33.027,35.675 
		32.621,35.427 32.035,35.044 31.291,34.48 30.861,34.121 30.365,33.692 29.847,33.218 29.261,32.677 28.63,32.068 27.953,31.392 
		27.209,30.648 26.42,29.791 25.631,28.957 24.932,28.167 24.301,27.423 23.715,26.747 23.219,26.139 22.79,25.575 22.406,25.056 
		22.068,24.605 21.572,23.816 21.212,23.23 21.009,22.802 20.896,22.508 22.926,19.758 23.061,19.577 23.195,19.375 23.286,19.171 
		23.354,18.969 23.421,18.743 23.467,18.518 23.489,18.292 23.489,18.089 23.467,17.864 23.421,17.638 23.376,17.413 23.286,17.21 
		23.195,17.007 23.083,16.804 22.947,16.624 22.813,16.443 18.326,11.641 18.123,11.46 17.92,11.28 17.694,11.145 17.446,11.032 
		17.198,10.919 16.928,10.852 16.657,10.829 16.387,10.807 16.094,10.829 15.801,10.874 15.529,10.942 15.26,11.055 15.012,11.19 
		14.764,11.37 14.538,11.551 14.335,11.776 13.095,13.309 12.892,13.557 12.689,13.828 12.531,14.098 12.351,14.369 12.216,14.64 
		12.08,14.933 11.945,15.226 11.832,15.519 11.742,15.834 11.651,16.15 11.584,16.466 11.517,16.804 11.472,17.142 11.449,17.48 
		11.427,17.818 11.427,18.179 11.449,18.833 11.517,19.487 11.629,20.163 11.787,20.862 11.968,21.584 12.193,22.306 12.486,23.05 
		12.802,23.816 13.095,24.47 13.41,25.146 13.771,25.823 14.154,26.521 14.561,27.221 15.012,27.919 15.463,28.641 15.959,29.34 
		16.477,30.062 17.018,30.806 17.559,31.527 18.146,32.249 18.754,32.97 19.386,33.714 20.017,34.435 20.671,35.158 21.438,35.947 
		22.294,36.803 23.219,37.705 24.232,38.652 25.315,39.599 26.465,40.523 27.074,40.998 27.683,41.448 28.291,41.898 28.923,42.328 
		29.531,42.733 30.14,43.093 30.75,43.455 31.335,43.77 31.921,44.063 32.486,44.333 33.048,44.582 33.589,44.807 34.13,45.01 
		34.671,45.167 35.191,45.326 35.708,45.439 36.205,45.529 36.701,45.596 37.197,45.642 37.671,45.642 38.279,45.619 38.867,45.551 
		39.429,45.439 39.97,45.281 40.49,45.1 41.007,44.853 41.482,44.559 41.955,44.221 43.556,43.093 43.781,42.914 43.984,42.71 
		44.164,42.507 44.322,42.282 44.435,42.035 44.548,41.763 44.615,41.494 44.66,41.2 44.683,40.929 44.66,40.636 44.615,40.366 
		44.548,40.095 44.435,39.824 44.3,39.577 44.142,39.351 43.962,39.125 	"/>
</g>
<g display="none">
	<polygon display="inline" fill-rule="evenodd" clip-rule="evenodd" fill="#C9CACA" points="29.191,32.671 29.191,32.671 
		29.033,32.74 28.853,32.806 28.695,32.852 28.515,32.852 28.334,32.852 28.154,32.806 27.973,32.74 27.815,32.671 10.59,22.502 
		10.5,22.458 10.409,22.435 10.297,22.458 10.207,22.502 10.139,22.548 10.071,22.638 10.025,22.729 10.025,22.818 10.025,38.263 
		10.025,38.579 10.071,38.849 10.161,39.142 10.252,39.414 10.364,39.662 10.521,39.886 10.68,40.112 10.883,40.337 11.086,40.517 
		11.312,40.675 11.537,40.833 11.807,40.947 12.056,41.037 12.349,41.126 12.642,41.171 12.935,41.171 44.095,41.171 44.388,41.171 
		44.681,41.126 44.951,41.037 45.222,40.947 45.47,40.833 45.718,40.675 45.943,40.517 46.146,40.337 46.326,40.112 46.484,39.886 
		46.642,39.662 46.755,39.414 46.867,39.142 46.935,38.849 46.98,38.579 46.98,38.263 46.98,22.818 46.98,22.729 46.935,22.638 
		46.867,22.548 46.8,22.502 46.71,22.458 46.619,22.435 46.507,22.458 46.416,22.502 	"/>
	<polygon display="inline" fill-rule="evenodd" clip-rule="evenodd" fill="#C9CACA" points="29.281,29.47 46.8,19.121 
		46.867,19.076 46.935,18.985 46.98,18.873 46.98,18.782 46.935,18.489 46.89,18.241 46.8,17.971 46.687,17.723 46.552,17.498 
		46.416,17.272 46.236,17.069 46.056,16.889 45.853,16.708 45.626,16.573 45.402,16.438 45.154,16.325 44.906,16.235 44.636,16.167 
		44.365,16.122 44.095,16.122 12.935,16.122 12.642,16.122 12.371,16.167 12.101,16.235 11.853,16.325 11.604,16.438 11.379,16.573 
		11.153,16.708 10.95,16.889 10.77,17.069 10.612,17.272 10.455,17.498 10.319,17.723 10.207,17.971 10.139,18.241 10.071,18.489 
		10.025,18.782 10.049,18.873 10.071,18.985 10.139,19.076 10.229,19.121 27.748,29.47 27.928,29.56 28.108,29.627 28.312,29.673 
		28.515,29.695 28.695,29.673 28.898,29.627 29.078,29.56 	"/>
</g>
<path display="none" fill-rule="evenodd" clip-rule="evenodd" fill="#C9CACA" d="M37.126,41.006H19.292V13.409h17.834V41.006z
	 M25.447,44.659L25.447,44.659l0.022-0.226l0.067-0.225l0.113-0.203l0.135-0.158l0.181-0.158l0.203-0.09l0.226-0.067l0.225-0.046
	h3.427l0.227,0.046l0.225,0.067l0.203,0.09l0.158,0.158l0.156,0.158l0.113,0.203l0.068,0.225l0.021,0.226l-0.021,0.249l-0.068,0.225
	l-0.113,0.203l-0.156,0.158l-0.158,0.158l-0.203,0.09l-0.225,0.067l-0.227,0.022h-3.427l-0.225-0.022l-0.226-0.067l-0.203-0.09
	l-0.181-0.158l-0.135-0.158l-0.113-0.203l-0.067-0.225L25.447,44.659z M38.546,8.426H17.895h-0.248l-0.248,0.045l-0.227,0.045
	l-0.225,0.09l-0.226,0.113l-0.203,0.113l-0.181,0.135l-0.18,0.158L16,9.306l-0.135,0.18l-0.113,0.203L15.64,9.915l-0.067,0.203
	l-0.068,0.248l-0.045,0.248v0.248v35.534v0.248l0.045,0.226l0.068,0.248l0.067,0.225l0.112,0.203l0.113,0.203L16,47.928l0.158,0.181
	l0.18,0.158l0.181,0.135l0.203,0.113l0.226,0.112l0.225,0.09l0.227,0.045l0.248,0.046l0.248,0.021h20.652l0.248-0.021l0.248-0.046
	l0.248-0.045l0.203-0.09l0.227-0.112l0.201-0.113l0.182-0.135l0.18-0.158l0.158-0.181l0.135-0.181l0.113-0.203l0.113-0.203
	l0.09-0.225l0.045-0.248l0.045-0.226v-0.248V10.861v-0.248l-0.045-0.248l-0.045-0.248l-0.09-0.203l-0.113-0.226l-0.113-0.203
	l-0.135-0.18l-0.158-0.181l-0.18-0.158l-0.182-0.135L39.72,8.719l-0.227-0.113l-0.203-0.09l-0.248-0.045l-0.248-0.045H38.546z"/>
<polygon fill-rule="evenodd" clip-rule="evenodd" fill="#C9CACA" points="18.949,20.341 18.949,20.341 18.799,20.489 18.578,20.786 
	18.428,21.157 18.28,21.677 18.28,22.345 18.428,23.087 18.578,23.607 18.799,24.052 19.171,24.646 19.542,25.24 19.617,25.389 
	19.765,25.537 19.988,25.537 20.285,25.537 20.507,25.389 20.953,26.502 21.621,27.838 22.363,29.174 22.808,29.841 23.328,30.51 
	23.328,31.549 23.253,31.995 23.179,32.292 23.031,32.514 22.882,32.737 22.363,33.108 21.621,33.48 20.878,33.777 19.32,34.296 
	18.206,34.667 16.87,35.039 15.905,35.484 15.385,35.707 14.866,36.078 14.346,36.449 13.827,36.894 13.381,37.414 12.935,38.007 
	12.564,38.675 12.268,39.417 11.97,40.234 11.896,41.199 11.08,47.063 24.367,47.063 31.864,47.063 45.151,47.063 44.409,41.199 
	44.26,40.234 44.038,39.417 43.741,38.675 43.369,38.007 42.923,37.414 42.478,36.894 41.958,36.449 41.439,36.078 40.919,35.707 
	40.4,35.484 39.435,35.039 38.099,34.667 36.986,34.296 35.427,33.777 34.611,33.48 33.943,33.108 33.423,32.737 33.2,32.514 
	33.052,32.292 32.978,31.995 32.903,31.549 32.978,30.51 33.423,29.841 33.943,29.174 34.685,27.838 35.279,26.502 35.724,25.389 
	36.021,25.537 36.244,25.537 36.466,25.537 36.615,25.389 36.763,25.24 37.134,24.646 37.431,24.052 37.654,23.607 37.802,23.087 
	38.025,22.345 38.025,21.677 37.876,21.157 37.654,20.786 37.431,20.489 37.283,20.341 37.208,20.267 37.06,20.267 36.912,20.341 
	36.763,20.415 36.689,20.563 36.689,19.45 36.541,18.336 36.392,17.372 36.095,16.481 35.724,15.59 35.279,14.848 34.759,14.105 
	34.165,13.512 33.498,12.992 32.829,12.473 32.086,12.102 31.344,11.73 30.602,11.508 29.786,11.285 28.969,11.21 28.153,11.136 
	27.335,11.21 26.519,11.285 25.703,11.508 24.886,11.73 24.144,12.102 23.402,12.473 22.734,12.992 22.14,13.512 21.546,14.105 
	21.027,14.848 20.582,15.59 20.21,16.481 19.914,17.372 19.691,18.336 19.617,19.45 19.617,20.563 19.468,20.415 19.32,20.341 
	19.171,20.267 19.097,20.267 "/>
</svg>
