<?xml version="1.0" encoding="utf-8"?>
<!-- Generator: Adobe Illustrator 24.0.0, SVG Export Plug-In . SVG Version: 6.00 Build 0)  -->
<svg version="1.1" id="圖層_1" xmlns="http://www.w3.org/2000/svg" xmlns:xlink="http://www.w3.org/1999/xlink" x="0px" y="0px"
	 viewBox="0 0 45 45" style="enable-background:new 0 0 45 45;" xml:space="preserve">
<style type="text/css">
	.st0{fill:#3ACE01;}
	.st1{fill:#FFFFFF;}
</style>
<g>
	<path class="st0" d="M22.2,0.41c4.27,0,8.55-0.05,12.82,0.02c3.84,0.06,6.77,1.78,8.36,5.33c0.53,1.17,0.82,2.55,0.83,3.83
		c0.07,8.57,0.05,17.14,0.03,25.71c-0.01,4.42-2.93,8.03-7.25,8.98c-0.67,0.15-1.36,0.21-2.04,0.21c-8.5,0.01-16.99,0.01-25.49,0.01
		c-4.51,0-8.1-2.86-9.07-7.22c-0.15-0.66-0.22-1.36-0.22-2.04C0.15,26.71,0.15,18.19,0.16,9.67c0-4.47,2.83-8.03,7.18-9.02
		C8.07,0.48,8.85,0.42,9.6,0.42C13.8,0.4,18,0.41,22.2,0.41z M38.49,20.19c-0.09-0.5-0.18-1.49-0.44-2.42
		c-0.99-3.5-3.3-5.98-6.39-7.74c-3.82-2.18-7.93-2.83-12.27-2.25c-3.65,0.49-6.9,1.85-9.62,4.36c-2.43,2.25-3.88,5.01-3.94,8.35
		c-0.05,3.08,1.13,5.74,3.24,7.97c2.81,2.98,6.36,4.51,10.35,5.09c1.18,0.17,1.62,0.6,1.56,1.76c-0.03,0.61-0.16,1.21-0.23,1.82
		c-0.09,0.81,0.27,1.15,1.02,0.89c0.71-0.25,1.42-0.54,2.08-0.92c4.01-2.29,7.65-5.07,10.98-8.26
		C37.15,26.64,38.41,23.91,38.49,20.19z"/>
	<path class="st1" d="M38.49,20.19c-0.09,3.71-1.34,6.45-3.65,8.66c-3.33,3.19-6.97,5.97-10.98,8.26c-0.65,0.37-1.36,0.67-2.08,0.92
		c-0.75,0.26-1.11-0.09-1.02-0.89c0.07-0.61,0.19-1.21,0.23-1.82c0.06-1.17-0.39-1.6-1.56-1.76c-4-0.57-7.54-2.11-10.35-5.09
		c-2.1-2.23-3.29-4.89-3.24-7.97c0.06-3.34,1.51-6.1,3.94-8.35c2.72-2.51,5.97-3.87,9.62-4.36c4.34-0.58,8.46,0.07,12.27,2.25
		c3.09,1.77,5.4,4.24,6.39,7.74C38.32,18.71,38.41,19.69,38.49,20.19z M22.15,20.33c0.06-0.02,0.13-0.04,0.19-0.07
		c0.15,0.17,0.31,0.33,0.45,0.52c0.85,1.14,1.66,2.31,2.55,3.43c0.2,0.25,0.66,0.42,0.98,0.39c0.2-0.02,0.51-0.47,0.52-0.73
		c0.04-2.04,0.02-4.07,0.02-6.11c0-0.51-0.3-0.81-0.76-0.82c-0.46,0-0.76,0.29-0.76,0.81c0,0.96,0,1.91-0.01,2.87
		c0,0.22-0.04,0.45-0.06,0.67c-0.5-0.37-0.82-0.79-1.14-1.21c-0.69-0.92-1.36-1.87-2.09-2.76c-0.18-0.21-0.59-0.35-0.87-0.32
		c-0.2,0.02-0.51,0.39-0.51,0.6c-0.04,2.13-0.05,4.27,0.01,6.41c0.01,0.23,0.46,0.63,0.71,0.63c0.25,0,0.61-0.34,0.74-0.62
		c0.13-0.26,0.04-0.62,0.04-0.94C22.15,22.17,22.15,21.25,22.15,20.33z M28.15,20.85c0,0.96,0.01,1.92,0,2.87
		c-0.01,0.68,0.32,1.01,0.97,1.02c0.93,0.01,1.87,0.01,2.8,0c0.52-0.01,0.94-0.18,0.97-0.77c0.03-0.65-0.44-0.83-0.97-0.85
		c-0.56-0.03-1.13-0.03-1.69-0.01c-0.58,0.02-0.53-0.37-0.54-0.74c0-0.39-0.01-0.75,0.56-0.73c0.56,0.02,1.13,0.01,1.69,0
		c0.52-0.01,0.94-0.2,0.95-0.79c0.02-0.6-0.41-0.8-0.92-0.83c-0.56-0.03-1.13-0.04-1.69,0c-0.54,0.03-0.6-0.27-0.59-0.69
		c0.01-0.41-0.03-0.81,0.59-0.78c0.56,0.03,1.13,0.03,1.69-0.01c0.5-0.03,0.94-0.21,0.93-0.82c-0.01-0.59-0.43-0.79-0.95-0.8
		c-0.93-0.02-1.87-0.02-2.8,0c-0.72,0.02-0.99,0.31-1,1.06C28.14,18.94,28.15,19.9,28.15,20.85z M13.59,23.1c0-1.78,0-3.42,0-5.07
		c0-0.57-0.15-1.08-0.8-1.1c-0.64-0.02-0.78,0.49-0.78,1.02c0,1.91,0,3.83,0,5.74c0,0.71,0.35,1.04,1.04,1.04
		c0.88,0,1.77,0.01,2.65,0c0.53-0.01,1.01-0.14,1.01-0.8c0-0.7-0.48-0.83-1.05-0.83C15.01,23.1,14.35,23.1,13.59,23.1z M17.67,20.83
		c0,0.98,0.01,1.96,0,2.94c-0.01,0.52,0.19,0.89,0.72,0.91c0.57,0.02,0.81-0.34,0.81-0.9c-0.01-1.96-0.01-3.92,0-5.88
		c0-0.55-0.22-0.95-0.77-0.96c-0.55,0-0.78,0.39-0.77,0.95C17.69,18.87,17.67,19.85,17.67,20.83z"/>
	<path class="st0" d="M22.15,20.33c0,0.92,0,1.84,0,2.76c0,0.32,0.09,0.69-0.04,0.94c-0.14,0.28-0.49,0.62-0.74,0.62
		c-0.25,0-0.7-0.4-0.71-0.63c-0.05-2.13-0.05-4.27-0.01-6.41c0-0.22,0.31-0.58,0.51-0.6c0.28-0.03,0.7,0.1,0.87,0.32
		c0.73,0.89,1.4,1.83,2.09,2.76c0.32,0.42,0.65,0.84,1.14,1.21c0.02-0.22,0.06-0.45,0.06-0.67c0.01-0.96,0.01-1.91,0.01-2.87
		c0-0.51,0.3-0.81,0.76-0.81c0.46,0,0.76,0.31,0.76,0.82c0,2.04,0.02,4.08-0.02,6.11c-0.01,0.26-0.32,0.72-0.52,0.73
		c-0.32,0.03-0.78-0.14-0.98-0.39c-0.89-1.11-1.7-2.28-2.55-3.43c-0.14-0.18-0.3-0.34-0.45-0.52
		C22.28,20.29,22.22,20.31,22.15,20.33z"/>
	<path class="st0" d="M28.15,20.85c0-0.96-0.01-1.92,0-2.87c0.01-0.75,0.28-1.05,1-1.06c0.93-0.02,1.87-0.02,2.8,0
		c0.52,0.01,0.93,0.21,0.95,0.8c0.01,0.61-0.42,0.79-0.93,0.82c-0.56,0.03-1.13,0.03-1.69,0.01c-0.62-0.03-0.58,0.37-0.59,0.78
		c-0.01,0.42,0.06,0.72,0.59,0.69c0.56-0.03,1.13-0.03,1.69,0c0.51,0.03,0.93,0.23,0.92,0.83c-0.02,0.6-0.43,0.78-0.95,0.79
		c-0.56,0.01-1.13,0.02-1.69,0c-0.56-0.02-0.56,0.34-0.56,0.73c0,0.37-0.04,0.76,0.54,0.74c0.56-0.02,1.13-0.02,1.69,0.01
		c0.53,0.03,1,0.2,0.97,0.85c-0.03,0.59-0.46,0.77-0.97,0.77c-0.93,0.01-1.87,0.01-2.8,0c-0.65-0.01-0.98-0.34-0.97-1.02
		C28.16,22.77,28.15,21.81,28.15,20.85z"/>
	<path class="st0" d="M13.59,23.1c0.76,0,1.41,0,2.07,0c0.57,0,1.06,0.14,1.05,0.83c0,0.66-0.48,0.79-1.01,0.8
		c-0.88,0.01-1.77,0.01-2.65,0c-0.69,0-1.04-0.33-1.04-1.04c0.01-1.91,0-3.83,0-5.74c0-0.54,0.14-1.04,0.78-1.02
		c0.65,0.02,0.8,0.53,0.8,1.1C13.59,19.68,13.59,21.32,13.59,23.1z"/>
	<path class="st0" d="M17.67,20.83c0-0.98,0.01-1.96-0.01-2.94c-0.01-0.56,0.22-0.96,0.77-0.95c0.55,0,0.77,0.4,0.77,0.96
		c-0.01,1.96-0.01,3.92,0,5.88c0,0.56-0.24,0.92-0.81,0.9c-0.54-0.02-0.73-0.39-0.72-0.91C17.68,22.79,17.67,21.81,17.67,20.83z"/>
</g>
</svg>
