<?xml version="1.0" encoding="utf-8"?>
<!-- Generator: Adobe Illustrator 24.0.0, SVG Export Plug-In . SVG Version: 6.00 Build 0)  -->
<svg version="1.1" id="圖層_1" xmlns="http://www.w3.org/2000/svg" xmlns:xlink="http://www.w3.org/1999/xlink" x="0px" y="0px"
	 viewBox="0 0 15.19 15.12" style="enable-background:new 0 0 15.19 15.12;" xml:space="preserve">
<style type="text/css">
	.st0{fill:#9FA0A0;}
</style>
<g>
	<path class="st0" d="M12.96,2.23C11.59,0.86,9.65,0,7.56,0C3.46,0,0,3.38,0,7.56c0,2.09,0.86,4.03,2.23,5.4
		c1.37,1.37,3.24,2.16,5.33,2.16c4.18,0,7.63-3.38,7.63-7.56C15.19,5.47,14.33,3.6,12.96,2.23z M7.56,14.4
		c-1.87,0-3.53-0.79-4.75-2.02c-1.3-1.22-2.02-2.95-2.02-4.82c0-3.74,3.02-6.77,6.77-6.77c1.87,0,3.6,0.72,4.82,2.02
		c1.22,1.22,2.02,2.88,2.02,4.75C14.4,11.3,11.38,14.4,7.56,14.4z"/>
	<path class="st0" d="M11.88,4.18L11.52,4.1H7.56H3.6L3.31,4.18L3.02,4.39L2.88,4.61L2.81,4.9v4.54l0.07,0.29l0.14,0.22l0.29,0.22
		l0.29,0.07h3.1v0.43L6.05,10.8l-0.5,0.14l-0.22,0.14l-0.22,0.07l-0.07,0.22l-0.07,0.22l0.07,0.22l0.14,0.22l0.29,0.14l0.36,0.07
		l0.36,0.14l0.43,0.07h0.43l0.5,0.07l0.5-0.07h0.5L9,12.38l0.36-0.14l0.36-0.07l0.29-0.14l0.14-0.22l0.07-0.22l-0.07-0.22
		l-0.07-0.22l-0.22-0.07l-0.22-0.14L9.07,10.8L8.5,10.66v-0.43h3.02l0.36-0.07l0.22-0.22l0.22-0.22V9.43V4.9V4.61L12.1,4.39
		L11.88,4.18z M11.95,9.43l-0.07,0.14l-0.07,0.14l-0.07,0.07h-0.22H8.28L8.21,9.94l-0.07,0.07v0.79l0.07,0.22h0.07l0.65,0.14
		l0.5,0.14l0.29,0.07l0.07,0.14l0.07,0.07H9.79l-0.14,0.14l-0.43,0.14l-0.36,0.14H8.5L7.56,12.1L6.7,12.02H6.26L5.9,11.88
		l-0.36-0.14L5.4,11.59H5.33l0.07-0.07l0.07-0.14l0.22-0.07l0.5-0.14l0.65-0.14h0.14v-0.07l0.07-0.14v-0.79L6.98,9.94L6.91,9.79H3.6
		H3.46L3.31,9.72L3.24,9.58V9.43V4.9V4.75l0.07-0.14l0.14-0.07L3.6,4.46h3.96h3.96l0.22,0.07l0.07,0.07l0.07,0.14l0.07,0.14V9.43z"
		/>
	<path class="st0" d="M11.52,4.9l-0.14-0.07h-0.14H7.56H3.89H3.82L3.67,4.9L3.6,5.04L3.53,5.18v3.96L3.6,9.22l0.07,0.14l0.14,0.07
		h0.07h3.67h3.67h0.14l0.14-0.07l0.07-0.14V9.14V5.18V5.04l-0.07-0.07V4.9z M11.3,5.18v3.96h-0.07H7.56H3.89V5.18V5.11h3.67h3.67
		h0.07V5.18z"/>
</g>
</svg>
