<?xml version="1.0" encoding="utf-8"?>
<!-- Generator: Adobe Illustrator 24.0.0, SVG Export Plug-In . SVG Version: 6.00 Build 0)  -->
<svg version="1.1" id="圖層_1" xmlns="http://www.w3.org/2000/svg" xmlns:xlink="http://www.w3.org/1999/xlink" x="0px" y="0px"
	 viewBox="0 0 100 91" style="enable-background:new 0 0 100 91;" xml:space="preserve">
<style type="text/css">
	.st0{opacity:0.7;fill:#D8D8D8;enable-background:new    ;}
	.st1{fill:#FFFFFF;}
</style>
<path class="st0" d="M21.95,12.56c-4.88,0.91-8.84,3.66-11.28,7.93c-2.74,4.27-3.96,9.76-3.05,16.16
	C9.45,50.67,21.34,67.74,50,80.85v0.3c21.04-9.76,32.93-21.65,38.72-32.62c3.05-6.1,4.27-12.2,3.96-17.38
	c-0.3-4.88-1.83-9.15-4.57-12.5c-2.74-3.05-6.4-5.18-10.67-5.49c-3.35-0.61-7.01,0.3-11.28,2.44c-4.27,2.44-8.84,6.1-13.42,10.98
	L50,29.63l-2.74-3.35C38.41,15,29.27,11.34,21.95,12.56z"/>
<path class="st1" d="M100.01,30.85c-0.62-6.4-2.75-12.2-6.41-16.77c-3.66-4.57-9.15-7.62-15.25-8.23
	C73.47,5.24,68.29,6.46,62.8,9.51c-3.96,2.13-8.23,5.18-12.5,9.15l-0.3-0.3v-0.01C39.94,7.68,29.57,4.02,20.73,5.54
	c-6.71,1.22-12.5,5.18-16.16,10.98C0.91,22.01-0.61,29.63,0.3,37.56c2.44,16.46,15.85,35.98,48.48,50.61L50,88.78v0v0.3l1.52-0.91
	C75,77.81,88.72,64.39,95.13,51.58C98.79,44.26,100.31,37.25,100.01,30.85z M88.72,48.54C82.93,59.51,71.04,71.4,50,81.16v-0.31
	C21.34,67.74,9.45,50.67,7.62,36.64c-0.91-6.4,0.3-11.89,3.05-16.16c2.44-4.27,6.4-7.01,11.28-7.93
	c7.32-1.22,16.46,2.44,25.31,13.72L50,29.63v0.01l2.74-3.05c4.57-4.88,9.15-8.54,13.42-10.98c4.27-2.13,7.93-3.05,11.28-2.44
	c4.27,0.3,7.93,2.44,10.67,5.49c2.74,3.35,4.27,7.62,4.57,12.5C92.98,36.34,91.77,42.44,88.72,48.54z"/>
</svg>
