<?xml version="1.0" encoding="utf-8"?>
<!-- Generator: Adobe Illustrator 16.0.0, SVG Export Plug-In . SVG Version: 6.00 Build 0)  -->
<!DOCTYPE svg PUBLIC "-//W3C//DTD SVG 1.1//EN" "http://www.w3.org/Graphics/SVG/1.1/DTD/svg11.dtd">
<svg version="1.1" id="圖層_1" xmlns="http://www.w3.org/2000/svg" xmlns:xlink="http://www.w3.org/1999/xlink" x="0px" y="0px"
	 width="28.917px" height="21.583px" viewBox="0 0 28.917 21.583" enable-background="new 0 0 28.917 21.583" xml:space="preserve">
<g>
	<g>
		<g>
			<path fill="#555555" d="M23.919,12.102h-0.931v-1.054c0-0.206-0.165-0.373-0.372-0.373h-1.305c-0.206,0-0.373,0.167-0.373,0.373
				s0.167,0.373,0.373,0.373h0.934v0.684h-1.818V11.05c0-0.206-0.168-0.373-0.372-0.373c-0.206,0-0.373,0.167-0.373,0.373v1.054
				h-1.804V11.42h0.933c0.206,0,0.373-0.167,0.373-0.375s-0.167-0.373-0.373-0.373h-1.304c-0.207,0-0.373,0.167-0.373,0.373V12.1
				H11.71v-1.054c0-0.206-0.167-0.373-0.373-0.373h-1.303c-0.206,0-0.373,0.167-0.373,0.373s0.167,0.375,0.373,0.375h0.932v0.682
				H9.159v-1.054c0-0.206-0.167-0.373-0.373-0.373c-0.205,0-0.372,0.167-0.372,0.373v1.054H6.6V11.42h0.932
				c0.206,0,0.373-0.167,0.373-0.375s-0.167-0.373-0.373-0.373H6.228c-0.207,0-0.373,0.167-0.373,0.373V12.1H4.924
				c-0.412,0-0.745,0.333-0.745,0.745v3.416c0,0.411,0.333,0.743,0.745,0.743h0.309v0.746c0,0.207,0.167,0.373,0.372,0.373
				c0.206,0,0.373-0.168,0.373-0.373v-0.746h16.889v0.746c0,0.207,0.168,0.373,0.372,0.373c0.206,0,0.373-0.168,0.373-0.373v-0.746
				h0.31c0.412,0,0.746-0.332,0.746-0.743v-3.416C24.666,12.435,24.332,12.102,23.919,12.102z M23.919,16.262H4.924v-3.416h18.996
				V16.262L23.919,16.262z"/>
		</g>
	</g>
	<g>
		<g>
			<path fill="#555555" d="M8.786,13.282c-0.691,0-1.251,0.563-1.251,1.252c0,0.69,0.56,1.252,1.251,1.252
				c0.692,0,1.252-0.562,1.252-1.252C10.039,13.843,9.478,13.282,8.786,13.282z M8.786,15.042c-0.28,0-0.507-0.228-0.507-0.508
				c0-0.279,0.227-0.506,0.507-0.506c0.28,0,0.506,0.227,0.506,0.506S9.066,15.042,8.786,15.042z"/>
		</g>
	</g>
	<g>
		<g>
			<path fill="#555555" d="M20.055,13.282c-0.692,0-1.252,0.563-1.252,1.252c0,0.69,0.561,1.252,1.252,1.252
				c0.69,0,1.251-0.562,1.251-1.252C21.306,13.844,20.746,13.282,20.055,13.282z M20.055,15.042c-0.28,0-0.507-0.228-0.507-0.508
				c0-0.279,0.227-0.506,0.507-0.506c0.278,0,0.506,0.227,0.506,0.506S20.333,15.042,20.055,15.042z"/>
		</g>
	</g>
	<g>
		<g>
			<path fill="#555555" d="M17.505,14.161h-6.168c-0.205,0-0.372,0.168-0.372,0.373s0.167,0.373,0.372,0.373h6.168
				c0.207,0,0.373-0.167,0.373-0.373C17.878,14.329,17.712,14.161,17.505,14.161z"/>
		</g>
	</g>
	<g>
		<path fill="#555555" d="M8.841,3.878c-3.328,3.084-0.998,4.675,0.146,6.168C11.663,7.362,8.786,5.458,8.841,3.878z M8.861,8.963
			c-0.742-0.968-2.254-2-0.095-4.001C8.729,5.986,10.596,7.222,8.861,8.963z"/>
		<path fill="#555555" d="M19.787,3.878c-3.328,3.084-0.998,4.675,0.146,6.168C22.607,7.362,19.731,5.458,19.787,3.878z
			 M19.805,8.963c-0.742-0.968-2.253-2-0.095-4.001C19.675,5.986,21.541,7.222,19.805,8.963z"/>
	</g>
</g>
</svg>
