<?xml version="1.0" encoding="utf-8"?>
<!-- Generator: Adobe Illustrator 16.0.0, SVG Export Plug-In . SVG Version: 6.00 Build 0)  -->
<!DOCTYPE svg PUBLIC "-//W3C//DTD SVG 1.1//EN" "http://www.w3.org/Graphics/SVG/1.1/DTD/svg11.dtd">
<svg version="1.1" id="Layer_1" xmlns="http://www.w3.org/2000/svg" xmlns:xlink="http://www.w3.org/1999/xlink" x="0px" y="0px"
	 width="189.885px" height="189.887px" viewBox="0 0 189.885 189.887" enable-background="new 0 0 189.885 189.887"
	 xml:space="preserve">
<g>
	<path fill="#999999" d="M82.648,15.303H19.884c-3.466,0-6.276,2.81-6.276,6.276v62.764c0,3.466,2.81,6.276,6.276,6.276h62.764
		c3.466,0,6.276-2.81,6.276-6.276V21.579C88.924,18.113,86.114,15.303,82.648,15.303z M76.371,78.067H26.16V27.856h50.211V78.067z"
		/>
	<path fill="#999999" d="M37.318,73.185h27.895c3.466,0,6.276-2.81,6.276-6.276V39.014c0-3.466-2.81-6.276-6.276-6.276H37.318
		c-3.466,0-6.276,2.81-6.276,6.276v27.895C31.042,70.375,33.852,73.185,37.318,73.185z M43.595,45.29h15.342v15.342H43.595V45.29z"
		/>
	<path fill="#999999" d="M168.007,15.303h-62.764c-3.467,0-6.276,2.81-6.276,6.276v62.764c0,3.466,2.81,6.276,6.276,6.276h62.764
		c3.466,0,6.276-2.81,6.276-6.276V21.579C174.283,18.113,171.473,15.303,168.007,15.303z M161.73,78.067H111.52V27.856h50.211
		V78.067z"/>
	<path fill="#999999" d="M122.677,73.185h27.896c3.466,0,6.276-2.81,6.276-6.276V39.014c0-3.466-2.811-6.276-6.276-6.276h-27.896
		c-3.466,0-6.276,2.81-6.276,6.276v27.895C116.4,70.375,119.211,73.185,122.677,73.185z M128.954,45.29h15.342v15.342h-15.342V45.29
		z"/>
	<path fill="#999999" d="M82.648,100.662H19.884c-3.466,0-6.276,2.81-6.276,6.276v62.764c0,3.466,2.81,6.276,6.276,6.276h62.764
		c3.466,0,6.276-2.811,6.276-6.276v-62.764C88.924,103.472,86.114,100.662,82.648,100.662z M76.371,163.426H26.16v-50.211h50.211
		V163.426z"/>
	<path fill="#999999" d="M37.318,158.544h27.895c3.466,0,6.276-2.811,6.276-6.276v-27.896c0-3.466-2.81-6.276-6.276-6.276H37.318
		c-3.466,0-6.276,2.811-6.276,6.276v27.896C31.042,155.734,33.852,158.544,37.318,158.544z M43.595,130.649h15.342v15.343H43.595
		V130.649z"/>
	<path fill="#999999" d="M125.351,100.662h-20.107c-3.467,0-6.276,2.81-6.276,6.276v20.107c0,3.466,2.81,6.276,6.276,6.276
		c3.466,0,6.276-2.811,6.276-6.276v-13.831h13.831c3.467,0,6.276-2.811,6.276-6.276
		C131.627,103.472,128.817,100.662,125.351,100.662z"/>
	<path fill="#999999" d="M168.007,100.662h-20.107c-3.467,0-6.276,2.81-6.276,6.276c0,3.466,2.81,6.276,6.276,6.276h13.831v13.831
		c0,3.466,2.81,6.276,6.276,6.276c3.466,0,6.276-2.811,6.276-6.276v-20.107C174.283,103.472,171.473,100.662,168.007,100.662z"/>
	<path fill="#999999" d="M125.351,163.426H111.52v-13.831c0-3.467-2.811-6.276-6.276-6.276c-3.467,0-6.276,2.81-6.276,6.276v20.107
		c0,3.466,2.81,6.276,6.276,6.276h20.107c3.467,0,6.276-2.811,6.276-6.276C131.627,166.236,128.817,163.426,125.351,163.426z"/>
	<path fill="#999999" d="M168.007,143.319c-3.467,0-6.276,2.81-6.276,6.276v13.831h-13.831c-3.467,0-6.276,2.81-6.276,6.276
		c0,3.466,2.81,6.276,6.276,6.276h20.107c3.466,0,6.276-2.811,6.276-6.276v-20.107C174.283,146.128,171.473,143.319,168.007,143.319
		z"/>
</g>
</svg>
