<?xml version="1.0" encoding="utf-8"?>
<!-- Generator: Adobe Illustrator 16.0.0, SVG Export Plug-In . SVG Version: 6.00 Build 0)  -->
<!DOCTYPE svg PUBLIC "-//W3C//DTD SVG 1.1//EN" "http://www.w3.org/Graphics/SVG/1.1/DTD/svg11.dtd">
<svg version="1.1" id="圖層_1" xmlns="http://www.w3.org/2000/svg" xmlns:xlink="http://www.w3.org/1999/xlink" x="0px" y="0px"
	 width="28.917px" height="21.583px" viewBox="0 0 28.917 21.583" enable-background="new 0 0 28.917 21.583" xml:space="preserve">
<g>
	<path fill="#555555" d="M25.042,18.526H14.386v-0.792h10.152v-5.112H14.386v-0.863h10.656l0,0l0.215,0.145l0.145,0.36v5.903l0,0
		l-0.145,0.215L25.042,18.526L25.042,18.526z M14.386,18.526H3.874l0,0l-0.288-0.145l-0.144-0.215v-5.904l0,0l0.144-0.36
		l0.288-0.144h10.512v0.863H4.234v5.111h10.152V18.526z"/>
	<polygon fill="#555555" points="21.298,7.078 21.298,5.854 21.298,5.854 21.298,5.638 21.154,5.494 21.009,5.35 20.794,5.35 
		20.794,5.35 20.65,5.35 20.505,5.494 20.362,5.638 20.362,5.854 20.362,7.078 20.362,7.078 20.291,7.366 20.291,11.758 
		20.291,11.758 20.291,11.974 20.362,12.118 20.65,12.262 20.794,12.262 20.794,12.262 21.009,12.262 21.298,12.118 21.371,11.974 
		21.371,11.758 21.371,7.366 21.371,7.366 	"/>
	<polygon fill="#555555" points="22.81,7.582 22.522,7.222 22.522,7.222 22.882,6.862 23.169,6.502 23.386,6.142 23.386,5.638 
		23.386,5.638 23.386,5.134 23.169,4.63 22.882,4.198 22.378,3.982 22.666,3.478 22.666,3.478 23.169,3.838 23.673,4.342 
		23.89,4.99 23.89,5.638 23.89,5.638 23.89,6.214 23.673,6.718 23.314,7.222 	"/>
	<polygon fill="#555555" points="22.306,6.718 22.018,6.214 22.018,6.214 22.306,5.998 22.378,5.638 22.378,5.638 22.306,5.134 
		22.018,4.846 22.162,4.342 22.162,4.342 22.522,4.63 22.81,4.846 22.882,5.206 22.882,5.638 22.882,5.638 22.882,5.854 
		22.81,6.214 22.522,6.502 	"/>
	<polygon fill="#555555" points="18.921,7.582 18.921,7.582 18.417,7.222 17.986,6.718 17.77,6.214 17.77,5.638 17.77,5.638 
		17.77,4.99 17.986,4.342 18.417,3.838 18.994,3.478 19.138,3.982 19.138,3.982 18.778,4.198 18.49,4.63 18.274,5.134 18.13,5.638 
		18.13,5.638 18.274,6.142 18.417,6.502 18.778,6.862 19.138,7.222 	"/>
	<polygon fill="#555555" points="19.425,6.718 19.425,6.718 19.138,6.502 18.921,6.214 18.778,5.854 18.778,5.638 18.778,5.638 
		18.778,5.206 18.921,4.846 19.138,4.63 19.425,4.342 19.642,4.846 19.642,4.846 19.425,5.134 19.283,5.638 19.283,5.638 
		19.283,5.998 19.642,6.214 	"/>
	<rect x="9.346" y="14.999" fill="#555555" width="1.8" height="0.504"/>
	<rect x="6.106" y="14.999" fill="#555555" width="1.728" height="0.504"/>
	<polygon fill="#555555" points="22.522,15.862 22.522,15.862 22.882,15.862 23.169,15.646 23.314,15.358 23.314,15.142 
		23.314,14.854 23.169,14.638 22.882,14.495 22.522,14.495 22.522,14.495 22.306,14.495 22.018,14.638 21.875,14.854 21.875,15.142 
		21.875,15.358 22.018,15.646 22.306,15.862 	"/>
</g>
</svg>
