<?xml version="1.0" encoding="utf-8"?>
<!-- Generator: Adobe Illustrator 16.0.0, SVG Export Plug-In . SVG Version: 6.00 Build 0)  -->
<!DOCTYPE svg PUBLIC "-//W3C//DTD SVG 1.1//EN" "http://www.w3.org/Graphics/SVG/1.1/DTD/svg11.dtd">
<svg version="1.1" id="圖層_1" xmlns="http://www.w3.org/2000/svg" xmlns:xlink="http://www.w3.org/1999/xlink" x="0px" y="0px"
	 width="28.917px" height="21.583px" viewBox="0 0 28.917 21.583" enable-background="new 0 0 28.917 21.583" xml:space="preserve">
<path fill="#555555" d="M25.332,8.049h0.145l0,0l0.359,0.072l0.287,0.144l0,0l0.289,0.36v0.432v7.92l0,0v0.145l-0.072,0.145
	l-0.146,0.07h-0.071H25.33V16.69h0.504V9.058l0,0l-0.07-0.216l0,0L25.619,8.77h-0.144h-0.144V8.049L25.332,8.049z M14.459,10.929
	h9.792V9.058l0,0l0.072-0.432l0.215-0.36l0,0l0.289-0.144l0.358-0.072h0.146v0.72h-0.146l0,0H24.97l-0.072,0.072l0,0l-0.07,0.216
	v2.304l0,0l0,0v3.6v1.729h0.504v0.647h-0.793l0,0h-0.145l-0.07-0.071l-0.072-0.146v-0.144V15.25h-9.792V14.53h9.792v-2.88l0,0
	h-9.792V10.929z M8.843,8.193h0.576l0.576,0.072l0.576,0.144l0.504,0.144l0,0l0.504,0.216l0.432,0.288l0.432,0.288l0.36,0.36l0,0
	l0.072,0.072v0.144v0.072l-0.072,0.216l0,0l0,0l0,0l-0.432,0.36l-0.504,0.36h2.592v0.72H8.843v-0.72l1.08-0.072l0.936-0.288l0,0l0,0
	l0,0l0.72-0.288l0.576-0.36l0,0l-0.576-0.36l-0.72-0.288l0,0L9.923,9.058l-1.08-0.216V8.193L8.843,8.193z M14.459,15.25H8.843V14.53
	h5.616V15.25z M8.843,15.25H4.667v1.728l0,0v0.144l-0.072,0.146l-0.072,0.071H4.307h-0.72V16.69h0.504v-1.729l0,0l0,0v-3.601V5.673
	l0,0L4.019,5.53l0,0L3.875,5.458H3.73H3.587V4.666H3.73l0,0L4.09,4.81l0.36,0.144l0,0l0.144,0.288l0.072,0.432v5.256h1.151l0,0
	l-0.504-0.36l-0.432-0.36l0,0l-0.072-0.072l-0.07-0.217l0.072-0.144V9.706l0,0h0.072l0,0l0,0l0.36-0.36l0.432-0.288l0.36-0.288
	l0.504-0.216l0,0L7.115,8.41l0.504-0.144l0.648-0.072h0.576v0.648l-1.08,0.216L6.827,9.273l0,0l-0.72,0.288l-0.576,0.36l0,0
	l0.576,0.36l0.72,0.288l0,0l0.936,0.288l1.08,0.072v0.72H4.667l0,0l0,0v2.88h4.176V15.25z M3.587,17.336H2.795l0,0H2.723
	l-0.216-0.071v-0.144l-0.072-0.146V5.673l0,0l0.072-0.432l0.288-0.288l0,0L3.011,4.81l0.432-0.144h0.145v0.792H3.442l0,0H3.299
	L3.155,5.53l0,0L3.083,5.673v11.016h0.504V17.336z"/>
</svg>
