<?xml version="1.0" encoding="utf-8"?>
<!-- Generator: Adobe Illustrator 16.0.0, SVG Export Plug-In . SVG Version: 6.00 Build 0)  -->
<!DOCTYPE svg PUBLIC "-//W3C//DTD SVG 1.1//EN" "http://www.w3.org/Graphics/SVG/1.1/DTD/svg11.dtd">
<svg version="1.1" id="圖層_1" xmlns="http://www.w3.org/2000/svg" xmlns:xlink="http://www.w3.org/1999/xlink" x="0px" y="0px"
	 width="56.693px" height="56.693px" viewBox="0 0 56.693 56.693" enable-background="new 0 0 56.693 56.693" xml:space="preserve">
<polygon fill-rule="evenodd" clip-rule="evenodd" fill="#9E9E9F" points="8.487,29.721 10.121,29.872 13.517,26.991 11.884,26.991 
	"/>
<polygon fill-rule="evenodd" clip-rule="evenodd" fill="#9E9E9F" points="26.587,22.113 26.587,22.113 26.156,22.177 25.683,22.284 
	25.189,22.434 24.652,22.628 24.093,22.843 23.533,23.058 22.458,23.552 21.47,24.025 20.653,24.433 19.901,24.842 21.921,27.207 
	22.76,27.055 24.738,26.733 27.015,26.368 28.026,26.238 28.821,26.153 29.552,26.132 30.412,26.109 32.26,26.109 33.787,26.153 
	34.43,26.153 33.959,22.477 32.669,22.24 30.906,22.091 29.637,21.984 28.95,21.941 28.628,21.941 28.348,21.962 27.768,22.004 "/>
<polygon fill-rule="evenodd" clip-rule="evenodd" fill="#9E9E9F" points="38.73,26.583 47.135,26.991 46.92,25.035 38.344,23.38 "/>
<path fill-rule="evenodd" clip-rule="evenodd" fill="#9E9E9F" d="M23.104,32.752L23.104,32.752l-0.065,0.043l-0.107,0.064
	l-0.323,0.28l-0.881,0.795l-1.226,1.16l-10.124,0.473l0.537-0.106l0.581-0.151l0.257-0.107l0.237-0.107l0.215-0.107l0.151-0.107
	l0.128-0.15l0.107-0.15l0.215-0.301l0.151-0.279l0.129-0.279l0.042-0.15l0.044-0.193l0.042-0.451l0.064-0.603v-0.258l-0.022-0.258
	l-0.021-0.28l-0.043-0.128l-0.043-0.129l-0.064-0.129l-0.064-0.13l-0.107-0.13l-0.108-0.106l-0.15-0.107l-0.172-0.107l-0.172-0.107
	l-0.236-0.086l-0.623-0.215l-0.193-0.043l-0.129-0.021l-0.323-0.021l-0.236-0.044l-0.322-0.042l-0.366-0.064l-0.387-0.043
	l-0.645-0.022H8.401l-0.172,0.022l-4.041,0.107l0.279-0.388v0.064l0.021,0.021L4.511,29.7l0.516,0.043h0.301L5.457,29.7h0.021
	l1.784-2.795l-0.365-0.086l-0.28-0.042H6.51H6.446l0.946-1.334L7.348,25.53v0.063l0.021,0.043l0.022,0.065l0.085,0.086l0.086,0.086
	l0.108,0.043l0.193,0.064l0.452,0.086l0.43,0.064l0.193,0.021h0.236h0.28l0.709-0.064l0.817-0.107l0.902-0.13l0.86-0.149l0.795-0.15
	l0.645-0.151l0.408-0.107l0.065-0.021l0.452,2l0.301,1.311l0.279,1.29l0.107,0.666l0.108,0.645l0.043,0.645l0.021,0.322v0.323
	l-0.043,0.322v0.064l-0.021,0.086l-0.043,0.15l-0.15,0.667l-0.129,0.666l-0.13,0.666l0.28-0.623l0.257-0.624l0.237-0.623
	l0.064-0.172l0.021-0.086l0.021-0.021l22.312-2l16.336-1.804L23.104,32.752z M32.927,33.267L32.927,33.267l-0.043-0.172l-0.086-0.15
	l-0.086-0.129l-0.107-0.129l0.709-0.086L32.927,33.267z M29.424,33.074L29.424,33.074h0.085l-0.043,0.065L29.424,33.074z
	 M29.079,35.998L29.079,35.998l0.129-0.107l0.107-0.107l0.13-0.129l0.085-0.13l0.087-0.128l0.085-0.15l0.065-0.151l0.043-0.172
	l0.129,0.129l0.149,0.107l0.151,0.107l0.172,0.086l0.173,0.065l0.192,0.043l0.193,0.042h0.193L29.079,35.998z M25.769,33.526
	L25.769,33.526l0.321-0.044l-0.064,0.15l-0.063,0.151L25.769,33.526z M25.06,36.922L25.06,36.922l0.214-0.107l0.193-0.15l0.171-0.15
	l0.152-0.173l0.15-0.171l0.128-0.216l0.087-0.215l0.085-0.215l0.108,0.151l0.128,0.129l0.151,0.128l0.172,0.13l0.171,0.085
	l0.172,0.087l0.194,0.064l0.193,0.042L25.06,36.922z M54.98,25.917v0.86l-4.836-1.097v0.258v1.418L54.98,27.7v0.946l-5.073,0.559
	l-0.451-4.814l-1.096-0.193v0.193l0.602,4.923L38.58,30.452l-1.956,0.172l0.044-0.172l0.021-0.258l0.021-0.774l-0.021-0.967
	l-0.021-1.075l-0.065-2.063v-0.817v-0.494V23.81l-0.022-0.237l-0.063-0.559l-0.107-0.602l-0.129-0.645l-0.236-1.075l-0.108-0.472
	L54.98,25.917z M55.109,29.656l0.193-0.043V25.68l-9.113-2.859l-2.215-0.731l-2.385-0.773l-2.881-0.904l-3.074-0.924l-1.548-0.45
	l-1.505-0.431l-1.438-0.388l-1.313-0.343l-1.159-0.28l-0.989-0.193l-0.43-0.064l-0.494-0.043l-1.139-0.064l-1.118-0.021h-0.86
	l-0.473,0.064l-0.688,0.086l-1.763,0.279l-1.741,0.323l-0.666,0.129l-0.408,0.108l0.387-0.044l0.925-0.108l0.537-0.042h0.516
	l0.473,0.021l0.215,0.022l0.171,0.043l0.28,0.086l0.3,0.085l0.28,0.065l0.258,0.106l0.236,0.108l0.107,0.086l0.086,0.085
	l0.108,0.086l0.085,0.107l0.065,0.151l0.064,0.15l0.042,0.15l0.021,0.129l-0.021,0.13l-0.021,0.106l-0.042,0.109l-0.065,0.084
	l-0.128,0.151l-0.237,0.194l-0.022,0.021l-0.022,0.021l0.022,0.021l0.064,0.021l0.086-0.021l0.193-0.021l0.537-0.172l0.731-0.236
	l0.838-0.279l1.656-0.58l0.645-0.215l0.451-0.108l0.494-0.085l0.453-0.022l0.559,0.022h0.858l0.28,0.021l0.365,0.043l0.387,0.085
	l0.43,0.086l0.926,0.236l0.923,0.28l0.881,0.28l0.731,0.257l0.667,0.237l0.257,0.065l-1.977-0.366h0.044l0.084,0.107l0.087,0.086
	l0.063,0.129l0.087,0.171l0.106,0.215l0.087,0.301l0.086,0.408l0.063,0.473l0.065,0.56l0.15,1.375l0.15,1.698l0.064,0.838
	l0.021,0.838v0.817l-0.021,0.773l-0.064,1.312l-0.064,0.816l-18.528,1.677l0.021-0.323l0.022-0.301v-0.344l-0.022-0.343
	l-0.086-0.688l-0.107-0.688l-0.151-0.667l-0.171-0.666l-0.172-0.645l-0.215-0.646l-0.237-0.645l-0.236-0.623l-0.279-0.667
	l0.559-0.278l0.774-0.431l1.763-1.052l1.569-0.947l0.667-0.408l1.075-0.882l0.817-0.731l0.344-0.322l0.236-0.258l0.107-0.151
	l0.065-0.128l0.042-0.13v-0.107v-0.108l-0.021-0.085l-0.043-0.064l-0.043-0.043l-0.236-0.15l-0.236-0.129l-0.258-0.129l-0.236-0.085
	l-0.517-0.152l-0.451-0.106l-0.408-0.065L20.03,18.22l-0.279-0.02h-0.28l-0.688,0.02l-0.451,0.044l-0.494,0.065l-0.516,0.085
	l-0.495,0.129l-0.279,0.107l-0.301,0.151l-0.365,0.171l-0.387,0.215l-0.838,0.494l-0.881,0.582l-0.86,0.558l-0.774,0.559
	l-0.645,0.451l-0.43,0.345l-1.934,1.59l-0.968,0.86L7.8,24.949l-0.237,0.236l-0.129,0.172l-1.59,2.064l-1.01,1.354l-0.86,1.161
	l-0.408,0.58l-0.107,0.215L3.372,30.86l-0.064,0.258l-0.086,0.323l-0.064,0.386l-0.064,0.409l-0.021,0.43v0.387v0.172l0.042,0.151
	l0.022,0.15L3.2,33.633l0.129,0.215l0.172,0.237L3.716,34.3l0.193,0.215l0.408,0.365l0.279,0.215l0.28,0.151l0.408,0.193l0.43,0.172
	l0.236,0.064l0.193,0.042l0.258,0.021l0.344,0.021H6.617H6.79l0.193,0.022l0.193,0.043l0.193,0.086l0.086,0.042l0.085,0.044
	l0.065,0.064l0.043,0.064l0.021,0.085v0.087L7.585,36.75l-0.064,0.301l-0.065,0.215L7.369,37.48l-5.051,0.925v0.988l8.254-1.697
	l2.042-0.151l0.774-0.064l0.472-0.021l0.43-0.021l0.838-0.063l2.235-0.194L20.46,36.9v-0.517l-0.022-0.407l0.022-0.259l-0.022-0.021
	h-0.043H20.18l-0.774,0.021l-2.45,0.173l-2.773,0.172l-1.139,0.064l-0.817,0.043h-1.375l-1.44,0.042L7.8,36.234l12.811-0.667
	l0.452-0.387l0.451-0.387l0.495-0.387l-0.043,0.258l-0.021,0.279l0.021,0.215l0.021,0.215l0.064,0.216l0.064,0.193l0.087,0.193
	l0.106,0.193l0.129,0.15l0.15,0.172l0.151,0.129l0.15,0.129l0.193,0.107l0.193,0.107l0.193,0.064l0.215,0.064l0.215,0.022
	l0.214,0.021h0.043l-11.371,2.621L2.319,42.016v1.16l10.446-2.429l20.162-4.815l-0.58-0.128l-0.021-0.559l-0.279,0.063l0.172-0.107
	l0.149-0.086l0.13-0.129l0.129-0.129l0.107-0.15l0.086-0.151l0.086-0.171l0.043-0.172l1.332-0.258l1.483-0.302l1.698-0.387
	l0.172-0.301l0.345-0.688l0.172-0.365l0.128-0.322l0.044-0.15l0.021-0.107v-0.064L38.3,31.226l-0.021-0.021v-0.022l0.108-0.021
	l0.408-0.043l0.688-0.021l-0.882,1.87l2.751-0.473l0.387-0.731l0.259-0.558l0.085-0.216l0.044-0.129v-0.043l0.021-0.021l0.064-0.043
	l0.085-0.043h0.108l0.215-0.022l0.086,0.022l-0.216,0.731l-0.149,0.515l-0.107,0.28l0.021,0.021h0.086l0.365-0.064L43.868,32
	l1.676-0.344l0.431-1.14l1.72-0.172l-0.56,0.989l2.708-0.581l0.43-0.881l0.624-0.107l-0.344,0.773l4.428-0.86l0.086-0.021H55.109z"
	/>
</svg>
