<?xml version="1.0" encoding="utf-8"?>
<!-- Generator: Adobe Illustrator 16.0.0, SVG Export Plug-In . SVG Version: 6.00 Build 0)  -->
<!DOCTYPE svg PUBLIC "-//W3C//DTD SVG 1.1//EN" "http://www.w3.org/Graphics/SVG/1.1/DTD/svg11.dtd">
<svg version="1.1" id="圖層_1" xmlns="http://www.w3.org/2000/svg" xmlns:xlink="http://www.w3.org/1999/xlink" x="0px" y="0px"
	 width="28.917px" height="21.583px" viewBox="0 0 28.917 21.583" enable-background="new 0 0 28.917 21.583" xml:space="preserve">
<g>
	<g>
		<path fill="#555555" d="M19.642,16.618L19.642,16.618v-0.505h0.145l0.145,0.216l0,0l-0.145,0.217L19.642,16.618L19.642,16.618z
			 M19.642,17.77h0.72l0.433-0.145l0.359-0.071l0,0l0.288-0.216l0.288-0.289l0,0l0.646-0.791l0.217-0.432l0,0l0.072-0.361l0,0
			v-1.151h3.313l0,0l0,0l0.288-0.071l0.288-0.145l0.144-0.288l0.072-0.216l0,0V5.098l-0.072-0.432l-0.144-0.144l-0.288-0.216
			l-0.288-0.072l0,0h-6.336v0.648h6.336l0,0v0.072l0.145,0.145v8.496l0,0h-0.145v0.071h-3.313l0,0l0,0v-1.655l0,0v-0.288
			l-0.072-0.288l-0.217-0.288l-0.215-0.144l0,0l-0.434-0.288l-0.646-0.144H20.36v-4.61l0,0l-0.069-0.216l-0.217-0.072h-0.433v0.648
			h0.071v0.288h-0.071v0.504h0.071l0,0l0,0v0.216h-0.071v0.576h0.071l0,0l0,0v0.288h-0.071v0.504h0.071l0,0l0,0v0.288h-0.071v0.576
			h0.071l0,0l0,0V9.85h-0.071v0.504h0.071l0,0l0,0v0.216h-0.071v0.72h1.438l0.36,0.072l0.288,0.217l0,0l0.145,0.146l0.146,0.288l0,0
			v3.096l0,0l0,0h-2.376v0.646h2.23l0,0l-0.07,0.072l-0.648,0.864l0,0l-0.287,0.216l0,0l-0.505,0.072h-0.72V17.77L19.642,17.77z
			 M19.642,14.817v-0.576h1.225l0.215,0.072l0.072,0.216l0,0l-0.072,0.144l-0.215,0.146l0,0L19.642,14.817L19.642,14.817z
			 M19.642,13.954v-0.576h1.225l0.215,0.071l0.072,0.216l0,0l-0.072,0.146l-0.215,0.146l0,0h-1.225V13.954z M19.642,13.088v-0.504
			h1.225h0.215l0.072,0.217l0,0l-0.072,0.216l-0.215,0.071l0,0H19.642L19.642,13.088z M19.642,12.226v-0.504h1.225h0.215
			l0.072,0.216l0,0l-0.072,0.216l-0.215,0.072l0,0H19.642z M19.498,16.618h0.146v-0.505h-0.146V16.618L19.498,16.618z
			 M19.642,16.618L19.642,16.618L19.642,16.618z M19.642,4.233v0.648h-0.145V4.233H19.642L19.642,4.233z M19.642,5.673v0.648h-0.145
			V5.673H19.642L19.642,5.673z M19.642,6.609v0.504h-0.145V6.609H19.642L19.642,6.609z M19.642,7.329v0.576h-0.145V7.329H19.642
			L19.642,7.329z M19.642,8.193v0.504h-0.145l0,0v0.288h0.145v0.576h-0.145l0,0V9.85h0.145v0.504h-0.145v-2.16L19.642,8.193
			L19.642,8.193z M19.642,10.569v0.72h-0.145v-0.72H19.642L19.642,10.569z M19.642,11.722v0.504h-0.145v-0.504H19.642L19.642,11.722
			z M19.642,12.584v0.504h-0.145v-0.504H19.642L19.642,12.584z M19.642,13.377v0.576h-0.145v-0.576H19.642L19.642,13.377z
			 M19.642,14.241v0.576h-0.145v-0.576H19.642L19.642,14.241z M19.642,15.105v0.647h-0.145v-0.647H19.642L19.642,15.105z
			 M19.642,16.978v0.792h-0.145v-0.792H19.642z M18.707,16.618h0.791v-0.505h-0.791V16.618L18.707,16.618z M19.498,4.233v0.648
			h-0.791V4.233H19.498L19.498,4.233z M19.498,5.673v0.648h-0.791V5.673H19.498L19.498,5.673z M19.498,6.609v0.504h-0.791V6.609
			H19.498L19.498,6.609z M19.498,7.329v0.576H19.21l0,0l0.145,0.288H19.5v2.16h-0.145l0,0l-0.145,0.216h0.287v0.72h-0.791v-0.864
			l0.07-0.072h-0.07V9.85h0.215l0,0l0.145-0.288h-0.359V8.985h0.359l0,0l0,0l0,0l-0.145-0.288h-0.215V8.193h0.07l0,0l0,0l0,0
			l-0.07-0.072V7.257h0.07l0,0l0.072,0.072H19.498L19.498,7.329z M19.498,11.722v0.504h-0.791v-0.504H19.498L19.498,11.722z
			 M19.498,12.584v0.504h-0.791v-0.504H19.498L19.498,12.584z M19.498,13.377v0.576h-0.791v-0.576H19.498L19.498,13.377z
			 M19.498,14.241v0.576h-0.432l-0.216-0.145l-0.072-0.145l0,0l0.072-0.216l0.216-0.072l0,0l0,0L19.498,14.241L19.498,14.241z
			 M19.498,15.105v0.647h-0.791v-0.647H19.498L19.498,15.105z M19.498,16.978v0.792h-0.791v-0.792H19.498z M17.841,16.113
			L17.841,16.113h-0.215l-0.072,0.216l0,0l0.072,0.217l0.215,0.072h0.865v-0.505H17.841L17.841,16.113L17.841,16.113z M18.707,4.233
			v0.648h-1.943V4.233H18.707L18.707,4.233z M18.707,5.673v0.648h-1.943V5.673H18.707L18.707,5.673z M18.707,6.609v0.504H18.49l0,0
			l0.217,0.144v0.864l-0.145-0.216h-1.8V7.329h1.224l0,0l0,0l0,0L17.41,7.113h-0.646V6.537l0.646,0.072H18.707L18.707,6.609z
			 M18.707,8.193v0.504h-1.943V8.193H18.707L18.707,8.193z M18.707,8.985v0.576h-1.943V8.985H18.707L18.707,8.985z M18.707,9.85
			v0.504h-1.943V9.85H18.707L18.707,9.85z M18.707,10.425v0.864h-1.943v-0.72h1.943l0,0l0,0l0,0V10.425L18.707,10.425z
			 M18.707,11.722v0.504h-1.943v-0.504H18.707L18.707,11.722z M18.707,12.584v0.504h-1.943v-0.504H18.707L18.707,12.584z
			 M18.707,13.377v0.576h-1.943v-0.576H18.707L18.707,13.377z M18.707,15.105v0.647h-1.943v-0.647H18.707L18.707,15.105z
			 M18.707,16.978v0.792h-1.943v-0.792H18.707z M16.762,4.233v0.648h-2.88V4.233H16.762L16.762,4.233z M16.762,5.673v0.648h-2.88
			V5.673H16.762L16.762,5.673z M16.762,6.537v0.576h-0.648l0,0l-0.575,0.216h1.225v0.576h-1.801l0,0l-0.215,0.288h2.016v0.504h-2.16
			l0,0l-0.145,0.288h2.304v0.576h-2.304l0,0l0.145,0.288l0,0l0,0h2.16v0.504h-2.016l0,0l0.144,0.216h1.872v0.72h-2.88v-0.72h0.432
			l0,0l0,0l0,0l-0.145-0.216h-0.288V9.85h0.144l0,0V9.562h-0.144V8.985h0.144l0,0V8.697h-0.144V8.193h0.288l0,0l0.145-0.288h-0.432
			V7.329h0.792l0,0l0.072-0.072l0,0l0.29-0.144h-1.154V6.609h2.088l0,0L16.762,6.537L16.762,6.537L16.762,6.537L16.762,6.537z
			 M16.762,11.722v0.504h-2.88v-0.504H16.762L16.762,11.722z M16.762,12.584v0.504h-2.88v-0.504H16.762L16.762,12.584z
			 M16.762,13.377v0.576h-2.88v-0.576H16.762L16.762,13.377z M16.762,15.105v0.647h-2.88v-0.647H16.762L16.762,15.105z
			 M16.762,16.978v0.792h-2.88v-0.792H16.762z M13.882,4.233v0.648h-0.936l-0.072,0.072L12.73,5.098l0,0v5.472h0.432V5.961
			l0.072-0.216l0.216-0.072l0,0h0.432v0.648H13.81v0.288l0,0l0,0h0.072v0.504H13.81v0.216l0,0l0,0h0.072v0.576H13.81v0.288l0,0l0,0
			h0.072v0.504H13.81v0.288l0,0l0,0h0.072v0.576H13.81V9.85l0,0l0,0h0.072v0.504H13.81v0.216h0.072v0.72H3.586l0,0l-0.288,0.072
			l-0.36,0.217l0,0l-0.072,0.146l-0.072,0.288v3.096h11.088v0.646H2.866v0.072l0,0l0,0l0,0l0.648,0.864l0.36,0.216l0,0l0.432,0.072
			l0,0h9.576v0.792H4.306l0,0l-0.432-0.144l-0.288-0.072l0,0l-0.359-0.217L3.01,17.049l-0.648-0.793l0,0l-0.288-0.433l0,0v-0.358
			v-3.457l0,0v-0.287l0.144-0.288l0.144-0.288l0.216-0.144l0,0l0.432-0.288l0.576-0.144h8.496V5.098l0,0l0.144-0.432l0.072-0.144
			l0.288-0.216l0.36-0.072L13.882,4.233L13.882,4.233z M13.882,11.722H3.802l0,0l0,0l0,0H3.586v0.216l0,0v0.216l0.216,0.072h10.08
			V11.722L13.882,11.722z M13.882,12.584H3.802l0,0l0,0l0,0H3.586v0.217l0,0v0.216l0.216,0.071h10.08V12.584L13.882,12.584z
			 M13.882,13.377H3.802l0,0l0,0l0,0l-0.216,0.07v0.217l0,0v0.145l0.216,0.145h10.08V13.377z"/>
	</g>
	<polygon fill="#FFFFFF" points="22.666,13.667 25.979,13.667 25.979,13.667 25.979,13.593 26.123,13.593 26.123,5.098 
		26.123,5.098 25.979,4.953 25.979,4.881 12.946,4.881 12.946,4.881 12.874,4.953 12.73,5.098 12.73,10.569 13.162,10.569 
		13.162,5.961 13.162,5.961 13.234,5.745 13.45,5.673 20.074,5.673 20.074,5.673 20.291,5.745 20.362,5.961 20.362,10.569 
		21.082,10.569 21.082,10.569 21.73,10.713 22.162,11.001 22.162,11.001 22.378,11.146 22.594,11.434 22.666,11.722 22.666,12.008 	
		"/>
	<path fill="#FFFFFF" d="M18.707,16.618h0.937l0,0l0.146-0.072l0.144-0.217l0,0l-0.144-0.216h-0.146h-0.937v-0.36h3.168l0,0
		l-0.071,0.072l-0.648,0.864l0,0l-0.286,0.216l0,0l-0.506,0.072h-1.654v-0.359H18.707z M17.841,16.113L17.841,16.113h-0.215
		l-0.072,0.216l0,0l0.072,0.217l0.215,0.072h0.865v0.359h-14.4l0,0l-0.432-0.072l0,0l-0.36-0.216l-0.648-0.864l0,0l0,0v-0.072h15.84
		v0.36H17.841L17.841,16.113z"/>
</g>
</svg>
