<?xml version="1.0" encoding="utf-8"?>
<!-- Generator: Adobe Illustrator 16.0.0, SVG Export Plug-In . SVG Version: 6.00 Build 0)  -->
<!DOCTYPE svg PUBLIC "-//W3C//DTD SVG 1.1//EN" "http://www.w3.org/Graphics/SVG/1.1/DTD/svg11.dtd">
<svg version="1.1" id="圖層_1" xmlns="http://www.w3.org/2000/svg" xmlns:xlink="http://www.w3.org/1999/xlink" x="0px" y="0px"
	 width="28.917px" height="21.583px" viewBox="0 0 28.917 21.583" enable-background="new 0 0 28.917 21.583" xml:space="preserve">
<g>
	<polygon fill="#555555" points="18.167,15.717 4.63,15.717 4.63,15.717 4.271,15.717 3.911,15.574 3.623,15.429 3.334,15.213 
		3.119,14.854 2.975,14.565 2.831,14.277 2.831,13.845 2.831,4.845 2.831,4.845 2.831,4.485 2.975,4.125 3.119,3.766 3.334,3.478 
		3.623,3.261 3.911,3.118 4.271,3.045 4.63,2.974 20.903,2.974 20.903,2.974 21.263,3.045 21.623,3.118 21.912,3.261 22.199,3.478 
		22.416,3.766 22.63,4.125 22.703,4.485 22.703,4.845 22.703,6.861 21.982,6.861 21.982,4.845 21.982,4.845 21.982,4.629 
		21.912,4.414 21.837,4.198 21.695,4.053 21.55,3.91 21.333,3.766 21.119,3.766 20.903,3.693 4.63,3.693 4.63,3.693 4.415,3.766 
		4.199,3.766 4.055,3.91 3.838,4.053 3.695,4.198 3.623,4.414 3.55,4.629 3.55,4.845 3.55,13.845 3.55,13.845 3.55,14.062 
		3.623,14.277 3.695,14.495 3.838,14.637 4.055,14.782 4.199,14.924 4.415,14.999 4.63,14.999 18.167,14.999 	"/>
	<polygon fill="#555555" points="14.279,17.518 13.559,17.518 13.559,15.717 11.975,15.717 11.975,17.518 11.254,17.518 
		11.254,15.357 11.254,15.357 11.254,15.213 11.398,15.069 11.471,14.999 11.615,14.999 13.918,14.999 13.918,14.999 14.063,14.999 
		14.207,15.069 14.279,15.213 14.279,15.357 	"/>
	<polygon fill="#555555" points="16.005,18.668 15.287,18.668 15.287,18.668 15.214,18.454 15.143,18.31 15.143,18.238 15,18.093 
		14.926,17.95 14.783,17.877 14.567,17.877 14.422,17.877 11.111,17.877 11.111,17.877 10.966,17.877 10.823,17.877 10.679,17.95 
		10.535,18.093 10.462,18.238 10.391,18.31 10.319,18.454 10.319,18.668 9.599,18.668 9.599,18.668 9.599,18.31 9.743,18.093 
		9.814,17.805 10.031,17.588 10.247,17.374 10.535,17.229 10.823,17.159 11.111,17.159 14.422,17.159 14.422,17.159 14.71,17.159 
		15,17.229 15.287,17.374 15.501,17.588 15.718,17.805 15.863,18.093 15.935,18.31 	"/>
	<rect x="3.19" y="12.911" fill="#555555" width="14.976" height="0.719"/>
	<rect x="11.183" y="13.99" fill="#555555" width="3.24" height="0.72"/>
	<path fill="#555555" d="M25.655,19.03h-3.096v-0.72h2.735V8.301h-2.735v-0.72h3.096l0,0h0.144l0.146,0.072l0.072,0.144v0.144
		v10.728l0,0v0.146l-0.072,0.146h-0.146L25.655,19.03L25.655,19.03z M22.559,19.03h-3.168l0,0l-0.144-0.072h-0.146v-0.144
		L19.03,18.67V7.941l0,0l0.072-0.144V7.653l0.146-0.072h0.144h3.168v0.72h-2.81V18.31h2.809L22.559,19.03L22.559,19.03z"/>
	<rect x="21.263" y="16.508" fill="#555555" width="2.52" height="0.721"/>
</g>
</svg>
