<?xml version="1.0" encoding="utf-8"?>
<!-- Generator: Adobe Illustrator 16.0.0, SVG Export Plug-In . SVG Version: 6.00 Build 0)  -->
<!DOCTYPE svg PUBLIC "-//W3C//DTD SVG 1.1//EN" "http://www.w3.org/Graphics/SVG/1.1/DTD/svg11.dtd">
<svg version="1.1" id="圖層_1" xmlns="http://www.w3.org/2000/svg" xmlns:xlink="http://www.w3.org/1999/xlink" x="0px" y="0px"
	 width="85.039px" height="85.039px" viewBox="0 0 85.039 85.039" enable-background="new 0 0 85.039 85.039" xml:space="preserve">
<g>
	<path fill-rule="evenodd" clip-rule="evenodd" fill="#ABA8A8" d="M72.214,47.603L72.214,47.603z"/>
	<path fill="none" stroke="#969494" stroke-width="0.216" stroke-miterlimit="10" d="M72.214,47.603L72.214,47.603z"/>
	<polygon fill-rule="evenodd" clip-rule="evenodd" fill="#ABA8A8" points="71.599,50.882 71.599,50.882 72.214,47.81 	"/>
	<polygon fill="none" stroke="#969494" stroke-width="0.216" stroke-miterlimit="10" points="71.599,50.882 71.599,50.882 
		72.214,47.81 	"/>
	<polygon fill-rule="evenodd" clip-rule="evenodd" fill="#ABA8A8" points="70.166,31.62 70.166,31.62 68.525,28.341 66.476,25.474 
		68.525,28.341 	"/>
	<polygon fill="none" stroke="#969494" stroke-width="0.216" stroke-miterlimit="10" points="70.166,31.62 70.166,31.62 
		68.525,28.341 66.476,25.474 68.525,28.341 	"/>
	<polygon fill-rule="evenodd" clip-rule="evenodd" fill="#ABA8A8" points="71.804,36.949 71.804,36.949 71.804,37.153 	"/>
	<polygon fill="none" stroke="#969494" stroke-width="0.216" stroke-miterlimit="10" points="71.804,36.949 71.804,36.949 
		71.804,37.153 	"/>
	<path fill-rule="evenodd" clip-rule="evenodd" fill="#ABA8A8" d="M70.575,32.851L70.575,32.851z"/>
	<path fill="none" stroke="#969494" stroke-width="0.216" stroke-miterlimit="10" d="M70.575,32.851L70.575,32.851z"/>
	<polygon fill-rule="evenodd" clip-rule="evenodd" fill="#ABA8A8" points="71.599,51.089 71.599,51.089 71.599,50.882 	"/>
	<polygon fill="none" stroke="#969494" stroke-width="0.216" stroke-miterlimit="10" points="71.599,51.089 71.599,51.089 
		71.599,50.882 	"/>
	<polygon fill-rule="evenodd" clip-rule="evenodd" fill="#ABA8A8" points="71.396,35.514 71.396,35.514 71.599,35.719 	"/>
	<polygon fill="none" stroke="#969494" stroke-width="0.216" stroke-miterlimit="10" points="71.396,35.514 71.396,35.514 
		71.599,35.719 	"/>
	<polygon fill-rule="evenodd" clip-rule="evenodd" fill="#ABA8A8" points="72.214,47.603 72.214,47.603 72.214,46.989 	"/>
	<polygon fill="none" stroke="#969494" stroke-width="0.216" stroke-miterlimit="10" points="72.214,47.603 72.214,47.603 
		72.214,46.989 	"/>
	<polygon fill-rule="evenodd" clip-rule="evenodd" fill="#ABA8A8" points="72.623,43.3 72.623,43.3 72.418,42.89 	"/>
	<polygon fill="none" stroke="#969494" stroke-width="0.216" stroke-miterlimit="10" points="72.623,43.3 72.623,43.3 72.418,42.89 
			"/>
	<polygon fill-rule="evenodd" clip-rule="evenodd" fill="#ABA8A8" points="72.418,41.251 72.418,41.251 72.418,41.866 	"/>
	<polygon fill="none" stroke="#969494" stroke-width="0.216" stroke-miterlimit="10" points="72.418,41.251 72.418,41.251 
		72.418,41.866 	"/>
	<polygon fill-rule="evenodd" clip-rule="evenodd" fill="#ABA8A8" points="70.985,34.08 70.985,34.08 71.188,34.284 	"/>
	<polygon fill="none" stroke="#969494" stroke-width="0.216" stroke-miterlimit="10" points="70.985,34.08 70.985,34.08 
		71.188,34.284 	"/>
	<polygon fill-rule="evenodd" clip-rule="evenodd" fill="#ABA8A8" points="72.418,44.12 72.418,44.12 72.418,44.326 	"/>
	<polygon fill="none" stroke="#969494" stroke-width="0.216" stroke-miterlimit="10" points="72.418,44.12 72.418,44.12 
		72.418,44.326 	"/>
	<polygon fill-rule="evenodd" clip-rule="evenodd" fill="#ABA8A8" points="68.936,57.645 68.936,57.645 70.166,54.981 
		70.985,53.139 71.599,51.089 70.985,53.139 70.166,55.185 	"/>
	<polygon fill="none" stroke="#969494" stroke-width="0.216" stroke-miterlimit="10" points="68.936,57.645 68.936,57.645 
		70.166,54.981 70.985,53.139 71.599,51.089 70.985,53.139 70.166,55.185 	"/>
	<polygon fill-rule="evenodd" clip-rule="evenodd" fill="#ABA8A8" points="72.214,39.817 72.214,39.817 72.418,40.226 	"/>
	<polygon fill="none" stroke="#969494" stroke-width="0.216" stroke-miterlimit="10" points="72.214,39.817 72.214,39.817 
		72.418,40.226 	"/>
	<polygon fill-rule="evenodd" clip-rule="evenodd" fill="#ABA8A8" points="72.418,45.967 72.418,45.967 72.418,46.579 	"/>
	<polygon fill="none" stroke="#969494" stroke-width="0.216" stroke-miterlimit="10" points="72.418,45.967 72.418,45.967 
		72.418,46.579 	"/>
	<polygon fill-rule="evenodd" clip-rule="evenodd" fill="#ABA8A8" points="72.009,38.383 72.009,38.383 72.214,38.793 	"/>
	<polygon fill="none" stroke="#969494" stroke-width="0.216" stroke-miterlimit="10" points="72.009,38.383 72.009,38.383 
		72.214,38.793 	"/>
	<polygon fill-rule="evenodd" clip-rule="evenodd" fill="#ABA8A8" points="72.418,45.146 72.418,45.146 72.418,45.555 	"/>
	<polygon fill="none" stroke="#969494" stroke-width="0.216" stroke-miterlimit="10" points="72.418,45.146 72.418,45.146 
		72.418,45.555 	"/>
	<polygon fill-rule="evenodd" clip-rule="evenodd" fill="#ABA8A8" points="57.254,42.686 57.254,42.686 57.254,43.097 	"/>
	<polygon fill="none" stroke="#969494" stroke-width="0.216" stroke-miterlimit="10" points="57.254,42.686 57.254,42.686 
		57.254,43.097 	"/>
	<polygon fill-rule="evenodd" clip-rule="evenodd" fill="#ABA8A8" points="57.869,40.637 57.869,40.637 57.254,40.226 
		56.846,40.021 56.641,40.226 56.846,40.637 56.641,40.226 56.846,40.021 57.254,40.226 57.869,40.841 58.894,41.661 59.714,43.097 
		59.714,42.89 58.688,41.661 	"/>
	<polygon fill="none" stroke="#969494" stroke-width="0.216" stroke-miterlimit="10" points="57.869,40.637 57.869,40.637 
		57.254,40.226 56.846,40.021 56.641,40.226 56.846,40.637 56.641,40.226 56.846,40.021 57.254,40.226 57.869,40.841 58.894,41.661 
		59.714,43.097 59.714,42.89 58.688,41.661 	"/>
	<polygon fill-rule="evenodd" clip-rule="evenodd" fill="#ABA8A8" points="45.984,25.063 45.984,25.063 47.624,25.268 	"/>
	<polygon fill="none" stroke="#969494" stroke-width="0.216" stroke-miterlimit="10" points="45.984,25.063 45.984,25.063 
		47.624,25.268 	"/>
	<polygon fill-rule="evenodd" clip-rule="evenodd" fill="#ABA8A8" points="43.319,64.203 43.319,64.203 42.706,63.177 
		42.296,61.947 42.091,60.719 42.091,59.284 42.091,56.414 42.091,55.185 41.887,53.955 41.682,52.932 41.272,52.112 40.862,51.499 
		40.247,51.089 40.862,51.499 41.272,52.112 41.682,52.932 41.887,53.955 42.091,55.185 42.091,56.414 42.091,59.284 42.091,60.719 
		42.296,61.947 42.501,63.177 43.116,64.203 43.729,64.816 44.14,65.227 44.756,65.637 45.166,65.637 44.756,65.434 44.347,65.227 
		43.729,64.816 	"/>
	<polygon fill="none" stroke="#969494" stroke-width="0.216" stroke-miterlimit="10" points="43.319,64.203 43.319,64.203 
		42.706,63.177 42.296,61.947 42.091,60.719 42.091,59.284 42.091,56.414 42.091,55.185 41.887,53.955 41.682,52.932 41.272,52.112 
		40.862,51.499 40.247,51.089 40.862,51.499 41.272,52.112 41.682,52.932 41.887,53.955 42.091,55.185 42.091,56.414 42.091,59.284 
		42.091,60.719 42.296,61.947 42.501,63.177 43.116,64.203 43.729,64.816 44.14,65.227 44.756,65.637 45.166,65.637 44.756,65.434 
		44.347,65.227 43.729,64.816 	"/>
	<polygon fill-rule="evenodd" clip-rule="evenodd" fill="#ABA8A8" points="39.632,31.211 39.632,31.211 39.223,30.187 
		38.607,29.571 37.788,29.366 37.378,29.366 36.968,29.571 37.378,29.366 37.788,29.366 38.607,29.571 39.223,30.391 	"/>
	<polygon fill="none" stroke="#969494" stroke-width="0.216" stroke-miterlimit="10" points="39.632,31.211 39.632,31.211 
		39.223,30.187 38.607,29.571 37.788,29.366 37.378,29.366 36.968,29.571 37.378,29.366 37.788,29.366 38.607,29.571 39.223,30.391 
			"/>
	<polygon fill-rule="evenodd" clip-rule="evenodd" fill="#ABA8A8" points="36.354,38.178 36.354,38.178 37.173,37.769 
		36.354,38.178 35.33,38.793 34.305,39.612 33.485,40.841 32.87,42.071 32.255,43.3 31.846,44.529 31.846,45.967 31.846,47.194 
		31.846,45.967 31.846,44.529 32.255,43.3 32.87,42.071 33.485,40.841 34.305,39.612 35.33,38.793 	"/>
	<polygon fill="none" stroke="#969494" stroke-width="0.216" stroke-miterlimit="10" points="36.354,38.178 36.354,38.178 
		37.173,37.769 36.354,38.178 35.33,38.793 34.305,39.612 33.485,40.841 32.87,42.071 32.255,43.3 31.846,44.529 31.846,45.967 
		31.846,47.194 31.846,45.967 31.846,44.529 32.255,43.3 32.87,42.071 33.485,40.841 34.305,39.612 35.33,38.793 	"/>
	<polygon fill-rule="evenodd" clip-rule="evenodd" fill="#ABA8A8" points="53.977,45.146 53.977,45.146 53.361,44.939 
		53.156,44.939 52.951,44.939 53.156,44.939 53.361,44.939 53.977,45.146 55.206,45.146 56.231,44.939 56.641,44.736 56.846,44.529 
		57.051,43.917 57.254,43.3 57.051,43.917 56.846,44.529 56.641,44.736 56.231,44.939 55.206,45.146 	"/>
	<polygon fill="none" stroke="#969494" stroke-width="0.216" stroke-miterlimit="10" points="53.977,45.146 53.977,45.146 
		53.361,44.939 53.156,44.939 52.951,44.939 53.156,44.939 53.361,44.939 53.977,45.146 55.206,45.146 56.231,44.939 56.641,44.736 
		56.846,44.529 57.051,43.917 57.254,43.3 57.051,43.917 56.846,44.529 56.641,44.736 56.231,44.939 55.206,45.146 	"/>
	<polygon fill-rule="evenodd" clip-rule="evenodd" fill="#ABA8A8" points="36.763,34.284 36.763,34.284 35.738,35.309 	"/>
	<polygon fill="none" stroke="#969494" stroke-width="0.216" stroke-miterlimit="10" points="36.763,34.284 36.763,34.284 
		35.738,35.309 	"/>
	<polygon fill-rule="evenodd" clip-rule="evenodd" fill="#ABA8A8" points="35.534,35.514 35.534,35.514 35.534,35.309 	"/>
	<polygon fill="none" stroke="#969494" stroke-width="0.216" stroke-miterlimit="10" points="35.534,35.514 35.534,35.514 
		35.534,35.309 	"/>
	<polygon fill-rule="evenodd" clip-rule="evenodd" fill="#ABA8A8" points="32.051,47.603 32.051,47.603 32.051,47.399 	"/>
	<polygon fill="none" stroke="#969494" stroke-width="0.216" stroke-miterlimit="10" points="32.051,47.603 32.051,47.603 
		32.051,47.399 	"/>
	<polygon fill-rule="evenodd" clip-rule="evenodd" fill="#ABA8A8" points="45.576,25.063 45.576,25.063 45.779,25.063 	"/>
	<polygon fill="none" stroke="#969494" stroke-width="0.216" stroke-miterlimit="10" points="45.576,25.063 45.576,25.063 
		45.779,25.063 	"/>
	<polygon fill-rule="evenodd" clip-rule="evenodd" fill="#ABA8A8" points="72.214,41.457 72.214,41.457 72.009,40.226 
		72.623,40.226 72.623,41.251 	"/>
	<polygon fill="none" stroke="#969494" stroke-width="0.216" stroke-miterlimit="10" points="72.214,41.457 72.214,41.457 
		72.009,40.226 72.623,40.226 72.623,41.251 	"/>
	<polygon fill-rule="evenodd" clip-rule="evenodd" fill="#ABA8A8" points="71.188,35.514 71.188,35.514 70.78,34.489 71.396,34.284 
		71.599,35.514 	"/>
	<polygon fill="none" stroke="#969494" stroke-width="0.216" stroke-miterlimit="10" points="71.188,35.514 71.188,35.514 
		70.78,34.489 71.396,34.284 71.599,35.514 	"/>
	<polygon fill-rule="evenodd" clip-rule="evenodd" fill="#ABA8A8" points="71.599,36.949 71.599,36.949 71.188,35.924 
		71.804,35.719 72.009,36.949 	"/>
	<polygon fill="none" stroke="#969494" stroke-width="0.216" stroke-miterlimit="10" points="71.599,36.949 71.599,36.949 
		71.188,35.924 71.804,35.719 72.009,36.949 	"/>
	<polygon fill-rule="evenodd" clip-rule="evenodd" fill="#ABA8A8" points="71.804,51.089 71.396,51.089 71.188,51.089 
		71.396,51.089 71.188,51.089 71.599,51.089 	"/>
	<polygon fill="none" stroke="#969494" stroke-width="0.216" stroke-miterlimit="10" points="71.804,51.089 71.396,51.089 
		71.188,51.089 71.396,51.089 71.188,51.089 71.599,51.089 	"/>
	<polygon fill-rule="evenodd" clip-rule="evenodd" fill="#ABA8A8" points="71.804,38.383 71.804,38.383 71.599,37.358 
		72.214,37.153 72.418,38.383 	"/>
	<polygon fill="none" stroke="#969494" stroke-width="0.216" stroke-miterlimit="10" points="71.804,38.383 71.804,38.383 
		71.599,37.358 72.214,37.153 72.418,38.383 	"/>
	<polygon fill-rule="evenodd" clip-rule="evenodd" fill="#ABA8A8" points="72.009,39.817 72.009,39.817 71.804,38.793 
		72.418,38.588 72.623,39.817 	"/>
	<polygon fill="none" stroke="#969494" stroke-width="0.216" stroke-miterlimit="10" points="72.009,39.817 72.009,39.817 
		71.804,38.793 72.418,38.588 72.623,39.817 	"/>
	<polygon fill-rule="evenodd" clip-rule="evenodd" fill="#ABA8A8" points="70.78,34.284 70.78,34.284 70.78,34.08 70.37,33.055 
		70.78,32.851 71.188,34.08 	"/>
	<polygon fill="none" stroke="#969494" stroke-width="0.216" stroke-miterlimit="10" points="70.78,34.284 70.78,34.284 
		70.78,34.08 70.37,33.055 70.78,32.851 71.188,34.08 	"/>
	<polygon fill-rule="evenodd" clip-rule="evenodd" fill="#ABA8A8" points="66.271,25.678 66.271,25.678 64.019,23.219 
		61.764,20.964 60.943,20.964 59.509,21.169 58.074,21.579 56.641,22.399 55.411,23.219 52.951,24.859 52.746,24.859 52.542,24.449 
		52.746,24.244 55.001,22.809 56.436,21.784 57.869,21.169 59.304,20.554 60.943,20.35 58.894,18.917 56.846,17.687 54.592,16.662 
		52.339,15.637 50.084,15.022 47.829,14.407 45.369,14.202 42.911,13.997 42.706,13.997 39.632,14.202 36.558,14.817 35.125,14.612 
		36.354,14.202 39.632,13.793 42.911,13.588 45.576,13.588 48.034,13.997 50.698,14.612 53.156,15.432 55.411,16.252 57.869,17.481 
		59.919,18.917 62.174,20.554 62.583,20.964 62.788,21.169 64.836,23.014 66.681,25.268 	"/>
	<polygon fill="none" stroke="#969494" stroke-width="0.216" stroke-miterlimit="10" points="66.271,25.678 66.271,25.678 
		64.019,23.219 61.764,20.964 60.943,20.964 59.509,21.169 58.074,21.579 56.641,22.399 55.411,23.219 52.951,24.859 52.746,24.859 
		52.542,24.449 52.746,24.244 55.001,22.809 56.436,21.784 57.869,21.169 59.304,20.554 60.943,20.35 58.894,18.917 56.846,17.687 
		54.592,16.662 52.339,15.637 50.084,15.022 47.829,14.407 45.369,14.202 42.911,13.997 42.706,13.997 39.632,14.202 36.558,14.817 
		35.125,14.612 36.354,14.202 39.632,13.793 42.911,13.588 45.576,13.588 48.034,13.997 50.698,14.612 53.156,15.432 55.411,16.252 
		57.869,17.481 59.919,18.917 62.174,20.554 62.583,20.964 62.788,21.169 64.836,23.014 66.681,25.268 	"/>
	<rect x="72.009" y="47.603" fill-rule="evenodd" clip-rule="evenodd" fill="#ABA8A8" width="0.409" height="0.207"/>
	
		<rect x="72.009" y="47.603" fill="none" stroke="#969494" stroke-width="0.216" stroke-miterlimit="10" width="0.409" height="0.207"/>
	<polygon fill-rule="evenodd" clip-rule="evenodd" fill="#ABA8A8" points="72.214,42.89 72.214,42.89 72.214,41.866 72.828,41.866 
		72.828,42.686 72.828,42.89 	"/>
	<polygon fill="none" stroke="#969494" stroke-width="0.216" stroke-miterlimit="10" points="72.214,42.89 72.214,42.89 
		72.214,41.866 72.828,41.866 72.828,42.686 72.828,42.89 	"/>
	<polygon fill-rule="evenodd" clip-rule="evenodd" fill="#ABA8A8" points="68.73,58.669 68.116,58.261 68.525,58.464 68.116,58.261 
		68.32,58.261 68.73,57.441 69.551,56.824 69.141,57.852 	"/>
	<polygon fill="none" stroke="#969494" stroke-width="0.216" stroke-miterlimit="10" points="68.73,58.669 68.116,58.261 
		68.525,58.464 68.116,58.261 68.32,58.261 68.73,57.441 69.551,56.824 69.141,57.852 	"/>
	<polygon fill-rule="evenodd" clip-rule="evenodd" fill="#ABA8A8" points="70.37,32.851 70.575,32.851 70.37,32.851 70.575,32.851 
		70.37,32.851 69.961,31.825 69.756,31.825 69.551,29.776 70.37,31.62 70.78,32.645 	"/>
	<polygon fill="none" stroke="#969494" stroke-width="0.216" stroke-miterlimit="10" points="70.37,32.851 70.575,32.851 
		70.37,32.851 70.575,32.851 70.37,32.851 69.961,31.825 69.756,31.825 69.551,29.776 70.37,31.62 70.78,32.645 	"/>
	<polygon fill-rule="evenodd" clip-rule="evenodd" fill="#ABA8A8" points="72.828,45.146 72.214,45.146 72.214,44.939 
		72.214,44.326 72.828,44.529 72.828,44.939 	"/>
	<polygon fill="none" stroke="#969494" stroke-width="0.216" stroke-miterlimit="10" points="72.828,45.146 72.214,45.146 
		72.214,44.939 72.214,44.326 72.828,44.529 72.828,44.939 	"/>
	<polygon fill-rule="evenodd" clip-rule="evenodd" fill="#ABA8A8" points="72.828,44.12 72.214,44.12 72.214,43.3 72.828,43.3 
		72.623,43.3 72.828,43.3 72.214,43.3 72.418,43.3 72.623,43.3 72.418,43.3 72.828,43.3 72.828,43.507 72.828,43.917 	"/>
	<polygon fill="none" stroke="#969494" stroke-width="0.216" stroke-miterlimit="10" points="72.828,44.12 72.214,44.12 
		72.214,43.3 72.828,43.3 72.623,43.3 72.828,43.3 72.214,43.3 72.418,43.3 72.623,43.3 72.418,43.3 72.828,43.3 72.828,43.507 
		72.828,43.917 	"/>
	<polygon fill-rule="evenodd" clip-rule="evenodd" fill="#ABA8A8" points="72.623,45.967 72.214,45.967 72.214,45.76 72.214,45.555 
		72.623,45.555 	"/>
	<polygon fill="none" stroke="#969494" stroke-width="0.216" stroke-miterlimit="10" points="72.623,45.967 72.214,45.967 
		72.214,45.76 72.214,45.555 72.623,45.555 	"/>
	<rect x="72.009" y="46.579" fill-rule="evenodd" clip-rule="evenodd" fill="#ABA8A8" width="0.614" height="0.41"/>
	
		<rect x="72.009" y="46.579" fill="none" stroke="#969494" stroke-width="0.216" stroke-miterlimit="10" width="0.614" height="0.41"/>
	<polygon fill-rule="evenodd" clip-rule="evenodd" fill="#ABA8A8" points="70.166,32.44 70.166,32.44 70.166,35.924 70.37,39.202 
		70.37,40.841 69.961,41.866 69.141,42.686 68.116,43.71 65.861,45.555 64.631,46.374 64.019,46.579 63.403,46.579 62.993,46.374 
		62.379,46.17 61.559,45.35 60.533,44.12 59.714,42.89 59.714,43.097 60.533,44.326 61.354,45.35 62.379,46.17 62.993,46.579 
		63.403,46.579 64.019,46.579 64.631,46.374 65.861,45.555 68.116,43.71 69.346,42.89 69.961,42.071 70.37,40.841 70.37,39.407 
		70.166,35.924 70.166,32.44 70.166,31.62 69.961,31.62 	"/>
	<polygon fill="none" stroke="#969494" stroke-width="0.216" stroke-miterlimit="10" points="70.166,32.44 70.166,32.44 
		70.166,35.924 70.37,39.202 70.37,40.841 69.961,41.866 69.141,42.686 68.116,43.71 65.861,45.555 64.631,46.374 64.019,46.579 
		63.403,46.579 62.993,46.374 62.379,46.17 61.559,45.35 60.533,44.12 59.714,42.89 59.714,43.097 60.533,44.326 61.354,45.35 
		62.379,46.17 62.993,46.579 63.403,46.579 64.019,46.579 64.631,46.374 65.861,45.555 68.116,43.71 69.346,42.89 69.961,42.071 
		70.37,40.841 70.37,39.407 70.166,35.924 70.166,32.44 70.166,31.62 69.961,31.62 	"/>
	<polygon fill-rule="evenodd" clip-rule="evenodd" fill="#ABA8A8" points="42.911,73.833 42.911,73.833 40.247,73.833 
		37.378,73.424 34.919,72.809 32.255,71.988 29.796,70.966 27.337,69.529 25.083,68.096 23.035,66.456 20.575,63.997 18.526,61.537 
		16.682,58.874 15.248,56.005 14.018,53.139 13.198,49.859 12.583,46.782 12.583,43.507 12.583,40.637 12.993,37.974 13.608,35.309 
		14.428,32.645 16.066,33.26 15.248,35.719 14.633,38.178 14.223,40.841 14.018,43.507 14.223,46.579 14.838,49.652 15.658,52.521 
		16.682,55.392 18.116,58.055 19.755,60.719 21.805,62.974 24.059,65.227 26.108,66.866 28.157,68.299 30.412,69.326 32.87,70.349 
		35.33,71.169 37.788,71.785 40.247,72.195 42.911,72.195 44.756,72.195 46.6,71.988 50.289,71.376 53.771,70.146 57.051,68.506 
		60.329,66.456 62.993,63.997 65.656,61.334 66.681,59.694 67.706,58.055 68.32,57.234 69.346,54.981 70.166,52.932 70.78,50.882 
		72.214,51.292 71.599,53.342 70.78,55.595 69.756,58.055 69.551,58.261 69.141,59.079 67.911,60.719 66.886,62.356 65.451,63.793 
		64.223,65.227 62.788,66.456 61.148,67.687 59.509,68.916 57.869,69.939 56.231,70.759 54.387,71.579 52.542,72.195 50.698,72.809 
		48.854,73.219 46.805,73.629 44.959,73.833 	"/>
	<polygon fill="none" stroke="#969494" stroke-width="0.216" stroke-miterlimit="10" points="42.911,73.833 42.911,73.833 
		40.247,73.833 37.378,73.424 34.919,72.809 32.255,71.988 29.796,70.966 27.337,69.529 25.083,68.096 23.035,66.456 20.575,63.997 
		18.526,61.537 16.682,58.874 15.248,56.005 14.018,53.139 13.198,49.859 12.583,46.782 12.583,43.507 12.583,40.637 12.993,37.974 
		13.608,35.309 14.428,32.645 16.066,33.26 15.248,35.719 14.633,38.178 14.223,40.841 14.018,43.507 14.223,46.579 14.838,49.652 
		15.658,52.521 16.682,55.392 18.116,58.055 19.755,60.719 21.805,62.974 24.059,65.227 26.108,66.866 28.157,68.299 30.412,69.326 
		32.87,70.349 35.33,71.169 37.788,71.785 40.247,72.195 42.911,72.195 44.756,72.195 46.6,71.988 50.289,71.376 53.771,70.146 
		57.051,68.506 60.329,66.456 62.993,63.997 65.656,61.334 66.681,59.694 67.706,58.055 68.32,57.234 69.346,54.981 70.166,52.932 
		70.78,50.882 72.214,51.292 71.599,53.342 70.78,55.595 69.756,58.055 69.551,58.261 69.141,59.079 67.911,60.719 66.886,62.356 
		65.451,63.793 64.223,65.227 62.788,66.456 61.148,67.687 59.509,68.916 57.869,69.939 56.231,70.759 54.387,71.579 52.542,72.195 
		50.698,72.809 48.854,73.219 46.805,73.629 44.959,73.833 	"/>
	<polygon fill-rule="evenodd" clip-rule="evenodd" fill="#ABA8A8" points="61.354,21.375 61.354,21.375 59.304,19.736 
		57.254,18.506 55.001,17.277 52.746,16.252 50.289,15.637 47.829,15.022 45.369,14.817 42.911,14.612 40.862,14.612 38.812,14.817 
		36.968,15.227 34.919,15.637 33.075,16.252 31.231,17.072 29.387,17.892 27.747,18.917 26.723,17.687 28.567,16.662 30.616,15.637 
		32.46,14.817 34.51,14.202 36.558,13.588 38.607,13.382 40.862,13.178 42.911,12.973 45.576,13.178 48.239,13.382 50.698,13.997 
		53.361,14.817 55.821,15.842 58.074,17.072 60.329,18.506 62.379,20.146 	"/>
	<polygon fill="none" stroke="#969494" stroke-width="0.216" stroke-miterlimit="10" points="61.354,21.375 61.354,21.375 
		59.304,19.736 57.254,18.506 55.001,17.277 52.746,16.252 50.289,15.637 47.829,15.022 45.369,14.817 42.911,14.612 40.862,14.612 
		38.812,14.817 36.968,15.227 34.919,15.637 33.075,16.252 31.231,17.072 29.387,17.892 27.747,18.917 26.723,17.687 28.567,16.662 
		30.616,15.637 32.46,14.817 34.51,14.202 36.558,13.588 38.607,13.382 40.862,13.178 42.911,12.973 45.576,13.178 48.239,13.382 
		50.698,13.997 53.361,14.817 55.821,15.842 58.074,17.072 60.329,18.506 62.379,20.146 	"/>
	<polygon fill-rule="evenodd" clip-rule="evenodd" fill="#ABA8A8" points="73.033,47.81 71.396,47.603 71.599,45.555 71.804,43.507 
		71.599,40.432 71.188,37.563 70.37,34.694 69.346,32.031 70.78,31.416 72.009,34.284 72.623,37.358 73.238,40.226 73.238,43.507 
		73.238,45.555 	"/>
	<polygon fill="none" stroke="#969494" stroke-width="0.216" stroke-miterlimit="10" points="73.033,47.81 71.396,47.603 
		71.599,45.555 71.804,43.507 71.599,40.432 71.188,37.563 70.37,34.694 69.346,32.031 70.78,31.416 72.009,34.284 72.623,37.358 
		73.238,40.226 73.238,43.507 73.238,45.555 	"/>
	<path fill-rule="evenodd" clip-rule="evenodd" fill="#ABA8A8" d="M16.066,33.055L16.066,33.055l-0.204,2.458v2.255l0.614,2.458
		l0.41,1.435l0.41,1.639v1.847l-0.205,1.433l-0.205,1.64l0.205,1.23l0.205,1.229l1.23,2.46l0.819,2.046l0.41,1.229l0.205,1.027
		l0.615,2.458l0.82,1.845l1.229,1.843l1.435,1.64l0.41,0.41l-0.205-1.434l-0.205-1.437l0.205-1.433l0.614-1.64l1.025-1.64
		l0.615-1.023l0.411-1.026l0.204-1.023v-1.026l-0.41-1.023l-0.409-1.024l-1.436-1.845l-1.843-1.844l-1.845-1.437l-0.205-0.203
		l-1.229-1.229l-0.82-1.023l-0.614-1.229l-0.41-1.64l-0.41-3.074v-1.025v-0.82l0.205-0.41l0.205-0.41l0.41-0.205l0.614-0.205
		l0.41-0.205l0.82-1.023l0.205-0.411l0.615-1.024l0.615-0.82l1.024-0.614l0.411-0.205h0.819l0.82,0.205l0.615,0.205l0.614,0.204
		l0.206-0.204l0.409-0.205l0.411-0.41l0.614-1.23l0.205-1.025l-0.205-1.024l-0.614-0.82l-0.206-0.615l-0.205-0.614v-0.615
		l0.411-1.025l0.614-0.615l0.615-0.41l0.205-0.205v-0.41l-0.82-1.435l-0.82-1.229l-1.639,1.434l-1.845,1.435l-1.434,1.435
		l-1.435,1.64l-1.23,1.844l-1.229,1.844l-1.024,1.845L16.066,33.055z M25.698,68.299L25.698,68.299l-0.409-0.203l-1.23-0.819
		l-1.024-1.027l-1.64-1.636l-1.435-2.05l-0.82-2.255l-0.614-2.664l-0.615-1.843l-0.82-1.847l-0.615-1.434l-0.614-1.433l-0.41-1.437
		v-1.434l0.205-1.845v-1.435v-1.433l-0.205-1.436l-0.41-1.434l-0.615-2.459l-0.205-1.229v-1.435l0.205-2.869l1.025-2.254
		l1.229-2.254l1.229-2.049l1.434-2.049l1.64-1.845l1.845-1.64l1.844-1.433l2.049-1.435l0.41-0.205h0.41l0.41,0.41v0.205l0.205,0.205
		v0.615l0.615,0.82l0.615,1.023l0.614,1.025v0.82l-0.205,0.82l-0.409,0.41l-0.411,0.41l-0.409,0.205l-0.205,0.41l-0.41,0.409
		l0.41,0.615l0.614,1.025l0.205,0.615v0.819v0.82l-0.205,1.025l-0.409,0.82l-0.41,0.819l-0.615,0.615l-0.614,0.411l-0.615,0.204
		h-0.411h-0.614l-0.615-0.204l-0.82-0.206h-0.615l-0.615,0.41l-0.409,0.614l-0.41,0.615l-0.41,0.615l-0.41,0.82l-0.41,0.615
		l-0.615,0.41l-0.82,0.205v1.64l0.205,2.663l0.41,1.23l0.615,1.026l0.615,0.819l1.025,1.023l0.409,0.205l1.845,1.64l1.845,1.845
		l0.82,1.229l0.819,1.023l0.615,1.229l0.41,1.025v0.818v0.819l-0.205,1.229l-0.615,1.23l-0.82,1.229l-0.819,1.435l-0.411,1.436
		l-0.205,1.433l0.205,1.437l0.411,1.433l0.204,1.23v0.41l-0.204,0.409L25.698,68.299z"/>
	<path fill="none" stroke="#969494" stroke-width="0.216" stroke-miterlimit="10" d="M16.066,33.055L16.066,33.055l-0.204,2.458
		v2.255l0.614,2.458l0.41,1.435l0.41,1.639v1.847l-0.205,1.433l-0.205,1.64l0.205,1.23l0.205,1.229l1.23,2.46l0.819,2.046
		l0.41,1.229l0.205,1.027l0.615,2.458l0.82,1.845l1.229,1.843l1.435,1.64l0.41,0.41l-0.205-1.434l-0.205-1.437l0.205-1.433
		l0.614-1.64l1.025-1.64l0.615-1.023l0.411-1.026l0.204-1.023v-1.026l-0.41-1.023l-0.409-1.024l-1.436-1.845l-1.843-1.844
		l-1.845-1.437l-0.205-0.203l-1.229-1.229l-0.82-1.023l-0.614-1.229l-0.41-1.64l-0.41-3.074v-1.025v-0.82l0.205-0.41l0.205-0.41
		l0.41-0.205l0.614-0.205l0.41-0.205l0.82-1.023l0.205-0.411l0.615-1.024l0.615-0.82l1.024-0.614l0.411-0.205h0.819l0.82,0.205
		l0.615,0.205l0.614,0.204l0.206-0.204l0.409-0.205l0.411-0.41l0.614-1.23l0.205-1.025l-0.205-1.024l-0.614-0.82l-0.206-0.615
		l-0.205-0.614v-0.615l0.411-1.025l0.614-0.615l0.615-0.41l0.205-0.205v-0.41l-0.82-1.435l-0.82-1.229l-1.639,1.434l-1.845,1.435
		l-1.434,1.435l-1.435,1.64l-1.23,1.844l-1.229,1.844l-1.024,1.845L16.066,33.055z M25.698,68.299L25.698,68.299l-0.409-0.203
		l-1.23-0.819l-1.024-1.027l-1.64-1.636l-1.435-2.05l-0.82-2.255l-0.614-2.664l-0.615-1.843l-0.82-1.847l-0.615-1.434l-0.614-1.433
		l-0.41-1.437v-1.434l0.205-1.845v-1.435v-1.433l-0.205-1.436l-0.41-1.434l-0.615-2.459l-0.205-1.229v-1.435l0.205-2.869
		l1.025-2.254l1.229-2.254l1.229-2.049l1.434-2.049l1.64-1.845l1.845-1.64l1.844-1.433l2.049-1.435l0.41-0.205h0.41l0.41,0.41v0.205
		l0.205,0.205v0.615l0.615,0.82l0.615,1.023l0.614,1.025v0.82l-0.205,0.82l-0.409,0.41l-0.411,0.41l-0.409,0.205l-0.205,0.41
		l-0.41,0.409l0.41,0.615l0.614,1.025l0.205,0.615v0.819v0.82l-0.205,1.025l-0.409,0.82l-0.41,0.819l-0.615,0.615l-0.614,0.411
		l-0.615,0.204h-0.411h-0.614l-0.615-0.204l-0.82-0.206h-0.615l-0.615,0.41l-0.409,0.614l-0.41,0.615l-0.41,0.615l-0.41,0.82
		l-0.41,0.615l-0.615,0.41l-0.82,0.205v1.64l0.205,2.663l0.41,1.23l0.615,1.026l0.615,0.819l1.025,1.023l0.409,0.205l1.845,1.64
		l1.845,1.845l0.82,1.229l0.819,1.023l0.615,1.229l0.41,1.025v0.818v0.819l-0.205,1.229l-0.615,1.23l-0.82,1.229l-0.819,1.435
		l-0.411,1.436l-0.205,1.433l0.205,1.437l0.411,1.433l0.204,1.23v0.41l-0.204,0.409L25.698,68.299z"/>
	<path fill-rule="evenodd" clip-rule="evenodd" fill="#ABA8A8" d="M37.583,30.187L37.583,30.187h-0.205l-0.41,0.41l-0.41,0.41v0.205
		l0.615,0.205l1.639,0.204h0.205l-0.205-0.204l-0.205-0.615l-0.204-0.41l-0.41-0.205H37.583z M39.223,36.744L39.223,36.744h0.819
		l0.615,0.205l0.615,0.41l0.819,0.615l0.615,0.615l0.614,0.409l0.82,0.205l1.026,0.205h1.229l1.64-0.205l0.614-0.205l0.41-0.409
		v-0.41v-0.615l-0.41-0.615l-0.204-0.41h-0.41h-0.41l-1.229,0.41l-1.025,0.205h-1.022l-1.027-0.205l-1.023-0.205l-1.024-0.41h-1.025
		L39.223,36.744z M38.812,38.383L38.812,38.383l-1.434,0.205l-0.615,0.205l-0.819,0.614l-0.82,0.819l-0.82,0.82l-0.615,1.23
		L33.075,43.3l-0.409,1.229l-0.206,1.23l0.206,1.022l0.409,1.027l0.615,0.819l1.23,0.41l1.23,0.203l2.049,0.207l1.025,0.203
		l1.024,0.41l0.82,0.616l0.615,0.613l0.614,1.026l0.41,1.434l0.205,2.05v2.253v1.64v1.433l0.206,1.437l0.613,1.229l0.82,0.82
		l0.616,0.203l0.818-0.203l0.82-0.82l0.819-1.026l0.615-1.229l1.433-2.663l1.026-2.253l0.82-1.847l0.203-0.613l1.024-1.64
		l0.615-1.64l0.205-1.022l0.205-0.82v-0.82l-0.205-1.024l-0.615-0.82l-0.612-1.228l-0.207-0.207l0.207-0.41l0.203-0.203l0.614-0.206
		l0.615,0.206h0.205h0.819h0.82l0.615-0.206v-0.203l0.204-1.027l-0.409-1.433l-0.205-1.025l0.205-0.411v-0.409l0.409-0.205
		l0.41-0.205l0.613,0.205l1.025,0.819l1.024,1.025l0.82,1.435l1.64,2.05l0.819,0.818l0.818,0.412l0.616-0.207l0.818-0.41
		l1.435-1.229l1.025-1.023l1.229-0.821l0.615-0.615l0.205-1.024v-1.23l-0.205-3.074V32.44v-0.615l-1.435-2.869l-1.845-2.663
		l-2.048-2.665l-2.46-2.254h-0.615l-1.435,0.205l-1.229,0.615l-1.229,0.615l-1.435,1.025l-1.229,0.82l-1.436,0.82l-1.433,0.614
		l-1.64,0.206h-1.23l-1.229-0.206l-2.05-0.205l-0.819,0.205l-0.82,0.206l-0.613,0.409l-0.206,0.615l-0.615,1.229l-0.205,1.025
		l-0.614,1.025l-0.615,0.82l-0.82,0.409l-0.41,0.206h-0.205l0.205,0.409l-0.205,0.411l-0.615,0.818l-1.024,0.82l-1.025,0.82
		l-0.819,1.025h0.205h0.614l1.23-0.82l1.024-0.41l1.025-0.41h0.82h0.615l1.434,0.41l0.819,0.41l0.82,0.205l1.435-0.41l1.024-0.205
		l1.025-0.205l0.614,0.205h0.41l0.41,0.41l0.41,0.41l0.613,1.229l0.206,1.23v0.614l-0.206,0.41l-0.408,0.614l-0.412,0.205
		l-1.228,0.615l-1.025,0.205h-1.024h-1.436l-1.229-0.409l-1.024-0.205l-0.819-0.411l-1.025-0.819l-0.41-0.614l-0.82-0.205H38.812z
		 M45.166,66.456L45.166,66.456l-0.616-0.207l-0.82-0.203l-0.613-0.612l-0.615-0.617l-0.411-0.819l-0.409-0.82l-0.41-1.64v-1.843
		v-1.843v-2.05l-0.205-1.641l-0.205-1.022l-0.205-0.617l-0.615-0.614l-0.41-0.408l-0.615-0.207l-0.819-0.203l-2.049-0.207
		l-1.23-0.203l-1.23-0.41l-0.82-0.409l-0.615-0.41l-0.409-0.617l-0.41-0.613l-0.41-1.024V45.76v-1.23l0.41-1.433l0.615-1.23
		l0.615-1.229l0.819-1.23l0.82-0.819l1.025-0.82l-0.41-0.205l-0.205-0.41l-0.41-0.41v-0.615l0.205-0.41l0.41-0.82l0.819-0.819
		l1.025-0.82l0.205-0.205l-1.024-0.41l-0.41-0.205l-0.41-0.615l-0.205-0.409l0.205-0.615l0.205-0.615l0.409-0.615l0.411-0.41
		l0.409-0.41l0.615-0.205h0.41h0.82l0.614,0.41l0.41,0.41l0.615,0.615v-0.205l0.41-0.82l0.41-0.82l0.205-0.819l0.41-0.82l0.614-0.82
		l0.82-0.615l1.026-0.614l1.433-0.205l2.255,0.41h1.024h1.23l1.229-0.205l1.23-0.41l2.457-1.64l1.436-0.82l1.433-1.025l1.64-0.409
		l1.64-0.409l1.025,0.204l0.41,0.205l2.662,2.458l2.255,2.664l1.845,2.869l1.64,3.279l0.205,0.204v0.82v3.688l0.203,3.279v1.639
		l-0.203,0.82l-0.41,0.615l-0.819,1.026l-1.23,1.022l-1.024,0.82l-1.845,1.433l-1.025,0.412l-1.024,0.205h-0.203l-0.615-0.205
		l-0.614-0.205l-1.23-1.022l-1.024-1.23l-0.82-1.229l-1.229-1.641l0.205,0.82l-0.205,1.64l-0.205,0.41l-0.41,0.613l-0.408,0.41
		l-0.614,0.207h-1.436h-0.204l0.409,0.612l0.205,1.23l0.205,1.022l-0.205,1.23l-0.205,1.026l-0.819,2.05l-1.025,1.843l-0.205,0.41
		l-0.819,1.843l-1.434,3.279l-1.64,3.073l-1.024,1.026l-0.82,1.023l-1.024,0.612L45.166,66.456z"/>
	<path fill="none" stroke="#969494" stroke-width="0.216" stroke-miterlimit="10" d="M37.583,30.187L37.583,30.187h-0.205
		l-0.41,0.41l-0.41,0.41v0.205l0.615,0.205l1.639,0.204h0.205l-0.205-0.204l-0.205-0.615l-0.204-0.41l-0.41-0.205H37.583z
		 M39.223,36.744L39.223,36.744h0.819l0.615,0.205l0.615,0.41l0.819,0.615l0.615,0.615l0.614,0.409l0.82,0.205l1.026,0.205h1.229
		l1.64-0.205l0.614-0.205l0.41-0.409v-0.41v-0.615l-0.41-0.615l-0.204-0.41h-0.41h-0.41l-1.229,0.41l-1.025,0.205h-1.022
		l-1.027-0.205l-1.023-0.205l-1.024-0.41h-1.025L39.223,36.744z M38.812,38.383L38.812,38.383l-1.434,0.205l-0.615,0.205
		l-0.819,0.614l-0.82,0.819l-0.82,0.82l-0.615,1.23L33.075,43.3l-0.409,1.229l-0.206,1.23l0.206,1.022l0.409,1.027l0.615,0.819
		l1.23,0.41l1.23,0.203l2.049,0.207l1.025,0.203l1.024,0.41l0.82,0.616l0.615,0.613l0.614,1.026l0.41,1.434l0.205,2.05v2.253v1.64
		v1.433l0.206,1.437l0.613,1.229l0.82,0.82l0.616,0.203l0.818-0.203l0.82-0.82l0.819-1.026l0.615-1.229l1.433-2.663l1.026-2.253
		l0.82-1.847l0.203-0.613l1.024-1.64l0.615-1.64l0.205-1.022l0.205-0.82v-0.82l-0.205-1.024l-0.615-0.82l-0.612-1.228l-0.207-0.207
		l0.207-0.41l0.203-0.203l0.614-0.206l0.615,0.206h0.205h0.819h0.82l0.615-0.206v-0.203l0.204-1.027l-0.409-1.433l-0.205-1.025
		l0.205-0.411v-0.409l0.409-0.205l0.41-0.205l0.613,0.205l1.025,0.819l1.024,1.025l0.82,1.435l1.64,2.05l0.819,0.818l0.818,0.412
		l0.616-0.207l0.818-0.41l1.435-1.229l1.025-1.023l1.229-0.821l0.615-0.615l0.205-1.024v-1.23l-0.205-3.074V32.44v-0.615
		l-1.435-2.869l-1.845-2.663l-2.048-2.665l-2.46-2.254h-0.615l-1.435,0.205l-1.229,0.615l-1.229,0.615l-1.435,1.025l-1.229,0.82
		l-1.436,0.82l-1.433,0.614l-1.64,0.206h-1.23l-1.229-0.206l-2.05-0.205l-0.819,0.205l-0.82,0.206l-0.613,0.409l-0.206,0.615
		l-0.615,1.229l-0.205,1.025l-0.614,1.025l-0.615,0.82l-0.82,0.409l-0.41,0.206h-0.205l0.205,0.409l-0.205,0.411l-0.615,0.818
		l-1.024,0.82l-1.025,0.82l-0.819,1.025h0.205h0.614l1.23-0.82l1.024-0.41l1.025-0.41h0.82h0.615l1.434,0.41l0.819,0.41l0.82,0.205
		l1.435-0.41l1.024-0.205l1.025-0.205l0.614,0.205h0.41l0.41,0.41l0.41,0.41l0.613,1.229l0.206,1.23v0.614l-0.206,0.41l-0.408,0.614
		l-0.412,0.205l-1.228,0.615l-1.025,0.205h-1.024h-1.436l-1.229-0.409l-1.024-0.205l-0.819-0.411l-1.025-0.819l-0.41-0.614
		l-0.82-0.205H38.812z M45.166,66.456L45.166,66.456l-0.616-0.207l-0.82-0.203l-0.613-0.612l-0.615-0.617l-0.411-0.819l-0.409-0.82
		l-0.41-1.64v-1.843v-1.843v-2.05l-0.205-1.641l-0.205-1.022l-0.205-0.617l-0.615-0.614l-0.41-0.408l-0.615-0.207l-0.819-0.203
		l-2.049-0.207l-1.23-0.203l-1.23-0.41l-0.82-0.409l-0.615-0.41l-0.409-0.617l-0.41-0.613l-0.41-1.024V45.76v-1.23l0.41-1.433
		l0.615-1.23l0.615-1.229l0.819-1.23l0.82-0.819l1.025-0.82l-0.41-0.205l-0.205-0.41l-0.41-0.41v-0.615l0.205-0.41l0.41-0.82
		l0.819-0.819l1.025-0.82l0.205-0.205l-1.024-0.41l-0.41-0.205l-0.41-0.615l-0.205-0.409l0.205-0.615l0.205-0.615l0.409-0.615
		l0.411-0.41l0.409-0.41l0.615-0.205h0.41h0.82l0.614,0.41l0.41,0.41l0.615,0.615v-0.205l0.41-0.82l0.41-0.82l0.205-0.819l0.41-0.82
		l0.614-0.82l0.82-0.615l1.026-0.614l1.433-0.205l2.255,0.41h1.024h1.23l1.229-0.205l1.23-0.41l2.457-1.64l1.436-0.82l1.433-1.025
		l1.64-0.409l1.64-0.409l1.025,0.204l0.41,0.205l2.662,2.458l2.255,2.664l1.845,2.869l1.64,3.279l0.205,0.204v0.82v3.688
		l0.203,3.279v1.639l-0.203,0.82l-0.41,0.615l-0.819,1.026l-1.23,1.022l-1.024,0.82l-1.845,1.433l-1.025,0.412l-1.024,0.205h-0.203
		l-0.615-0.205l-0.614-0.205l-1.23-1.022l-1.024-1.23l-0.82-1.229l-1.229-1.641l0.205,0.82l-0.205,1.64l-0.205,0.41l-0.41,0.613
		l-0.408,0.41l-0.614,0.207h-1.436h-0.204l0.409,0.612l0.205,1.23l0.205,1.022l-0.205,1.23l-0.205,1.026l-0.819,2.05l-1.025,1.843
		l-0.205,0.41l-0.819,1.843l-1.434,3.279l-1.64,3.073l-1.024,1.026l-0.82,1.023l-1.024,0.612L45.166,66.456z"/>
	<path fill-rule="evenodd" clip-rule="evenodd" fill="#ABA8A8" d="M70.575,47.194L70.575,47.194l-0.614,0.205l-0.205,0.203
		l-0.41,0.82l-0.205,0.819v0.82l0.205,0.616l0.205,0.41l0.41,0.203h0.205l0.614-0.613l0.615-2.869l-0.41-0.41L70.575,47.194z
		 M69.961,52.932L69.961,52.932l-0.615-0.205l-0.615-0.205l-0.41-0.409l-0.409-0.82l-0.41-1.023v-1.229l0.205-1.229l0.819-1.23
		l0.41-0.409l0.615-0.41l1.024-0.205l0.613,0.205l0.82,0.207l0.409,0.612l0.615,0.82v0.41l-0.819,3.482v0.207l-0.615,0.613
		l-0.41,0.409l-0.613,0.205L69.961,52.932z"/>
	<path fill="none" stroke="#969494" stroke-width="0.216" stroke-miterlimit="10" d="M70.575,47.194L70.575,47.194l-0.614,0.205
		l-0.205,0.203l-0.41,0.82l-0.205,0.819v0.82l0.205,0.616l0.205,0.41l0.41,0.203h0.205l0.614-0.613l0.615-2.869l-0.41-0.41
		L70.575,47.194z M69.961,52.932L69.961,52.932l-0.615-0.205l-0.615-0.205l-0.41-0.409l-0.409-0.82l-0.41-1.023v-1.229l0.205-1.229
		l0.819-1.23l0.41-0.409l0.615-0.41l1.024-0.205l0.613,0.205l0.82,0.207l0.409,0.612l0.615,0.82v0.41l-0.819,3.482v0.207
		l-0.615,0.613l-0.41,0.409l-0.613,0.205L69.961,52.932z"/>
	<path fill-rule="evenodd" clip-rule="evenodd" fill="#ABA8A8" d="M22.419,38.588L22.419,38.588l-0.204,0.614v0.615v0.615
		l0.409,0.409l0.206,0.205l0.409-0.205l0.205-0.615l-0.205-0.819l-0.409-0.614L22.419,38.588z M22.83,42.686L22.83,42.686
		l-0.82-0.205l-0.41-0.205l-0.41-0.615l-0.41-0.82l-0.205-1.024v-1.024l0.41-0.82l0.41-0.615l0.615-0.205l0.409-0.205l0.82,0.205
		l0.41,0.41l0.615,0.41l0.41,0.82l0.204,0.819v1.025l-0.204,0.614l-0.41,0.615l-0.82,0.615L22.83,42.686z"/>
	<path fill="none" stroke="#969494" stroke-width="0.216" stroke-miterlimit="10" d="M22.419,38.588L22.419,38.588l-0.204,0.614
		v0.615v0.615l0.409,0.409l0.206,0.205l0.409-0.205l0.205-0.615l-0.205-0.819l-0.409-0.614L22.419,38.588z M22.83,42.686
		L22.83,42.686l-0.82-0.205l-0.41-0.205l-0.41-0.615l-0.41-0.82l-0.205-1.024v-1.024l0.41-0.82l0.41-0.615l0.615-0.205l0.409-0.205
		l0.82,0.205l0.41,0.41l0.615,0.41l0.41,0.82l0.204,0.819v1.025l-0.204,0.614l-0.41,0.615l-0.82,0.615L22.83,42.686z"/>
	<path fill-rule="evenodd" clip-rule="evenodd" fill="#ABA8A8" d="M55.001,58.464L55.001,58.464l-0.409,0.41l-0.615,0.82
		l-0.41,1.024l-0.205,0.818v1.437l0.615-0.82l0.41-1.435l0.409-1.229L55.001,58.464z M53.156,64.613L53.156,64.613l-0.41-0.207
		l-0.407-0.203l-0.41-0.616l-0.207-0.82l0.207-1.64l0.613-2.048l0.409-0.818l0.615-0.819l0.615-0.617l0.819-0.203h0.41l0.41,0.203
		l0.41,0.41l0.204,0.617v0.612v1.025l-0.409,1.845l-0.82,1.843l-0.614,0.616l-0.41,0.41L53.156,64.613z"/>
	<path fill="none" stroke="#969494" stroke-width="0.216" stroke-miterlimit="10" d="M55.001,58.464L55.001,58.464l-0.409,0.41
		l-0.615,0.82l-0.41,1.024l-0.205,0.818v1.437l0.615-0.82l0.41-1.435l0.409-1.229L55.001,58.464z M53.156,64.613L53.156,64.613
		l-0.41-0.207l-0.407-0.203l-0.41-0.616l-0.207-0.82l0.207-1.64l0.613-2.048l0.409-0.818l0.615-0.819l0.615-0.617l0.819-0.203h0.41
		l0.41,0.203l0.41,0.41l0.204,0.617v0.612v1.025l-0.409,1.845l-0.82,1.843l-0.614,0.616l-0.41,0.41L53.156,64.613z"/>
	<path fill-rule="evenodd" clip-rule="evenodd" fill="#ABA8A8" d="M38.607,19.122L38.607,19.122l-1.434,0.204l-1.435,0.411
		l-1.024,0.613L34.1,20.964l-0.615,1.23l-1.025,1.64l-0.205,0.82l0.205,0.614l0.206,0.41l0.204,0.205l0.41-0.205l0.41-0.204
		l1.025-0.82l0.205-0.205l1.025-0.615l1.024-0.615l1.435-0.615l0.614-0.41l0.41-0.615l0.41-1.025l0.205-0.409l-0.205-0.409
		l-0.205-0.411l-0.615-0.204H38.607z M32.87,27.317L32.87,27.317h-0.41l-0.614-0.206l-0.615-0.409l-0.41-0.82v-0.615l-0.205-0.614
		l0.41-1.025l0.41-1.229l0.615-1.025l0.615-1.025l0.409-0.613l0.615-0.615l1.435-0.82l1.844-0.615l1.639-0.205h0.616l0.819,0.205
		l0.615,0.41l0.41,0.41l0.205,0.41l0.205,1.024v0.819l-0.205,1.025l-0.615,0.82l-0.615,0.615l-0.819,0.615l-1.435,0.82l-1.025,0.409
		l-0.819,0.615l-0.206,0.205l-1.434,1.025l-0.615,0.41H32.87z"/>
	<path fill="none" stroke="#969494" stroke-width="0.216" stroke-miterlimit="10" d="M38.607,19.122L38.607,19.122l-1.434,0.204
		l-1.435,0.411l-1.024,0.613L34.1,20.964l-0.615,1.23l-1.025,1.64l-0.205,0.82l0.205,0.614l0.206,0.41l0.204,0.205l0.41-0.205
		l0.41-0.204l1.025-0.82l0.205-0.205l1.025-0.615l1.024-0.615l1.435-0.615l0.614-0.41l0.41-0.615l0.41-1.025l0.205-0.409
		l-0.205-0.409l-0.205-0.411l-0.615-0.204H38.607z M32.87,27.317L32.87,27.317h-0.41l-0.614-0.206l-0.615-0.409l-0.41-0.82v-0.615
		l-0.205-0.614l0.41-1.025l0.41-1.229l0.615-1.025l0.615-1.025l0.409-0.613l0.615-0.615l1.435-0.82l1.844-0.615l1.639-0.205h0.616
		l0.819,0.205l0.615,0.41l0.41,0.41l0.205,0.41l0.205,1.024v0.819l-0.205,1.025l-0.615,0.82l-0.615,0.615l-0.819,0.615l-1.435,0.82
		l-1.025,0.409l-0.819,0.615l-0.206,0.205l-1.434,1.025l-0.615,0.41H32.87z"/>
</g>
</svg>
