<?xml version="1.0" encoding="utf-8"?>
<!-- Generator: Adobe Illustrator 16.0.0, SVG Export Plug-In . SVG Version: 6.00 Build 0)  -->
<!DOCTYPE svg PUBLIC "-//W3C//DTD SVG 1.1//EN" "http://www.w3.org/Graphics/SVG/1.1/DTD/svg11.dtd">
<svg version="1.1" id="圖層_1" xmlns="http://www.w3.org/2000/svg" xmlns:xlink="http://www.w3.org/1999/xlink" x="0px" y="0px"
	 width="56.693px" height="56.693px" viewBox="0 0 56.693 56.693" enable-background="new 0 0 56.693 56.693" xml:space="preserve">
<path display="none" fill="none" stroke="#AAA7A7" stroke-width="3.4016" stroke-miterlimit="10" d="M30.083,19.814
	c-13.626-17.143-31.041,8.704,0,22.729c22.605-10.125,19.48-27.165,10.372-28.183C37.419,14.021,33.718,15.883,30.083,19.814z"/>
<g>
	<path fill-rule="evenodd" clip-rule="evenodd" fill="#AAA7A7" d="M42.276,46.711H17.782V13.72h5.249v1.312l0.063,0.25l0.063,0.188
		l0.188,0.312l0.313,0.188l0.188,0.062h0.187h11.934h0.188l0.188-0.062l0.375-0.188l0.188-0.312l0.063-0.188v-0.25V13.72h5.312
		V46.711z M26.655,12.096L26.655,12.096l0.25-0.063h0.188l0.313-0.25l0.188-0.313l0.063-0.187v-0.188V9.971h4.687v1.125l0.063,0.188
		l0.063,0.187l0.188,0.313l0.313,0.25h0.187l0.188,0.063h2.623v1.062v0.063v1.812H24.03v-1.75V13.22v-0.063v-1.062H26.655z
		 M33.341,11.096L33.341,11.096h-0.5H33.341z M42.775,12.72h-5.811v-0.624v-0.25l-0.063-0.188l-0.188-0.313l-0.375-0.187
		l-0.188-0.063h-0.188h-2.623V9.971v-0.25l-0.063-0.188l-0.187-0.313l-0.313-0.187l-0.188-0.063h-0.25h-4.687h-0.188L27.28,9.034
		l-0.313,0.187L26.78,9.534l-0.062,0.188l-0.063,0.25v1.125H24.03h-0.187l-0.188,0.063l-0.313,0.187l-0.188,0.313l-0.063,0.188
		l-0.063,0.25v0.624h-5.749h-0.187l-0.188,0.125l-0.125,0.188v0.188v33.991v0.188l0.125,0.188l0.188,0.063l0.187,0.063h25.493
		l0.188-0.063l0.125-0.063l0.125-0.188l0.063-0.188V13.22l-0.063-0.188l-0.125-0.188l-0.125-0.125H42.775z"/>
	<path fill="#AAA7A7" d="M43.123,46.711v0.847h-0.847L43.123,46.711z M42.276,47.558l-0.847-0.847V13.72h1.693v32.991L42.276,47.558
		z M42.276,12.87h0.847v0.851L42.276,12.87z M43.123,13.72l-0.847,0.85h-5.312V12.87h5.312L43.123,13.72z M36.115,13.72V12.87h0.85
		L36.115,13.72z M36.964,12.87l0.851,0.851v1.312h-1.7V13.72L36.964,12.87z M36.115,15.032L36.115,15.032z M37.815,15.032
		L37.815,15.032v0.25h-1.7v-0.25H37.815z M37.815,15.282v0.126l-0.046,0.14L37.815,15.282z M37.815,15.282l-0.046,0.266
		l-0.063,0.188l-1.608-0.532l0.063-0.188L37.815,15.282z M37.707,15.736l-0.031,0.093l-0.046,0.076L37.707,15.736z M37.707,15.736
		l-0.077,0.169l-0.187,0.313l-1.455-0.87l0.188-0.313L37.707,15.736z M37.443,16.217l-0.127,0.211l-0.223,0.111L37.443,16.217z
		 M37.443,16.217l-0.35,0.322l-0.375,0.188l-0.758-1.515l0.375-0.188L37.443,16.217z M36.718,16.727l-0.053,0.026l-0.061,0.02
		L36.718,16.727z M36.718,16.727l-0.113,0.046l-0.188,0.063l-0.531-1.608l0.188-0.063L36.718,16.727z M36.417,16.836l-0.139,0.046
		h-0.127L36.417,16.836z M36.417,16.836l-0.266,0.046h-0.188v-1.701h0.188L36.417,16.836z M35.964,15.182L35.964,15.182z
		 M35.964,16.882v-0.851V16.882z M35.964,15.182L35.964,15.182z M35.964,16.882L35.964,16.882H24.03v-1.701h11.934V16.882z
		 M24.03,15.182L24.03,15.182z M24.03,16.882L24.03,16.882h-0.187v-1.701h0.187V16.882z M23.843,16.882h-0.126l-0.14-0.046
		L23.843,16.882z M23.843,16.882l-0.266-0.046l-0.187-0.063l0.532-1.608l0.187,0.063L23.843,16.882z M23.39,16.773l-0.094-0.031
		l-0.076-0.046L23.39,16.773z M23.39,16.773l-0.169-0.077l-0.313-0.188l0.87-1.455l0.313,0.188L23.39,16.773z M22.908,16.509
		L22.726,16.4l-0.11-0.183L22.908,16.509z M22.908,16.509l-0.292-0.292l-0.188-0.313l1.455-0.87l0.188,0.313L22.908,16.509z
		 M22.429,15.905l-0.046-0.075l-0.031-0.094L22.429,15.905z M22.429,15.905l-0.077-0.169l-0.063-0.188l1.608-0.532l0.062,0.188
		L22.429,15.905z M22.29,15.548l-0.02-0.06l0,0L22.29,15.548z M22.29,15.548l-0.02-0.06l-0.063-0.25l1.647-0.412l0.063,0.25
		L22.29,15.548z M22.207,15.238l-0.027-0.106v-0.1L22.207,15.238z M22.207,15.238l0.824-0.206L22.207,15.238z M22.207,15.238
		l-0.027-0.106v-0.1L22.207,15.238z M22.207,15.238l-0.027-0.206V13.72h1.701v1.312L22.207,15.238z M23.031,12.87h0.85l0,0.851
		L23.031,12.87z M23.881,13.72l-0.851,0.85h-5.249V12.87h5.249L23.881,13.72z M16.936,13.72V12.87h0.847L16.936,13.72z
		 M17.782,12.87l0.847,0.851v32.991h-1.694V13.72L17.782,12.87z M17.782,47.558h-0.847v-0.847L17.782,47.558z M16.936,46.711
		l0.847-0.848h24.494v1.694H17.782L16.936,46.711z M26.861,12.919l-0.106,0.027h-0.1L26.861,12.919z M26.861,12.919l-0.206,0.027
		H24.03v-1.701h2.625L26.861,12.919z M23.18,12.096v-0.851h0.85L23.18,12.096z M24.03,11.246l0.851,0.851v1.062H23.18v-1.062
		L24.03,11.246z M23.18,13.158L23.18,13.158z M24.881,13.158L24.881,13.158v0.063H23.18v-0.063H24.881z M23.18,13.22L23.18,13.22z
		 M24.881,13.22H24.03H24.881z M23.18,13.22L23.18,13.22z M24.881,13.22L24.881,13.22v0.063H23.18V13.22H24.881z M23.18,13.283
		L23.18,13.283z M24.881,13.283H24.03H24.881z M23.18,13.283L23.18,13.283z M24.881,13.283L24.881,13.283v1.75H23.18v-1.75H24.881z
		 M24.03,15.882h-0.85v-0.85L24.03,15.882z M23.18,15.032l0.85-0.85h11.934v1.7H24.03L23.18,15.032z M36.816,15.032v0.85h-0.852
		L36.816,15.032z M35.964,15.882l-0.85-0.85V13.22h1.701v1.812L35.964,15.882z M36.816,13.22L36.816,13.22z M35.115,13.22h0.85
		H35.115z M36.816,13.22L36.816,13.22z M35.115,13.22h0.85H35.115z M36.816,13.22L36.816,13.22z M35.115,13.22L35.115,13.22v-0.063
		h1.701v0.063H35.115z M36.816,13.158L36.816,13.158z M35.115,13.158h0.85H35.115z M36.816,13.158L36.816,13.158z M35.115,13.158
		L35.115,13.158v-1.062h1.701v1.062H35.115z M35.964,11.246h0.851l0.001,0.851L35.964,11.246z M36.816,12.096l-0.852,0.85h-2.623
		v-1.701h2.623L36.816,12.096z M33.341,12.946H33.21L33.072,12.9L33.341,12.946z M33.341,12.946l-0.27-0.046l-0.188-0.063
		l0.537-1.608l0.188,0.063L33.341,12.946z M33.153,11.183h0.13l0.139,0.046L33.153,11.183z M33.421,11.229l-0.269,1.654h-0.187
		v-1.701h0.187L33.421,11.229z M32.966,12.883h-0.292l-0.237-0.189L32.966,12.883z M32.966,12.883l-0.529-0.189l-0.313-0.25
		l1.057-1.322l0.313,0.25L32.966,12.883z M32.125,12.444l-0.121-0.098l-0.078-0.128L32.125,12.444z M32.125,12.444l-0.199-0.226
		l-0.188-0.313l1.455-0.87l0.188,0.313L32.125,12.444z M31.738,11.906l-0.047-0.079l-0.029-0.087L31.738,11.906z M31.738,11.906
		l-0.076-0.166l-0.063-0.188l1.607-0.538l0.063,0.188L31.738,11.906z M31.599,11.552v-0.003l0.229,0.689L31.599,11.552z
		 M31.599,11.552v-0.003l-0.063-0.188l1.608-0.532l0.062,0.188L31.599,11.552z M31.537,11.362l-0.046-0.14v-0.126L31.537,11.362z
		 M31.537,11.362l0.805-0.266L31.537,11.362z M31.537,11.362l-0.046-0.14v-0.126L31.537,11.362z M31.537,11.362l-0.046-0.266V9.971
		h1.7v1.125L31.537,11.362z M32.341,9.121h0.85v0.851L32.341,9.121z M33.191,9.971l-0.85,0.851h-4.687V9.121h4.687L33.191,9.971z
		 M26.804,9.971V9.121h0.851L26.804,9.971z M27.655,9.121l0.85,0.851v1.125h-1.701V9.971L27.655,9.121z M26.804,11.096
		L26.804,11.096z M28.505,11.096L28.505,11.096v0.188h-1.701v-0.188H28.505z M28.505,11.284v0.126l-0.046,0.14L28.505,11.284z
		 M28.505,11.284l-0.046,0.266l-0.062,0.188l-1.608-0.532l0.063-0.187L28.505,11.284z M28.396,11.737l-0.031,0.094l-0.045,0.075
		L28.396,11.737z M28.396,11.737l-0.077,0.169l-0.188,0.313l-1.455-0.87l0.188-0.313L28.396,11.737z M28.132,12.218l-0.077,0.128
		l-0.123,0.098L28.132,12.218z M28.132,12.218l-0.199,0.226l-0.313,0.25l-1.056-1.322l0.313-0.25L28.132,12.218z M27.62,12.694
		l-0.236,0.189h-0.292L27.62,12.694z M27.62,12.694l-0.528,0.189h-0.188v-1.701h0.188L27.62,12.694z M26.699,11.209l0.106-0.027h0.1
		L26.699,11.209z M26.905,11.183l0.206,1.674l-0.25,0.063l-0.412-1.647l0.25-0.063L26.905,11.183z M26.861,12.919l-0.106,0.027h-0.1
		L26.861,12.919z M26.861,12.919l-0.206-0.823L26.861,12.919z M33.341,10.246v1.701h-0.5v-1.701H33.341z M32.841,11.947v-1.701h0.5
		v1.701H32.841z M33.341,10.246v0.851V10.246z M42.775,13.571L42.775,13.571z M42.775,11.87v0.85V11.87z M42.775,13.571
		L42.775,13.571z M42.775,11.87L42.775,11.87h0.188v1.701h-0.188V11.87z M42.962,11.87h0.353l0.249,0.25L42.962,11.87z
		 M42.962,11.87l0.602,0.25l0.125,0.125l-1.202,1.202l-0.125-0.125L42.962,11.87z M43.689,12.245l0.049,0.049l0.055,0.08
		L43.689,12.245z M43.689,12.245l0.104,0.129l0.125,0.188l-1.408,0.943l-0.125-0.188L43.689,12.245z M43.917,12.561l0.063,0.094
		l0.037,0.112L43.917,12.561z M43.917,12.561l0.1,0.206l0.063,0.188l-1.608,0.532l-0.062-0.188L43.917,12.561z M44.08,12.955
		l0.046,0.139v0.126L44.08,12.955z M44.08,12.955l-0.805,0.266L44.08,12.955z M44.08,12.955l0.046,0.139v0.126L44.08,12.955z
		 M44.08,12.955l0.046,0.266v33.991h-1.7V13.22L44.08,12.955z M44.125,47.211v0.125l-0.046,0.141L44.125,47.211z M44.125,47.211
		l-0.046,0.266l-0.063,0.188l-1.607-0.532l0.062-0.188L44.125,47.211z M44.017,47.665l-0.037,0.111l-0.063,0.094L44.017,47.665z
		 M44.017,47.665l-0.1,0.205l-0.125,0.188l-1.408-0.943l0.125-0.188L44.017,47.665z M43.792,48.057l-0.123,0.185l-0.203,0.102
		L43.792,48.057z M43.792,48.057l-0.326,0.286l-0.125,0.063l-0.758-1.515l0.125-0.063L43.792,48.057z M43.341,48.406l-0.053,0.026
		l-0.061,0.021L43.341,48.406z M43.341,48.406l-0.113,0.047l-0.187,0.062l-0.532-1.607l0.188-0.063L43.341,48.406z M43.042,48.514
		l-0.14,0.047h-0.127L43.042,48.514z M43.042,48.514l-0.267-0.803L43.042,48.514z M43.042,48.514l-0.14,0.047h-0.127L43.042,48.514z
		 M43.042,48.514l-0.267,0.047H17.282V46.86h25.493L43.042,48.514z M17.282,48.561h-0.126l-0.14-0.047L17.282,48.561z
		 M17.282,48.561l-0.266-0.047l-0.188-0.062l0.532-1.608l0.188,0.063L17.282,48.561z M16.829,48.453h-0.003l-0.686-0.229
		L16.829,48.453z M16.829,48.453h-0.003l-0.188-0.063l0.538-1.607l0.188,0.063L16.829,48.453z M16.639,48.389l-0.275-0.092
		l-0.16-0.24L16.639,48.389z M16.639,48.389l-0.435-0.332l-0.125-0.188l1.408-0.943l0.125,0.188L16.639,48.389z M16.079,47.87
		l-0.146-0.219v-0.252L16.079,47.87z M16.079,47.87l-0.146-0.471v-0.188h1.701v0.188L16.079,47.87z M17.633,47.211L17.633,47.211z
		 M15.932,47.211h0.851H15.932z M17.633,47.211L17.633,47.211z M15.932,47.211L15.932,47.211V13.22h1.701v33.991H15.932z
		 M17.633,13.22L17.633,13.22z M15.932,13.22L15.932,13.22v-0.188h1.701v0.188H15.932z M15.932,13.033v-0.252l0.146-0.22
		L15.932,13.033z M15.932,13.033l0.146-0.472l0.125-0.188l1.408,0.943l-0.125,0.188L15.932,13.033z M16.204,12.374l0.093-0.139
		l0.14-0.094L16.204,12.374z M16.204,12.374l0.232-0.232l0.188-0.125l0.943,1.409l-0.188,0.125L16.204,12.374z M16.624,12.016
		l0.219-0.146h0.253L16.624,12.016z M16.624,12.016l0.472-0.146h0.187v1.701h-0.187L16.624,12.016z M17.282,13.571L17.282,13.571z
		 M17.282,11.87v0.85V11.87z M17.282,13.571L17.282,13.571z M17.282,11.87L17.282,11.87h5.749v1.701h-5.749V11.87z M23.881,12.72
		v0.851h-0.851L23.881,12.72z M23.031,13.571L22.18,12.72v-0.624h1.701v0.624L23.031,13.571z M22.18,12.096v-0.1l0.027-0.107
		L22.18,12.096z M22.18,12.096l0.027-0.207l0.063-0.25l1.647,0.412l-0.063,0.25L22.18,12.096z M22.27,11.64L22.27,11.64l0.02-0.06
		L22.27,11.64z M22.27,11.64l0.02-0.06l0.063-0.188l1.607,0.532l-0.062,0.188L22.27,11.64z M22.352,11.392l0.031-0.093l0.046-0.076
		L22.352,11.392z M22.352,11.392l0.077-0.169l0.188-0.313l1.455,0.87l-0.188,0.313L22.352,11.392z M22.616,10.911l0.109-0.183
		l0.183-0.109L22.616,10.911z M22.616,10.911l0.292-0.292l0.313-0.188l0.87,1.455l-0.313,0.188L22.616,10.911z M23.221,10.431
		l0.076-0.045l0.094-0.031L23.221,10.431z M23.221,10.431l0.169-0.077l0.187-0.062l0.532,1.607l-0.187,0.063L23.221,10.431z
		 M23.577,10.292l0.14-0.047h0.126L23.577,10.292z M23.577,10.292l0.266-0.047h0.187v1.701h-0.187L23.577,10.292z M24.03,11.947
		L24.03,11.947z M24.03,10.246v0.851V10.246z M24.03,11.947L24.03,11.947z M24.03,10.246L24.03,10.246h2.625v1.701H24.03V10.246z
		 M27.505,11.096v0.851h-0.851L27.505,11.096z M26.655,11.947l-0.85-0.851V9.971h1.701v1.125L26.655,11.947z M25.805,9.971v-0.1
		l0.026-0.106L25.805,9.971z M25.805,9.971l0.026-0.206l0.063-0.25l1.647,0.412l-0.063,0.25L25.805,9.971z M25.894,9.515
		L25.894,9.515l0.02-0.06L25.894,9.515z M25.894,9.515l0.02-0.06l0.063-0.188L27.584,9.8l-0.063,0.187L25.894,9.515z M25.976,9.268
		l0.031-0.093l0.046-0.076L25.976,9.268z M25.976,9.268l0.077-0.169l0.187-0.312l1.455,0.87l-0.188,0.313L25.976,9.268z
		 M26.24,8.787l0.11-0.183l0.183-0.11L26.24,8.787z M26.24,8.787l0.292-0.292l0.313-0.188l0.87,1.455l-0.313,0.188L26.24,8.787z
		 M26.845,8.307l0.079-0.047l0.087-0.029L26.845,8.307z M26.845,8.307l0.166-0.077l0.188-0.063l0.538,1.608l-0.188,0.063
		L26.845,8.307z M27.198,8.167l0.139-0.046h0.13L27.198,8.167z M27.198,8.167l0.269-0.046h0.188v1.701h-0.188L27.198,8.167z
		 M27.655,9.822L27.655,9.822z M27.655,8.121v0.85V8.121z M27.655,9.822L27.655,9.822z M27.655,8.121L27.655,8.121h4.687v1.701
		h-4.687V8.121z M32.341,9.822L32.341,9.822z M32.341,8.121L32.341,8.121h0.25v1.701h-0.25V8.121z M32.591,8.121h0.129l0.14,0.046
		L32.591,8.121z M32.591,8.121l0.269,0.046l0.188,0.063l-0.538,1.608l-0.188-0.063L32.591,8.121z M33.047,8.23l0.087,0.029
		l0.079,0.047L33.047,8.23z M33.047,8.23l0.166,0.077l0.313,0.188l-0.87,1.455l-0.313-0.188L33.047,8.23z M33.526,8.494l0.183,0.109
		l0.109,0.183L33.526,8.494z M33.526,8.494l0.292,0.292l0.188,0.312L32.55,9.969l-0.188-0.313L33.526,8.494z M34.005,9.099
		l0.047,0.079l0.029,0.087L34.005,9.099z M34.005,9.099l0.076,0.167l0.063,0.187L32.537,9.99l-0.063-0.188L34.005,9.099z
		 M34.144,9.452l0.047,0.139v0.13L34.144,9.452z M34.144,9.452l0.047,0.269v0.25H32.49v-0.25L34.144,9.452z M32.49,9.971
		L32.49,9.971z M34.191,9.971h-0.85H34.191z M32.49,9.971L32.49,9.971z M34.191,9.971L34.191,9.971v1.125H32.49V9.971H34.191z
		 M33.341,11.947H32.49v-0.851L33.341,11.947z M32.49,11.096l0.852-0.851h2.623v1.701h-2.623L32.49,11.096z M35.964,11.947
		L35.964,11.947z M35.964,10.246L35.964,10.246h0.188v1.701h-0.188V10.246z M36.152,10.246h0.127l0.139,0.047L36.152,10.246z
		 M36.152,10.246l0.266,0.047l0.188,0.062l-0.531,1.608L35.886,11.9L36.152,10.246z M36.605,10.354l0.06,0.02l0.054,0.027
		L36.605,10.354z M36.605,10.354l0.113,0.046l0.375,0.188l-0.758,1.515l-0.375-0.188L36.605,10.354z M37.093,10.588l0.222,0.11
		l0.128,0.212L37.093,10.588z M37.093,10.588l0.35,0.322l0.187,0.313l-1.454,0.87l-0.188-0.313L37.093,10.588z M37.629,11.223
		l0.046,0.076l0.031,0.093L37.629,11.223z M37.629,11.223l0.077,0.169l0.063,0.188l-1.608,0.532l-0.063-0.188L37.629,11.223z
		 M37.769,11.58l0.046,0.14v0.126L37.769,11.58z M37.769,11.58l0.046,0.267v0.25h-1.7v-0.25L37.769,11.58z M36.115,12.096
		L36.115,12.096z M37.815,12.096h-0.851H37.815z M36.115,12.096L36.115,12.096z M37.815,12.096L37.815,12.096v0.624h-1.7v-0.624
		H37.815z M36.964,13.571h-0.85V12.72L36.964,13.571z M36.115,12.72l0.85-0.85h5.811v1.701h-5.811L36.115,12.72z"/>
	<polygon fill-rule="evenodd" clip-rule="evenodd" fill="#AAA7A7" points="27.717,19.656 27.717,19.656 27.53,19.594 27.342,19.594 
		27.155,19.656 27.03,19.843 24.218,24.03 23.093,22.593 22.968,22.406 22.781,22.343 22.594,22.406 22.406,22.468 22.281,22.593 
		22.219,22.78 22.219,22.968 22.344,23.155 23.905,25.217 24.03,25.342 24.28,25.405 24.53,25.342 24.718,25.155 27.842,20.343 
		27.905,20.218 27.905,19.968 27.842,19.843 	"/>
	<path fill="#AAA7A7" d="M27.783,19.455l0.07,0.023l0.04,0.06L27.783,19.455z M27.783,19.455l-0.066,0.201L27.783,19.455z
		 M27.783,19.455l0.07,0.023l0.04,0.06L27.783,19.455z M27.783,19.455l0.11,0.083l0.125,0.188l-0.352,0.236l-0.125-0.188
		L27.783,19.455z M28.018,19.726l0.006,0.01l0.007,0.013L28.018,19.726z M28.018,19.726l0.013,0.023l0.063,0.125l-0.379,0.189
		l-0.063-0.125L28.018,19.726z M28.094,19.874l0.023,0.046v0.048L28.094,19.874z M28.094,19.874l0.023,0.095v0.25h-0.425v-0.25
		L28.094,19.874z M28.117,20.218v0.048l-0.023,0.046L28.117,20.218z M28.117,20.218l-0.023,0.095l-0.063,0.125l-0.378-0.189
		l0.063-0.125L28.117,20.218z M28.031,20.438l-0.006,0.013l-0.006,0.008L28.031,20.438z M28.031,20.438l-0.189-0.095L28.031,20.438z
		 M28.031,20.438l-0.006,0.013l-0.006,0.008L28.031,20.438z M28.031,20.438l-0.012,0.021l-3.124,4.812l-0.355-0.231l3.124-4.811
		L28.031,20.438z M24.896,25.27l-0.012,0.019l-0.016,0.015L24.896,25.27z M24.896,25.27l-0.027,0.034l-0.188,0.188l-0.3-0.299
		l0.188-0.188L24.896,25.27z M24.681,25.492l-0.042,0.042l-0.057,0.015L24.681,25.492z M24.681,25.492l-0.099,0.057l-0.25,0.063
		l-0.102-0.412l0.25-0.063L24.681,25.492z M24.332,25.611l-0.051,0.012l-0.05-0.012H24.332z M24.332,25.611l-0.051-0.206
		L24.332,25.611z M24.332,25.611l-0.051,0.012l-0.05-0.012H24.332z M24.332,25.611l-0.051-0.206L24.332,25.611z M24.332,25.611
		l-0.051,0.012l-0.05-0.012H24.332z M24.332,25.611l-0.051-0.206L24.332,25.611z M24.332,25.611l-0.051,0.012l-0.05-0.012H24.332z
		 M24.332,25.611H24.23l-0.25-0.063l0.102-0.412l0.25,0.063V25.611z M23.98,25.548l-0.058-0.015l-0.042-0.041L23.98,25.548z
		 M23.98,25.548l-0.1-0.056l-0.125-0.125l0.3-0.301l0.125,0.125L23.98,25.548z M23.755,25.368l-0.009-0.01l-0.01-0.013
		L23.755,25.368z M23.755,25.368l0.15-0.15L23.755,25.368z M23.755,25.368l-0.009-0.01l-0.01-0.013L23.755,25.368z M23.755,25.368
		l-0.02-0.022l-1.562-2.063l0.339-0.255l1.562,2.062L23.755,25.368z M22.174,23.283l-0.007-0.01L22.174,23.283L22.174,23.283z
		 M22.174,23.283l-0.007-0.01l-0.125-0.188l0.352-0.235l0.125,0.187L22.174,23.283z M22.042,23.085l-0.037-0.055v-0.063
		L22.042,23.085z M22.042,23.085l-0.037-0.118V22.78h0.425v0.188L22.042,23.085z M22.006,22.78v-0.031l0.012-0.035L22.006,22.78z
		 M22.006,22.78l0.012-0.066l0.063-0.188l0.402,0.133l-0.063,0.187L22.006,22.78z M22.08,22.526l0.017-0.049l0.034-0.034
		L22.08,22.526z M22.08,22.526l0.051-0.083l0.125-0.125l0.3,0.3l-0.125,0.125L22.08,22.526z M22.256,22.318l0.034-0.034l0.05-0.017
		L22.256,22.318z M22.256,22.318l0.15,0.15L22.256,22.318z M22.256,22.318l0.034-0.034l0.05-0.017L22.256,22.318z M22.256,22.318
		l0.084-0.051l0.188-0.063l0.133,0.402l-0.188,0.062L22.256,22.318z M22.661,22.606L22.661,22.606l0.14-0.047L22.661,22.606z
		 M22.66,22.606l-0.134-0.402l0.188-0.063l0.134,0.401L22.66,22.606L22.66,22.606z M22.714,22.142l0.067-0.022l0.067,0.022H22.714z
		 M22.714,22.142h0.134l0.188,0.063l-0.134,0.402l-0.188-0.063V22.142z M23.036,22.205l0.069,0.023l0.04,0.06L23.036,22.205z
		 M23.036,22.205l0.109,0.083l0.125,0.188l-0.352,0.235l-0.125-0.187L23.036,22.205z M22.926,22.723l-0.004-0.006l-0.004-0.007
		L22.926,22.723z M23.27,22.475l-0.176,0.118L23.27,22.475z M22.926,22.723l-0.004-0.006l-0.004-0.007L22.926,22.723z M22.917,22.71
		l0.343-0.248l1.125,1.437l-0.334,0.261l-1.125-1.438L22.917,22.71z M24.394,24.148l-0.163,0.242l-0.18-0.229L24.394,24.148z
		 M24.051,24.161l-0.009-0.249l2.812-4.187l0.352,0.236l-2.812,4.187L24.051,24.161z M27.207,19.96L27.207,19.96l0.031-0.047
		L27.207,19.96z M27.206,19.961l-0.353-0.235l0.125-0.187l0.354,0.234L27.206,19.961L27.206,19.961z M26.978,19.539l0.041-0.061
		l0.07-0.023L26.978,19.539z M26.978,19.539l0.111-0.084l0.188-0.062l0.133,0.401l-0.188,0.063L26.978,19.539z M27.276,19.393
		l0.035-0.012h0.031L27.276,19.393z M27.276,19.393l0.066-0.012h0.188v0.425h-0.188L27.276,19.393z M27.53,19.381h0.031l0.035,0.012
		L27.53,19.381z M27.53,19.381l0.066,0.012l0.188,0.062l-0.133,0.402l-0.187-0.063L27.53,19.381z M27.783,19.455l0.07,0.023
		l0.04,0.06L27.783,19.455z M27.783,19.455l-0.066,0.201L27.783,19.455z"/>
	<polygon fill-rule="evenodd" clip-rule="evenodd" fill="#AAA7A7" points="21.094,26.966 27.155,26.966 27.342,26.904 
		27.467,26.779 27.592,26.654 27.655,26.466 27.655,23.03 27.592,22.843 27.467,22.718 27.342,22.593 27.155,22.53 26.967,22.593 
		26.78,22.718 26.655,22.843 26.655,23.03 26.655,25.967 21.594,25.967 21.594,20.906 25.593,20.906 25.78,20.843 25.968,20.781 
		26.03,20.593 26.092,20.406 26.03,20.218 25.968,20.031 25.78,19.906 25.593,19.906 21.094,19.906 20.907,19.906 20.719,20.031 
		20.594,20.218 20.594,20.406 20.594,26.466 20.594,26.654 20.719,26.779 20.907,26.904 	"/>
	<path fill="#AAA7A7" d="M21.094,27.179h-0.032l-0.035-0.012L21.094,27.179z M21.094,27.179v-0.213V27.179z M21.094,27.179h-0.032
		l-0.035-0.012L21.094,27.179z M21.094,27.179l-0.067-0.012l-0.187-0.063l0.134-0.402l0.188,0.063L21.094,27.179z M20.839,27.105
		l-0.027-0.009l-0.022-0.016L20.839,27.105z M20.839,27.105l-0.05-0.024l-0.188-0.125l0.234-0.354l0.187,0.125L20.839,27.105z
		 M20.602,26.956l-0.019-0.013l-0.014-0.014L20.602,26.956z M20.602,26.956l-0.033-0.027l-0.125-0.125l0.3-0.3l0.125,0.125
		L20.602,26.956z M20.444,26.804l-0.063-0.062v-0.088L20.444,26.804z M20.444,26.804l-0.063-0.15v-0.188h0.425v0.188L20.444,26.804z
		 M20.807,26.466L20.807,26.466z M20.381,26.466h0.213H20.381z M20.807,26.466L20.807,26.466z M20.381,26.466L20.381,26.466v-6.061
		h0.425v6.061H20.381z M20.807,20.406L20.807,20.406z M20.381,20.406L20.381,20.406v-0.188h0.425v0.188H20.381z M20.381,20.218
		v-0.063l0.037-0.055L20.381,20.218z M20.381,20.218l0.037-0.118l0.125-0.187l0.352,0.235l-0.125,0.188L20.381,20.218z
		 M20.543,19.914l0.023-0.035l0.035-0.023L20.543,19.914z M20.543,19.914l0.058-0.059l0.188-0.125l0.236,0.352l-0.188,0.125
		L20.543,19.914z M20.789,19.73l0.055-0.036h0.063L20.789,19.73z M20.789,19.73l0.118-0.036h0.187v0.425h-0.187L20.789,19.73z
		 M21.094,20.118L21.094,20.118L21.094,20.118L21.094,20.118z M21.094,19.694v0.212V19.694z M21.094,20.118L21.094,20.118
		L21.094,20.118L21.094,20.118z M21.094,19.694L21.094,19.694l4.499,0v0.423h-4.499V19.694z M25.593,20.119L25.593,20.119
		L25.593,20.119L25.593,20.119z M25.593,19.694L25.593,19.694l0.188,0v0.425h-0.188V19.694z M25.78,19.694h0.063l0.054,0.035
		L25.78,19.694z M25.78,19.694l0.117,0.035l0.188,0.125l-0.234,0.354l-0.188-0.125L25.78,19.694z M26.085,19.854l0.061,0.041
		l0.023,0.07L26.085,19.854z M26.085,19.854l0.084,0.111l0.062,0.187l-0.402,0.133l-0.063-0.188L26.085,19.854z M25.829,20.285
		L25.829,20.285z M26.231,20.152L26.231,20.152l0.063,0.188l-0.402,0.133l-0.063-0.188L26.231,20.152z M26.293,20.339l0.022,0.066
		l-0.022,0.066V20.339z M26.293,20.339l-0.201,0.066L26.293,20.339z M26.293,20.339l0.022,0.066l-0.022,0.066V20.339z
		 M26.293,20.339v0.133l-0.063,0.188l-0.402-0.133l0.063-0.188H26.293z M25.829,20.527L25.829,20.527z M25.829,20.527l0.402,0.133
		l-0.062,0.188l-0.402-0.133L25.829,20.527z M26.169,20.847l-0.034,0.101l-0.101,0.034L26.169,20.847z M26.169,20.847l-0.135,0.135
		l-0.188,0.063l-0.133-0.402l0.188-0.063L26.169,20.847z M25.713,20.642L25.713,20.642l-0.14,0.047L25.713,20.642z M25.714,20.642
		l0.133,0.402l-0.187,0.063l-0.135-0.402L25.714,20.642L25.714,20.642z M25.66,21.107l-0.035,0.011l-0.033,0L25.66,21.107z
		 M25.66,21.107l-0.067-0.201L25.66,21.107z M25.66,21.107l-0.035,0.011l-0.033,0L25.66,21.107z M25.66,21.107l-0.067,0.012h-3.999
		v-0.425h3.999L25.66,21.107z M21.381,20.906v-0.212l0.212,0L21.381,20.906z M21.594,20.693l0.213,0.212v5.061h-0.425v-5.061
		L21.594,20.693z M21.594,26.179h-0.212v-0.212L21.594,26.179z M21.381,25.967l0.212-0.212h5.061v0.425h-5.061L21.381,25.967z
		 M26.867,25.967v0.212h-0.212L26.867,25.967z M26.655,26.179l-0.212-0.212V23.03h0.425v2.937L26.655,26.179z M26.867,23.03
		L26.867,23.03z M26.442,23.03L26.442,23.03v-0.187h0.425v0.187H26.442z M26.442,22.843v-0.088l0.063-0.062L26.442,22.843z
		 M26.442,22.843l0.063-0.15l0.125-0.125l0.3,0.3l-0.125,0.125L26.442,22.843z M26.63,22.568l0.012-0.013l0.02-0.014L26.63,22.568z
		 M26.63,22.568l0.032-0.026l0.188-0.125l0.235,0.353l-0.187,0.125L26.63,22.568z M26.85,22.417l0.023-0.016l0.027-0.009
		L26.85,22.417z M26.85,22.417l0.05-0.024l0.188-0.063l0.134,0.402l-0.188,0.063L26.85,22.417z M27.087,22.329l0.067-0.022
		l0.067,0.022H27.087z M27.087,22.329l0.067,0.201L27.087,22.329z M27.087,22.329l0.067-0.022l0.067,0.022H27.087z M27.087,22.329
		h0.134l0.188,0.063l-0.134,0.401l-0.188-0.063V22.329z M27.409,22.392l0.049,0.016l0.035,0.035L27.409,22.392z M27.409,22.392
		l0.083,0.051l0.125,0.125l-0.301,0.3l-0.125-0.125L27.409,22.392z M27.317,22.868L27.317,22.868z M27.618,22.568L27.618,22.568
		l0.125,0.125l-0.301,0.3l-0.125-0.125L27.618,22.568z M27.743,22.693l0.034,0.034l0.017,0.05L27.743,22.693z M27.743,22.693
		l0.05,0.083l0.063,0.188l-0.402,0.132l-0.062-0.187L27.743,22.693z M27.855,22.964l0.012,0.035v0.031L27.855,22.964z
		 M27.855,22.964l-0.201,0.066L27.855,22.964z M27.855,22.964l0.012,0.035v0.031L27.855,22.964z M27.855,22.964l0.012,0.066v3.437
		h-0.425V23.03L27.855,22.964z M27.867,26.466v0.031l-0.012,0.035L27.867,26.466z M27.867,26.466l-0.012,0.066l-0.063,0.188
		l-0.401-0.133l0.062-0.188L27.867,26.466z M27.793,26.721l-0.016,0.049l-0.034,0.034L27.793,26.721z M27.793,26.721l-0.05,0.083
		l-0.125,0.125l-0.301-0.3l0.125-0.125L27.793,26.721z M27.618,26.929L27.618,26.929l0.374-0.374L27.618,26.929z M27.618,26.929
		L27.618,26.929l-0.126,0.125l-0.299-0.301l0.125-0.125L27.618,26.929z M27.492,27.054l-0.035,0.035l-0.048,0.016L27.492,27.054z
		 M27.492,27.054l-0.083,0.051l-0.188,0.063l-0.134-0.402l0.188-0.063L27.492,27.054z M27.222,27.167l-0.034,0.012h-0.033
		L27.222,27.167z M27.222,27.167l-0.067-0.201L27.222,27.167z M27.222,27.167l-0.034,0.012h-0.033L27.222,27.167z M27.222,27.167
		l-0.067,0.012h-6.061v-0.425h6.061L27.222,27.167z"/>
	<polygon fill-rule="evenodd" clip-rule="evenodd" fill="#AAA7A7" points="30.404,22.905 30.404,22.905 30.216,22.968 
		30.029,23.092 29.966,23.217 29.904,23.405 29.966,23.592 30.029,23.78 30.216,23.905 30.404,23.905 39.339,23.905 39.527,23.905 
		39.652,23.78 39.777,23.592 39.839,23.405 39.777,23.217 39.652,23.092 39.527,22.968 39.339,22.905 	"/>
	<path fill="#AAA7A7" d="M30.224,22.369l0.093-0.031h0.087L30.224,22.369z M30.224,22.369l0.18-0.031h8.936v1.134h-8.936
		L30.224,22.369z M39.339,22.338h0.086l0.094,0.031L39.339,22.338z M39.339,22.338l0.18,0.031l0.188,0.063l-0.359,1.072
		l-0.188-0.063L39.339,22.338z M39.707,22.432l0.125,0.042l0.094,0.093L39.707,22.432z M39.707,22.432l0.219,0.135l0.125,0.125
		l-0.797,0.802l-0.125-0.125L39.707,22.432z M40.05,22.692L40.05,22.692l0.002,0.002L40.05,22.692z M40.05,22.692l0.002,0.002
		l0.125,0.125l-0.802,0.797l-0.125-0.125L40.05,22.692z M40.177,22.819l0.094,0.093l0.041,0.126L40.177,22.819z M40.177,22.819
		l0.135,0.219l0.063,0.188l-1.072,0.358l-0.063-0.188L40.177,22.819z M40.375,23.226l0.061,0.179l-0.061,0.179V23.226z
		 M40.375,23.226l-0.535,0.179L40.375,23.226z M40.375,23.226l0.061,0.179l-0.061,0.179V23.226z M40.375,23.226v0.358l-0.063,0.188
		l-1.072-0.359l0.063-0.187H40.375z M40.312,23.772l-0.023,0.073l-0.041,0.06L40.312,23.772z M40.312,23.772l-0.064,0.133
		l-0.125,0.188l-0.943-0.625l0.125-0.188L40.312,23.772z M40.123,24.092l-0.034,0.053l-0.036,0.036L40.123,24.092z M40.123,24.092
		l-0.07,0.088l-0.125,0.125l-0.802-0.801l0.125-0.125L40.123,24.092z M39.927,24.306l-0.166,0.166l-0.234,0.001L39.927,24.306z
		 M39.927,24.306l-0.4,0.167h-0.188v-1.134h0.188L39.927,24.306z M39.339,23.338L39.339,23.338z M39.339,24.472v-0.567V24.472z
		 M39.339,23.338L39.339,23.338z M39.339,24.472L39.339,24.472h-8.936v-1.134h8.936V24.472z M30.404,23.338L30.404,23.338z
		 M30.404,24.472L30.404,24.472h-0.188v-1.134h0.188V24.472z M30.216,24.472h-0.168l-0.146-0.098L30.216,24.472z M30.216,24.472
		l-0.314-0.098l-0.188-0.125l0.629-0.939l0.188,0.125L30.216,24.472z M29.714,24.25l-0.16-0.106l-0.061-0.186L29.714,24.25z
		 M29.714,24.25l-0.221-0.292l-0.063-0.187l1.072-0.354l0.063,0.188L29.714,24.25z M30.502,23.413v0.002l-0.167-0.501L30.502,23.413
		z M30.502,23.416l-1.072,0.356l-0.063-0.188l1.072-0.358l0.063,0.187V23.416z M29.368,23.584l-0.06-0.179l0.06-0.18V23.584z
		 M29.368,23.584l0.536-0.179L29.368,23.584z M29.368,23.584l-0.06-0.179l0.06-0.18V23.584z M29.368,23.584v-0.358l0.063-0.188
		l1.072,0.359l-0.063,0.188H29.368z M29.431,23.038l0.015-0.045l0.014-0.028L29.431,23.038z M29.431,23.038l0.029-0.073l0.063-0.125
		l1.015,0.505l-0.063,0.125L29.431,23.038z M29.522,22.84l0.066-0.134l0.128-0.085L29.522,22.84z M29.522,22.84l0.194-0.219
		l0.188-0.125l0.625,0.943l-0.188,0.125L29.522,22.84z M29.904,22.496l0.061-0.04l0.072-0.024L29.904,22.496z M29.904,22.496
		l0.133-0.064l0.188-0.063l0.359,1.072l-0.188,0.063L29.904,22.496z M30.224,22.369l0.093-0.031h0.087L30.224,22.369z
		 M30.224,22.369l0.18,0.536L30.224,22.369z"/>
	<polygon fill-rule="evenodd" clip-rule="evenodd" fill="#AAA7A7" points="27.717,28.154 27.717,28.154 27.53,28.091 27.342,28.091 
		27.155,28.154 27.03,28.279 24.218,32.528 23.093,31.028 22.968,30.903 22.781,30.84 22.594,30.84 22.406,30.903 22.281,31.09 
		22.219,31.278 22.219,31.465 22.344,31.653 23.905,33.652 24.03,33.839 24.28,33.839 24.53,33.777 24.718,33.652 27.842,28.841 
		27.905,28.654 27.905,28.466 27.842,28.279 	"/>
	<path fill="#AAA7A7" d="M27.784,27.953l0.048,0.017l0.035,0.034L27.784,27.953z M27.784,27.953l-0.067,0.201L27.784,27.953z
		 M27.784,27.953l0.048,0.017l0.035,0.034L27.784,27.953z M27.784,27.953l0.083,0.051l0.125,0.125l-0.3,0.301l-0.125-0.125
		L27.784,27.953z M27.992,28.128l0.034,0.034l0.017,0.049L27.992,28.128z M27.992,28.128l0.051,0.083l0.063,0.188l-0.402,0.135
		l-0.063-0.188L27.992,28.128z M28.105,28.399l0.012,0.035v0.033L28.105,28.399z M28.105,28.399l0.012,0.067v0.188h-0.425v-0.188
		L28.105,28.399z M28.117,28.654v0.032l-0.012,0.035L28.117,28.654z M28.117,28.654l-0.012,0.067l-0.063,0.188l-0.402-0.135
		l0.063-0.188L28.117,28.654z M28.043,28.909l-0.008,0.025l-0.015,0.023L28.043,28.909z M28.043,28.909l-0.201-0.067L28.043,28.909z
		 M28.043,28.909l-0.008,0.025l-0.015,0.023L28.043,28.909z M28.043,28.909l-0.023,0.048l-3.124,4.812l-0.355-0.231l3.124-4.811
		L28.043,28.909z M24.896,33.768l-0.023,0.036l-0.036,0.024L24.896,33.768z M24.896,33.768l-0.06,0.061l-0.188,0.125l-0.236-0.353
		l0.188-0.125L24.896,33.768z M24.648,33.954l-0.032,0.021l-0.035,0.009L24.648,33.954z M24.648,33.954l-0.067,0.029l-0.25,0.063
		l-0.102-0.412l0.25-0.063L24.648,33.954z M24.332,34.045l-0.026,0.007H24.28L24.332,34.045z M24.332,34.045l-0.051-0.206
		L24.332,34.045z M24.332,34.045l-0.026,0.007H24.28L24.332,34.045z M24.332,34.045l-0.051-0.206L24.332,34.045z M24.332,34.045
		l-0.026,0.007H24.28L24.332,34.045z M24.332,34.045l-0.051-0.206L24.332,34.045z M24.332,34.045l-0.026,0.007H24.28L24.332,34.045z
		 M24.332,34.045l-0.051,0.007h-0.25v-0.425h0.25L24.332,34.045z M24.03,34.052h-0.112l-0.063-0.095L24.03,34.052z M24.03,34.052
		l-0.176-0.095l-0.125-0.188l0.352-0.236l0.125,0.188L24.03,34.052z M24.072,33.522l0.005,0.006l0.004,0.006L24.072,33.522z
		 M23.729,33.77l0.176-0.118L23.729,33.77z M24.072,33.522l0.005,0.006l0.004,0.006L24.072,33.522z M24.082,33.534l-0.343,0.249
		l-1.562-1.999l0.334-0.262l1.562,2L24.082,33.534z M22.177,31.784l-0.007-0.01l-0.002-0.004L22.177,31.784z M22.177,31.784
		l-0.01-0.014l-0.125-0.188l0.354-0.234l0.125,0.188L22.177,31.784z M22.042,31.583l-0.036-0.054v-0.063L22.042,31.583z
		 M22.042,31.583l-0.036-0.117v-0.188h0.425v0.188L22.042,31.583z M22.006,31.278v-0.031l0.012-0.035L22.006,31.278z M22.006,31.278
		l0.012-0.066l0.063-0.188l0.402,0.133l-0.063,0.188L22.006,31.278z M22.08,31.024l0.009-0.027l0.016-0.024L22.08,31.024z
		 M22.08,31.024l0.025-0.052l0.125-0.187l0.352,0.235l-0.125,0.188L22.08,31.024z M22.23,30.786l0.04-0.061l0.069-0.023
		L22.23,30.786z M22.23,30.786l0.176,0.117L22.23,30.786z M22.23,30.786l0.04-0.061l0.069-0.023L22.23,30.786z M22.23,30.786
		l0.109-0.084l0.188-0.063l0.134,0.402l-0.188,0.063L22.23,30.786z M22.526,30.639l0.035-0.012h0.033L22.526,30.639z M22.526,30.639
		l0.067-0.012h0.188v0.426h-0.188L22.526,30.639z M22.781,30.627h0.032l0.035,0.012L22.781,30.627z M22.781,30.627l0.067,0.012
		l0.188,0.063l-0.134,0.402l-0.188-0.063L22.781,30.627z M23.036,30.702l0.047,0.016l0.035,0.035L23.036,30.702z M23.036,30.702
		l0.082,0.051l0.125,0.125l-0.299,0.301l-0.125-0.125L23.036,30.702z M23.243,30.877l0.011,0.011l0.009,0.013L23.243,30.877z
		 M23.243,30.877l-0.149,0.15L23.243,30.877z M23.243,30.877l0.011,0.011l0.009,0.013L23.243,30.877z M23.243,30.877l0.02,0.023
		l1.125,1.5l-0.339,0.254l-1.125-1.5L23.243,30.877z M24.395,32.645l-0.166,0.25l-0.181-0.24L24.395,32.645z M24.049,32.655
		l-0.007-0.244l2.812-4.249l0.354,0.234l-2.812,4.249L24.049,32.655z M26.853,28.162l0.011-0.017l0.016-0.016L26.853,28.162z
		 M26.853,28.162l0.027-0.032l0.125-0.125l0.3,0.299l-0.125,0.125L26.853,28.162z M27.004,28.004l0.036-0.036l0.047-0.016
		L27.004,28.004z M27.004,28.004l0.083-0.052l0.188-0.063l0.134,0.402l-0.188,0.063L27.004,28.004z M27.275,27.89l0.035-0.012h0.033
		L27.275,27.89z M27.275,27.89l0.067-0.012h0.188v0.425h-0.188L27.275,27.89z M27.53,27.878h0.032l0.035,0.012L27.53,27.878z
		 M27.53,27.878l0.067,0.012l0.188,0.063l-0.134,0.402l-0.188-0.063L27.53,27.878z M27.784,27.953l0.048,0.017l0.035,0.034
		L27.784,27.953z M27.784,27.953l-0.067,0.201L27.784,27.953z"/>
	<polygon fill-rule="evenodd" clip-rule="evenodd" fill="#AAA7A7" points="21.094,35.402 27.155,35.402 27.342,35.339 
		27.467,35.277 27.592,35.089 27.655,34.902 27.655,31.528 27.592,31.278 27.467,31.153 27.342,31.028 27.155,31.028 26.967,31.028 
		26.78,31.153 26.655,31.278 26.655,31.528 26.655,34.402 21.594,34.402 21.594,29.34 25.593,29.34 25.78,29.34 25.968,29.216 
		26.03,29.029 26.092,28.841 26.03,28.654 25.968,28.529 25.78,28.404 25.593,28.341 21.094,28.341 20.907,28.404 20.719,28.529 
		20.594,28.654 20.594,28.841 20.594,34.902 20.594,35.089 20.719,35.277 20.907,35.339 	"/>
	<path fill="#AAA7A7" d="M21.094,35.614h-0.031l-0.035-0.012L21.094,35.614z M21.094,35.614v-0.212V35.614z M21.094,35.614h-0.031
		l-0.035-0.012L21.094,35.614z M21.094,35.614l-0.066-0.012l-0.187-0.062l0.132-0.402l0.188,0.063L21.094,35.614z M20.84,35.541
		L20.84,35.541l-0.188-0.063L20.84,35.541z M20.84,35.541L20.84,35.541l-0.188-0.063l0.134-0.401l0.188,0.063L20.84,35.541z
		 M20.652,35.477l-0.068-0.022l-0.041-0.06L20.652,35.477z M20.652,35.477l-0.109-0.082l-0.125-0.188l0.352-0.236l0.125,0.188
		L20.652,35.477z M20.418,35.208l-0.037-0.055v-0.063L20.418,35.208z M20.418,35.208l-0.037-0.118v-0.188h0.425v0.188L20.418,35.208
		z M20.807,34.902L20.807,34.902z M20.381,34.902h0.213H20.381z M20.807,34.902L20.807,34.902z M20.381,34.902L20.381,34.902v-6.061
		h0.425v6.061H20.381z M20.807,28.841L20.807,28.841z M20.381,28.841L20.381,28.841v-0.188h0.425v0.188H20.381z M20.381,28.654
		v-0.088l0.063-0.063L20.381,28.654z M20.381,28.654l0.063-0.15l0.125-0.125l0.3,0.3l-0.125,0.125L20.381,28.654z M20.569,28.378
		l0.013-0.013l0.02-0.013L20.569,28.378z M20.569,28.378l0.032-0.026l0.188-0.125l0.236,0.352l-0.188,0.125L20.569,28.378z
		 M20.789,28.228l0.023-0.015l0.028-0.01L20.789,28.228z M20.789,28.228l0.052-0.025l0.187-0.063l0.133,0.402l-0.188,0.062
		L20.789,28.228z M21.027,28.14l0.032-0.011h0.034L21.027,28.14z M21.027,28.14l0.066,0.201L21.027,28.14z M21.027,28.14
		l0.032-0.011h0.034L21.027,28.14z M21.027,28.14l0.066-0.011h4.499v0.424h-4.499L21.027,28.14z M25.593,28.129h0.034l0.033,0.011
		L25.593,28.129z M25.593,28.129l0.066,0.011l0.188,0.063l-0.133,0.402l-0.188-0.062L25.593,28.129z M25.847,28.203l0.029,0.01
		l0.021,0.014L25.847,28.203z M25.847,28.203l0.05,0.024l0.188,0.125l-0.234,0.354l-0.188-0.125L25.847,28.203z M26.085,28.352
		l0.048,0.032l0.025,0.051L26.085,28.352z M26.085,28.352l0.073,0.083l0.062,0.125l-0.38,0.189l-0.063-0.125L26.085,28.352z
		 M26.22,28.559l0.004,0.008l0.007,0.021L26.22,28.559z M26.22,28.559l0.011,0.028l0.063,0.188l-0.402,0.133l-0.063-0.188
		L26.22,28.559z M26.293,28.775l0.022,0.066l-0.022,0.066V28.775z M26.293,28.775l-0.201,0.066L26.293,28.775z M26.293,28.775
		l0.022,0.066l-0.022,0.066V28.775z M26.293,28.775v0.133l-0.063,0.188l-0.402-0.133l0.063-0.188H26.293z M25.829,28.962
		L25.829,28.962z M26.231,29.095L26.231,29.095l-0.062,0.187l-0.402-0.132l0.063-0.188L26.231,29.095z M26.169,29.282l-0.023,0.07
		l-0.061,0.041L26.169,29.282z M26.169,29.282l-0.084,0.111l-0.188,0.125l-0.234-0.354l0.188-0.125L26.169,29.282z M25.897,29.518
		l-0.053,0.035H25.78L25.897,29.518z M25.897,29.518l-0.117,0.035h-0.188v-0.425h0.188L25.897,29.518z M25.593,29.128L25.593,29.128
		z M25.593,29.553V29.34V29.553z M25.593,29.128L25.593,29.128z M25.593,29.553L25.593,29.553h-3.999v-0.425h3.999V29.553z
		 M21.381,29.34v-0.212h0.212L21.381,29.34z M21.594,29.128l0.213,0.212v5.062h-0.425V29.34L21.594,29.128z M21.594,34.615h-0.212
		v-0.213L21.594,34.615z M21.381,34.402l0.212-0.213h5.061v0.426h-5.061L21.381,34.402z M26.867,34.402v0.213h-0.212L26.867,34.402z
		 M26.655,34.615l-0.212-0.213v-2.874h0.425v2.874L26.655,34.615z M26.867,31.528L26.867,31.528z M26.442,31.528L26.442,31.528
		v-0.25h0.425v0.25H26.442z M26.442,31.278V31.19l0.063-0.063L26.442,31.278z M26.442,31.278l0.063-0.15l0.125-0.125l0.3,0.301
		l-0.125,0.125L26.442,31.278z M26.63,31.002l0.012-0.012l0.02-0.014L26.63,31.002z M26.63,31.002l0.032-0.025l0.188-0.125
		l0.235,0.352l-0.187,0.125L26.63,31.002z M26.85,30.852l0.055-0.037h0.063L26.85,30.852z M26.85,30.852l0.118-0.037h0.188v0.426
		h-0.188L26.85,30.852z M27.155,31.241L27.155,31.241z M27.155,30.815v0.213V30.815z M27.155,31.241L27.155,31.241z M27.155,30.815
		L27.155,30.815h0.188v0.426h-0.188V30.815z M27.342,30.815h0.088l0.063,0.063L27.342,30.815z M27.342,30.815l0.15,0.063
		l0.125,0.125l-0.301,0.301l-0.125-0.125L27.342,30.815z M27.317,31.303L27.317,31.303z M27.618,31.002L27.618,31.002l0.125,0.125
		l-0.301,0.301l-0.125-0.125L27.618,31.002z M27.743,31.127l0.041,0.041l0.015,0.059L27.743,31.127z M27.743,31.127l0.056,0.1
		l0.063,0.25l-0.412,0.102l-0.063-0.25L27.743,31.127z M27.861,31.477l0.006,0.026v0.024L27.861,31.477z M27.861,31.477
		l-0.206,0.051L27.861,31.477z M27.861,31.477l0.006,0.026v0.024L27.861,31.477z M27.861,31.477l0.006,0.051v3.374h-0.425v-3.374
		L27.861,31.477z M27.867,34.902v0.031l-0.012,0.035L27.867,34.902z M27.867,34.902l-0.012,0.066l-0.063,0.188l-0.401-0.133
		l0.062-0.188L27.867,34.902z M27.793,35.156l-0.009,0.028l-0.016,0.023L27.793,35.156z M27.793,35.156l-0.024,0.052l-0.125,0.188
		l-0.353-0.236l0.125-0.188L27.793,35.156z M27.644,35.395l-0.031,0.045l-0.051,0.026L27.644,35.395z M27.644,35.395l-0.082,0.071
		l-0.125,0.063l-0.189-0.379l0.125-0.063L27.644,35.395z M27.437,35.529l-0.013,0.007l-0.015,0.005L27.437,35.529z M27.437,35.529
		l-0.028,0.012l-0.188,0.062l-0.132-0.401l0.188-0.063L27.437,35.529z M27.221,35.602l-0.035,0.012h-0.031L27.221,35.602z
		 M27.221,35.602l-0.066-0.2L27.221,35.602z M27.221,35.602l-0.035,0.012h-0.031L27.221,35.602z M27.221,35.602l-0.066,0.012h-6.061
		v-0.425h6.061L27.221,35.602z"/>
	<polygon fill-rule="evenodd" clip-rule="evenodd" fill="#AAA7A7" points="39.339,31.403 30.404,31.403 30.216,31.403 
		30.029,31.528 29.966,31.715 29.904,31.903 29.966,32.09 30.029,32.215 30.216,32.34 30.404,32.403 39.339,32.403 39.527,32.34 
		39.652,32.215 39.777,32.09 39.839,31.903 39.777,31.715 39.652,31.528 39.527,31.403 	"/>
	<path fill="#AAA7A7" d="M39.339,31.969L39.339,31.969z M39.339,30.836v0.566V30.836z M39.339,31.969L39.339,31.969z M39.339,30.836
		L39.339,30.836h0.188v1.133h-0.188V30.836z M39.527,30.836h0.234l0.166,0.166L39.527,30.836z M39.527,30.836l0.4,0.166l0.125,0.125
		l-0.802,0.801l-0.125-0.125L39.527,30.836z M40.052,31.127l0.035,0.035l0.035,0.053L40.052,31.127z M40.052,31.127l0.07,0.088
		l0.125,0.188l-0.943,0.625l-0.125-0.188L40.052,31.127z M40.248,31.403l0.041,0.06l0.023,0.073L40.248,31.403z M40.248,31.403
		l0.064,0.133l0.063,0.188l-1.072,0.359l-0.063-0.188L40.248,31.403z M40.375,31.723l0.061,0.18l-0.061,0.18V31.723z M40.375,31.723
		l-0.535,0.18L40.375,31.723z M40.375,31.723l0.061,0.18l-0.061,0.18V31.723z M40.375,31.723v0.359l-0.063,0.188l-1.072-0.359
		l0.063-0.188H40.375z M40.312,32.27l-0.041,0.125l-0.094,0.094L40.312,32.27z M40.312,32.27l-0.135,0.219l-0.125,0.125
		l-0.802-0.797l0.125-0.125L40.312,32.27z M40.052,32.614L40.052,32.614l-0.002,0.002L40.052,32.614z M40.052,32.614l-0.002,0.002
		l-0.125,0.125l-0.797-0.802l0.125-0.124L40.052,32.614z M39.925,32.741l-0.094,0.093l-0.125,0.042L39.925,32.741z M39.925,32.741
		l-0.219,0.135l-0.188,0.063l-0.359-1.072l0.188-0.063L39.925,32.741z M39.519,32.939l-0.094,0.03h-0.086L39.519,32.939z
		 M39.519,32.939l-0.18-0.536L39.519,32.939z M39.519,32.939l-0.094,0.03h-0.086L39.519,32.939z M39.519,32.939l-0.18,0.03h-8.936
		v-1.134h8.936L39.519,32.939z M30.404,32.969h-0.086l-0.094-0.03L30.404,32.969z M30.404,32.969l-0.18-0.03l-0.188-0.063
		l0.359-1.071l0.188,0.063L30.404,32.969z M30.037,32.875l-0.072-0.023l-0.061-0.041L30.037,32.875z M30.037,32.875l-0.133-0.064
		l-0.188-0.124l0.625-0.943l0.188,0.125L30.037,32.875z M29.716,32.687l-0.127-0.085l-0.067-0.135L29.716,32.687z M29.716,32.687
		l-0.194-0.22l-0.063-0.125l1.015-0.505l0.063,0.125L29.716,32.687z M29.459,32.342l-0.013-0.026l-0.016-0.046L29.459,32.342z
		 M29.459,32.342l-0.029-0.072l-0.063-0.188l1.072-0.359l0.063,0.188L29.459,32.342z M29.368,32.083l-0.06-0.18l0.06-0.18V32.083z
		 M29.368,32.083l0.536-0.18L29.368,32.083z M29.368,32.083l-0.06-0.18l0.06-0.18V32.083z M29.368,32.083v-0.359l0.063-0.188
		l1.072,0.359l-0.063,0.188H29.368z M30.502,31.892v0.003l-0.167,0.498L30.502,31.892z M30.502,31.895l-1.072-0.357l0.063-0.187
		l1.072,0.354l-0.063,0.187V31.895z M29.493,31.351l0.061-0.186l0.16-0.107L29.493,31.351z M29.493,31.351l0.221-0.293l0.188-0.125
		l0.629,0.939l-0.188,0.125L29.493,31.351z M29.902,30.933l0.146-0.097h0.168L29.902,30.933z M29.902,30.933l0.314-0.097h0.188
		v1.133h-0.188L29.902,30.933z M30.404,31.969L30.404,31.969z M30.404,30.836v0.566V30.836z M30.404,31.969L30.404,31.969z
		 M30.404,30.836L30.404,30.836h8.936v1.133h-8.936V30.836z"/>
	<polygon fill-rule="evenodd" clip-rule="evenodd" fill="#AAA7A7" points="27.717,36.588 27.717,36.588 27.53,36.526 27.342,36.526 
		27.155,36.588 27.03,36.713 24.218,40.962 23.093,39.463 22.968,39.338 22.781,39.276 22.594,39.276 22.406,39.401 22.281,39.526 
		22.219,39.713 22.219,39.901 22.344,40.088 23.905,42.15 24.03,42.275 24.28,42.337 24.53,42.275 24.718,42.087 27.842,37.276 
		27.905,37.088 27.905,36.901 27.842,36.713 	"/>
	<path fill="#AAA7A7" d="M27.783,36.388l0.05,0.017l0.034,0.034L27.783,36.388z M27.783,36.388l-0.066,0.2L27.783,36.388z
		 M27.783,36.388l0.05,0.017l0.034,0.034L27.783,36.388z M27.783,36.388l0.084,0.051l0.125,0.125l-0.3,0.3l-0.125-0.125
		L27.783,36.388z M27.992,36.564l0.034,0.034l0.017,0.049L27.992,36.564z M27.992,36.564l0.051,0.083l0.063,0.188l-0.402,0.134
		l-0.063-0.188L27.992,36.564z M28.105,36.834l0.012,0.034v0.032L28.105,36.834z M28.105,36.834l0.012,0.066v0.188h-0.425v-0.188
		L28.105,36.834z M28.117,37.088v0.033l-0.012,0.034L28.117,37.088z M28.117,37.088l-0.012,0.067l-0.063,0.188l-0.402-0.134
		l0.063-0.188L28.117,37.088z M28.043,37.343l-0.008,0.025l-0.015,0.022L28.043,37.343z M28.043,37.343l-0.201-0.067L28.043,37.343z
		 M28.043,37.343l-0.008,0.025l-0.015,0.022L28.043,37.343z M28.043,37.343l-0.023,0.048l-3.124,4.812l-0.355-0.23l3.124-4.812
		L28.043,37.343z M24.896,42.203l-0.014,0.021l-0.014,0.014L24.896,42.203z M24.896,42.203l-0.027,0.035l-0.188,0.188l-0.3-0.301
		l0.188-0.188L24.896,42.203z M24.681,42.425l-0.041,0.041l-0.058,0.015L24.681,42.425z M24.681,42.425l-0.099,0.056l-0.25,0.063
		l-0.102-0.412l0.25-0.063L24.681,42.425z M24.332,42.543l-0.051,0.012l-0.05-0.012H24.332z M24.332,42.543l-0.051-0.206
		L24.332,42.543z M24.332,42.543l-0.051,0.012l-0.05-0.012H24.332z M24.332,42.543l-0.051-0.206L24.332,42.543z M24.332,42.543
		l-0.051,0.012l-0.05-0.012H24.332z M24.332,42.543l-0.051-0.206L24.332,42.543z M24.332,42.543l-0.051,0.012l-0.05-0.012H24.332z
		 M24.332,42.543H24.23l-0.25-0.063l0.102-0.412l0.25,0.063V42.543z M23.98,42.481l-0.058-0.015l-0.042-0.041L23.98,42.481z
		 M23.98,42.481l-0.1-0.056L23.755,42.3l0.3-0.301l0.125,0.125L23.98,42.481z M23.755,42.3l-0.009-0.01l-0.01-0.013L23.755,42.3z
		 M23.755,42.3l0.15-0.15L23.755,42.3z M23.755,42.3l-0.009-0.01l-0.01-0.013L23.755,42.3z M23.755,42.3l-0.02-0.022l-1.562-2.063
		l0.339-0.255l1.562,2.062L23.755,42.3z M22.174,40.215l-0.007-0.01L22.174,40.215L22.174,40.215z M22.174,40.215l-0.007-0.01
		l-0.125-0.188l0.352-0.235l0.125,0.188L22.174,40.215z M22.042,40.018l-0.037-0.055v-0.063L22.042,40.018z M22.042,40.018
		l-0.037-0.117v-0.188h0.425v0.188L22.042,40.018z M22.006,39.713v-0.031l0.012-0.035L22.006,39.713z M22.006,39.713l0.012-0.066
		l0.063-0.188l0.402,0.133l-0.063,0.188L22.006,39.713z M22.08,39.459l0.017-0.05l0.034-0.034L22.08,39.459z M22.08,39.459
		l0.051-0.084l0.125-0.125l0.3,0.301l-0.125,0.125L22.08,39.459z M22.256,39.25l0.014-0.014l0.02-0.014L22.256,39.25z M22.256,39.25
		l0.15,0.15L22.256,39.25z M22.256,39.25l0.014-0.014l0.02-0.014L22.256,39.25z M22.256,39.25l0.033-0.027l0.188-0.125l0.234,0.354
		l-0.188,0.125L22.256,39.25z M22.477,39.098l0.054-0.035h0.063L22.477,39.098z M22.477,39.098l0.117-0.035h0.188v0.425h-0.188
		L22.477,39.098z M22.781,39.063h0.032l0.035,0.012L22.781,39.063z M22.781,39.063l0.067,0.012l0.188,0.063l-0.134,0.402
		l-0.188-0.063L22.781,39.063z M23.036,39.137l0.048,0.016l0.035,0.035L23.036,39.137z M23.036,39.137l0.083,0.051l0.125,0.125
		l-0.3,0.301l-0.125-0.125L23.036,39.137z M23.244,39.313l0.007,0.007l0.012,0.017L23.244,39.313z M23.244,39.313l-0.15,0.15
		L23.244,39.313z M23.244,39.313l0.007,0.007l0.012,0.017L23.244,39.313z M23.244,39.313l0.019,0.023l1.125,1.499l-0.339,0.255
		l-1.125-1.5L23.244,39.313z M24.395,41.08l-0.166,0.251l-0.181-0.24L24.395,41.08z M24.049,41.09l-0.007-0.244l2.812-4.25
		l0.354,0.234l-2.812,4.249L24.049,41.09z M26.853,36.596l0.011-0.016l0.016-0.016L26.853,36.596z M26.853,36.596l0.027-0.031
		l0.125-0.125l0.3,0.299l-0.125,0.125L26.853,36.596z M27.004,36.44l0.035-0.036l0.049-0.016L27.004,36.44z M27.004,36.44
		l0.084-0.052l0.188-0.063l0.133,0.401l-0.188,0.063L27.004,36.44z M27.276,36.326l0.035-0.012h0.031L27.276,36.326z M27.276,36.326
		l0.066-0.012h0.188v0.425h-0.188L27.276,36.326z M27.53,36.314h0.031l0.035,0.012L27.53,36.314z M27.53,36.314l0.066,0.012
		l0.188,0.063L27.65,36.79l-0.187-0.063L27.53,36.314z M27.783,36.388l0.05,0.017l0.034,0.034L27.783,36.388z M27.783,36.388
		l-0.066,0.2L27.783,36.388z"/>
	<polygon fill-rule="evenodd" clip-rule="evenodd" fill="#AAA7A7" points="27.155,39.463 27.155,39.463 26.967,39.526 26.78,39.588 
		26.655,39.776 26.655,39.963 26.655,42.837 21.594,42.837 21.594,37.838 25.593,37.838 25.78,37.776 25.968,37.651 26.03,37.526 
		26.092,37.338 26.03,37.088 25.968,36.963 25.78,36.838 25.593,36.838 21.094,36.838 20.907,36.838 20.719,36.963 20.594,37.088 
		20.594,37.338 20.594,43.336 20.594,43.586 20.719,43.711 20.907,43.836 21.094,43.836 27.155,43.836 27.342,43.836 27.467,43.711 
		27.592,43.586 27.655,43.336 27.655,39.963 27.592,39.776 27.467,39.588 27.342,39.526 	"/>
	<path fill="#AAA7A7" d="M27.088,39.262l0.066-0.021l0.066,0.021H27.088z M27.088,39.262l0.066,0.201L27.088,39.262z M27.088,39.262
		l0.066-0.021l0.066,0.021H27.088z M27.088,39.262h0.132l0.188,0.063l-0.133,0.402l-0.188-0.063V39.262z M27.409,39.325l0.015,0.005
		l0.013,0.007L27.409,39.325z M27.409,39.325l0.028,0.012l0.125,0.063l-0.189,0.379l-0.125-0.063L27.409,39.325z M27.562,39.399
		l0.05,0.025l0.031,0.046L27.562,39.399z M27.562,39.399l0.082,0.071l0.125,0.188l-0.353,0.235l-0.125-0.188L27.562,39.399z
		 M27.769,39.658l0.015,0.023l0.009,0.028L27.769,39.658z M27.769,39.658l0.024,0.052l0.063,0.188l-0.402,0.133l-0.062-0.188
		L27.769,39.658z M27.855,39.897l0.012,0.034v0.032L27.855,39.897z M27.855,39.897l-0.201,0.066L27.855,39.897z M27.855,39.897
		l0.012,0.034v0.032L27.855,39.897z M27.855,39.897l0.012,0.066v3.373h-0.425v-3.373L27.855,39.897z M27.867,43.336v0.025
		l-0.006,0.025L27.867,43.336z M27.867,43.336l-0.006,0.051l-0.063,0.25l-0.412-0.102l0.063-0.25L27.867,43.336z M27.798,43.637
		l-0.014,0.059l-0.042,0.041L27.798,43.637z M27.798,43.637l-0.056,0.1l-0.125,0.125l-0.301-0.3l0.125-0.125L27.798,43.637z
		 M27.317,43.562L27.317,43.562z M27.618,43.862L27.618,43.862l-0.125,0.125l-0.301-0.3l0.125-0.125L27.618,43.862z M27.493,43.987
		l-0.063,0.063h-0.088L27.493,43.987z M27.493,43.987l-0.15,0.063h-0.188v-0.425h0.188L27.493,43.987z M27.155,43.625L27.155,43.625
		z M27.155,44.049v-0.213V44.049z M27.155,43.625L27.155,43.625z M27.155,44.049L27.155,44.049h-6.061v-0.425h6.061V44.049z
		 M21.094,43.625L21.094,43.625z M21.094,44.049L21.094,44.049h-0.187v-0.425h0.187V44.049z M20.907,44.049h-0.063l-0.055-0.036
		L20.907,44.049z M20.907,44.049l-0.118-0.036l-0.188-0.125l0.236-0.353l0.188,0.125L20.907,44.049z M20.601,43.888l-0.02-0.013
		l-0.013-0.014L20.601,43.888z M20.601,43.888l-0.032-0.026l-0.125-0.125l0.3-0.3l0.125,0.125L20.601,43.888z M20.444,43.737
		l-0.063-0.063v-0.088L20.444,43.737z M20.444,43.737l-0.063-0.15v-0.25h0.425v0.25L20.444,43.737z M20.807,43.336L20.807,43.336z
		 M20.381,43.336h0.213H20.381z M20.807,43.336L20.807,43.336z M20.381,43.336L20.381,43.336v-5.998h0.425v5.998H20.381z
		 M20.807,37.338L20.807,37.338z M20.381,37.338L20.381,37.338v-0.25h0.425v0.25H20.381z M20.381,37.088V37l0.063-0.062
		L20.381,37.088z M20.381,37.088l0.063-0.149l0.125-0.125l0.3,0.3l-0.125,0.125L20.381,37.088z M20.569,36.814l0.013-0.013
		l0.02-0.014L20.569,36.814z M20.569,36.814l0.032-0.026l0.188-0.125l0.236,0.353l-0.188,0.125L20.569,36.814z M20.789,36.663
		l0.055-0.036h0.063L20.789,36.663z M20.789,36.663l0.118-0.036h0.187v0.425h-0.187L20.789,36.663z M21.094,37.05L21.094,37.05
		L21.094,37.05L21.094,37.05z M21.094,36.626v0.212V36.626z M21.094,37.05L21.094,37.05L21.094,37.05L21.094,37.05z M21.094,36.626
		L21.094,36.626l4.499,0.001v0.423h-4.499V36.626z M25.593,37.051L25.593,37.051L25.593,37.051L25.593,37.051z M25.593,36.627
		L25.593,36.627l0.188-0.001v0.425h-0.188V36.627z M25.78,36.626h0.063l0.054,0.035L25.78,36.626z M25.78,36.626l0.117,0.035
		l0.188,0.126l-0.234,0.354l-0.188-0.125L25.78,36.626z M26.085,36.788l0.048,0.031l0.025,0.051L26.085,36.788z M26.085,36.788
		l0.073,0.082l0.062,0.125l-0.38,0.189l-0.063-0.125L26.085,36.788z M26.22,36.995l0.01,0.02l0.006,0.023L26.22,36.995z
		 M26.22,36.995l0.016,0.043l0.062,0.25l-0.412,0.103l-0.062-0.25L26.22,36.995z M26.298,37.288l0.015,0.058l-0.02,0.06
		L26.298,37.288z M26.298,37.288l-0.206,0.051L26.298,37.288z M26.298,37.288l0.015,0.058l-0.02,0.06L26.298,37.288z M26.298,37.288
		l-0.005,0.117l-0.063,0.188l-0.402-0.133l0.063-0.188L26.298,37.288z M26.231,37.592l-0.006,0.021l-0.004,0.008L26.231,37.592z
		 M26.231,37.592l-0.011,0.028l-0.062,0.125l-0.381-0.188l0.063-0.125L26.231,37.592z M26.158,37.746l-0.025,0.051l-0.048,0.032
		L26.158,37.746z M26.158,37.746l-0.073,0.083l-0.188,0.124l-0.234-0.354l0.188-0.125L26.158,37.746z M25.897,37.953l-0.022,0.015
		l-0.028,0.01L25.897,37.953z M25.897,37.953l-0.05,0.024L25.66,38.04l-0.135-0.402l0.188-0.063L25.897,37.953z M25.66,38.04
		l-0.035,0.012h-0.033L25.66,38.04z M25.66,38.04l-0.067-0.201L25.66,38.04z M25.66,38.04l-0.035,0.012h-0.033L25.66,38.04z
		 M25.66,38.04l-0.067,0.012h-3.999v-0.426h3.999L25.66,38.04z M21.381,37.838v-0.213h0.212L21.381,37.838z M21.594,37.625
		l0.213,0.213v4.999h-0.425v-4.999L21.594,37.625z M21.594,43.049h-0.212v-0.212L21.594,43.049z M21.381,42.837l0.212-0.213h5.061
		v0.425h-5.061L21.381,42.837z M26.867,42.837v0.212h-0.212L26.867,42.837z M26.655,43.049l-0.212-0.212v-2.874h0.425v2.874
		L26.655,43.049z M26.867,39.963L26.867,39.963z M26.442,39.963L26.442,39.963v-0.188h0.425v0.188H26.442z M26.442,39.776v-0.063
		l0.037-0.055L26.442,39.776z M26.442,39.776l0.037-0.118l0.125-0.188l0.352,0.235l-0.125,0.188L26.442,39.776z M26.604,39.47
		l0.04-0.06l0.069-0.023L26.604,39.47z M26.604,39.47l0.109-0.083l0.187-0.063l0.134,0.402l-0.187,0.063L26.604,39.47z M26.9,39.325
		L26.9,39.325l-0.187,0.063L26.9,39.325z M26.9,39.325L26.9,39.325l0.188-0.063l0.132,0.402l-0.187,0.063L26.9,39.325z
		 M27.088,39.262l0.066-0.021l0.066,0.021H27.088z M27.088,39.262l0.066,0.201L27.088,39.262z"/>
	<polygon fill-rule="evenodd" clip-rule="evenodd" fill="#AAA7A7" points="39.339,39.838 30.404,39.838 30.216,39.901 
		30.029,39.963 29.966,40.151 29.904,40.338 29.966,40.526 30.029,40.712 30.216,40.776 30.404,40.837 39.339,40.837 39.527,40.776 
		39.652,40.712 39.777,40.526 39.839,40.338 39.777,40.151 39.652,39.963 39.527,39.901 	"/>
	<path fill="#AAA7A7" d="M39.339,39.271h0.086l0.094,0.03L39.339,39.271z M39.339,39.271v0.567V39.271z M39.339,39.271h0.086
		l0.094,0.03L39.339,39.271z M39.339,39.271l0.18,0.03l0.188,0.063l-0.359,1.071l-0.188-0.063L39.339,39.271z M39.707,39.365
		l0.045,0.015l0.027,0.014L39.707,39.365z M39.707,39.365l0.072,0.028l0.125,0.063l-0.505,1.015l-0.125-0.063L39.707,39.365z
		 M39.904,39.456l0.135,0.067l0.084,0.128L39.904,39.456z M39.904,39.456l0.219,0.195l0.125,0.188l-0.943,0.625l-0.125-0.188
		L39.904,39.456z M40.248,39.838l0.041,0.061l0.023,0.072L40.248,39.838z M40.248,39.838l0.064,0.133l0.063,0.188l-1.072,0.358
		l-0.063-0.187L40.248,39.838z M40.375,40.159l0.061,0.18l-0.061,0.179V40.159z M40.375,40.159l-0.535,0.18L40.375,40.159z
		 M40.375,40.159l0.061,0.18l-0.061,0.179V40.159z M40.375,40.159v0.358l-0.063,0.188l-1.072-0.358l0.063-0.188H40.375z
		 M40.312,40.705l-0.023,0.073l-0.041,0.06L40.312,40.705z M40.312,40.705l-0.064,0.133l-0.125,0.188l-0.943-0.624l0.125-0.188
		L40.312,40.705z M40.123,41.025l-0.082,0.124l-0.137,0.068L40.123,41.025z M40.123,41.025l-0.219,0.192l-0.125,0.063l-0.505-1.01
		l0.125-0.063L40.123,41.025z M39.779,41.28l-0.035,0.019l-0.04,0.013L39.779,41.28z M39.779,41.28l-0.075,0.031l-0.188,0.063
		l-0.354-1.072l0.188-0.063L39.779,41.28z M39.516,41.374l-0.093,0.031h-0.084L39.516,41.374z M39.516,41.374l-0.177-0.536
		L39.516,41.374z M39.516,41.374l-0.093,0.031h-0.084L39.516,41.374z M39.516,41.374l-0.177,0.031h-8.936v-1.134h8.936
		L39.516,41.374z M30.404,41.405H30.32l-0.093-0.031L30.404,41.405z M30.404,41.405l-0.177-0.031l-0.188-0.063l0.355-1.072
		l0.188,0.063L30.404,41.405z M30.039,41.311h-0.002l-0.373-0.125L30.039,41.311z M30.039,41.311h-0.002l-0.188-0.063l0.359-1.072
		l0.188,0.063L30.039,41.311z M29.849,41.249l-0.266-0.089l-0.09-0.27L29.849,41.249z M29.849,41.249l-0.356-0.358l-0.063-0.188
		l1.072-0.354l0.063,0.188L29.849,41.249z M30.502,40.346v0.002l-0.167-0.501L30.502,40.346z M30.502,40.348l-1.072,0.356
		l-0.063-0.188l1.072-0.358l0.063,0.188V40.348z M29.368,40.517l-0.06-0.179l0.06-0.18V40.517z M29.368,40.517l0.536-0.179
		L29.368,40.517z M29.368,40.517l-0.06-0.179l0.06-0.18V40.517z M29.368,40.517v-0.358l0.063-0.188l1.072,0.359l-0.063,0.187H29.368
		z M30.502,40.328v0.003l-0.124,0.373L30.502,40.328z M30.502,40.331l-1.072-0.357l0.063-0.188l1.072,0.354l-0.063,0.188V40.331z
		 M29.493,39.786l0.088-0.269l0.27-0.09L29.493,39.786z M29.493,39.786l0.358-0.358l0.188-0.063l0.355,1.071l-0.188,0.063
		L29.493,39.786z M30.396,40.436h-0.002l0.75-0.249L30.396,40.436z M30.394,40.436l-0.357-1.071l0.188-0.063l0.359,1.072
		l-0.188,0.063H30.394z M30.224,39.301l0.093-0.03h0.087L30.224,39.301z M30.224,39.301l0.18,0.537L30.224,39.301z M30.224,39.301
		l0.093-0.03h0.087L30.224,39.301z M30.224,39.301l0.18-0.03h8.936v1.134h-8.936L30.224,39.301z"/>
</g>
<g display="none">
	<polygon display="inline" fill-rule="evenodd" clip-rule="evenodd" fill="#AAA7A7" points="12.472,26.911 11.899,24.052 
		39.694,24.052 40.379,21.192 11.328,21.192 10.756,18.333 40.836,18.333 41.524,15.359 7.211,15.359 7.439,16.732 9.841,28.627 
		9.956,29.085 10.299,29.542 10.756,29.771 11.214,29.885 38.549,29.885 39.235,26.911 	"/>
	<polygon display="inline" fill-rule="evenodd" clip-rule="evenodd" fill="#AAA7A7" points="51.36,12.614 43.239,12.614 
		42.667,12.729 42.323,12.958 41.981,13.415 41.752,13.873 37.864,33.431 10.87,33.431 10.299,33.545 9.841,33.889 9.498,34.346 
		9.384,34.918 9.498,35.49 9.841,35.948 10.299,36.291 10.87,36.405 39.122,36.405 39.579,36.291 40.036,36.062 40.379,35.604 
		40.495,35.147 44.383,15.588 51.36,15.588 52.045,15.474 52.502,15.131 52.731,14.673 52.846,14.102 52.731,13.529 52.502,13.072 
		52.045,12.729 	"/>
	<polygon display="inline" fill-rule="evenodd" clip-rule="evenodd" fill="#AAA7A7" points="37.864,40.98 37.864,40.98 
		37.749,41.667 37.633,42.238 37.292,42.696 36.948,43.153 36.491,43.611 36.034,43.839 35.461,44.068 34.774,44.068 34.204,44.068 
		33.631,43.839 33.059,43.611 32.602,43.153 32.258,42.696 32.03,42.238 31.801,41.667 31.686,40.98 31.801,40.409 32.03,39.836 
		32.258,39.264 32.602,38.921 33.059,38.463 33.631,38.235 34.204,38.006 34.774,38.006 35.461,38.006 36.034,38.235 36.491,38.463 
		36.948,38.921 37.292,39.264 37.633,39.836 37.749,40.409 	"/>
	<polygon display="inline" fill-rule="evenodd" clip-rule="evenodd" fill="#AAA7A7" points="18.076,40.98 18.076,40.98 
		18.076,41.667 17.848,42.238 17.618,42.696 17.161,43.153 16.703,43.611 16.246,43.839 15.674,44.068 15.103,44.068 14.416,44.068 
		13.845,43.839 13.387,43.611 12.929,43.153 12.472,42.696 12.243,42.238 12.015,41.667 12.015,40.98 12.015,40.409 12.243,39.836 
		12.472,39.264 12.929,38.921 13.387,38.463 13.845,38.235 14.416,38.006 15.103,38.006 15.674,38.006 16.246,38.235 16.703,38.463 
		17.161,38.921 17.618,39.264 17.848,39.836 18.076,40.409 	"/>
</g>
<g display="none">
	<circle display="inline" fill-rule="evenodd" clip-rule="evenodd" fill="#FFFFFF" cx="30.029" cy="28.341" r="15.362"/>
	
		<circle display="inline" fill="none" stroke="#AAA7A7" stroke-width="3.4016" stroke-miterlimit="10" cx="30.029" cy="28.341" r="15.362"/>
	<path display="inline" fill="#AAA7A7" d="M30.548,33.078h-2.651v-1.163c0-0.92,0.189-1.705,0.541-2.408
		c0.379-0.676,1-1.38,1.921-2.083c1.002-0.812,1.678-1.488,2.002-2.056c0.352-0.595,0.516-1.217,0.516-1.894
		c0-0.812-0.299-1.461-0.867-1.975c-0.594-0.514-1.379-0.785-2.381-0.785c-1.65,0-3.137,0.623-4.49,1.894v-3.111
		c1.515-0.893,3.138-1.353,4.896-1.353c1.813,0,3.246,0.46,4.303,1.379c1.055,0.893,1.568,2.11,1.568,3.598
		c0,1.001-0.244,1.921-0.703,2.787c-0.488,0.838-1.271,1.731-2.408,2.651c-0.813,0.676-1.379,1.217-1.732,1.65
		c-0.352,0.433-0.514,1.056-0.514,1.867V33.078z M29.223,35.593c0.542,0,0.974,0.162,1.353,0.514
		c0.379,0.353,0.568,0.813,0.568,1.326s-0.189,0.947-0.541,1.299c-0.379,0.352-0.838,0.514-1.38,0.514
		c-0.541,0-1.001-0.162-1.353-0.514c-0.379-0.352-0.568-0.785-0.568-1.299s0.189-0.974,0.568-1.326
		C28.249,35.755,28.708,35.593,29.223,35.593z"/>
</g>
<g display="none">
	<path display="inline" fill-rule="evenodd" clip-rule="evenodd" fill="#AAA7A7" d="M15.71,34.189h0.186v-3.923l0.023-0.208
		l0.023-0.232l0.069-0.209l0.069-0.209l0.094-0.208l0.115-0.186l0.116-0.163l0.162-0.162l0.163-0.163l0.162-0.116l0.186-0.116
		l0.209-0.093l0.209-0.093l0.209-0.046l0.232-0.023l0.231-0.023h1.531v-4.061v-0.232l0.047-0.231l0.046-0.209l0.093-0.209
		l0.094-0.209l0.115-0.186l0.116-0.162l0.162-0.163l0.14-0.162l0.186-0.116l0.186-0.116l0.186-0.093l0.209-0.069l0.232-0.069
		l0.209-0.023l0.231-0.023h6.127l0.231,0.023l0.232,0.023l0.209,0.069l0.209,0.069l0.208,0.093l0.187,0.116l0.162,0.116l0.163,0.162
		l0.162,0.163l0.117,0.162l0.115,0.186l0.092,0.209l0.07,0.209l0.07,0.209l0.023,0.231l0.023,0.232v0.766h2.297l0.232,0.023
		l0.23,0.023l0.209,0.069l0.209,0.07l0.186,0.092l0.186,0.116l0.186,0.116l0.164,0.163l0.139,0.163l0.139,0.162l0.117,0.186
		l0.092,0.209l0.07,0.209l0.047,0.209l0.045,0.231v0.232v6.799l4.154-13.622H11.487L15.71,34.189z M27.291,28.016v-1.763v-1.508
		h-4.549v3.271H27.291z M18.959,34.189h8.331v-3.133h-8.331V34.189z M30.355,34.189h1.508v-6.405h-1.508V34.189z M8.632,18.037
		L8.632,18.037l0.186-0.208l0.186-0.186l0.209-0.139l0.232-0.14l0.256-0.116l0.255-0.07l0.255-0.046l0.279-0.023h29.494l1.578-5.198
		l0.047-0.186l0.094-0.162l0.068-0.163l0.117-0.162l0.092-0.14l0.139-0.139l0.117-0.116l0.139-0.116l0.162-0.093l0.141-0.093
		l0.186-0.069l0.162-0.07l0.162-0.046l0.186-0.046l0.186-0.023h0.186h6.613h0.141l0.162,0.023l0.139,0.046l0.139,0.046l0.141,0.07
		l0.115,0.069l0.115,0.093l0.117,0.093l0.092,0.116l0.094,0.116l0.07,0.116l0.068,0.139l0.047,0.14l0.047,0.139l0.023,0.163v0.163
		v0.14l-0.023,0.162l-0.047,0.139l-0.047,0.139l-0.068,0.139l-0.07,0.116l-0.094,0.116l-0.092,0.116l-0.117,0.093l-0.115,0.093
		l-0.115,0.07l-0.141,0.07l-0.139,0.046l-0.139,0.047l-0.162,0.023h-0.141H44.3l-6.914,22.833l-0.094,0.232l-0.139,0.209
		l-0.141,0.186l-0.186,0.162l-0.209,0.116l-0.207,0.093l-0.232,0.069l-0.256,0.023h-21.35l-0.256-0.023l-0.231-0.069l-0.232-0.093
		l-0.186-0.116l-0.186-0.162l-0.163-0.186l-0.115-0.209l-0.093-0.232L8.285,20.08l-0.069-0.279l-0.023-0.255v-0.255l0.023-0.278
		l0.069-0.256l0.093-0.255l0.116-0.232L8.632,18.037z"/>
	<path display="inline" fill-rule="evenodd" clip-rule="evenodd" fill="#AAA7A7" d="M34.648,43.842L34.648,43.842h0.162l0.186-0.023
		l0.162-0.046l0.139-0.07l0.162-0.069l0.141-0.093l0.139-0.093l0.115-0.116l0.117-0.116l0.092-0.14l0.094-0.139l0.07-0.139
		l0.045-0.163l0.047-0.162l0.023-0.163l0.023-0.186l-0.023-0.186l-0.023-0.162l-0.047-0.162l-0.045-0.163l-0.07-0.139l-0.094-0.14
		l-0.092-0.139l-0.117-0.116l-0.115-0.116l-0.139-0.093l-0.141-0.093l-0.162-0.07l-0.139-0.069l-0.162-0.046l-0.186-0.023h-0.162
		h-0.186l-0.164,0.023l-0.162,0.046l-0.162,0.069l-0.162,0.07l-0.141,0.093l-0.115,0.093l-0.139,0.116l-0.094,0.116l-0.115,0.139
		l-0.07,0.14l-0.092,0.139L33,41.615l-0.047,0.162l-0.023,0.162v0.186v0.186l0.023,0.163L33,42.635l0.047,0.163l0.092,0.139
		l0.07,0.139l0.115,0.14l0.094,0.116l0.139,0.116l0.115,0.093l0.141,0.093l0.162,0.069l0.162,0.07l0.162,0.046l0.164,0.023H34.648z
		 M34.648,37.878L34.648,37.878h0.416l0.441,0.069l0.395,0.116l0.395,0.139l0.371,0.186l0.348,0.209l0.326,0.232l0.301,0.278
		l0.279,0.302l0.254,0.348l0.209,0.349l0.188,0.371l0.139,0.395l0.092,0.395l0.07,0.418l0.023,0.44l-0.023,0.441l-0.07,0.418
		l-0.092,0.417l-0.139,0.372l-0.188,0.371l-0.209,0.371l-0.254,0.324l-0.279,0.303l-0.301,0.278l-0.326,0.231l-0.348,0.209
		l-0.371,0.186l-0.395,0.14l-0.395,0.116l-0.441,0.069l-0.416,0.023l-0.441-0.023l-0.418-0.069l-0.418-0.116l-0.395-0.14
		l-0.371-0.186l-0.348-0.209l-0.326-0.231l-0.301-0.278l-0.279-0.303l-0.23-0.324l-0.232-0.371l-0.162-0.371l-0.164-0.372
		l-0.092-0.417l-0.07-0.418l-0.023-0.441l0.023-0.44l0.07-0.418l0.092-0.395l0.164-0.395l0.162-0.371l0.232-0.349l0.23-0.348
		l0.279-0.302l0.301-0.278l0.326-0.232l0.348-0.209l0.371-0.186l0.395-0.139l0.418-0.116l0.418-0.069H34.648z"/>
	<path display="inline" fill-rule="evenodd" clip-rule="evenodd" fill="#AAA7A7" d="M16.267,43.842L16.267,43.842h0.186l0.163-0.023
		l0.162-0.046l0.162-0.07l0.163-0.069l0.14-0.093l0.139-0.093l0.116-0.116l0.116-0.116l0.093-0.14l0.093-0.139l0.069-0.139
		l0.047-0.163l0.046-0.162l0.023-0.163l0.023-0.186l-0.023-0.186l-0.023-0.162l-0.046-0.162l-0.047-0.163l-0.069-0.139l-0.093-0.14
		l-0.093-0.139l-0.116-0.116l-0.116-0.116l-0.139-0.093l-0.14-0.093l-0.163-0.07l-0.162-0.069l-0.162-0.046l-0.163-0.023h-0.186
		h-0.162l-0.162,0.023l-0.186,0.046l-0.14,0.069l-0.162,0.07l-0.14,0.093l-0.139,0.093l-0.116,0.116l-0.116,0.116l-0.093,0.139
		l-0.093,0.14l-0.07,0.139l-0.046,0.163l-0.046,0.162l-0.023,0.162l-0.023,0.186l0.023,0.186l0.023,0.163l0.046,0.162l0.046,0.163
		l0.07,0.139l0.093,0.139l0.093,0.14l0.116,0.116l0.116,0.116l0.139,0.093l0.14,0.093l0.162,0.069l0.14,0.07l0.186,0.046
		l0.162,0.023H16.267z M16.267,37.878L16.267,37.878h0.441l0.418,0.069l0.417,0.116l0.396,0.139l0.371,0.186l0.348,0.209
		l0.325,0.232l0.302,0.278l0.278,0.302l0.255,0.348l0.209,0.349l0.186,0.371l0.14,0.395l0.093,0.395l0.069,0.418l0.023,0.44
		l-0.023,0.441l-0.069,0.418l-0.093,0.417l-0.14,0.372l-0.186,0.371l-0.209,0.371l-0.255,0.324l-0.278,0.303l-0.302,0.278
		l-0.325,0.231l-0.348,0.209l-0.371,0.186l-0.396,0.14l-0.417,0.116l-0.418,0.069l-0.441,0.023l-0.417-0.023l-0.441-0.069
		l-0.395-0.116l-0.395-0.14l-0.371-0.186l-0.348-0.209l-0.325-0.231l-0.302-0.278l-0.278-0.303l-0.256-0.324l-0.208-0.371
		l-0.187-0.371l-0.139-0.372l-0.093-0.417l-0.069-0.418l-0.023-0.441l0.023-0.44l0.069-0.418l0.093-0.395l0.139-0.395l0.187-0.371
		l0.208-0.349l0.256-0.348l0.278-0.302l0.302-0.278l0.325-0.232l0.348-0.209l0.371-0.186l0.395-0.139l0.395-0.116l0.441-0.069
		H16.267z"/>
	<polygon display="inline" fill-rule="evenodd" clip-rule="evenodd" fill="#AAA7A7" points="22.046,38.714 28.869,38.714 
		29.124,38.737 29.378,38.83 29.587,38.946 29.773,39.084 29.937,39.271 30.052,39.502 30.123,39.735 30.146,39.99 30.123,40.246 
		30.052,40.477 29.937,40.709 29.773,40.895 29.587,41.035 29.378,41.15 29.124,41.244 28.869,41.266 22.046,41.266 21.791,41.244 
		21.558,41.15 21.327,41.035 21.141,40.895 20.978,40.709 20.863,40.477 20.792,40.246 20.769,39.99 20.792,39.735 20.863,39.502 
		20.978,39.271 21.141,39.084 21.327,38.946 21.558,38.83 21.791,38.737 	"/>
</g>
</svg>
