<?xml version="1.0" encoding="utf-8"?>
<!-- Generator: Adobe Illustrator 24.0.0, SVG Export Plug-In . SVG Version: 6.00 Build 0)  -->
<svg version="1.1" id="圖層_1" xmlns="http://www.w3.org/2000/svg" xmlns:xlink="http://www.w3.org/1999/xlink" x="0px" y="0px"
	 viewBox="0 0 25 22" style="enable-background:new 0 0 25 22;" xml:space="preserve">
<style type="text/css">
	.st0{fill:none;stroke:#9FA0A0;stroke-width:0.5669;stroke-miterlimit:10;}
	.st1{fill:#9FA0A0;}
</style>
<g>
	<polygon class="st0" points="0.5,1.8 8.5,5 8.5,13.08 0.5,9.88 	"/>
	<polygon class="st0" points="0.5,9.8 8.5,13 8.5,21.07 0.5,17.87 	"/>
	<polygon class="st0" points="16.5,1.85 8.5,5.03 8.5,13.03 16.5,9.85 	"/>
	<polygon class="st0" points="16.5,9.85 8.5,13.02 8.5,21.02 16.5,17.85 	"/>
	<polygon class="st0" points="16.5,1.85 24.5,5.03 24.5,13.03 16.5,9.85 	"/>
	<polygon class="st0" points="16.5,9.85 24.5,13.02 24.5,21.02 16.5,17.85 	"/>
	<path class="st0" d="M16.6,7.55c1.3,0,2.38,1.08,2.38,2.45c0,1.3-1.08,2.38-2.38,2.38c-1.37,0-2.45-1.08-2.45-2.38
		C14.15,8.63,15.23,7.55,16.6,7.55z"/>
	<path class="st1" d="M16.6,8.56c0.79,0,1.37,0.65,1.37,1.44s-0.58,1.37-1.37,1.37c-0.79,0-1.44-0.58-1.44-1.37
		S15.81,8.56,16.6,8.56z"/>
</g>
</svg>
