<?xml version="1.0" encoding="utf-8"?>
<!-- Generator: Adobe Illustrator 16.0.0, SVG Export Plug-In . SVG Version: 6.00 Build 0)  -->
<!DOCTYPE svg PUBLIC "-//W3C//DTD SVG 1.1//EN" "http://www.w3.org/Graphics/SVG/1.1/DTD/svg11.dtd">
<svg version="1.1" id="圖層_1" xmlns="http://www.w3.org/2000/svg" xmlns:xlink="http://www.w3.org/1999/xlink" x="0px" y="0px"
	 width="40.891px" height="40.891px" viewBox="0 0 40.891 40.891" enable-background="new 0 0 40.891 40.891" xml:space="preserve">
<g>
	<defs>
		<rect id="SVGID_1_" y="-3.292" width="40.891" height="40.89"/>
	</defs>
	<clipPath id="SVGID_2_">
		<use xlink:href="#SVGID_1_"  overflow="visible"/>
	</clipPath>
</g>
<g>
	<g>
		<path fill-rule="evenodd" clip-rule="evenodd" fill="#ECA516" d="M12.445,0.355c0.922,1.53,1.37,3.247,1.903,4.925
			c0.46,1.447,1.192,2.347,2.917,2.136c1.167-0.143,2.368-0.07,3.549-0.003c0.637,0.036,1.452-0.258,1.762,0.737
			c0.273,0.878-0.119,1.488-0.652,2.068c-0.989,1.076-2.417,1.576-3.347,2.824c-0.719,0.964-1.007,1.673-0.644,2.84
			c0.432,1.391,1.074,2.755,0.958,4.29c-0.058,0.764,0.105,1.565-0.736,2.031c-0.887,0.491-1.487-0.207-2.072-0.6
			c-1.113-0.748-2.123-1.648-3.184-2.473c-0.91-0.707-1.808-0.713-2.737,0.013c-1.199,0.936-2.437,1.821-3.649,2.74
			c-0.501,0.38-1.026,0.652-1.626,0.291c-0.679-0.409-0.939-1.087-0.809-1.831c0.213-1.216,0.312-2.516,0.831-3.603
			c0.955-2.002,0.208-3.417-1.226-4.655c-1.044-0.903-2.213-1.662-3.327-2.484c0-0.711,0-1.422,0-2.134
			c1.352-0.891,2.867-0.426,4.305-0.47c2.706-0.082,2.821-0.181,3.86-2.701c0.567-1.377,0.659-3.052,2.146-3.94
			C11.26,0.355,11.853,0.355,12.445,0.355z"/>
		<path fill-rule="evenodd" clip-rule="evenodd" fill="#ECA516" d="M26.616,24.497c0.046-0.291,0.059-0.592,0.145-0.871
			c0.731-2.385,0.322-3.561-1.781-4.911c-0.862-0.553-1.847-1.081-1.417-2.312c0.384-1.099,1.437-1.062,2.402-1.033
			c0.059,0.002,0.118,0,0.177,0c3.184-0.016,3.169-0.021,4.246-3.036c0.273-0.764,0.496-1.59,1.242-2.087
			c0.588-0.397,1.041-0.125,1.464,0.294c1.157,0.86,0.596,2.301,1.141,3.409c0.488,0.993,0.984,1.531,2.102,1.427
			c0.527-0.048,1.067,0.039,1.592-0.017c1.359-0.146,2.557,0.053,3.318,1.352c0,0.237,0,0.474,0,0.711
			c-0.601,0.45-1.192,0.914-1.805,1.347c-2.267,1.599-2.64,2.695-1.803,5.363c0.106,0.338,0.24,0.671,0.314,1.016
			c0.159,0.744,0.461,1.582-0.347,2.102c-0.725,0.466-1.292-0.061-1.887-0.495c-0.826-0.603-1.748-1.071-2.608-1.63
			c-0.521-0.338-0.977-0.607-1.597-0.148c-1.12,0.829-2.452,1.36-3.421,2.407c-0.474,0.376-0.954,0.371-1.437,0.019l0.002-0.124
			C26.384,26.356,26.447,25.427,26.616,24.497z"/>
		<path fill-rule="evenodd" clip-rule="evenodd" fill="#FEFEFD" d="M10.667,0.355C9.662,1.97,9.252,3.827,8.591,5.578
			C8.113,6.843,7.458,7.491,6.008,7.417C4.129,7.321,2.24,7.44,0.355,7.467c0-2.074,0.045-4.149-0.023-6.222
			C0.307,0.478,0.479,0.318,1.245,0.333C4.385,0.388,7.526,0.355,10.667,0.355z"/>
		<path fill-rule="evenodd" clip-rule="evenodd" fill="#ECA516" d="M24.864,33.684c-2.151,1.307-2.465,3.076-1.369,5.246
			c0.278,0.551,0.271,1.145-0.278,1.611c-0.628,0.533-0.936-0.148-1.373-0.341c-0.054-0.023-0.108-0.05-0.157-0.083
			c-2.529-1.696-2.528-1.696-5.002-0.032c-0.097,0.065-0.208,0.117-0.319,0.153c-0.397,0.127-0.634,0.8-1.215,0.32
			c-0.543-0.45-0.613-0.959-0.348-1.577c0.992-2.313,0.71-4.206-1.692-5.517c-0.928-0.506-0.801-1.185,0.066-1.731
			c1.181,0.116,2.362,0.238,3.535-0.074c0.808-0.889,1.033-2.054,1.476-3.116c0.199-0.477,0.379-1.083,0.992-1.077
			c0.596,0.006,0.826,0.593,1.031,1.068c0.458,1.065,0.341,2.399,1.486,3.14c0.546,0.323,1.157,0.053,1.724,0.189
			c0.222,0.07,0.448,0.13,0.683,0.132C25.576,32.01,25.712,32.625,24.864,33.684z"/>
		<path fill-rule="evenodd" clip-rule="evenodd" fill="#E4A82B" d="M24.864,33.684c0.567-1.417-0.757-1.262-1.395-1.677
			c0.407-0.381,0.981,0.001,1.404-0.308C26.295,32.571,26.294,32.712,24.864,33.684z"/>
		<path fill-rule="evenodd" clip-rule="evenodd" fill="#DF9B13" d="M16.712,31.659c-1.167,0.584-2.348,0.475-3.534,0.074
			C14.355,31.708,15.534,31.684,16.712,31.659z"/>
		<path fill-rule="evenodd" clip-rule="evenodd" fill="#D79615" d="M24.873,31.699c-0.389,0.464-0.925,0.252-1.404,0.308
			c-0.595-0.091-1.265,0.223-1.773-0.332C22.755,31.683,23.814,31.691,24.873,31.699z"/>
		<path fill-rule="evenodd" clip-rule="evenodd" fill="#F3EDD8" d="M33.094,10.541c-0.488-0.098-0.976-0.196-1.464-0.294
			C32.376,9.059,32.759,9.681,33.094,10.541z"/>
		<path fill-rule="evenodd" clip-rule="evenodd" fill="#B79A52" d="M26.616,24.497c0.015,0.928,0.029,1.856,0.042,2.784
			C26.011,26.362,26.127,25.432,26.616,24.497z"/>
		<path fill-rule="evenodd" clip-rule="evenodd" fill="#F6F3E1" d="M26.656,27.403c0.479-0.006,0.958-0.013,1.437-0.019
			C27.627,28.384,27.147,28.382,26.656,27.403z"/>
	</g>
</g>
</svg>
