<?xml version="1.0" encoding="utf-8"?>
<!-- Generator: Adobe Illustrator 16.0.0, SVG Export Plug-In . SVG Version: 6.00 Build 0)  -->
<!DOCTYPE svg PUBLIC "-//W3C//DTD SVG 1.1//EN" "http://www.w3.org/Graphics/SVG/1.1/DTD/svg11.dtd">
<svg version="1.1" id="圖層_1" xmlns="http://www.w3.org/2000/svg" xmlns:xlink="http://www.w3.org/1999/xlink" x="0px" y="0px"
	 width="85.04px" height="28.348px" viewBox="0 0 85.04 28.348" enable-background="new 0 0 85.04 28.348" xml:space="preserve">
<g>
	<path fill="#4E2572" d="M52.463,9.289c-1.563,0-2.843,1.31-2.843,2.915v1.125c0,1.603,1.279,2.913,2.843,2.913
		s2.842-1.311,2.842-2.913v-1.125C55.305,10.599,54.027,9.289,52.463,9.289z M54.158,13.1c0,0.958-0.763,1.74-1.694,1.74
		c-0.933,0-1.696-0.783-1.696-1.74v-0.671c0-0.957,0.764-1.739,1.696-1.739c0.935,0,1.694,0.783,1.694,1.739V13.1z"/>
	<rect x="49.942" y="12.132" fill="#4E2572" width="4.976" height="1.132"/>
	<path fill="#4E2572" d="M69.151,16.209c0.34,0.441,0.679,0.884,1.022,1.325l1.601-0.714c-0.777-0.954-1.651-1.888-2.623-2.807
		v-0.255h1.237l0.876-1.329h-2.113v-1.682c1.022-0.103,1.773-0.222,2.258-0.356L70.97,9.115c-1.504,0.305-3.52,0.562-6.05,0.763
		l0.366,1.276c0.585-0.033,1.265-0.084,2.044-0.152v1.428h-2.41v1.329h2.188c-0.632,1.361-1.627,2.637-2.986,3.825l1.822,0.562
		c0.438-0.442,0.898-1.035,1.387-1.784v4.591h1.82V16.209z"/>
	<path fill="#4E2572" d="M48.039,14.421l-0.803,0.052c0.146-0.137,0.317-0.307,0.511-0.511
		C47.795,14.064,47.892,14.219,48.039,14.421"/>
	<path fill="#4E2572" d="M50.154,15.025c0,0.004-0.002,0.007-0.002,0.012c-0.155-0.434-0.542-1.114-0.803-1.481l-1.53,0.358
		c1.166-1.36,1.869-2.399,2.114-3.114l-1.679-0.255c-0.195,0.545-0.508,1.123-0.943,1.734c-0.148-0.137-0.32-0.271-0.511-0.409
		c0.631-0.917,1.092-1.667,1.384-2.246L46.58,9.115c-0.339,0.714-0.678,1.361-1.022,1.938c-0.29-0.135-0.484-0.22-0.581-0.254
		l-0.948,0.971c0.777,0.441,1.605,0.985,2.478,1.633c-0.437,0.442-0.85,0.831-1.242,1.174l-1.309,0.099
		c0.145,0.444,0.243,0.852,0.289,1.228l4.375-0.205c0.048,0.103,0.099,0.24,0.146,0.41l1.542-0.254l-0.125-0.626
		c-0.017-0.079,0.007,0.024,0.011,0.042c0.013,0.039,0.026,0.078,0.049,0.115L50.154,15.025z"/>
	<path fill="#4E2572" d="M54.906,15.233c0.05,0.271,0.116,0.528,0.2,0.772l4.595-0.41c0.052,0.137,0.123,0.288,0.219,0.458
		l1.604-0.304c-0.34-0.852-0.753-1.651-1.238-2.401l-1.679,0.358c0.05,0.137,0.196,0.357,0.438,0.663l-1.165,0.104
		c1.313-1.462,2.09-2.655,2.332-3.573l-1.747-0.255c-0.146,0.51-0.367,1.055-0.656,1.633c-0.196-0.137-0.389-0.271-0.585-0.409
		c0.632-0.917,1.095-1.648,1.384-2.193l-1.603-0.513c-0.291,0.647-0.631,1.259-1.02,1.838c-0.148-0.103-0.242-0.153-0.292-0.153
		l-0.805,0.764c0-0.047-0.002-0.095-0.005-0.141l0.005,0.89v-0.388c0.732,0.342,1.434,0.833,2.114,1.48
		c-0.439,0.442-0.801,0.835-1.095,1.174l-1.006,0.102L54.906,15.233z"/>
	<path fill="#4E2572" d="M53.331,18.707c1.799,1.022,4.306,1.735,7.028,2.145l0.876-1.378c-2.479-0.24-4.569-0.765-6.268-1.583
		h5.094l0.881-1.276h-7.607v-0.668l-1.576-0.013v0.679H44.25v1.276h5.688c-1.749,0.75-3.718,1.313-5.905,1.684l0.948,1.328
		c2.187-0.41,4.445-1.207,6.778-2.398v2.502h1.576v-2.297H53.331z"/>
	<path fill="#4E2572" d="M35.094,15.492v-1.479h4.307l0.94-1.33h-5.247v-1.682c0.144,0,0.289,0,0.436,0
		c1.944-0.139,3.378-0.272,4.301-0.41l-0.293-1.273c-1.07,0.135-2.747,0.254-5.029,0.358c-2.187,0.134-4.131,0.201-5.832,0.201
		l0.217,1.276c1.167,0,2.601-0.018,4.302-0.05v1.58h-5.175v1.33h5.175v1.479H35.094z"/>
	<path fill="#4E2572" d="M26.783,15.903c-0.631,1.667-1.797,3.162-3.499,4.488l1.748,0.664c1.459-1.12,2.65-2.704,3.574-4.747
		L26.783,15.903z"/>
	<path fill="#4E2572" d="M23.648,13.76c0.923,0.306,2.016,0.816,3.281,1.532l1.091-1.071c-1.216-0.716-2.309-1.243-3.282-1.583
		L23.648,13.76z"/>
	<path fill="#4E2572" d="M23.72,10.544c0.877,0.339,1.968,0.918,3.281,1.734l1.166-1.022c-1.216-0.815-2.333-1.41-3.353-1.784
		L23.72,10.544z"/>
	<path fill="#4E2572" d="M10.922,19.574H3.339v1.328h15.575l0.9-1.328h-6.926v-2.856h4.725l0.965-1.326h-5.689v-2.707h5.357
		l0.841-1.326h-6.199V9.42h-1.965v1.94H7.348c0.292-0.508,0.485-1.07,0.585-1.681L6.035,9.42c-0.339,1.158-0.728,2.042-1.166,2.655
		c-0.582,0.714-1.312,1.377-2.187,1.99l1.605,0.869c0.874-0.646,1.651-1.395,2.333-2.247h4.302v2.707H5.09v1.326h5.832V19.574z"/>
	<path fill="#4E2572" d="M37.57,15.49h-6.356c-1.513,0-2.751,1.384-2.751,2.898s1.239,2.751,2.751,2.751h6.356
		c1.512,0,2.75-1.238,2.75-2.751C40.32,16.873,39.082,15.49,37.57,15.49z M37.372,19.71h-5.98c-0.771,0-1.405-0.551-1.405-1.324
		c0-0.771,0.632-1.471,1.405-1.471h5.98c0.772,0,1.404,0.701,1.404,1.471C38.775,19.157,38.143,19.71,37.372,19.71z"/>
	<path fill="#4E2572" d="M76.375,9.178L76.375,9.178c2.457,0,4.469,2.011,4.469,4.469v6.233h-1.928v-5.263
		c0-2.058-0.483-3.742-2.541-3.742c-2.06,0-2.542,1.683-2.542,3.742v5.263h-1.929v-6.233C71.905,11.189,73.916,9.178,76.375,9.178"
		/>
	<polygon fill="#4E2572" points="70.678,19.549 81.553,19.549 80.791,20.849 70.678,20.849 	"/>
	<rect x="72.558" y="12.971" fill="#4E2572" width="6.912" height="1.3"/>
	<rect x="72.558" y="16.205" fill="#4E2572" width="6.912" height="1.298"/>
	<rect x="51.919" y="8.118" fill="#4E2572" width="1.3" height="1.208"/>
</g>
</svg>
