<?xml version="1.0" encoding="utf-8"?>
<!-- Generator: Adobe Illustrator 16.0.0, SVG Export Plug-In . SVG Version: 6.00 Build 0)  -->
<!DOCTYPE svg PUBLIC "-//W3C//DTD SVG 1.1//EN" "http://www.w3.org/Graphics/SVG/1.1/DTD/svg11.dtd">
<svg version="1.1" id="圖層_1" xmlns="http://www.w3.org/2000/svg" xmlns:xlink="http://www.w3.org/1999/xlink" x="0px" y="0px"
	 width="85.04px" height="85.04px" viewBox="0 0 85.04 85.04" enable-background="new 0 0 85.04 85.04" xml:space="preserve">
<polygon fill-rule="evenodd" clip-rule="evenodd" fill="#8A6D9F" points="11.624,44.26 16.49,44.26 16.49,67.161 69.733,67.161 
	69.733,44.26 74.6,44.26 74.6,72.313 11.624,72.313 "/>
<polygon fill-rule="evenodd" clip-rule="evenodd" fill="#8A6D9F" points="43.111,61.436 35.922,48.983 28.733,36.531 37.959,36.531 
	37.959,13.345 48.265,13.345 48.265,36.531 57.49,36.531 50.301,48.983 "/>
</svg>
