<?xml version="1.0" encoding="utf-8"?>
<!-- Generator: Adobe Illustrator 16.0.0, SVG Export Plug-In . SVG Version: 6.00 Build 0)  -->
<!DOCTYPE svg PUBLIC "-//W3C//DTD SVG 1.1//EN" "http://www.w3.org/Graphics/SVG/1.1/DTD/svg11.dtd">
<svg version="1.1" id="圖層_1" xmlns="http://www.w3.org/2000/svg" xmlns:xlink="http://www.w3.org/1999/xlink" x="0px" y="0px"
	 width="221.732px" height="85.039px" viewBox="0 0 221.732 85.039" enable-background="new 0 0 221.732 85.039"
	 xml:space="preserve">
<g>
	<polygon fill-rule="evenodd" clip-rule="evenodd" fill="#FFFFFF" points="31.886,40.542 13.147,40.542 13.147,44.313 
		51.451,44.313 53.656,40.542 36.571,40.542 36.571,32.711 48.42,32.711 50.624,28.94 36.571,28.94 36.571,21.108 49.798,21.108 
		52.002,17.627 36.571,17.627 36.571,12.116 31.886,12.116 31.886,17.627 23.067,17.627 23.894,15.307 24.445,12.696 19.76,12.116 
		18.383,16.177 17.555,17.917 16.729,19.368 14.525,22.558 11.493,25.169 15.352,27.489 18.383,24.589 21.138,21.108 31.886,21.108 
		31.886,28.94 17.281,28.94 17.281,32.711 31.886,32.711 	"/>
	<polygon fill-rule="evenodd" clip-rule="evenodd" fill="#F299BF" points="31.886,40.542 13.147,40.542 13.147,44.313 
		51.451,44.313 53.656,40.542 36.571,40.542 36.571,32.711 48.42,32.711 50.624,28.94 36.571,28.94 36.571,21.108 49.798,21.108 
		52.002,17.627 36.571,17.627 36.571,12.116 31.886,12.116 31.886,17.627 23.067,17.627 23.894,15.307 24.445,12.696 19.76,12.116 
		18.383,16.177 17.555,17.917 16.729,19.368 14.525,22.558 11.493,25.169 15.352,27.489 18.383,24.589 21.138,21.108 31.886,21.108 
		31.886,28.94 17.281,28.94 17.281,32.711 31.886,32.711 	"/>
	<polygon fill-rule="evenodd" clip-rule="evenodd" fill="#FFFFFF" points="29.358,72.598 12.647,72.598 12.647,53.693 
		17.303,53.693 17.303,69.585 32.097,69.585 	"/>
	<polygon fill-rule="evenodd" clip-rule="evenodd" fill="#ABA8A8" points="29.358,72.598 12.647,72.598 12.647,53.693 
		17.303,53.693 17.303,69.585 32.097,69.585 	"/>
	<polygon fill-rule="evenodd" clip-rule="evenodd" fill="#FFFFFF" points="61.138,61.64 59.221,64.105 45.523,64.105 45.523,72.598 
		40.591,72.598 40.591,63.011 40.73,62.165 40.895,61.365 41.087,60.616 41.306,59.91 41.553,59.253 41.826,58.636 42.129,58.063 
		42.457,57.527 42.816,57.034 43.2,56.577 43.615,56.156 44.055,55.77 44.525,55.417 45.023,55.097 45.55,54.806 46.105,54.544 
		46.547,54.371 47,54.221 47.467,54.092 47.942,53.982 48.427,53.887 48.92,53.807 49.418,53.735 49.92,53.672 50.568,53.602 
		51.221,53.545 51.881,53.498 52.545,53.465 53.215,53.44 53.889,53.423 54.569,53.413 55.253,53.407 55.942,53.408 56.635,53.411 
		57.331,53.416 58.031,53.419 58.736,53.425 59.442,53.427 60.152,53.426 60.865,53.421 58.946,56.159 58.447,56.157 57.948,56.151 
		57.45,56.14 56.955,56.128 56.463,56.115 55.973,56.102 55.488,56.091 55.004,56.083 54.528,56.08 54.054,56.081 53.587,56.091 
		53.125,56.106 52.67,56.134 52.22,56.169 51.779,56.22 51.344,56.28 50.862,56.37 50.391,56.479 49.932,56.613 49.487,56.771 
		49.055,56.962 48.639,57.182 48.24,57.436 47.857,57.726 47.492,58.055 47.146,58.423 46.821,58.837 46.515,59.297 46.233,59.804 
		45.972,60.361 45.735,60.974 45.523,61.64 	"/>
	<path fill-rule="evenodd" clip-rule="evenodd" fill="#ABA8A8" d="M61.138,61.64l-1.917,2.466H45.522v8.492h-4.931
		c0-3.194,0-6.392,0-9.587c0.664-4.65,2.474-7.148,5.514-8.467c1.155-0.499,2.47-0.711,3.815-0.872
		c3.438-0.412,7.135-0.21,10.944-0.251l-1.918,2.738c-2.671,0-5.306-0.246-7.602,0.122c-2.602,0.417-4.758,1.647-5.822,5.358H61.138
		z"/>
	<polygon fill-rule="evenodd" clip-rule="evenodd" fill="#FFFFFF" points="83.056,69.585 80.865,72.598 72.097,72.598 70.946,72.39 
		69.868,72.104 68.867,71.749 67.941,71.328 67.092,70.847 66.317,70.308 65.616,69.72 64.99,69.087 64.44,68.415 63.964,67.705 
		63.563,66.967 63.236,66.203 62.983,65.418 62.804,64.621 62.699,63.81 62.668,62.996 62.712,62.184 62.827,61.374 63.018,60.576 
		63.28,59.791 63.616,59.029 64.025,58.292 64.508,57.584 65.061,56.913 65.689,56.28 66.388,55.697 67.16,55.161 68.003,54.682 
		68.92,54.263 69.907,53.91 70.967,53.628 72.097,53.421 83.056,53.421 81.138,56.159 74.564,56.159 74.375,56.176 74.187,56.182 
		74.001,56.181 73.814,56.176 73.629,56.172 73.444,56.169 73.259,56.174 73.075,56.187 72.555,56.249 72.04,56.345 71.537,56.472 
		71.047,56.631 70.575,56.823 70.122,57.053 69.694,57.317 69.292,57.622 68.92,57.969 68.582,58.356 68.281,58.786 68.019,59.263 
		67.802,59.783 67.63,60.353 67.509,60.973 67.439,61.64 82.782,61.64 81.138,64.105 67.439,64.094 67.439,64.379 67.484,65.057 
		67.612,65.682 67.817,66.254 68.093,66.776 68.433,67.251 68.831,67.676 69.281,68.056 69.774,68.389 70.307,68.68 70.872,68.928 
		71.462,69.134 72.07,69.299 72.691,69.428 73.318,69.515 73.945,69.567 74.564,69.585 	"/>
	<path fill-rule="evenodd" clip-rule="evenodd" fill="#ABA8A8" d="M83.056,53.421l-1.918,2.738h-6.575
		c-0.504,0.055-0.999-0.021-1.487,0.027c-2.793,0.267-5.419,1.747-5.636,5.453h15.343l-1.644,2.466l-13.699-0.012v0.285
		c0,3.753,3.852,5.206,7.124,5.206h8.219h0.274l-2.191,3.013h-8.768c-12.699-1.813-12.446-17.4,0-19.177H83.056z"/>
	<polygon fill-rule="evenodd" clip-rule="evenodd" fill="#FFFFFF" points="132.604,69.585 130.414,72.598 121.646,72.598 
		120.492,72.39 119.417,72.104 118.414,71.749 117.49,71.328 116.638,70.847 115.863,70.308 115.162,69.72 114.538,69.087 
		113.987,68.415 113.511,67.705 113.109,66.967 112.782,66.203 112.53,65.418 112.351,64.621 112.246,63.81 112.217,62.996 
		112.259,62.184 112.377,61.374 112.563,60.576 112.828,59.791 113.163,59.029 113.574,58.292 114.054,57.584 114.61,56.913 
		115.236,56.28 115.935,55.697 116.707,55.161 117.551,54.682 118.467,54.263 119.454,53.91 120.513,53.628 121.646,53.421 
		132.604,53.421 130.687,56.159 124.112,56.159 123.923,56.176 123.734,56.182 123.548,56.181 123.362,56.176 123.177,56.172 
		122.992,56.169 122.807,56.174 122.624,56.187 122.101,56.249 121.588,56.345 121.085,56.472 120.594,56.631 120.121,56.823 
		119.669,57.053 119.241,57.317 118.839,57.622 118.468,57.969 118.129,58.356 117.827,58.786 117.567,59.263 117.349,59.783 
		117.178,60.353 117.055,60.973 116.988,61.64 132.33,61.64 130.687,64.105 116.988,64.094 116.988,64.379 117.031,65.057 
		117.16,65.682 117.365,66.254 117.641,66.776 117.98,67.251 118.38,67.676 118.828,68.056 119.322,68.389 119.855,68.68 
		120.419,68.928 121.009,69.134 121.618,69.299 122.238,69.428 122.865,69.515 123.492,69.567 124.112,69.585 	"/>
	<path fill-rule="evenodd" clip-rule="evenodd" fill="#ABA8A8" d="M132.604,53.421l-1.917,2.738h-6.575
		c-0.506,0.055-1-0.021-1.488,0.027c-2.794,0.267-5.42,1.747-5.636,5.453h15.342l-1.643,2.466l-13.699-0.012v0.285
		c0,3.753,3.852,5.206,7.124,5.206h8.218h0.274l-2.19,3.013h-8.768c-12.699-1.813-12.446-17.4,0-19.177H132.604z"/>
	<polygon fill-rule="evenodd" clip-rule="evenodd" fill="#78C4D9" points="71.018,30.39 69.639,33.871 67.709,37.061 65.229,39.963 
		62.198,42.862 66.607,44.894 69.088,42.283 71.568,39.093 73.498,35.61 75.426,31.551 	"/>
	<polygon fill-rule="evenodd" clip-rule="evenodd" fill="#78C4D9" points="71.017,30.39 71.017,30.39 69.639,33.872 67.711,37.062 
		65.23,39.962 62.199,42.863 66.607,44.894 69.088,42.283 71.568,39.093 73.498,35.611 75.426,31.551 	"/>
	<polygon fill-rule="evenodd" clip-rule="evenodd" fill="#78C4D9" points="63.302,24.299 66.884,26.04 71.294,28.65 74.05,25.459 
		69.639,22.849 65.782,21.108 	"/>
	<polygon fill-rule="evenodd" clip-rule="evenodd" fill="#78C4D9" points="63.301,24.299 63.301,24.299 66.883,26.04 71.292,28.649 
		74.049,25.458 69.639,22.849 65.782,21.108 	"/>
	<polygon fill-rule="evenodd" clip-rule="evenodd" fill="#78C4D9" points="63.302,15.307 67.16,17.047 71.568,19.948 74.324,17.047 
		70.19,14.146 67.986,12.986 66.056,12.117 	"/>
	<polygon fill-rule="evenodd" clip-rule="evenodd" fill="#78C4D9" points="63.301,15.307 63.301,15.307 67.159,17.047 
		71.568,19.948 74.324,17.047 70.19,14.146 67.986,12.987 66.056,12.116 	"/>
	<path fill-rule="evenodd" clip-rule="evenodd" fill="#78C4D9" d="M97.533,45.184l1.378-0.29l0.608-0.159l0.581-0.216l0.551-0.268
		l0.519-0.317l0.488-0.363l0.453-0.408l0.417-0.448l0.38-0.487l0.342-0.52l0.302-0.552l0.26-0.581l0.215-0.606l0.171-0.627
		l0.124-0.648l0.075-0.664l0.025-0.678l-0.024-0.731l-0.072-0.701l-0.12-0.672l-0.166-0.643l-0.209-0.611l-0.253-0.582l-0.296-0.553
		l-0.337-0.523l-0.377-0.492l-0.415-0.462l-0.453-0.433l-0.491-0.404l-0.524-0.373l-0.559-0.343l-0.592-0.315l-0.624-0.283h-7.44
		v-4.352h10.747l2.205-3.771H91.47v-4.641h1.103l6.338-0.58l4.41-0.58l-0.828-3.481l-4.96,0.291l-7.44,0.58l-7.716,0.581h-6.614
		l0.551,3.771l10.472-0.29v4.351H74.109v3.771h12.676v4.352h-4.684l-0.735,0.046l-0.706,0.134l-0.675,0.218l-0.642,0.293
		l-0.606,0.365l-0.567,0.431l-0.526,0.491l-0.482,0.543l-0.435,0.593l-0.386,0.634l-0.333,0.671l-0.28,0.702l-0.221,0.727
		l-0.163,0.746l-0.098,0.759l-0.035,0.767l0.034,0.87l0.098,0.81l0.162,0.753l0.219,0.697l0.278,0.643l0.332,0.592l0.384,0.542
		l0.433,0.492l0.481,0.447l0.526,0.402l0.566,0.361l0.607,0.316l0.644,0.281l0.678,0.243l0.71,0.208l0.74,0.174H97.533z
		 M82.377,41.122l-0.767-0.195l-0.63-0.246l-0.511-0.308l-0.41-0.389l-0.327-0.48l-0.262-0.589l-0.214-0.712l-0.185-0.851
		l0.045-0.374l0.066-0.37l0.086-0.363l0.107-0.355l0.13-0.342l0.149-0.328l0.172-0.311l0.194-0.292l0.216-0.27l0.239-0.245
		l0.261-0.217l0.282-0.188l0.307-0.156l0.328-0.121l0.352-0.084l0.375-0.045h14.88l0.717,0.073l0.628,0.207l0.54,0.323l0.448,0.423
		l0.355,0.508l0.261,0.574l0.166,0.623l0.067,0.657l-0.031,0.673l-0.134,0.674l-0.235,0.657l-0.34,0.622l-0.447,0.573l-0.554,0.506
		l-0.664,0.421l-0.776,0.319H82.377z"/>
	<path fill-rule="evenodd" clip-rule="evenodd" fill="#78C4D9" d="M91.47,29.23v-4.352h10.747l2.205-3.771H91.47v-4.641h1.103
		l6.338-0.58l4.41-0.58l-0.828-3.481l-4.96,0.291l-7.44,0.58l-7.716,0.581h-6.614l0.551,3.771l10.472-0.29v4.351H74.109v3.771
		h12.676v4.352h-4.684c-3.988,0-6.89,4.021-6.89,8.121c0,4.8,2.873,6.986,6.89,7.832h7.716v-4.062h-7.44
		c-2.244-0.472-2.839-1.306-3.307-3.77c0.181-2.004,1.247-3.938,3.307-4.062c2.478,0,4.959,0,7.44,0V29.23v4.059h7.44
		c4.048,0,4.434,6.421,0,7.832h-7.44v4.062h7.716l1.378-0.29c3.312-0.698,5.511-3.898,5.511-7.542c0-3.981-2.103-6.687-5.511-8.121
		h-1.378H91.47z"/>
	<rect x="33.468" y="53.693" fill-rule="evenodd" clip-rule="evenodd" fill="#FFFFFF" width="4.657" height="18.904"/>
	<rect x="33.467" y="53.693" fill-rule="evenodd" clip-rule="evenodd" fill="#ABA8A8" width="4.658" height="18.904"/>
	<path fill="#9CCF59" d="M124.219,26.13l-2.038,0.152c0.37-0.397,0.807-0.891,1.297-1.484
		C123.602,25.096,123.846,25.543,124.219,26.13 M134.027,20.356v-2.963c-0.116-0.095-0.062-0.146,0.191-0.146h2.771
		c0,0,0.064,0.051,0.19,0.146v2.963H134.027z M137.179,23.913v2.813c0,0.101-0.063,0.145-0.19,0.145h-2.771
		c-0.127,0-0.191-0.044-0.191-0.145v-2.813H137.179z M141.617,27.022v-8c1.856,0.992,3.642,2.42,5.372,4.298
		c-1.113,1.282-2.038,2.419-2.781,3.406L141.617,27.022z M138.285,38.572c4.565,2.963,10.308,5.037,17.22,6.219l2.22-3.995
		c-6.296-0.694-11.605-2.224-15.916-4.593h13.25l1.922-3.703h-18.695v-2.219h2.592c0.372,0,0.623-0.152,0.74-0.447v-1.631
		c0.128,0.891,0.308,1.732,0.555,2.521l11.665-1.188c0.127,0.399,0.309,0.841,0.552,1.333l4.077-0.883
		c-0.86-2.471-1.909-4.79-3.144-6.964l-4.266,1.037c0.127,0.397,0.498,1.037,1.114,1.927l-2.963,0.295
		c3.334-4.245,5.309-7.701,5.926-10.369l-4.439-0.739c-0.371,1.478-0.934,3.059-1.666,4.739c-0.498-0.397-0.988-0.789-1.485-1.188
		c1.602-2.66,2.78-4.784,3.514-6.363l-4.067-1.484c-0.742,1.876-1.604,3.652-2.591,5.333c-0.372-0.297-0.614-0.442-0.741-0.442
		l-2.04,2.218v-3.551c0-0.398-0.243-0.593-0.74-0.593h-3.888c0.372-0.69,0.618-1.233,0.743-1.631l-4.075-1.333
		c0,0.295-0.183,0.891-0.554,1.775c-0.125,0.397-0.307,0.79-0.554,1.188h-2.408c-0.371,0-0.553,0.195-0.553,0.593v13.479
		c-0.123-0.398-0.37-0.892-0.743-1.486c-0.497-1.282-0.922-2.218-1.295-2.812l-3.885,1.037c2.963-3.95,4.745-6.964,5.363-9.035
		l-4.26-0.741c-0.487,1.58-1.292,3.261-2.399,5.036c-0.37-0.397-0.807-0.789-1.295-1.188c1.602-2.66,2.771-4.834,3.514-6.515
		l-4.075-1.478c-0.86,2.072-1.72,3.949-2.593,5.623c-0.74-0.393-1.231-0.638-1.473-0.738l-2.412,2.817
		c1.976,1.282,4.075,2.863,6.296,4.74c-1.114,1.282-2.164,2.413-3.151,3.405l-3.325,0.291c0.363,1.288,0.615,2.469,0.734,3.557
		l11.114-0.593c0.119,0.295,0.244,0.694,0.361,1.187l3.705-0.74c0.127,0,0.246,0,0.371,0h3.516V32.5H114.59v3.703h14.439
		c-4.44,2.174-9.438,3.804-14.993,4.885l2.412,3.855c5.552-1.189,11.285-3.509,17.209-6.964v7.26h4.628V38.572z"/>
	<path fill="#F7C200" d="M198.377,17.986h-6.666v-1.478h6.666V17.986z M191.711,22.579v-1.484h6.666v1.484H191.711z M197.264,30.282
		h5.74c0.126,0,0.245,0.096,0.372,0.292v1.63h-6.112V30.282z M192.825,32.203h-6.297v-1.63c0-0.095,0.064-0.196,0.19-0.292h6.106
		V32.203z M186.528,37.24v-1.928h6.297v1.928H186.528z M197.264,37.24v-1.928h6.112v1.928H197.264z M186.528,40.348h16.849v1.036
		c0,0.398-0.372,0.747-1.113,1.036c-0.861,0.297-2.466,0.102-4.813-0.587l0.184,3.994c3.702,0.396,6.359,0.296,7.962-0.291
		c1.484-0.593,2.219-1.384,2.219-2.369v-2.819h0.744l1.111-3.108h-1.855v-9.181c0-0.595-0.361-0.892-1.106-0.892h-9.444v-1.478
		h11.194l1.212-3.11h-6.847v-1.484h3.864l1.316-3.108h-5.181v-1.478h4.868l1.418-3.11h-6.286v-2.225h-4.447v2.225h-6.666v-2.225
		h-4.439v2.225h-6.667v3.11h6.667v1.478h-5.37v3.108h5.37v1.484h-7.219v3.11h12.772v1.478h-9.812c-0.496,0-0.805,0.297-0.924,0.892
		v9.181h-2.227v3.108h2.227v4.892h4.438V40.348z M173.757,38.718c1.115,1.289,2.102,3.115,2.964,5.486l3.884-1.188
		c-0.861-2.371-1.911-4.248-3.141-5.624L173.757,38.718z M168.945,37.094c-0.494,1.775-1.662,4.146-3.521,7.11l4.076,1.332
		c1.847-2.667,3.025-5.087,3.515-7.26L168.945,37.094z M171.538,19.174v-3.703c0-0.101,0.056-0.152,0.184-0.152h3.15
		c0,0,0.054,0.051,0.182,0.152v3.703H171.538z M171.538,25.986v-3.559h3.516v3.559H171.538z M175.053,29.537v3.558
		c0,0-0.063,0.05-0.182,0.146h-3.15c-0.128,0-0.184-0.051-0.184-0.146v-3.558H175.053z M179.49,36.203V12.21
		c0-0.297-0.243-0.442-0.732-0.442h-11.114c-0.36,0-0.551,0.145-0.551,0.442v23.993c0,0.297,0.19,0.492,0.551,0.593h11.114
		C179.129,36.796,179.372,36.602,179.49,36.203z"/>
	<polygon fill="#ABA8A8" points="147.058,73.112 141.914,73.112 141.914,56.422 134.847,56.422 134.847,53.371 154.123,53.371 
		152.23,56.422 147.058,56.422 	"/>
	<polygon fill-rule="evenodd" clip-rule="evenodd" fill="#ABA8A8" points="110.269,72.598 93.557,72.598 93.557,53.693 
		98.214,53.693 98.214,69.585 113.009,69.585 	"/>
	<path fill="#ABA8A8" d="M184.627,63.01v10.103h-2.113l-1.476-2.665c-1.516,1.983-3.91,2.962-7.178,2.962
		c-3.63,0-6.303-1.008-8.097-3.053c-1.796-2.044-2.672-4.414-2.672-7.11c0-2.846,0.995-5.245,2.991-7.23
		c1.993-1.984,4.746-2.962,8.334-2.962c2.673,0,4.906,0.593,6.621,1.747c1.715,1.127,2.791,2.578,3.271,4.298l-4.188,0.533
		c-0.759-2.4-2.633-3.616-5.583-3.616c-1.876,0-3.391,0.564-4.587,1.72c-1.197,1.125-1.795,2.873-1.795,5.243
		c0,4.978,2.113,7.498,6.302,7.498c1.635,0,2.99-0.445,4.066-1.275c1.077-0.829,1.597-1.955,1.597-3.317h-5.464V63.01H184.627z"/>
	<path fill="#ABA8A8" d="M197.875,73.409c-3.55,0-6.301-0.979-8.255-2.933c-1.954-1.985-2.951-4.415-2.951-7.319
		c0-2.873,1.037-5.273,3.15-7.2c2.074-1.926,4.825-2.903,8.254-2.903c3.471,0,6.183,0.978,8.217,2.903
		c1.993,1.927,2.99,4.356,2.99,7.26c0,3.052-1.037,5.511-3.11,7.378C204.056,72.491,201.306,73.409,197.875,73.409z M197.915,70.534
		c1.715,0,3.19-0.503,4.387-1.571c1.196-1.064,1.793-2.991,1.793-5.776c0-2.28-0.517-4.059-1.475-5.333
		c-0.996-1.273-2.552-1.926-4.626-1.926c-4.108,0-6.142,2.459-6.142,7.35c0,2.399,0.52,4.207,1.557,5.421
		C194.485,69.942,195.961,70.534,197.915,70.534z"/>
</g>
</svg>
