<?xml version="1.0" encoding="utf-8"?>
<!-- Generator: Adobe Illustrator 24.0.0, SVG Export Plug-In . SVG Version: 6.00 Build 0)  -->
<svg version="1.1" id="圖層_1" xmlns="http://www.w3.org/2000/svg" xmlns:xlink="http://www.w3.org/1999/xlink" x="0px" y="0px"
	 viewBox="0 0 100 91" style="enable-background:new 0 0 100 91;" xml:space="preserve">
<style type="text/css">
	.st0{fill:#F05055;}
</style>
<path class="st0" d="M100,29.85c-0.61-6.4-2.74-12.2-6.4-16.77c-3.66-4.57-9.15-7.62-15.25-8.23c-4.88-0.61-10.06,0.61-15.55,3.66
	c-3.96,2.13-8.23,5.18-12.5,9.15l-0.3-0.3C39.94,6.68,29.57,3.02,20.73,4.54C14.02,5.76,8.23,9.73,4.57,15.52
	C0.91,21.01-0.61,28.63,0.3,36.56c2.44,16.46,15.85,35.98,48.48,50.61L50,87.78v0.3l1.52-0.91C75,76.81,88.72,63.39,95.13,50.58
	C98.78,43.27,100.31,36.25,100,29.85z"/>
</svg>
