<?xml version="1.0" encoding="utf-8"?>
<!-- Generator: Adobe Illustrator 16.0.0, SVG Export Plug-In . SVG Version: 6.00 Build 0)  -->
<!DOCTYPE svg PUBLIC "-//W3C//DTD SVG 1.1//EN" "http://www.w3.org/Graphics/SVG/1.1/DTD/svg11.dtd">
<svg version="1.1" id="圖層_1" xmlns="http://www.w3.org/2000/svg" xmlns:xlink="http://www.w3.org/1999/xlink" x="0px" y="0px"
	 width="28.917px" height="21.583px" viewBox="0 0 28.917 21.583" enable-background="new 0 0 28.917 21.583" xml:space="preserve">
<g>
	<polygon fill="#555555" points="15.358,3.441 15.143,3.37 15.143,3.298 15,3.441 14.927,3.441 14.783,3.658 14.783,3.729 
		14.783,3.945 14.927,4.09 15,4.162 15.143,4.162 15.358,4.162 15.431,4.09 15.576,3.945 15.576,3.729 15.576,3.658 15.431,3.441 	
		"/>
	<polygon fill="#555555" points="16.367,3.441 16.294,3.298 16.223,3.37 16.08,3.441 15.935,3.441 15.862,3.658 15.862,3.729 
		15.862,3.945 15.935,4.09 16.08,4.162 16.223,4.162 16.294,4.162 16.367,4.162 16.511,4.09 16.583,3.945 16.583,3.729 
		16.583,3.658 16.511,3.441 	"/>
	<path fill="#555555" d="M11.11,3.298h-1.8L9.095,3.441L8.951,3.658v1.008l0.144,0.216h0.216h1.8h2.016h0.216V4.666V3.658V3.441
		l-0.216-0.144L11.11,3.298L11.11,3.298z M12.767,4.378H11.11H9.599V3.945h1.512h1.656V4.378z"/>
	<polygon fill="#555555" points="14.278,3.441 14.063,3.298 13.991,3.441 13.847,3.441 13.774,3.658 13.631,3.729 13.774,3.945 
		13.847,4.09 13.991,4.162 14.063,4.162 14.278,4.162 14.351,4.09 14.495,3.945 14.495,3.729 14.495,3.658 14.351,3.441 	"/>
	<path fill="#555555" d="M17.664,3.298l-0.359,0.216L17.16,3.658l-0.361,0.504l-0.07,0.504l0.07,0.648l0.361,0.432l0.145,0.072
		l0.359,0.288l0.575,0.144h0.072l0.504-0.144l0.576-0.36l0.288-0.432l0.145-0.648l-0.145-0.504l-0.288-0.504l-0.576-0.36
		l-0.504-0.072h-0.072L17.664,3.298z M18.526,3.874l0.288,0.072l-0.288,0.216l-0.144,0.216v0.216l0.216,0.072l0.216-0.072
		l0.359-0.216v0.288v0.432l-0.215,0.216l-0.36,0.216L18.31,5.675l-0.072-0.072l-0.359-0.072l-0.287-0.216l-0.217-0.216V4.666V4.378
		l0.217-0.288l0.287-0.216l0.359-0.144h0.072L18.526,3.874z"/>
	<path fill="#555555" d="M7.969,2.219v17.688h12.905V2.219H7.969z M20.328,19.138h-2.089h-0.936h-1.08h-1.08h-1.08H11.11H8.519
		V6.178h1.8L11.11,6.25h0.937l1.584,0.36l0.432,0.072l1.08,0.144h0.216l0.864,0.144l1.08,0.216l0.36,0.072l0.574,0.072l0.721,0.144
		l1.369,0.072V19.138L20.328,19.138z M20.328,6.826l-2.089-0.288l-0.432-0.072l-0.504-0.072l-1.08-0.144l-0.792-0.144l-0.288-0.072
		l-1.08-0.216l-0.288-0.072L12.119,5.53L11.11,5.458h-0.792h-1.8V2.866h2.592h2.952h1.08h1.08h1.08h0.936h2.088v3.96H20.328z"/>
	<path fill="#555555" d="M18.167,12.01l-0.217-0.72l-0.287-0.648l-0.36-0.36l-0.144-0.216l-0.576-0.504l-0.36-0.144l-0.36-0.144
		l-0.646-0.216h-0.071l-0.792-0.144l-0.288,0.072l-0.432,0.072l-0.72,0.216l-0.648,0.288l-0.648,0.504l-0.432,0.576l-0.072,0.072
		l-0.36,0.576l-0.216,0.72l-0.072,0.863l0.072,0.721l0.216,0.72l0.36,0.576l0.072,0.071l0.432,0.646l0.648,0.434l0.648,0.432
		l0.72,0.216l0.432,0.072h0.288l0.792-0.072h0.071l0.646-0.216l0.36-0.217l0.36-0.215l0.576-0.434l0.144-0.216l0.36-0.433
		l0.287-0.647l0.217-0.72l0.07-0.36l0.072-0.358l-0.072-0.434L18.167,12.01z M16.367,14.098l0.36,0.792l-0.144,0.216l-0.36,0.288
		H16.15l-0.504,0.36l-0.504,0.144h-0.145H14.35h-0.288h-0.288l-0.576-0.144l-0.504-0.36l-0.576-0.288L11.83,14.53l-0.288-0.504
		l-0.216-0.504v-0.648v-0.646l0.216-0.646l0.288-0.505l0.288-0.432l0.576-0.432l0.504-0.216l0.576-0.216l0.288-0.072h0.288
		l0.647,0.072l0.145,0.072l0.504,0.144l0.504,0.216l0.072,0.072l0.359,0.36l0.217,0.288l-0.217,0.432l-0.215,0.435l-0.072,0.646
		v0.504v0.576L16.367,14.098z M17.446,13.521l-0.144,0.433l-0.072,0.145l-0.072-0.145l-0.144-0.433v-0.576v-0.432l0.144-0.505
		l0.146-0.215l0.071-0.072l0.071,0.504l0.146,0.648L17.446,13.521z"/>
	<polygon fill="#555555" points="15.214,10.642 15.143,10.642 14.783,10.498 14.351,10.498 14.063,10.498 13.631,10.642 
		13.199,10.857 12.911,11.074 12.551,11.361 12.334,11.793 12.263,12.226 12.119,12.659 12.119,13.163 12.263,13.594 12.479,14.025 
		12.694,14.313 12.982,14.674 13.631,14.961 14.063,15.105 14.278,15.178 14.927,15.105 15.143,14.961 15.576,14.89 15.791,14.674 
		15.791,14.458 15.576,14.313 15.358,14.313 15.143,14.386 14.783,14.529 14.351,14.529 14.063,14.458 13.847,14.458 13.415,14.243 
		13.126,14.025 12.911,13.737 12.767,13.377 12.694,13.09 12.694,12.729 12.767,12.441 12.911,12.083 13.126,11.793 13.559,11.361 
		14.063,11.218 14.135,11.146 14.71,11.146 15.143,11.29 15.358,11.361 15.576,11.361 15.791,11.29 15.791,11.074 15.646,10.857 	
		"/>
</g>
</svg>
