<?xml version="1.0" encoding="utf-8"?>
<!-- Generator: Adobe Illustrator 16.0.0, SVG Export Plug-In . SVG Version: 6.00 Build 0)  -->
<!DOCTYPE svg PUBLIC "-//W3C//DTD SVG 1.1//EN" "http://www.w3.org/Graphics/SVG/1.1/DTD/svg11.dtd">
<svg version="1.1" id="圖層_1" xmlns="http://www.w3.org/2000/svg" xmlns:xlink="http://www.w3.org/1999/xlink" x="0px" y="0px"
	 width="28.917px" height="21.583px" viewBox="0 0 28.917 21.583" enable-background="new 0 0 28.917 21.583" xml:space="preserve">
<path fill="#555555" d="M23.783,10.93h-0.359h-1.297v-0.576h1.656l0,0l0,0l0.146-0.072l0.145-0.144l0,0l0.071-0.144V9.85V8.77l0,0
	L24.07,8.481L24,8.41l-0.145-0.072l0,0H23.71l0,0l0,0l0,0l-0.576,0.144L22.63,8.698l-0.504,0.216V8.122l0.862-0.216V5.89l0,0V5.746
	l-0.071-0.072l-0.145-0.072L22.63,5.529h-0.504V4.81h0.504l0,0l0.358,0.144l0.435,0.216l0.216,0.36l0.071,0.36v1.8l0,0h0.217h0.216
	l0.36,0.288l0.287,0.36l0.071,0.216V8.77v1.08l0,0l-0.071,0.432l-0.287,0.36l0,0l0.287,0.288l0.071,0.288v2.159l0,0v0.217
	l-0.071,0.216l-0.287,0.288l0,0l-0.289,0.216l-0.287,0.072v1.872l0,0v0.072l-0.072,0.144l-0.145,0.071h-0.071h-0.937v1.08l0,0
	l-0.072,0.217l-0.145,0.216l0,0l-0.216,0.144l-0.146,0.072v-2.447h0.217h0.863v-1.439h-1.08v-0.721h1.514h0.145l0,0h0.146
	l0.144-0.071l0,0l0.072-0.072v-0.146v-2.158l0,0v-0.072l-0.072-0.072l0,0l-0.144-0.072L23.783,10.93L23.783,10.93z M22.126,10.93
	h-0.36v-0.576h0.36V10.93L22.126,10.93z M21.767,13.667h0.359v0.721h-0.359V13.667L21.767,13.667z M22.126,4.81v0.72h-0.36V4.81
	H22.126L22.126,4.81z M22.126,8.122v0.792l0,0l-0.289,0.288l0,0l-0.071,0.072V8.41l0.288-0.216L22.126,8.122L22.126,8.122z
	 M22.126,15.827v2.447h-0.146h-0.216v-0.648h0.216l0,0l0,0l0,0l0,0v-1.08h-0.216v-0.719H22.126z M21.767,10.93h-0.936h-0.938h-2.16
	v-0.576h2.16l0,0l0,0l0,0l0.288-0.072l0.216-0.216l0,0l0.145-0.216l0.071-0.288V5.169l0,0l-0.071-0.288l-0.145-0.216l-0.216-0.144
	L19.895,4.45h-2.16V3.73h2.16l0,0l0.504,0.072l0.36,0.216l0.359,0.432l0.145,0.36h0.504v0.72h-0.432l0,0l0,0v3.168l0,0h0.072l0,0
	l0.286-0.288h0.072v0.864L21.55,9.49l-0.146,0.216l-0.144,0.288l-0.072,0.36h0.576L21.767,10.93L21.767,10.93z M17.734,13.667h4.032
	v0.721h-4.032V13.667L17.734,13.667z M21.767,15.827v0.719h-0.288l0,0l0,0v1.08l0,0l0,0l0,0l0,0h0.288v0.648h-0.288l0,0
	l-0.288-0.072l-0.288-0.144l0,0l-0.071-0.216l-0.072-0.217v-1.08h-3.023v-0.719h3.385H21.767L21.767,15.827z M17.734,10.93h-2.232
	h-1.08V4.306l0.072-0.144l0,0l0.216-0.144l0.216-0.144l0.289-0.072l0.287-0.072h2.232v0.72h-2.232l0,0l-0.287,0.072l-0.289,0.144
	l0,0l-0.145,0.216V5.17v4.392l0,0V9.85l0.145,0.216l0,0l0.289,0.216l0.287,0.072h2.232V10.93L17.734,10.93z M14.423,13.667h3.312
	v0.721h-3.312V13.667L14.423,13.667z M17.734,15.827v0.719h-3.312v-0.719H17.734z M14.423,10.93h-1.08h-2.16v-0.576h2.16l0,0l0,0
	l0,0l0.288-0.072l0.288-0.216l0,0l0.144-0.216l0.072-0.288V5.169l0,0l-0.072-0.288l-0.144-0.216l0,0L13.63,4.521L13.343,4.45h-2.16
	V3.73h2.16l0,0l0.288,0.072l0.288,0.072l0.216,0.144l0.216,0.144l0,0l0.072,0.144V10.93L14.423,10.93z M11.183,13.667h3.24v0.721
	h-3.24V13.667L11.183,13.667z M14.423,15.827v0.719h-3.24v-0.719H14.423z M11.183,10.93H8.95H8.015H7.15v-0.576h0.504l0,0
	l-0.072-0.36L7.511,9.706L7.294,9.49L7.15,9.273V8.481l0.288,0.216l0,0H7.51V5.529l0,0l0,0H7.15V4.81h0.432l0,0l0.144-0.288
	l0.288-0.36l0,0l0.144-0.144l0.288-0.144l0.216-0.072L8.95,3.729h2.232v0.72H8.95l0,0L8.663,4.521L8.446,4.666l0,0L8.303,4.882
	L8.23,5.169v4.392l0,0L8.303,9.85l0.144,0.216l0,0l0.216,0.216l0.288,0.072h2.232V10.93L11.183,10.93z M7.15,13.667h4.032v0.721
	H7.15V13.667L7.15,13.667z M11.183,15.827v0.719H8.086v1.08l0,0v0.218l-0.144,0.216l0,0l-0.288,0.145l-0.288,0.071H7.15v-0.647
	h0.216l0,0l0,0l0,0h0.072v-1.08H7.15v-0.719h0.576h3.457V15.827z M7.15,10.93H6.574v-0.576H7.15V10.93L7.15,10.93z M6.574,13.667
	H7.15v0.721H6.574V13.667L6.574,13.667z M7.15,4.81v0.72H6.574V4.81H7.15L7.15,4.81z M7.15,8.481v0.792L7.079,9.202l0,0l0,0l0,0
	L6.646,8.914H6.574v-0.72l0,0L7.079,8.41L7.15,8.481L7.15,8.481z M7.15,15.827v0.719H6.862l0,0l0,0v1.08l0,0l0,0l0,0h0.072H7.15
	v0.648H6.935l0,0l-0.36-0.072l0,0v-2.375H7.15z M6.574,10.93H5.207H5.063l0,0l-0.144,0.072l-0.144,0.072l0,0l-0.072,0.072v0.072
	v2.159l0,0v0.145l0.072,0.072l0,0l0.144,0.072h0.144h1.512v0.72H5.278l0,0v1.44h1.224h0.072v2.375l-0.216-0.145l0,0L6.214,17.84
	l-0.072-0.217v-1.08H4.99l0,0H4.847l-0.072-0.07l-0.072-0.145v-0.072v-1.943l0,0l-0.288-0.216l0,0l-0.36-0.288v-0.216l-0.072-0.218
	v-2.159l0,0l0.072-0.288l0.216-0.288l0,0l-0.216-0.36L3.982,9.85V8.77l0,0l0.072-0.36l0.144-0.288l0.36-0.216L4.846,7.69l0,0h0.072
	v-1.8l0,0L4.99,5.53l0.216-0.36l0.36-0.216L5.999,4.81h0.576v0.72H5.999l0,0L5.854,5.602L5.71,5.674L5.639,5.746V5.89v1.872l0,0
	l0.504,0.216l0.432,0.216v0.72l-0.36-0.216L5.782,8.481L5.135,8.338l0,0L4.99,8.41L4.847,8.481L4.774,8.554L4.703,8.77v1.08l0,0
	l0.072,0.144l0.072,0.144l0,0l0.072,0.144l0.144,0.072l0,0h1.512L6.574,10.93L6.574,10.93z"/>
</svg>
