<?xml version="1.0" encoding="utf-8"?>
<!-- Generator: Adobe Illustrator 16.0.0, SVG Export Plug-In . SVG Version: 6.00 Build 0)  -->
<!DOCTYPE svg PUBLIC "-//W3C//DTD SVG 1.1//EN" "http://www.w3.org/Graphics/SVG/1.1/DTD/svg11.dtd">
<svg version="1.1" id="圖層_1" xmlns="http://www.w3.org/2000/svg" xmlns:xlink="http://www.w3.org/1999/xlink" x="0px" y="0px"
	 width="72px" height="72px" viewBox="0 0 72 72" enable-background="new 0 0 72 72" xml:space="preserve">
<g>
	<defs>
		<rect id="SVGID_1_" x="-1497.899" y="-1.5" width="1025.108" height="543.938"/>
	</defs>
	<clipPath id="SVGID_2_">
		<use xlink:href="#SVGID_1_"  overflow="visible"/>
	</clipPath>
	<g id="首頁圖羽化_1_" clip-path="url(#SVGID_2_)">
		
			<image overflow="visible" width="2362" height="2362" id="首頁圖羽化" xlink:href="EBD17757.png"  transform="matrix(0.4385 0 0 0.3462 -1591.9292 -111.2212)">
		</image>
	</g>
</g>
<g>
	<g>
		
			<image overflow="visible" width="2510" height="863" xlink:href="EBD17755.png"  transform="matrix(0.24 0 0 0.24 -736.7676 197.3975)">
		</image>
	</g>
	<g>
		<path fill="#727171" d="M-530.006,321.474c-0.591,0.369-1.256,0.812-1.847,1.256v-2.584c0.444-0.296,0.961-0.665,1.404-1.033
			L-530.006,321.474L-530.006,321.474z M-531.853,328.266v-2.585c3.322-2.066,5.39-4.504,6.276-7.236
			c1.034-3.173,1.55-6.718,1.55-10.629h2.142c-0.148,6.053-1.033,10.704-2.657,13.806c1.918,1.918,3.543,3.764,4.798,5.388
			l-1.698,1.477c-1.033-1.477-2.51-3.174-4.356-5.094C-527.054,324.943-529.047,326.567-531.853,328.266L-531.853,328.266z
			 M-531.853,312.688v-3.543c1.698,2.068,3.102,4.135,4.209,6.349l-1.845,1.108C-530.154,315.346-530.967,314.092-531.853,312.688z
			 M-531.853,322.73c-2.731,1.696-5.389,3.248-8.047,4.649l-0.812-2.066c0.443-0.222,1.106-0.517,1.771-0.96v-16.611h2.215v15.43
			c1.771-1.035,3.396-1.996,4.872-3.027V322.73L-531.853,322.73z M-531.853,309.145l-0.294-0.367l-1.773,1.179
			c0.74,0.962,1.403,1.845,2.067,2.731V309.145L-531.853,309.145z M-531.853,325.681c-0.591,0.369-1.254,0.738-1.919,1.108
			l1.402,1.771c0.148-0.074,0.296-0.146,0.517-0.295V325.681z"/>
		<path fill="#727171" d="M-501.361,327.749v-1.92h2.583v-4.207h-2.583v-1.92h2.583v-3.913h-2.583v-1.92h2.583v-3.69h-2.583v-1.921
			h4.725v17.571h1.403v1.92H-501.361z M-506.751,320.072l-0.592,0.737v-1.697C-507.119,319.48-506.899,319.775-506.751,320.072
			L-506.751,320.072z M-507.343,309.218v0.148l0,0V309.218L-507.343,309.218z M-507.343,313.5h0.297v1.92h-0.297V313.5
			L-507.343,313.5z M-501.361,308.258v1.921h-2.51v3.69h2.51v1.92h-2.51v3.913h2.51v1.92h-2.51v4.207h2.51v1.92h-5.981v-1.92h1.329
			v-17.571H-501.361z M-507.343,320.81l-0.737,0.959c-0.813-1.402-1.477-2.436-1.994-3.101v9.672h-1.992v-9.154
			c-0.813,1.623-1.697,3.099-2.656,4.428l-1.257-2.066c1.551-1.773,2.806-3.766,3.765-6.128h-3.543v-1.92h3.691v-3.026l-2.656,0.368
			l-1.035-1.993c2.732-0.147,5.168-0.591,7.383-1.328l1.032,1.697v0.148c-0.885,0.295-1.771,0.517-2.731,0.739v3.395h2.731v1.92
			h-2.731v0.444c1.108,1.253,1.994,2.287,2.731,3.249V320.81L-507.343,320.81z M-507.343,325.829h-0.664v1.92h0.664V325.829z"/>
		<path fill="#727171" d="M-474.414,328.561v-2.437c0.221,0.148,0.441,0.148,0.59,0.148c0.664,0,1.107-1.33,1.329-3.988l1.993,0.96
			c-0.369,3.617-1.402,5.39-3.174,5.39C-473.896,328.635-474.119,328.635-474.414,328.561L-474.414,328.561z M-474.414,315.493
			v-2.066l3.985-0.368l0.074,2.066L-474.414,315.493L-474.414,315.493z M-474.414,311.877v-3.1c1.033,0.884,1.846,1.77,2.51,2.729
			l-1.697,1.329C-473.824,312.54-474.119,312.172-474.414,311.877z M-484.604,308.037c-0.146,0.369-0.294,0.664-0.369,0.959v-1.032
			L-484.604,308.037L-484.604,308.037z M-474.414,308.777v3.1c-0.664-0.887-1.478-1.698-2.437-2.438l1.624-1.402
			C-474.932,308.333-474.637,308.554-474.414,308.777L-474.414,308.777z M-474.414,313.427v2.066l-3.986,0.371
			c0.221,3.394,0.959,5.979,2.066,7.75c0.738,1.328,1.402,2.142,1.92,2.51v2.437c-1.107-0.295-2.215-1.328-3.396-3.027
			c-1.404-2.067-2.363-5.241-2.806-9.45l-4.357,0.444v-2.067l4.209-0.369c-0.147-1.771-0.222-3.913-0.147-6.35h2.067
			c0,2.583,0.073,4.65,0.221,6.127L-474.414,313.427z M-484.973,308.996c-0.146,0.518-0.294,0.96-0.441,1.329l-0.738,1.92v16.095
			h-2.142v-12.109c-0.296,0.518-0.812,1.33-1.625,2.289l-1.106-2.289c1.92-2.362,3.321-5.313,4.281-8.711l1.771,0.443V308.996
			L-484.973,308.996z M-484.973,314.461l-0.294,0.074l0.073,1.993h0.221V314.461z"/>
		<path fill="#727171" d="M-446.729,313.796h-3.839v-1.698h1.624v-2.215h-1.624v-1.698h3.839V313.796L-446.729,313.796z
			 M-450.568,327.379v-1.993c2.067,0.37,3.765,0.738,5.168,1.255l-0.737,1.92C-447.246,328.118-448.724,327.749-450.568,327.379
			L-450.568,327.379z M-450.568,324.87v-1.697h0.074v-1.181h-0.074v-1.476h0.074v-1.182h-0.074v-1.478h0.074v-1.106h-0.074v-1.624
			h2.141v9.745H-450.568z M-450.568,313.796h-5.316v-1.698h1.624v-2.215h-1.624v-1.698h5.316v1.698h-1.624v2.215h1.624V313.796
			L-450.568,313.796z M-450.568,315.125v1.624h-5.316v-1.624H-450.568L-450.568,315.125z M-450.568,317.855v1.478h-5.316v-1.478
			H-450.568L-450.568,317.855z M-450.568,320.515v1.476h-5.316v-1.476H-450.568L-450.568,320.515z M-450.568,323.172v1.697h-5.316
			v-1.697H-450.568L-450.568,323.172z M-450.568,325.386v1.993c-0.738-0.073-1.478-0.222-2.362-0.369l0.812-1.846
			C-451.603,325.239-451.085,325.313-450.568,325.386z M-455.885,313.796h-5.315v-1.698h1.625v-2.215h-1.625v-1.698h5.315v1.698
			h-1.697v2.215h1.697V313.796L-455.885,313.796z M-455.885,315.125v1.624h-5.315v1.106h5.315v1.478h-5.315v1.182h5.315v1.476
			h-5.315v1.181h5.315v1.697h-3.248l1.181,1.033c-1.033,0.517-2.14,1.035-3.248,1.477v-2.141c0.296-0.147,0.591-0.221,0.812-0.369
			h-0.812v-9.745H-455.885z M-461.2,313.796h-3.765v-5.611h3.765v1.698h-1.698v2.215h1.698V313.796L-461.2,313.796z M-461.2,315.125
			v9.745h-2.142v-9.745H-461.2L-461.2,315.125z M-461.2,325.239v2.141c-1.329,0.518-2.731,0.887-4.208,1.256l-0.96-1.846
			C-464.227,326.273-462.529,325.756-461.2,325.239z"/>
		<path fill="#727171" d="M-408.267,321.474c-0.589,0.369-1.254,0.812-1.845,1.256v-2.584c0.442-0.296,0.96-0.665,1.403-1.033
			L-408.267,321.474L-408.267,321.474z M-410.111,328.266v-2.585c3.323-2.066,5.39-4.504,6.275-7.236
			c1.034-3.173,1.551-6.718,1.551-10.629h2.141c-0.148,6.053-1.034,10.704-2.657,13.806c1.919,1.918,3.542,3.764,4.798,5.388
			l-1.697,1.477c-1.033-1.477-2.51-3.174-4.355-5.094C-405.313,324.943-407.306,326.567-410.111,328.266L-410.111,328.266z
			 M-410.111,312.688v-3.543c1.698,2.068,3.1,4.135,4.208,6.349l-1.846,1.108C-408.413,315.346-409.226,314.092-410.111,312.688z
			 M-410.111,322.73c-2.731,1.696-5.39,3.248-8.048,4.649l-0.812-2.066c0.443-0.222,1.107-0.517,1.771-0.96v-16.611h2.215v15.43
			c1.772-1.035,3.323-1.996,4.873-3.027V322.73L-410.111,322.73z M-410.111,309.145l-0.295-0.367l-1.771,1.179
			c0.737,0.962,1.401,1.845,2.066,2.731V309.145L-410.111,309.145z M-410.111,325.681c-0.59,0.369-1.256,0.738-1.919,1.108
			l1.402,1.771c0.148-0.074,0.295-0.146,0.517-0.295V325.681z"/>
		<path fill="#727171" d="M-373.789,310.77c-0.074,2.657-0.147,5.61-0.295,8.784c-0.073,3.176-0.222,5.168-0.296,6.054
			c-0.146,0.885-0.368,1.478-0.663,1.845c-0.295,0.444-0.666,0.665-1.035,0.813c-0.368,0.148-1.328,0.221-2.805,0.221
			c-0.59,0-1.033-0.072-1.402-0.072l-0.591-1.995c0.886,0.073,1.623,0.073,2.215,0.073c0.959,0,1.623-0.073,1.771-0.22
			c0.222-0.148,0.369-0.371,0.443-0.739c0.074-0.295,0.222-1.697,0.296-4.207c0.146-2.436,0.221-5.317,0.295-8.565h-0.665
			c-0.369,3.248-1.107,6.056-2.215,8.344c-1.034,2.288-2.657,4.576-4.799,6.792l-1.698-1.404c2.068-1.992,3.618-4.059,4.651-6.2
			c1.035-2.142,1.771-4.578,2.068-7.531h-1.033c-0.888,4.282-2.659,7.753-5.392,10.484l-1.254-0.886v-0.811
			c2.361-2.362,3.839-5.243,4.577-8.787h-0.96c-0.665,1.551-1.402,2.953-2.288,4.136l-1.329-0.739v-0.886
			c1.254-1.846,2.289-4.354,3.101-7.603l2.066,0.367c-0.221,0.959-0.515,1.846-0.812,2.732H-373.789L-373.789,310.77z
			 M-386.191,319.85v-2.141c0.147,0,0.295-0.075,0.295-0.075l0.147,2.068C-385.896,319.775-386.044,319.775-386.191,319.85z
			 M-386.191,322.359l-0.442-0.368c0.146-0.148,0.294-0.296,0.442-0.443V322.359L-386.191,322.359z M-386.191,316.158l-0.442-0.294
			c0.146-0.223,0.294-0.444,0.442-0.592V316.158L-386.191,316.158z M-386.191,317.709c-0.369,0.146-0.96,0.368-1.92,0.736v-3.984
			h1.92v-1.921h-1.92v-4.724h-2.067v4.724h-1.402c0.147-0.739,0.223-1.622,0.294-2.657l-1.845-0.369
			c-0.146,2.879-0.59,5.464-1.181,7.753l1.846,0.516c0.295-1.254,0.517-2.362,0.663-3.321h1.625v4.652
			c-1.402,0.441-2.731,0.81-3.986,1.107l0.443,2.065c1.55-0.442,2.731-0.812,3.543-1.032v7.087h2.067v-7.751
			c0.739-0.296,1.402-0.517,1.92-0.739V317.709z"/>
		<path fill="#727171" d="M-349.058,318.151c-0.073,1.698-0.146,3.397-0.295,5.021c-0.148,1.697-0.295,2.73-0.441,3.174
			c-0.075,0.443-0.297,0.812-0.592,1.182c-0.222,0.294-0.591,0.517-1.033,0.663c-0.37,0.149-1.033,0.224-1.92,0.224
			c-0.517,0-1.107-0.074-1.771-0.074l-0.517-1.994c0.886,0.073,1.55,0.073,2.066,0.073c0.739,0,1.181-0.073,1.329-0.146
			c0.221-0.073,0.296-0.223,0.369-0.444c0.073-0.147,0.222-0.886,0.37-2.14c0.073-1.329,0.147-2.512,0.221-3.616h-1.92
			c-1.182,2.361-3.101,4.501-5.684,6.347v-2.435c1.402-1.182,2.583-2.511,3.469-3.913h-2.879c-0.221,0.221-0.369,0.443-0.59,0.663
			v-2.584H-349.058L-349.058,318.151z M-358.875,308.185h7.604v8.195h-7.604v-1.772h5.463v-1.401h-5.463v-1.847h5.463v-1.329h-5.463
			V308.185z M-358.875,326.419c-1.035,0.738-2.141,1.402-3.396,2.067l-1.477-1.55c1.919-0.813,3.469-1.846,4.873-2.952V326.419
			L-358.875,326.419z M-358.875,320.735v-2.584h-3.544c0.442-0.442,0.886-1.034,1.329-1.771h2.215v-1.772h-5.463v-1.401h5.463
			v-1.847h-5.463v-1.329h5.463v-1.846h-7.604v8.195h3.027c-1.55,1.845-3.544,3.322-5.906,4.43l1.255,1.624
			c1.255-0.665,2.51-1.477,3.691-2.361h3.543c-1.993,1.992-4.649,3.542-7.899,4.649l1.182,1.771
			C-363.97,325.165-361.09,323.246-358.875,320.735z"/>
		<path fill="#727171" d="M-324.176,310.77c0,2.657-0.074,5.61-0.223,8.784c-0.147,3.176-0.296,5.168-0.369,6.054
			c-0.073,0.885-0.296,1.478-0.59,1.845c-0.369,0.444-0.665,0.665-1.107,0.813c-0.37,0.148-1.329,0.221-2.806,0.221
			c-0.517,0-0.96-0.072-1.329-0.072l-0.664-1.995c0.885,0.073,1.625,0.073,2.288,0.073c0.96,0,1.552-0.073,1.771-0.22
			c0.148-0.148,0.297-0.371,0.369-0.739c0.147-0.295,0.222-1.697,0.37-4.207c0.074-2.436,0.147-5.317,0.221-8.565h-0.663
			c-0.37,3.248-1.108,6.056-2.141,8.344c-1.107,2.288-2.659,4.576-4.801,6.792l-1.771-1.404c2.067-1.992,3.617-4.059,4.65-6.2
			c1.106-2.142,1.771-4.578,2.067-7.531h-1.034c-0.886,4.282-2.658,7.753-5.39,10.484l-1.255-0.886v-0.811
			c2.363-2.362,3.912-5.243,4.651-8.787h-1.033c-0.664,1.551-1.403,2.953-2.29,4.136l-1.328-0.739v-0.886
			c1.328-1.846,2.363-4.354,3.175-7.603l1.993,0.367c-0.221,0.959-0.517,1.846-0.812,2.732H-324.176L-324.176,310.77z
			 M-336.58,319.85v-2.141c0.222,0,0.297-0.075,0.37-0.075l0.146,2.068C-336.21,319.775-336.358,319.775-336.58,319.85z
			 M-336.58,322.359l-0.442-0.368c0.147-0.148,0.295-0.296,0.442-0.443V322.359L-336.58,322.359z M-336.58,316.158l-0.442-0.294
			c0.147-0.223,0.295-0.444,0.442-0.592V316.158L-336.58,316.158z M-336.58,317.709c-0.295,0.146-0.96,0.368-1.92,0.736v-3.984h1.92
			v-1.921h-1.92v-4.724h-2.066v4.724h-1.33c0.075-0.739,0.148-1.622,0.223-2.657l-1.846-0.369c-0.148,2.879-0.517,5.464-1.182,7.753
			l1.846,0.516c0.295-1.254,0.517-2.362,0.666-3.321h1.623v4.652c-1.403,0.441-2.731,0.81-3.987,1.107l0.444,2.065
			c1.623-0.442,2.804-0.812,3.543-1.032v7.087h2.066v-7.751c0.739-0.296,1.403-0.517,1.92-0.739V317.709z"/>
		
			<line fill="none" stroke="#C9CACA" stroke-width="0.8504" stroke-miterlimit="10" x1="-433.22" y1="307.595" x2="-433.22" y2="328.561"/>
		<path fill="#727171" d="M-588.699,353.958l-1.033,1.624c-0.886-0.369-1.549-0.738-2.215-1.107v2.436
			c0,0.221,0.148,0.37,0.443,0.37h2.066v1.771h-2.729c-1.183,0-1.7-0.59-1.7-1.771v-1.403h-1.254v-1.846h2.436
			c-0.959-0.516-1.771-1.107-2.436-1.697v-3.767c0.442-0.442,0.886-0.885,1.254-1.403l1.7,1.034c-0.739,0.959-1.478,1.7-2.217,2.216
			c0.222,0.222,0.592,0.517,1.108,0.885c0.887-0.737,1.624-1.476,2.288-2.142l1.624,1.037c-0.811,0.884-1.55,1.622-2.362,2.213
			C-590.987,352.924-589.954,353.44-588.699,353.958L-588.699,353.958z M-595.121,366.508v-3.544
			c0.294,0.147,0.517,0.296,0.811,0.442c0.592-0.591,1.108-1.107,1.404-1.624h-2.215v-1.846h4.65v1.846
			c-0.664,0.959-1.328,1.846-2.067,2.659c1.183,0.813,2.289,1.55,3.397,2.361l-1.478,1.329c-0.96-0.737-2.141-1.476-3.469-2.289
			C-594.384,366.066-594.753,366.289-595.121,366.508z M-595.121,355.877h-1.107c0,1.625-0.886,2.88-2.731,3.765l-1.033-1.255
			v-0.368c0.517-0.222,0.959-0.591,1.254-0.96c0.369-0.443,0.591-1.182,0.591-2.141v-0.887h3.027V355.877L-595.121,355.877z
			 M-595.121,352.334c-1.698-1.403-2.879-2.954-3.618-4.578l1.846-0.592c0.223,0.519,0.665,1.184,1.182,1.922
			c0.222-0.148,0.369-0.371,0.591-0.519V352.334L-595.121,352.334z M-595.121,359.938v1.846h-2.289
			c0.812,0.369,1.55,0.812,2.289,1.181v3.544c-1.181,0.739-2.51,1.254-3.987,1.697l-0.885-1.402v-0.369
			c1.771-0.518,3.1-1.033,4.06-1.698c-1.255-0.664-2.363-1.254-3.249-1.698l1.256-1.254h-1.402v-1.846H-595.121L-595.121,359.938z
			 M-599.993,349.898v-2.216h0.294v1.844C-599.771,349.675-599.847,349.751-599.993,349.898z M-599.993,358.387l-0.224-0.295
			c0.075,0,0.148-0.073,0.224-0.073V358.387L-599.993,358.387z M-599.993,347.683h-7.531v1.844h5.316
			c-0.592,0.668-1.256,1.257-1.995,1.772c-1.106-0.663-1.918-1.104-2.583-1.4l-1.403,1.475c0.739,0.37,1.477,0.739,1.993,1.107
			c-1.107,0.517-2.215,1.035-3.47,1.403l0.961,1.698c0.811-0.224,1.476-0.517,1.992-0.738v0.96h3.913v1.845h-4.504l-0.664,5.612
			h5.316c0,1.846-0.369,2.806-1.108,2.806c-1.846,0-3.175,0-3.986-0.074l0.739,1.919c0.737,0.074,1.401,0.074,1.918,0.074
			c1.478,0,2.511-0.148,3.027-0.369c0.517-0.295,0.887-0.813,1.182-1.699c0.222-0.811,0.295-2.362,0.369-4.429h-5.169l0.223-2.066
			h4.65v-5.39h-4.208c2.215-1.181,3.84-2.584,5.021-4.133V347.683L-599.993,347.683z M-599.993,366.434v0.369l-0.148-0.369H-599.993
			z"/>
		<path fill="#727171" d="M-568.543,365.254v-1.848h4.43v1.848H-568.543L-568.543,365.254z M-568.543,362.152v-1.846h1.549v-1.327
			h-1.549v-1.698h1.549v-1.329h-1.549v-1.771h3.469v7.972H-568.543L-568.543,362.152z M-568.543,352.997v-1.845h1.328v1.845
			H-568.543L-568.543,352.997z M-568.543,349.603h2.215v2.878h1.991v-4.725h-4.206V349.603z M-568.543,347.756v1.847h-2.438v-1.847
			H-568.543L-568.543,347.756z M-568.543,351.152v1.845h-1.551v1.183h1.551v1.771h-1.551v1.329h1.551v1.698h-1.551v1.327h1.551
			v1.846h-1.551v1.255h1.551v1.848h-1.551v2.73h-0.888v-17.791h0.888v0.958H-568.543z M-570.981,347.756v1.847h-2.583v-1.847
			H-570.981L-570.981,347.756z M-570.981,350.194v17.791h-1.032v-2.73h-1.551v-1.848h1.551v-1.255h-1.551v-1.846h1.551v-1.327
			h-1.551v-1.698h1.551v-1.329h-1.551v-1.771h1.551v-1.183h-1.551v-1.845h1.551v-0.958H-570.981z M-578.067,357.944
			c-0.443,0.296-1.182,0.664-2.142,1.034v6.644c0,0.959-0.148,1.55-0.591,1.845c-0.369,0.295-0.96,0.443-1.624,0.443
			c-0.886,0-1.477,0-1.771,0l-0.443-2.142c0.517,0.074,0.887,0.074,1.181,0.074c0.591,0,0.961-0.074,1.034-0.148
			c0.146-0.072,0.222-0.147,0.222-0.368v-5.462c-0.738,0.369-1.477,0.664-2.215,0.812l-0.591-1.994
			c1.033-0.368,1.993-0.737,2.806-1.106v-4.503h-2.511v-1.994h2.511v-3.766h1.993v3.766h1.847v1.994h-1.847v3.617
			c0.664-0.295,1.329-0.591,1.995-1.034L-578.067,357.944L-578.067,357.944z M-573.564,347.756v1.847h-2.066v2.878h-1.994v-4.725
			H-573.564L-573.564,347.756z M-573.564,351.152v1.845h-1.255v-1.845H-573.564L-573.564,351.152z M-573.564,354.18v1.771h-1.551
			v1.329h1.551v1.698h-1.551v1.327h1.551v1.846h-3.544v-7.972H-573.564L-573.564,354.18z M-573.564,363.407v1.848h-4.355v-1.848
			H-573.564z"/>
		<path fill="#727171" d="M-542.188,354.77h-1.992v-5.39h-0.222v-1.697h2.214V354.77L-542.188,354.77z M-544.402,366.066v-2.88
			l0.073,0.147c0.664-0.813,1.182-1.699,1.623-2.805h-1.696v-1.847h4.208c-0.296,2.142-1.182,4.134-2.658,5.907
			c1.107,0.813,2.362,1.403,3.618,1.771l-1.033,1.847c-1.625-0.738-2.955-1.476-3.988-2.289L-544.402,366.066L-544.402,366.066z
			 M-544.402,357.428v-1.772h5.095v1.772H-544.402z M-544.402,349.38h-5.242v-1.697h5.242V349.38L-544.402,349.38z
			 M-544.402,355.655v1.772h-5.242v-1.772H-544.402L-544.402,355.655z M-544.402,358.682v1.847h-1.847
			c0.443,1.035,1.035,1.919,1.847,2.658v2.88c-1.329,0.885-2.658,1.55-4.061,1.992l-1.107-1.699
			c1.182-0.293,2.437-0.885,3.765-1.696c-0.887-1.033-1.772-2.437-2.51-4.134h-0.813v-1.847H-544.402L-544.402,358.682z
			 M-549.645,354.621v-1.549h4.577v1.549H-549.645L-549.645,354.621z M-549.645,352.038v-1.624h4.577v1.624H-549.645z
			 M-549.645,349.38H-554v-1.697h4.355V349.38L-549.645,349.38z M-549.645,350.414v1.624H-554v-1.624H-549.645L-549.645,350.414z
			 M-549.645,353.072v1.549H-554v-1.549H-549.645L-549.645,353.072z M-549.645,355.655v1.772h-0.295v10.557h-1.92v-1.993
			c-0.738,0.074-1.476,0.147-2.141,0.221v-1.847c0.959-0.073,1.699-0.147,2.141-0.219v-1.183H-554v-1.55h2.141v-1.329H-554v-1.551
			h2.141v-1.106H-554v-1.772H-549.645z M-554,349.38h-1.032v5.39h-1.995v-7.087H-554V349.38L-554,349.38z M-554,350.414h-0.295
			v1.624H-554V350.414L-554,350.414z M-554,353.072h-0.295v1.549H-554V353.072L-554,353.072z M-554,355.655v1.772h-2.067v1.106H-554
			v1.551h-2.067v1.329H-554v1.55h-2.067v1.624c0.813-0.073,1.477-0.146,2.067-0.223v1.847c-2.141,0.222-3.986,0.369-5.537,0.369
			l-0.517-1.846h1.993v-7.308h-1.845v-1.772H-554z"/>
		<path fill="#727171" d="M-528.382,347.683c-0.075,0.296-0.222,0.591-0.295,0.885v-0.958L-528.382,347.683L-528.382,347.683z
			 M-528.677,367.321v-1.994h5.685v-3.47h-5.538v-1.993h5.538v-2.51h2.215v2.51h5.463v1.993h-5.463v3.47h6.423v1.994H-528.677
			L-528.677,367.321z M-528.677,356.615v-2.068h5.685v-2.804h-5.315v-1.992h5.315v-2.438h2.141v2.438h5.315v1.992h-5.315v2.804
			h6.129v2.068H-528.677z M-528.677,348.567c-0.296,0.665-0.592,1.403-0.961,2.216l-0.737,1.624v15.578h-2.142v-11.738
			c-0.443,0.663-0.96,1.328-1.551,1.993l-1.107-2.214c1.698-1.995,3.322-5.022,4.8-8.936l1.698,0.519V348.567L-528.677,348.567z
			 M-528.677,354.547h-0.37v2.068h0.37V354.547L-528.677,354.547z M-528.677,365.327h-0.665v1.994h0.665V365.327z"/>
		<path fill="#727171" d="M-494.2,367.542v-2.068h4.578v2.068H-494.2L-494.2,367.542z M-494.2,361.857v-1.993h3.913v1.993H-494.2
			L-494.2,361.857z M-494.2,358.608v-0.664c0.146,0.222,0.222,0.369,0.295,0.59L-494.2,358.608L-494.2,358.608z M-494.2,355.138
			c0.96,1.478,1.846,2.807,2.437,4.209l1.92-0.885c-0.591-1.182-1.403-2.436-2.215-3.766c0.959-1.478,1.624-2.658,1.919-3.471
			l-1.846-0.812c-0.517,1.256-1.255,2.51-2.215,3.913V355.138L-494.2,355.138z M-494.2,351.299v-0.146h0.074L-494.2,351.299
			L-494.2,351.299z M-494.2,349.675v-1.992h4.208v1.992H-494.2z M-494.2,347.683v1.992h-4.061v-1.992H-494.2L-494.2,347.683z
			 M-494.2,351.152v0.146c-0.665,1.256-1.33,2.363-1.994,3.248c0.961,1.479,1.625,2.584,1.994,3.397v0.664l-1.55,0.738
			c-0.739-1.55-1.551-2.952-2.511-4.281v-0.886c0.813-1.034,1.55-2.289,2.214-3.766L-494.2,351.152L-494.2,351.152z M-494.2,354.327
			c-0.074,0.147-0.148,0.22-0.295,0.369c0.146,0.147,0.221,0.294,0.295,0.441V354.327L-494.2,354.327z M-494.2,359.864v1.993h-0.591
			v3.617h0.591v2.068h-4.061v-2.068h1.329v-3.617h-1.329v-1.993H-494.2L-494.2,359.864z M-498.261,358.608l0.296-0.146
			c-0.075-0.148-0.148-0.37-0.296-0.592V358.608L-498.261,358.608z M-498.261,351.521c0.073-0.148,0.073-0.223,0.147-0.369h-0.147
			V351.521z M-502.027,351.078l-0.146,0.221v-0.295L-502.027,351.078L-502.027,351.078z M-498.261,347.683v1.992h-3.692v-1.992
			H-498.261L-498.261,347.683z M-498.261,351.152l-1.772-0.738c-0.517,1.182-1.255,2.362-2.141,3.617v1.255
			c0.961,1.403,1.771,2.732,2.436,3.986l1.478-0.664v-0.738c-0.443-0.739-1.107-1.844-1.92-3.174
			c0.886-1.256,1.477-2.289,1.92-3.175V351.152L-498.261,351.152z M-498.261,354.18v0.886c-0.074-0.147-0.221-0.296-0.295-0.444
			C-498.481,354.475-498.335,354.327-498.261,354.18L-498.261,354.18z M-498.261,359.864v1.993h-3.322v-1.993H-498.261
			L-498.261,359.864z M-498.261,365.474v2.068h-3.913v-2.068H-498.261z M-502.174,351.299l-0.147,0.371v-0.739l0.147,0.073V351.299
			L-502.174,351.299z M-502.321,360.085c0.074,0.221,0.074,0.517,0.147,0.739h-0.147V360.085L-502.321,360.085z M-502.174,354.031
			v1.255l-0.147-0.221v-0.812L-502.174,354.031L-502.174,354.031z M-502.174,365.474v2.068h-0.073v-2.068H-502.174L-502.174,365.474
			z M-502.321,364.81v-0.147l0.074,0.147H-502.321z M-502.321,351.67c-1.33,2.877-3.026,5.389-4.946,7.529
			c0.959-0.147,1.845-0.369,2.731-0.665c-0.148-0.368-0.223-0.812-0.443-1.106l1.625-0.665c0.442,1.034,0.811,2.142,1.033,3.322
			v0.739l-1.477,0.59c-0.073-0.369-0.147-0.664-0.222-1.034c-2.067,0.518-3.987,0.886-5.758,1.183l-0.518-1.699
			c1.329-1.183,2.657-2.806,3.912-4.946c-1.106,0.22-2.214,0.368-3.321,0.518l-0.443-1.848c1.403-1.624,2.585-3.765,3.47-6.424
			l1.993,0.739c-0.812,2.067-1.771,3.84-2.878,5.315c0.59-0.073,1.402-0.295,2.51-0.589c0.294-0.518,0.665-1.331,1.182-2.436
			l1.55,0.736V351.67L-502.321,351.67z M-502.321,354.254c-0.074,0.146-0.148,0.293-0.223,0.367l0.223,0.444V354.254
			L-502.321,354.254z M-502.321,364.663v0.147l-1.55,0.444c-0.223-1.33-0.443-2.29-0.591-2.955l1.55-0.369
			C-502.69,362.669-502.47,363.629-502.321,364.663L-502.321,364.663z M-507.489,362.595c-0.222,1.847-0.591,3.618-1.107,5.463
			l-1.771-0.886c0.591-1.993,0.959-3.69,1.106-5.021L-507.489,362.595L-507.489,362.595z M-504.685,366.877l-1.846,0.443
			c0.074-1.032-0.147-2.585-0.442-4.726l1.696-0.369C-504.905,363.852-504.685,365.401-504.685,366.877z"/>
		<path fill="#727171" d="M-466.293,357.648v-4.061h0.073c0.37,1.478,0.958,2.732,1.771,3.543l-1.328,1.109
			C-465.998,358.092-466.146,357.87-466.293,357.648L-466.293,357.648z M-466.293,352.851v-1.772l0.146-0.074l0.96,1.403
			C-465.556,352.555-465.925,352.703-466.293,352.851L-466.293,352.851z M-466.293,350.414v-1.771h1.476v1.771H-466.293z
			 M-466.293,348.643v1.771h-4.432l1.183,0.885c-0.147,0.371-0.296,0.665-0.518,0.887c1.403-0.147,2.658-0.516,3.767-1.107v1.772
			c-0.739,0.295-1.552,0.443-2.438,0.59v2.437c0.222,0,0.518-0.148,1.034-0.369l0.222,1.623c-0.887,0.444-1.847,0.813-2.88,1.109
			l-0.517-1.551c0.295-0.149,0.442-0.369,0.442-0.663v-3.176l-1.181,1.624v4.06h-0.738v-5.831c0.517-0.665,0.96-1.478,1.328-2.289
			h-1.328v-3.102l0.517-0.073c0.222,0.37,0.369,0.886,0.591,1.403H-466.293L-466.293,348.643z M-466.293,353.588l-1.479,0.37
			c0.297,1.478,0.813,2.657,1.479,3.69V353.588L-466.293,353.588z M-472.348,364.884h3.912v3.174h1.994v-9.596h-1.994v1.106h-3.912
			v1.846h3.912v1.624h-3.912V364.884z M-480.246,350.339l-0.075,0.075v-0.146L-480.246,350.339L-480.246,350.339z M-472.348,347.313
			v3.102h-1.254c0.295,0.59,0.736,1.402,1.18,2.437l0.074-0.147v5.831h-1.106v-3.765c-0.222-0.738-0.519-1.476-1.034-2.215
			c0,1.183,0,2.215-0.074,3.101c-0.074,0.813-0.222,1.403-0.369,1.551c-0.146,0.222-0.369,0.442-0.737,0.591
			c-0.296,0.147-0.739,0.147-1.256,0.147l-0.368-1.697c0.517,0,0.885-0.148,0.959-0.296s0.074-0.961,0.074-2.436h-0.887
			c-0.221,1.992-0.736,3.615-1.771,4.725l-1.404-0.96v-0.074c0.813-0.812,1.255-2.068,1.478-3.69h-1.107v-1.625h5.167
			c-0.147-0.369-0.294-0.592-0.368-0.665l1.328-0.812h-6.127v-1.771h6.57c-0.073-0.222-0.221-0.518-0.443-1.033L-472.348,347.313
			L-472.348,347.313z M-472.348,359.568v1.846h-4.281v1.624h4.281v1.847h-4.651c-0.59,1.328-1.401,2.437-2.435,3.248l-0.888-0.665
			v-1.328c1.107-1.033,1.624-2.363,1.624-4.135v-3.542h2.068v1.106H-472.348L-472.348,359.568z M-480.321,360.38v-0.295h0.075
			L-480.321,360.38z M-480.321,350.414l-1.477,1.402c-1.106-1.328-2.215-2.363-3.396-3.249l1.551-1.403
			c1.55,1.184,2.585,2.216,3.321,3.104V350.414L-480.321,350.414z M-480.321,357.206v0.074h-0.073L-480.321,357.206
			L-480.321,357.206z M-480.321,360.085v0.295c-0.959,2.88-2.141,5.463-3.468,7.752l-1.699-1.402
			c1.329-2.142,2.436-4.651,3.396-7.531L-480.321,360.085L-480.321,360.085z M-480.321,366.139c-0.22,0.22-0.517,0.442-0.812,0.664
			l0.812,0.664V366.139L-480.321,366.139z M-480.615,356.32l-1.478,1.477c-0.886-1.034-1.993-2.142-3.321-3.176l1.401-1.476
			C-482.609,354.105-481.502,355.213-480.615,356.32z"/>
		<path fill="#727171" d="M-449.978,351.67h-0.443v-2.067h0.443V351.67L-449.978,351.67z M-450.421,367.097v-0.885
			c1.847-1.033,3.175-2.141,4.135-3.321c-0.813-1.625-1.403-3.175-1.698-4.799l1.771-0.812c0.37,1.624,0.738,2.805,1.181,3.617
			c0.888-1.919,1.329-4.65,1.404-8.268h-2.363c-0.59,1.845-1.329,3.469-2.142,4.872l-1.403-1.698c1.33-2.363,2.29-5.168,2.807-8.564
			l1.92,0.296c-0.148,0.959-0.296,1.991-0.517,3.174h5.241v1.921h-1.477c-0.222,4.798-0.958,8.268-2.288,10.334
			c0.812,1.254,2.213,2.437,4.133,3.544l-1.254,1.697c-1.697-1.033-3.101-2.289-4.135-3.617c-0.96,1.034-2.436,2.215-4.577,3.544
			L-450.421,367.097L-450.421,367.097z M-450.421,357.648v-2.29c0.297,0.593,0.591,1.182,0.812,1.848L-450.421,357.648z
			 M-450.421,351.67h-0.295v-2.067h0.295V351.67L-450.421,351.67z M-450.421,355.358v2.29l-0.295,0.074v-2.805
			C-450.568,355.065-450.494,355.213-450.421,355.358L-450.421,355.358z M-450.421,366.212v0.885l-0.295-0.367v-0.441
			L-450.421,366.212L-450.421,366.212z M-450.716,365.401v-0.443c0.073,0.073,0.147,0.222,0.222,0.297L-450.716,365.401z
			 M-450.716,351.67h-7.529v-2.067h2.14c-0.222-0.591-0.517-1.255-0.96-1.993l2.141-0.591c0.591,1.033,0.961,1.919,1.108,2.584
			h3.101V351.67L-450.716,351.67z M-450.716,354.918v2.805l-0.739,0.443c-0.516-1.403-1.401-3.028-2.806-4.8l1.625-1.181
			C-451.897,353.072-451.232,353.958-450.716,354.918L-450.716,354.918z M-450.716,364.958c-0.591-0.811-1.552-1.92-2.731-3.174
			c0.663-1.478,1.106-2.879,1.401-4.208l-1.918-0.592c-0.224,1.035-0.591,2.143-1.034,3.322c-1.256-0.959-2.142-1.697-2.806-2.214
			l-0.441,0.738v1.476c0.736,0.592,1.475,1.257,2.213,1.92c-0.517,0.885-1.254,1.698-2.213,2.584v2.732
			c1.623-1.254,2.878-2.512,3.765-3.84c0.59,0.663,1.476,1.624,2.435,2.879l1.33-1.181V364.958L-450.716,364.958z M-450.716,366.289
			v0.441l-0.148-0.296L-450.716,366.289L-450.716,366.289z M-458.245,357.428v-3.987c0.22-0.368,0.441-0.811,0.589-1.255l1.92,0.812
			C-456.475,354.696-457.286,356.173-458.245,357.428z M-458.245,351.67h-2.216v-2.067h2.216V351.67L-458.245,351.67z
			 M-458.245,353.44v3.987c-0.297,0.369-0.592,0.813-0.961,1.181l-1.478-1.478C-459.723,356.026-458.911,354.844-458.245,353.44
			L-458.245,353.44z M-458.245,358.83v1.476c-0.148-0.146-0.372-0.295-0.592-0.441L-458.245,358.83L-458.245,358.83z
			 M-458.245,364.81v2.732c-0.297,0.22-0.592,0.442-0.961,0.737l-1.552-1.55C-459.797,366.066-458.911,365.474-458.245,364.81z"/>
		<path fill="#727171" d="M-418.159,347.979c-0.368,0.589-0.812,1.179-1.329,1.772v-2.365L-418.159,347.979L-418.159,347.979z
			 M-419.488,367.467v-7.677h1.847v5.757h2.509v1.92H-419.488L-419.488,367.467z M-419.488,358.166v-2.289
			c1.552,0.738,3.027,1.551,4.431,2.363l-1.182,1.771C-417.199,359.421-418.307,358.83-419.488,358.166L-419.488,358.166z
			 M-419.488,354.031v-1.919h4.283v1.919H-419.488z M-419.488,349.751c-0.442,0.517-0.959,1.032-1.476,1.548v-3.174
			c0.295-0.296,0.59-0.664,0.812-1.034l0.664,0.295V349.751L-419.488,349.751z M-419.488,352.112v1.919h-1.476v-1.919H-419.488
			L-419.488,352.112z M-419.488,355.877v2.289c-0.442-0.222-0.959-0.443-1.476-0.664v-2.289
			C-420.447,355.436-419.931,355.655-419.488,355.877L-419.488,355.877z M-419.488,359.79v7.677h-1.476v-1.92h1.256v-3.913h-1.256
			v-1.845H-419.488z M-420.964,351.299c-0.148,0.148-0.296,0.371-0.517,0.518l-1.92-1.033c0.96-0.885,1.771-1.771,2.437-2.658
			V351.299L-420.964,351.299z M-420.964,352.112v1.919h-4.431v-1.919H-420.964L-420.964,352.112z M-420.964,355.213v2.289
			c-0.886-0.443-1.845-0.887-2.806-1.255l1.107-1.772C-422.072,354.696-421.48,354.918-420.964,355.213L-420.964,355.213z
			 M-420.964,359.79v1.845h-1.182v3.913h1.182v1.92h-4.431v-1.92h1.256v-3.913h-1.256v-1.845H-420.964z M-425.395,352.112v1.919
			h-4.504v-1.919H-425.395L-425.395,352.112z M-425.395,359.79v1.845h-1.254v3.913h1.254v1.92h-4.504v-1.92h1.182v-3.913h-1.182
			v-1.845H-425.395L-425.395,359.79z M-429.898,357.648v-2.511c0.297-0.22,0.518-0.441,0.813-0.663l1.698,1.181
			C-428.052,356.32-428.863,356.983-429.898,357.648L-429.898,357.648z M-429.898,351.299v-3.025
			c0.813,0.738,1.625,1.625,2.289,2.436l-1.846,1.107C-429.602,351.67-429.75,351.447-429.898,351.299z M-429.898,348.273v3.025
			c-0.515-0.59-1.033-1.104-1.623-1.624v-2.289l0.369-0.222C-430.71,347.535-430.342,347.903-429.898,348.273L-429.898,348.273z
			 M-429.898,352.112v1.919h-1.623v-1.919H-429.898L-429.898,352.112z M-429.898,355.138v2.511
			c-0.515,0.296-1.033,0.592-1.623,0.886v-2.361C-430.932,355.877-430.413,355.508-429.898,355.138L-429.898,355.138z
			 M-429.898,359.79v1.845h-1.254v3.913h1.254v1.92h-1.623v-7.677H-429.898z M-431.521,347.386v2.289
			c-0.443-0.442-0.96-0.885-1.402-1.327L-431.521,347.386L-431.521,347.386z M-431.521,352.112v1.919h-4.209v-1.919H-431.521
			L-431.521,352.112z M-431.521,356.173v2.361c-0.96,0.518-2.068,1.034-3.322,1.551l-1.107-1.771
			C-434.253,357.648-432.776,356.983-431.521,356.173L-431.521,356.173z M-431.521,359.79h-1.698v5.757h-2.437v1.92h4.135V359.79z"
			/>
		<path fill="#727171" d="M-380.064,350.783h-9.966v-3.471c0.441,0.591,0.812,1.182,1.106,1.699h8.859V350.783L-380.064,350.783z
			 M-390.03,367.836v-6.866c1.106-0.221,2.214-0.516,3.248-0.811h-3.248v-1.698h7.825v1.698c-2.141,0.959-4.355,1.624-6.497,2.14
			v0.221h8.933v1.771h-8.933v1.551c0,0.665-0.146,1.107-0.443,1.404C-389.365,367.542-389.663,367.762-390.03,367.836
			L-390.03,367.836z M-390.03,357.131v-1.623h5.685v-1.697h-5.685v-1.698h7.899v5.019H-390.03z M-390.03,350.783h-10.114v-1.771
			h8.638c-0.223-0.297-0.517-0.738-0.96-1.183l2.288-0.665l0.148,0.148V350.783L-390.03,350.783z M-390.03,352.112v1.698h-5.685
			v1.697h5.685v1.623h-7.899v-5.019H-390.03L-390.03,352.112z M-390.03,358.462v1.698h-8.712v-1.698H-390.03L-390.03,358.462z
			 M-390.03,360.971v6.866h-0.074c-0.444,0.074-1.254,0.148-2.511,0.148c-0.738,0-1.329,0-1.846-0.074l-0.737-1.919
			c0.737,0.074,1.477,0.074,2.215,0.074c1.18,0,1.845,0,1.993-0.074c0.146-0.075,0.222-0.148,0.222-0.369v-1.33h-9.599v-1.771h9.599
			v-1.402C-390.549,361.045-390.252,361.045-390.03,360.971z"/>
		<path fill="#727171" d="M-356.292,349.012c-0.96,0.146-1.919,0.294-2.88,0.441v-1.992c0.666-0.075,1.33-0.222,1.994-0.297
			L-356.292,349.012L-356.292,349.012z M-359.172,367.321v-2.066c1.403,0.368,2.88,0.662,4.578,0.885l-0.813,1.919
			C-356.734,367.911-357.99,367.616-359.172,367.321L-359.172,367.321z M-359.172,360.528v-2.584h0.518v1.92
			C-358.801,360.085-359.023,360.306-359.172,360.528L-359.172,360.528z M-359.172,356.32v-1.993h3.766v5.241h-2.066v-3.248
			H-359.172L-359.172,356.32z M-359.172,353.884v-3.839l0.148-0.294l1.993,0.811C-357.547,351.596-358.285,352.703-359.172,353.884z
			 M-359.172,349.453c-1.844,0.298-3.764,0.445-5.684,0.592v-1.993c1.92-0.073,3.84-0.296,5.684-0.591V349.453L-359.172,349.453z
			 M-359.172,350.045c-0.59,1.033-1.328,2.067-2.141,3.101l2.066,0.813l0.074-0.074V350.045L-359.172,350.045z M-359.172,354.327
			v1.993h-5.684v-1.993H-359.172L-359.172,354.327z M-359.172,357.944v2.584c-0.959,1.106-2.214,2.214-3.912,3.396
			c1.181,0.518,2.438,0.96,3.912,1.33v2.066c-2.066-0.518-3.912-1.182-5.684-1.994v-2.657c1.328-0.813,2.51-1.772,3.396-2.732
			h-3.396v-1.993H-359.172L-359.172,357.944z M-364.855,353.737v-2.954c0.665,1.033,1.107,1.847,1.403,2.583L-364.855,353.737z
			 M-364.855,350.045c-1.771,0.074-3.544,0.149-5.39,0.149c-1.106,0-2.288,0-3.395-0.075l-0.592-1.994
			c1.477,0.073,2.88,0.148,4.281,0.148c1.773,0,3.471-0.075,5.095-0.222V350.045L-364.855,350.045z M-364.855,350.783v2.954
			l-0.738,0.221c-0.368-1.034-0.886-1.994-1.55-2.954l2.067-0.59C-365.002,350.562-364.929,350.709-364.855,350.783
			L-364.855,350.783z M-364.855,354.327v1.993h-7.899v3.321h-2.066v-5.314H-364.855L-364.855,354.327z M-364.855,357.944h-6.793
			v1.993h0.813c0.737,1.254,1.993,2.583,3.765,3.987c-2.658,1.182-5.537,1.992-8.564,2.215l1.034,1.993
			c3.692-0.59,6.867-1.624,9.45-2.953c0.148,0.075,0.222,0.075,0.295,0.147v-2.657l-0.221,0.146
			c-1.256-0.737-2.289-1.697-3.175-2.878h3.396V357.944L-364.855,357.944z M-369.358,353.366l-2.142,0.592
			c-0.369-0.739-0.96-1.624-1.847-2.659l2.142-0.737C-370.317,351.67-369.729,352.555-369.358,353.366z"/>
		<path fill="#727171" d="M-330.23,349.675v1.995h-3.913v-1.995H-330.23L-330.23,349.675z M-334.144,367.248v-2.068
			c1.329,0.443,2.805,0.737,4.281,0.887l-0.737,2.066C-331.854,367.911-333.036,367.616-334.144,367.248L-334.144,367.248z
			 M-334.144,357.131v-2.951c1.624,1.549,2.88,2.951,3.84,4.282l-1.551,1.328C-332.52,358.904-333.257,358.019-334.144,357.131z
			 M-334.144,351.67h-12.551v-1.995h5.611c-0.295-0.663-0.591-1.327-0.96-1.919l2.14-0.665c0.519,0.888,0.888,1.772,1.108,2.584
			h4.651V351.67L-334.144,351.67z M-334.144,354.18v2.951c-1.108-1.254-2.437-2.435-3.84-3.69l1.551-1.255
			C-335.619,352.851-334.809,353.516-334.144,354.18L-334.144,354.18z M-334.144,365.179c-1.698-0.517-3.248-1.255-4.725-2.215
			c1.55-1.477,2.88-3.323,3.913-5.684l-1.994-0.665c-1.034,2.215-2.141,3.839-3.47,5.02c-1.181-1.18-2.288-2.953-3.249-5.24
			l-1.845,0.812c0.959,2.362,2.141,4.282,3.543,5.685c-1.477,0.885-3.026,1.551-4.725,2.066v2.215
			c2.438-0.664,4.505-1.625,6.35-2.88c1.696,1.255,3.765,2.216,6.201,2.955V365.179L-334.144,365.179z M-346.694,357.648v-2.952
			c0.738-0.813,1.477-1.699,2.141-2.658l1.847,1.034C-343.814,354.77-345.145,356.247-346.694,357.648z M-346.694,351.67h-3.617
			v-1.995h3.617V351.67L-346.694,351.67z M-346.694,354.696v2.952c-0.738,0.665-1.551,1.33-2.437,1.92l-1.551-1.624
			C-349.204,357.059-347.876,355.951-346.694,354.696L-346.694,354.696z M-346.694,364.958v2.215
			c-1.108,0.295-2.215,0.59-3.47,0.738l-0.738-2.067C-349.426,365.623-348.024,365.327-346.694,364.958z"/>
		<path fill="#727171" d="M-305.203,362.226h-3.175v-1.846h0.073v-6.126h-0.073v-1.92h1.993v8.046h1.182V362.226L-305.203,362.226z
			 M-308.378,348.643h0.59v1.846c-0.146,0.295-0.295,0.516-0.59,0.811V348.643L-308.378,348.643z M-308.378,366.582v-2.435
			c1.254,0.811,2.362,1.696,3.322,2.583l-1.402,1.476C-306.976,367.69-307.566,367.172-308.378,366.582z M-308.378,362.226h-3.027
			c-0.294,1.107-0.813,2.066-1.624,2.88v-5.464v-0.369l2.141,0.074l-0.074,1.033h2.585V362.226L-308.378,362.226z M-313.029,347.535
			v2.953h2.731c-0.443,0.59-0.959,1.255-1.55,1.846h-1.182v1.92h0.147c-0.073,0.221-0.073,0.442-0.147,0.664v3.839
			c0.369-0.443,0.738-0.887,0.96-1.402c0.59,0.516,1.181,1.327,1.845,2.287l1.477-1.255c-0.664-0.959-1.55-1.919-2.583-2.805
			c0.074-0.296,0.221-0.664,0.368-1.328h2.585v-1.92h-0.887c0.369-0.37,0.665-0.664,0.887-1.035v-2.656h-4.577
			c0.147-0.222,0.295-0.518,0.516-0.96L-313.029,347.535L-313.029,347.535z M-308.378,364.147c-0.518-0.444-1.182-0.813-1.772-1.183
			l-1.329,1.478c1.182,0.737,2.289,1.475,3.102,2.14V364.147z M-313.029,365.106c-0.222,0.295-0.443,0.517-0.665,0.663
			c-1.181,1.108-2.583,1.847-4.208,2.289l-1.182-1.77c2.88-0.741,4.8-2.07,5.538-4.063h-5.39v-1.846h1.182v-6.053
			c-0.148,0.147-0.296,0.294-0.59,0.442l-0.887-1.697v-0.148c2.288-1.993,3.839-3.912,4.725-5.76l1.477,0.371v2.953h-1.182
			c-0.518,0.737-1.034,1.328-1.55,1.846h2.731v1.92h-2.658v6.126h2.584c0-0.295,0.074-0.516,0.074-0.738V365.106L-313.029,365.106z
			 M-313.029,354.918c-0.443,1.477-1.255,2.584-2.437,3.322l1.255,1.476c0.443-0.294,0.813-0.59,1.182-0.959V354.918
			L-313.029,354.918z M-319.23,357.944l0.073-0.074l-0.073-0.442V357.944z M-319.23,353.072l-0.073-0.148h0.073V353.072
			L-319.23,353.072z M-319.23,357.428l-0.222-1.624c-0.517,0.295-1.108,0.591-1.772,0.886v-3.544h1.772v-2.067h-1.772v-3.766h-2.066
			v3.766h-2.583v2.067h2.583v4.503c-1.033,0.443-1.993,0.813-2.805,1.108l0.663,1.993c0.518-0.222,1.257-0.444,2.142-0.813v5.463
			c0,0.146,0,0.222-0.074,0.294c-0.147,0.148-0.221,0.148-0.367,0.148c-0.962,0-1.625,0-1.92,0l0.663,2.067c0.295,0,0.591,0,0.96,0
			c0.813,0,1.328-0.074,1.625-0.148c0.369-0.072,0.59-0.295,0.811-0.665c0.223-0.294,0.369-0.589,0.369-1.031v-7.162
			c0.664-0.223,1.33-0.591,1.994-0.96V357.428z"/>
		<path fill="#727171" d="M-283.941,366.359v-2.287c1.328,0.591,2.51,1.255,3.617,1.92l-1.107,1.771
			C-282.17,367.248-282.982,366.803-283.941,366.359L-283.941,366.359z M-283.941,362.079v-1.919h3.469v1.919H-283.941
			L-283.941,362.079z M-283.941,358.462v-1.772c0.369-0.074,0.738-0.149,1.107-0.222c-0.073-0.295-0.221-0.591-0.443-0.96
			l1.625-0.738c0.59,1.257,1.033,2.511,1.328,3.765l-1.697,0.738c-0.076-0.591-0.223-0.959-0.223-1.032
			C-282.834,358.313-283.352,358.387-283.941,358.462L-283.941,358.462z M-283.941,355.877c1.328-1.697,2.436-3.543,3.322-5.538
			l-1.845-0.664c-0.224,0.52-0.519,1.108-0.962,1.921c-0.146,0-0.369,0.074-0.516,0.074V355.877L-283.941,355.877z
			 M-283.941,350.119v-2.807l1.107,0.297C-283.129,348.494-283.498,349.306-283.941,350.119z M-283.941,347.313v2.807
			c-0.295,0.517-0.664,1.106-1.033,1.624c0.295,0,0.592,0,1.033-0.073v4.207c-0.223,0.296-0.441,0.518-0.664,0.813
			c0.223,0,0.441,0,0.664,0v1.772c-0.96,0.072-1.993,0.146-3.026,0.22l-0.369-1.551c1.034-0.958,1.919-2.141,2.804-3.615
			l-2.435,0.295l-0.369-1.625c0.96-1.255,1.845-2.953,2.657-5.021L-283.941,347.313L-283.941,347.313z M-283.941,360.16v1.919
			h-5.758v5.906h-1.033v-8.859h1.033v1.034H-283.941L-283.941,360.16z M-283.941,364.072c-1.033-0.442-2.142-0.886-3.322-1.329
			l-1.033,1.699c1.698,0.664,3.102,1.253,4.355,1.917V364.072L-283.941,364.072z M-290.732,358.608v-1.846h1.106v-2.142h-1.106
			v-1.697h1.106v-1.993h-1.106v-3.691l1.477,0.296c-0.222,0.59-0.518,1.107-0.738,1.551h2.214v9.522H-290.732z M-294.13,350.414
			c-1.106,2.141-2.288,3.913-3.396,5.241v-3.912c0.146,0,0.295,0,0.443,0c0.368-0.739,0.738-1.476,1.033-2.141L-294.13,350.414
			L-294.13,350.414z M-297.525,356.468c0.369,0,0.738-0.073,1.034-0.147c-0.074-0.294-0.147-0.592-0.296-1.034l1.551-0.442
			c0.442,1.183,0.737,2.437,1.033,3.765l-1.624,0.591c0-0.295-0.075-0.665-0.222-1.181c-0.517,0.073-1.033,0.147-1.477,0.222
			V356.468L-297.525,356.468z M-297.525,347.239l1.255,0.296c-0.295,0.886-0.738,1.771-1.255,2.659V347.239L-297.525,347.239z
			 M-290.732,347.239v3.691h-1.108v1.993h1.108v1.697h-1.108v2.142h1.108v1.846h-2.953v-9.522h1.477
			c0.293-0.519,0.591-1.107,0.811-1.995L-290.732,347.239L-290.732,347.239z M-290.732,359.126v8.859h-1.108v-5.906h-5.685v-1.919
			h5.685v-1.034H-290.732L-290.732,359.126z M-297.525,366.657v-2.291c1.034-0.59,1.92-1.105,2.731-1.771l1.624,1.403
			C-294.425,364.958-295.827,365.843-297.525,366.657z M-297.525,355.655c-0.295,0.371-0.59,0.665-0.813,0.885
			c0.296,0,0.518,0,0.813-0.072v1.772c-1.18,0.222-2.142,0.294-3.026,0.368l-0.37-1.625c0.96-0.957,1.847-2.065,2.732-3.396
			c-0.223,0-0.96,0.074-2.362,0.223l-0.296-1.698c1.034-1.329,1.919-2.955,2.658-5.021l0.664,0.148v2.955
			c-0.295,0.589-0.664,1.104-1.108,1.622c0.37,0,0.738,0,1.108-0.073V355.655L-297.525,355.655z M-297.525,360.16v1.919h-3.544
			v-1.919H-297.525L-297.525,360.16z M-297.525,364.366v2.291c-0.738,0.368-1.624,0.738-2.437,1.033l-1.182-1.773
			C-299.813,365.401-298.634,364.884-297.525,364.366z"/>
		<path fill="#727171" d="M-255.37,365.695l-0.517,1.995c-0.961,0-1.92,0-2.88,0v-1.921
			C-257.437,365.769-256.256,365.695-255.37,365.695L-255.37,365.695z M-258.767,361.488v-5.315
			c0.074,0.147,0.074,0.222,0.147,0.367c0.368-1.622,0.592-3.321,0.739-5.241h-0.887v-1.846h2.806
			c-0.221,3.987-0.738,7.236-1.624,9.819c0.369,1.033,1.181,2.215,2.362,3.47l-1.255,1.699c-0.959-1.256-1.698-2.29-2.142-3.176
			L-258.767,361.488z M-258.767,367.69c-0.516,0-1.107,0-1.624,0c-0.665,0-1.329,0-1.847,0v-1.921c1.255,0,2.438,0,3.471,0V367.69
			L-258.767,367.69z M-258.767,349.453v1.846h-0.812c0.221,1.92,0.442,3.545,0.812,4.874v5.315
			c-0.591,1.107-1.401,2.142-2.289,3.027l-1.106-1.699c1.033-1.033,1.92-2.214,2.584-3.617c-0.739-1.993-1.33-4.652-1.772-7.9
			h-0.295v-1.624h-0.592v-1.846h0.666v1.624H-258.767z M-262.237,367.69c-1.106,0-2.066,0-2.878-0.074v-1.847
			c0.738,0,1.624,0,2.583,0h0.295V367.69L-262.237,367.69z M-262.237,347.829v1.846h-0.22v15.061h-1.847v-2.51
			c-0.295,0.074-0.518,0.222-0.812,0.295v-1.919c0.221-0.074,0.517-0.147,0.812-0.222v-2.288h-0.812v-1.771h0.812v-2.437h-0.812
			v-1.846h0.812v-2.363h-0.812v-1.846H-262.237z M-265.115,367.616c-1.033,0-1.92-0.073-2.511-0.148
			c-1.402-0.072-2.584-0.442-3.692-1.033c-1.106-0.591-2.066-1.403-2.805-2.437c-0.222,1.697-0.517,3.027-0.885,4.061l-1.477-1.255
			c0.737-2.438,1.107-5.538,1.107-9.155h1.624c0,1.033,0,2.289-0.074,3.543c0.368,0.813,0.665,1.256,0.813,1.478v-6.349h-3.25v-1.92
			h3.25v-2.51h-2.659v-1.92h2.659v-2.658h1.92v2.658h2.066v1.92h-2.066v2.51h2.509v1.92h-2.509v2.658h2.14v1.919h-2.14v3.691
			c0.958,0.518,1.919,0.886,3.025,1.034c0.665,0.072,1.624,0.072,2.954,0.146V367.616L-265.115,367.616z M-265.115,347.829h-3.543
			v1.846h0.958v11.739c-0.663,0.221-1.181,0.296-1.476,0.369l0.59,1.699c1.182-0.222,2.289-0.591,3.471-0.961v-1.919
			c-0.37,0.148-0.591,0.222-0.812,0.295v-2.806h0.812v-1.771h-0.812v-2.437h0.812v-1.846h-0.812v-2.363h0.812V347.829z"/>
		<g>
			<path fill="#727171" d="M-436.172,253.773c-0.075,3.768-0.223,7.826-0.369,12.331c-0.223,4.43-0.369,7.235-0.518,8.49
				c-0.146,1.182-0.443,2.067-0.886,2.658c-0.442,0.516-0.886,0.885-1.476,1.106c-0.517,0.148-1.846,0.222-3.988,0.222
				c-0.736,0-1.401,0-1.918,0l-0.812-2.805c1.254,0.073,2.288,0.073,3.1,0.073c1.401,0,2.215-0.073,2.51-0.294
				c0.295-0.223,0.518-0.519,0.592-1.035c0.147-0.443,0.295-2.437,0.442-5.906c0.148-3.47,0.295-7.53,0.369-12.034h-0.886
				c-0.518,4.577-1.551,8.491-3.101,11.665c-1.477,3.249-3.766,6.424-6.719,9.523l-2.438-1.919c2.88-2.806,5.095-5.759,6.571-8.712
				c1.477-2.953,2.437-6.498,2.879-10.557h-1.476c-1.257,5.979-3.765,10.852-7.604,14.766l-1.698-1.33v-1.181
				c3.248-3.248,5.39-7.382,6.423-12.255h-1.401c-0.887,2.216-1.92,4.135-3.175,5.833l-1.847-1.108v-1.253
				c1.772-2.511,3.248-6.057,4.356-10.633l2.88,0.517c-0.37,1.329-0.739,2.584-1.182,3.838H-436.172L-436.172,253.773z
				 M-453.596,266.547v-3.028c0.223-0.073,0.37-0.146,0.442-0.146l0.223,2.879C-453.153,266.325-453.373,266.473-453.596,266.547
				L-453.596,266.547z M-453.596,258.943L-453.596,258.943L-453.596,258.943L-453.596,258.943z M-453.596,270.016l-0.665-0.516
				c0.222-0.222,0.444-0.443,0.665-0.665V270.016L-453.596,270.016z M-453.596,261.304l-0.665-0.442
				c0.222-0.223,0.444-0.517,0.665-0.811V261.304L-453.596,261.304z M-453.596,258.943l-0.074-2.732h-2.657v-6.571h-2.879v6.571
				h-1.92c0.148-1.033,0.222-2.289,0.368-3.691l-2.657-0.518c-0.221,3.988-0.738,7.604-1.624,10.854l2.584,0.739
				c0.443-1.772,0.738-3.323,0.96-4.651h2.289v6.571c-1.994,0.59-3.913,1.106-5.686,1.549l0.665,2.88
				c2.215-0.664,3.913-1.107,5.021-1.476v9.966h2.879v-10.926c1.033-0.37,1.993-0.665,2.731-0.96v-3.028
				c-0.517,0.223-1.402,0.518-2.731,1.035v-5.611H-453.596L-453.596,258.943z"/>
			<path fill="#727171" d="M-405.09,260.568h-2.807v-10.484h2.807V260.568L-405.09,260.568z M-407.896,276.735v-2.659h3.1v-7.824
				h-3.1v-2.733h5.98v14.914h-2.881v-1.697H-407.896z M-407.896,260.568h-7.383v-2.585h7.161v-5.168h-7.161v-2.731h7.383V260.568
				L-407.896,260.568z M-407.896,263.519v2.733h-3.102v7.824h3.102v2.659h-3.102v1.697h-2.952v-14.914H-407.896z M-415.279,260.568
				h-7.529v-10.484h7.529v2.731h-7.161v5.168h7.161V260.568L-415.279,260.568z M-422.809,276.735v-2.659h3.101v-7.824h-3.101v-2.733
				h6.053v14.914h-2.952v-1.697H-422.809z M-422.809,260.568h-2.66v-10.484h2.66V260.568L-422.809,260.568z M-422.809,263.519v2.733
				h-3.028v7.824h3.028v2.659h-3.028v1.697h-2.88v-14.914H-422.809z"/>
			<path fill="#727171" d="M-374.601,277.62v-2.731h3.617v-5.832h-3.617v-2.732h3.617v-5.536h-3.617v-2.658h3.617v-5.167h-3.617
				v-2.805h6.57v24.73h2.068v2.731H-374.601z M-382.205,266.768l-0.886,1.107v-2.361
				C-382.723,265.956-382.427,266.398-382.205,266.768L-382.205,266.768z M-383.091,251.56l0.073,0.146l-0.073,0.073V251.56
				L-383.091,251.56z M-383.091,257.613h0.517v2.732h-0.517V257.613L-383.091,257.613z M-374.601,250.159v2.805h-3.544v5.167h3.544
				v2.658h-3.544v5.536h3.544v2.732h-3.544v5.832h3.544v2.731h-8.49v-2.731h1.993v-24.73H-374.601z M-383.091,267.875l-1.034,1.255
				c-1.107-1.92-1.992-3.322-2.732-4.281v13.584h-2.806v-12.919c-1.105,2.288-2.36,4.354-3.69,6.2l-1.771-2.879
				c2.142-2.437,3.913-5.241,5.242-8.49h-5.021v-2.732h5.24v-4.207l-3.765,0.442l-1.402-2.731c3.767-0.296,7.235-0.958,10.411-1.92
				l1.328,2.363v0.22c-1.181,0.37-2.435,0.739-3.767,0.962v4.871h3.767v2.732h-3.767v0.591c1.552,1.698,2.807,3.248,3.767,4.578
				V267.875L-383.091,267.875z M-383.091,274.889h-0.886v2.731h0.886V274.889z"/>
			<path fill="#727171" d="M-332.741,275.185c0,0.885-0.295,1.698-0.959,2.362c-0.665,0.664-1.771,0.96-3.396,0.96
				c-0.738,0-1.552,0-2.362-0.074l-0.223-0.813v-2.065l3.102-0.075c0.222,0,0.443-0.073,0.663-0.295
				c0.224-0.222,0.298-0.517,0.298-0.737v-5.98h-4.063v-2.807h4.063v-4.946h-4.063v-2.805h4.063v-4.8h-4.063v-2.878h6.94V275.185z
				 M-339.682,277.62l-0.663-2.065h0.663V277.62L-339.682,277.62z M-339.682,268.467v-2.807h-4.133v-4.946h4.133v-2.805h-4.133v-4.8
				h4.133v-2.878h-10.778v2.878h3.839v4.8h-3.839v2.805h3.839v4.946h-3.839v2.807h3.839v9.301h2.807v-9.301H-339.682z
				 M-350.46,268.467h-4.208c-0.369,4.28-1.33,7.677-2.953,10.188l-2.584-1.698c0.887-1.401,1.625-3.248,2.141-5.463
				c0.518-2.289,0.739-4.504,0.739-6.572v-14.689h6.865v2.878h-3.913v4.8h3.913v2.805h-3.913v4.946h3.913V268.467z"/>
			<path fill="#727171" d="M-273.162,252.742v2.805h-5.464v-2.805H-273.162L-273.162,252.742z M-278.626,277.547v-2.953
				c1.846,0.591,3.912,0.961,6.054,1.255l-1.181,2.879C-275.451,278.433-277.076,277.99-278.626,277.547L-278.626,277.547z
				 M-278.626,263.225v-4.061c2.215,2.066,3.986,4.061,5.39,5.979l-2.215,1.846C-276.411,265.734-277.445,264.479-278.626,263.225z
				 M-278.626,255.546h-17.645v-2.805h7.826c-0.37-0.962-0.812-1.846-1.329-2.658l3.027-0.96c0.738,1.328,1.254,2.511,1.551,3.618
				h6.569V255.546L-278.626,255.546z M-278.626,259.165v4.061c-1.624-1.699-3.396-3.396-5.462-5.169l2.214-1.772
				C-280.693,257.246-279.659,258.204-278.626,259.165L-278.626,259.165z M-278.626,274.594c-2.437-0.812-4.651-1.772-6.644-3.101
				c2.141-2.066,3.986-4.726,5.463-8.047l-2.807-0.887c-1.402,3.028-3.025,5.39-4.872,7.088c-1.698-1.698-3.247-4.134-4.577-7.457
				l-2.656,1.182c1.402,3.322,3.101,5.979,5.02,7.973c-1.993,1.255-4.208,2.214-6.571,2.952v3.102
				c3.396-0.96,6.35-2.289,8.859-4.061c2.437,1.771,5.39,3.174,8.785,4.208V274.594L-278.626,274.594z M-296.271,263.962v-4.134
				c1.034-1.107,2.067-2.364,2.954-3.691l2.584,1.403C-292.283,259.903-294.13,262.043-296.271,263.962z M-296.271,255.546h-5.093
				v-2.805h5.093V255.546L-296.271,255.546z M-296.271,259.829v4.134c-1.108,0.959-2.288,1.92-3.47,2.732l-2.142-2.289
				C-299.813,263.15-297.969,261.599-296.271,259.829L-296.271,259.829z M-296.271,274.298v3.102
				c-1.55,0.443-3.175,0.737-4.873,1.033l-1.033-2.953C-300.108,275.185-298.115,274.814-296.271,274.298z"/>
			<path fill="#727171" d="M-238.021,270.46h-4.355v-2.658l0,0v-8.564l0,0v-2.658h2.731v11.222h1.624V270.46L-238.021,270.46z
				 M-242.377,251.412h0.812v2.583c-0.222,0.297-0.517,0.738-0.812,1.108V251.412L-242.377,251.412z M-242.377,276.513v-3.396
				c1.697,1.182,3.248,2.363,4.577,3.691l-1.994,1.995C-240.458,278.064-241.343,277.325-242.377,276.513z M-242.377,270.46h-4.281
				c-0.443,1.477-1.182,2.805-2.363,4.06v-7.752c0.074-0.147,0.074-0.295,0.074-0.443l2.953,0.074l-0.148,1.403h3.766V270.46
				L-242.377,270.46z M-249.021,249.789v4.206h3.84c-0.592,0.814-1.256,1.699-2.142,2.585h-1.698v2.658h0.222
				c-0.073,0.296-0.147,0.591-0.222,0.886v5.39c0.59-0.592,1.033-1.182,1.402-1.92c0.813,0.738,1.699,1.845,2.585,3.248l2.066-1.771
				c-0.96-1.329-2.142-2.658-3.618-4.06c0.148-0.296,0.296-0.887,0.443-1.772h3.766v-2.658h-1.329
				c0.517-0.517,0.96-1.033,1.329-1.477v-3.691h-6.57c0.223-0.369,0.442-0.812,0.738-1.402L-249.021,249.789L-249.021,249.789z
				 M-242.377,273.116c-0.813-0.59-1.697-1.105-2.584-1.623l-1.846,2.066c1.697,1.034,3.174,2.067,4.43,2.953V273.116z
				 M-249.021,274.52c-0.295,0.295-0.59,0.665-0.959,0.96c-1.624,1.477-3.617,2.511-5.832,3.175l-1.698-2.511
				c4.133-1.033,6.718-2.952,7.825-5.684h-7.604v-2.658h1.696v-8.49c-0.22,0.222-0.517,0.442-0.885,0.663l-1.182-2.362v-0.294
				c3.102-2.732,5.316-5.464,6.571-8.048l2.066,0.518v4.206h-1.625c-0.736,0.96-1.475,1.773-2.14,2.585h3.765v2.658h-3.765v8.564
				h3.691c0.073-0.37,0.073-0.665,0.073-1.034V274.52L-249.021,274.52z M-249.021,260.124c-0.59,2.141-1.697,3.692-3.321,4.651
				l1.696,2.14c0.666-0.442,1.183-0.886,1.625-1.401V260.124L-249.021,260.124z M-257.659,264.332h0.074l-0.074-0.664V264.332z
				 M-257.659,257.613l-0.147-0.222l0.147-0.072V257.613L-257.659,257.613z M-257.659,263.667l-0.368-2.289
				c-0.665,0.369-1.551,0.813-2.51,1.256v-4.946h2.51v-2.879h-2.51v-5.391h-2.807v5.391h-3.691v2.879h3.691v6.349
				c-1.478,0.59-2.88,1.106-4.061,1.55l0.959,2.731c0.739-0.222,1.773-0.664,3.102-1.182v7.752c0,0.147-0.073,0.296-0.222,0.443
				c-0.147,0.147-0.295,0.223-0.442,0.223c-1.403,0-2.289,0-2.732,0l0.96,2.804c0.369,0.074,0.812,0.074,1.33,0.074
				c1.106,0,1.918-0.074,2.361-0.222c0.369-0.146,0.738-0.443,1.106-0.886c0.297-0.442,0.445-0.959,0.445-1.477v-10.041
				c0.959-0.369,1.918-0.887,2.878-1.477V263.667z"/>
			<path fill="#727171" d="M-203.323,268.244h-5.759v-2.953h5.759V268.244L-203.323,268.244z M-209.082,250.452h5.094v2.954h-5.094
				V250.452L-209.082,250.452z M-209.082,262.855v-5.906c0.297-0.665,0.666-1.329,0.961-2.067l2.731,1.402
				C-206.496,258.795-207.752,261.01-209.082,262.855z M-209.082,268.244h-7.159v10.336h-3.028v-10.336h-7.013v-2.953h7.013v-11.886
				h-7.013v-2.954h17.2v2.954h-7.159v11.886h7.159V268.244L-209.082,268.244z M-209.082,256.949
				c-1.254,2.363-2.51,4.355-3.764,5.833l2.731,1.33c0.368-0.37,0.664-0.814,1.032-1.256V256.949L-209.082,256.949z
				 M-226.282,262.339c0.295,0.59,0.517,1.18,0.738,1.698l2.806-1.255c-1.034-2.511-2.216-4.726-3.544-6.792V262.339z
				 M-226.282,268.244h-5.907v-2.953h5.907V268.244L-226.282,268.244z M-226.282,253.406h-5.093v-2.954h5.093V253.406
				L-226.282,253.406z M-226.282,255.99v6.35c-0.887-1.919-2.068-3.986-3.544-6.129l2.806-1.401
				C-226.801,255.177-226.504,255.62-226.282,255.99z"/>
			<path fill="#727171" d="M-168.033,261.526l-2.583,2.068c-0.591-0.959-1.256-1.995-2.068-2.879
				c-3.396,0.369-6.791,0.738-10.04,1.033v-2.88c2.437-0.22,5.021-0.443,7.899-0.737c-1.403-1.551-3.026-3.101-5.02-4.65
				l2.583-1.994C-173.273,254.955-170.248,258.279-168.033,261.526L-168.033,261.526z M-182.725,276.956v-2.88h8.711v-6.422h-8.711
				v-2.879h11.738v13.732h-3.027v-1.551H-182.725z M-182.725,261.748c-4.798,0.369-9.303,0.665-13.659,0.738l-0.737-2.805
				c3.176-0.96,6.645-4.504,10.41-10.484l3.321,0.664c-2.215,3.619-4.798,6.794-7.898,9.524c2.509-0.073,5.389-0.221,8.563-0.518
				V261.748L-182.725,261.748z M-182.725,264.775v2.879h-8.713v6.422h8.713v2.88h-8.713v1.551h-3.025v-13.732H-182.725z"/>
			
				<line fill="none" stroke="#C9CACA" stroke-width="0.8504" stroke-miterlimit="10" x1="-317.163" y1="248.385" x2="-317.163" y2="278.803"/>
			<g>
				<path fill="#E60012" d="M-567.142,280.574h3.765c5.391,0,7.975-5.538,8.122-10.114l-5.464-3.618
					c0.148,2.51-0.886,6.35-3.175,7.826c-0.738,0.368-1.476,0.517-2.361,0.368h-0.887V280.574L-567.142,280.574z M-567.142,259.829
					c4.725-0.295,10.558-3.691,10.409-10.115l-0.146-4.871c-0.073-4.578-1.993-11.075-8.122-11.075h-2.141v5.905
					c1.92,0.222,3.765,1.552,3.765,5.095v4.651c0,3.176-2.36,4.354-3.765,4.725V259.829z M-581.316,280.574h14.175v-5.538h-14.175
					V280.574L-581.316,280.574z M-581.316,259.903h13.437c0.222,0,0.518,0,0.738-0.074v-5.686c-0.442,0.148-0.812,0.223-0.885,0.223
					h-2.807v-14.765h1.403h1.477c0.295,0,0.591,0,0.812,0.072v-5.905h-14.101h-0.074v5.979c0.517-0.146,0.886-0.146,1.034-0.146
					h2.805v14.765h-3.839V259.903z M-592.167,244.029l0.295,30.418c0.073,2.065,0.591,3.543,1.845,4.502
					c1.181,0.96,3.248,1.477,6.127,1.625h2.584v-5.538h-1.034c-1.033,0-1.845-0.295-2.362-0.812
					c-0.442-0.148-0.663-0.813-0.442-2.066v-12.255h3.839v-5.537h-3.839v-10.189c0-3.101,2.362-4.135,3.839-4.43v-5.979
					C-588.33,233.84-592.167,239.23-592.167,244.029z"/>
				<path fill="#E60012" d="M-507.638,254.809v-5.391h5.685v-5.537h-5.685v-5.315h5.685v-5.169h6.646v5.169h13.142l-2.658,5.315
					h-10.483v5.537h14.396l-2.658,5.391H-507.638z M-533.18,236.941c0.22-0.812,0.442-1.623,0.663-2.51l-0.663-0.074V236.941
					L-533.18,236.941z M-507.638,238.566v5.315h-5.61v5.537h5.61v5.391l-25.542-0.076v-5.314h13.287v-5.537H-532v-5.315h12.107
					v-4.948h6.645v4.948H-507.638z M-542.263,256.21v24.142h6.424v-34.845c0.961-2.585,1.846-5.465,2.659-8.566v-2.584l-5.76-0.739
					c-0.665,3.692-1.771,7.164-3.323,10.485c0,0,0,0.073,0,0.222c-2.583,4.872-5.02,8.638-7.456,11.221l6.422,2.066
					C-543.147,257.096-542.779,256.58-542.263,256.21L-542.263,256.21z M-533.18,249.418v5.314h-0.592v-5.314H-533.18z"/>
				<path fill-rule="evenodd" clip-rule="evenodd" fill="#E60012" d="M-678.546,261.599c1.328,1.773,2.657,3.471,3.986,5.243
					l6.275-2.805c-3.027-3.766-6.497-7.458-10.262-11.074v-0.962h4.873l3.396-5.24h-8.269v-6.571
					c3.986-0.443,6.94-0.886,8.859-1.403l-1.698-5.02c-5.979,1.181-13.879,2.214-23.847,2.953l1.477,5.02
					c2.288-0.074,4.946-0.295,8.048-0.59v5.611h-9.524v5.24h8.638c-2.51,5.317-6.423,10.338-11.737,15.061l7.161,2.142
					c1.697-1.697,3.543-4.061,5.463-7.013v18.087h7.161V261.599z"/>
				<path fill-rule="evenodd" clip-rule="evenodd" fill="#E60012" d="M-650.197,233.988L-650.197,233.988
					c9.673,0,17.572,7.901,17.572,17.572v24.509h-7.604v-20.745c0-8.047-1.847-14.692-9.968-14.692l0,0
					c-8.047,0-9.967,6.645-9.967,14.692v20.745h-7.603V251.56C-667.767,241.89-659.868,233.988-650.197,233.988z"/>
				<polygon fill-rule="evenodd" clip-rule="evenodd" fill="#E60012" points="-672.565,274.741 -629.818,274.741 -632.848,279.836 
					-672.565,279.836 				"/>
				<rect x="-665.183" y="248.902" fill-rule="evenodd" clip-rule="evenodd" fill="#E60012" width="27.168" height="5.093"/>
				<rect x="-665.183" y="261.599" fill-rule="evenodd" clip-rule="evenodd" fill="#E60012" width="27.168" height="5.095"/>
				<path fill-rule="evenodd" clip-rule="evenodd" fill="#E60012" d="M-609.222,250.305h2.583c3.027,0,5.537,2.731,5.537,5.758l0,0
					c0,3.026-2.51,5.241-5.537,5.241h-2.583v5.611h3.396c5.906,0,10.779-4.872,10.779-10.852l0,0
					c0-5.904-4.873-11.369-10.779-11.369h-3.396V250.305z M-611.879,250.305h2.657v-5.611h-3.323
					c-5.98,0-10.853,5.464-10.853,11.369l0,0c0,5.98,4.872,10.852,10.853,10.852h3.323v-5.611h-2.657
					c-3.029,0-5.538-2.14-5.538-5.241l0,0C-617.417,253.037-614.908,250.305-611.879,250.305z"/>
				<path fill-rule="evenodd" clip-rule="evenodd" fill="#E60012" d="M-507.268,256.137c8.195,0.073,21.483,2.437,21.483,10.261
					v13.733l-7.161,0.146v-11.665c0-4.355-6.127-7.235-14.397-7.309c-8.12,0-15.133,2.658-15.133,7.236v11.592h-7.384v-13.733
					C-529.712,258.943-516.938,256.137-507.268,256.137z"/>
				<rect x="-527.939" y="265.883" fill-rule="evenodd" clip-rule="evenodd" fill="#E60012" width="37.652" height="4.429"/>
				<rect x="-527.939" y="273.93" fill-rule="evenodd" clip-rule="evenodd" fill="#E60012" width="37.652" height="4.355"/>
			</g>
		</g>
	</g>
</g>
<line fill="none" stroke="#4E2481" stroke-width="5" stroke-miterlimit="10" x1="-144.021" y1="34.613" x2="-90.179" y2="34.613"/>
<line fill="none" stroke="#4E2481" stroke-width="5" stroke-miterlimit="10" x1="-144.021" y1="50.692" x2="-90.179" y2="50.692"/>
<line fill="none" stroke="#4E2481" stroke-width="5" stroke-miterlimit="10" x1="-144.021" y1="66.538" x2="-90.179" y2="66.538"/>
<g>
	<line fill="none" stroke="#4E2481" stroke-width="5" stroke-miterlimit="10" x1="9.078" y1="20.038" x2="62.922" y2="20.038"/>
	<line fill="none" stroke="#4E2481" stroke-width="5" stroke-miterlimit="10" x1="9.078" y1="36.117" x2="62.922" y2="36.117"/>
	<line fill="none" stroke="#4E2481" stroke-width="5" stroke-miterlimit="10" x1="9.078" y1="51.962" x2="62.922" y2="51.962"/>
</g>
<g>
	
		<image overflow="visible" opacity="0.75" width="467" height="340" xlink:href="EBD1775B.png"  transform="matrix(0.24 0 0 0.24 -1323.542 65.4487)">
	</image>
	<g>
		<text transform="matrix(1 0 0 1 -1298.0303 115.3369)" fill="#FFFFFF" font-family="'DFYuan-Md'" font-size="30.441">租用</text>
	</g>
</g>
<g>
	
		<image overflow="visible" opacity="0.75" width="467" height="340" xlink:href="EBD1775D.png"  transform="matrix(0.24 0 0 0.24 -1037.1558 180.4585)">
	</image>
	<g>
		<text transform="matrix(1 0 0 1 -1011.644 230.3467)" fill="#FFFFFF" font-family="'DFYuan-Md'" font-size="30.441">收租</text>
	</g>
</g>
<g>
	
		<image overflow="visible" opacity="0.75" width="720" height="340" xlink:href="EBD1775F.png"  transform="matrix(0.24 0 0 0.24 -997.1328 240.6216)">
	</image>
	<g>
		<text transform="matrix(1 0 0 1 -971.6211 290.5098)" fill="#FFFFFF" font-family="'DFYuan-Md'" font-size="30.441">資源環保</text>
	</g>
</g>
<g>
	
		<image overflow="visible" opacity="0.75" width="720" height="340" xlink:href="EBD1775C.png"  transform="matrix(0.24 0 0 0.24 -1307.2104 418.6636)">
	</image>
	<g>
		<text transform="matrix(1 0 0 1 -1281.6987 468.5518)" fill="#FFFFFF" font-family="'DFYuan-Md'" font-size="30.441">公益捐贈</text>
	</g>
</g>
<g>
	
		<image overflow="visible" opacity="0.75" width="467" height="340" xlink:href="EBD17754.png"  transform="matrix(0.24 0 0 0.24 -1453.1152 324.5386)">
	</image>
	<g>
		<text transform="matrix(1 0 0 1 -1427.6035 374.4268)" fill="#FFFFFF" font-family="'DFYuan-Md'" font-size="30.441">交換</text>
	</g>
</g>
</svg>
