<?xml version="1.0" encoding="utf-8"?>
<!-- Generator: Adobe Illustrator 16.0.3, SVG Export Plug-In . SVG Version: 6.00 Build 0)  -->
<!DOCTYPE svg PUBLIC "-//W3C//DTD SVG 1.1//EN" "http://www.w3.org/Graphics/SVG/1.1/DTD/svg11.dtd">
<svg version="1.1" id="圖層_1" xmlns="http://www.w3.org/2000/svg" xmlns:xlink="http://www.w3.org/1999/xlink" x="0px" y="0px"
	 width="200px" height="200px" viewBox="0 0 200 200" enable-background="new 0 0 200 200" xml:space="preserve">
<path display="none" fill="#727171" d="M138.795,182.6v-4.462h15.198c0,0,0.897,0,0.897-0.896c0.899,0,0.899-0.897,0.899-1.796
	v-2.681h-16.995v-5.373h16.995v-4.466h-16.995v-4.462h16.995v-2.695c0-0.896,0-0.896-0.899-1.793h-0.897h-15.198v-14.302h25.035
	c0,0,0.899,0,0.899,0.897c0.895,0,0.895,0.885,0.895,1.783c0,0,0,0.897-0.895,1.797h-0.899h-24.139c0,0.896,0,1.782,0,1.782
	c-0.896,0.898-0.896,1.782-0.896,2.68h17.879c1.796,0,2.694,0.899,2.694,0.899c0.897,0.897,1.781,1.793,1.781,2.691v26.819
	c0,0.896-0.884,1.785-1.781,2.681c-0.898,0.896-1.797,0.896-2.694,0.896H138.795L138.795,182.6z M148.631,187.964
	c3.578,0.896,8.043,2.691,13.415,5.373c0.888,0,1.784,0,2.684,0l0.895-0.896c0.898-0.886,0.898-1.785,0.898-2.682
	c-0.898-0.899-0.898-0.899-1.793-0.899c-6.26-3.578-10.736-5.361-15.2-5.361c-0.898-0.898-1.797,0-1.797,0
	c-0.885,0-0.885,0.896-1.781,1.783c0,0,0,0.899,0.896,1.784C146.848,187.065,147.732,187.964,148.631,187.964z M79.768,192.44
	c0.892,0,1.783-0.886,2.682-0.886c0.897-1.796,1.791-2.695,1.791-3.591v-30.398c0-0.898-0.894-1.797-1.791-2.692
	c0,0-0.899-0.897-2.682-0.897H61.876v5.371H77.09h0.891c0.891,0.899,0.891,0.899,0.891,1.785v3.591H61.876v5.36h16.996v5.362H61.876
	v5.363h16.996v4.473c0,0.899,0,0.899-0.891,1.784H77.09H61.876v5.375H79.768L79.768,192.44z M61.876,153.091v-0.887
	c0.899-0.898,0.899-1.794,0.899-2.691h24.151c0.892,0,0.892,0,1.782-0.899c0,0,0.896-0.897,0.896-1.781
	c0-0.898-0.896-0.898-0.896-1.785c-0.89,0-0.89,0-1.782,0H74.4c1.79-3.591,2.689-5.373,2.689-6.258c0-0.897-0.899-0.897-0.899-1.796
	c-0.896,0-1.79,0-2.681,0c0,0-0.896,0.898-1.795,1.796c0,0.885-0.892,2.667-2.679,4.463c0,0.899-0.892,0.899-0.892,1.795h-6.267
	V153.091L61.876,153.091z M138.795,139.674v14.302h-15.213c-0.884,0-1.782,0-1.782,0c0,0.897,0,0.897,0,1.793v2.695h16.995v4.462
	H121.8v4.466h16.995v5.373H121.8v2.681c0,0.898,0,1.796,0,1.796c0.898,0,0.898,0.896,1.782,0.896h15.213v4.462h-18.777
	c-0.899,0-1.796-0.896-2.696-0.896c-0.883-0.896-0.883-1.784-0.883-2.681v-26.819c0-0.898,0-1.794,0.883-2.691
	c0.9-0.899,1.797-0.899,2.696-0.899h3.564h9.849c0-0.897,0.889-2.68,0.889-3.566c0,0,0,0,0.895-0.896h-21.457
	c-0.896,0-1.796,0-1.796,0c-0.895-0.899-0.895-1.797-0.895-1.797c0-0.898,0-1.783,0.895-1.783c0-0.897,0.899-0.897,1.796-0.897
	H138.795L138.795,139.674z M126.276,183.498c-4.477,2.683-8.055,3.567-13.416,4.466c-1.794,0-2.693,0.896-2.693,2.691
	c0,0,0.899,0.899,0.899,1.785c0.895,0.896,4.473,0.896,8.951-0.886c2.681-0.899,5.36-1.796,8.938-3.591c0,0,0.885-0.898,0.885-1.783
	c0,0,0-0.899,0-1.786c-0.885-0.896-0.885-0.896-1.781-0.896C127.173,183.498,127.173,183.498,126.276,183.498z M61.876,153.976
	L61.876,153.976c0,0,0,0,0-0.885v-8.044h-7.151l0,0c0-1.795-1.787-4.476-4.469-6.258c-0.896-0.897-1.788-1.796-1.788-1.796
	c-0.894,0-1.791,0.898-1.791,1.796c-0.899,0-0.899,0.885-0.899,1.782c0,0,0,0.885,0.899,1.783c0.897,0,1.791,0.897,2.682,2.692
	H35.943c-0.892,0-1.784,0-1.784,0c0,0.887-0.897,1.785-0.897,1.785c0,0.884,0.897,1.781,0.897,1.781
	c0.892,0.899,0.892,0.899,1.784,0.899h21.469c0,1.793-0.896,3.578-0.896,4.463h-9.838h-3.577c-0.899,0-1.791,0.897-2.681,0.897
	c-0.897,0.896-0.897,1.794-0.897,2.692v30.398c0,0.896,0,1.795,0.897,3.591c0.891,0,1.782,0.886,2.681,0.886h18.775v-5.375H46.678
	c-0.899,0-0.899,0-1.79,0c0,0-0.891-0.885,0-1.784v-4.473h16.988v-5.363H44.888v-5.362h16.988v-5.36H44.888v-3.591
	c-0.891-0.886,0-0.886,0-1.785c0,0,0.891,0,1.79,0h15.198V153.976z"/>
<polygon display="none" fill="#727171" points="44.979,127.916 44.979,73.177 27.825,73.177 27.825,60.922 97.27,9.451 
	99.717,7.822 101.348,9.451 170.79,60.922 170.79,73.177 153.638,73.177 153.638,127.916 62.139,127.916 62.139,118.932 
	144.65,118.932 144.65,65.825 162.624,65.825 99.717,18.438 35.992,65.825 53.152,65.825 53.152,127.916 "/>
<path display="none" fill="#727171" d="M99.232,32.169L99.232,32.169v6.836l0,0c12.282-13.666,24.577-20.501,34.974-18.792
	c31.19,3.417,41.59,63.212-34.974,99.093l0,0v11.1l0,0c47.255-22.21,67.114-52.108,70.896-76.026V39.005
	c-2.846-16.231-13.23-28.188-28.358-29.897C129.476,7.398,114.359,15.085,99.232,32.169z M99.232,32.169
	C67.092-8.827,31.175,7.398,27.401,40.714v11.104c2.833,24.771,22.678,55.531,71.831,78.587v-11.1
	c-104.919-49.546-46.319-140.095,0-80.301V32.169z"/>
<path display="none" fill="#727171" d="M152.958,185.951v-18.271c0.917,1.832,0.917,4.571,1.824,6.391
	c1.82-3.643,2.735-8.214,4.571-14.605c0-0.916,0-0.916,0.914-0.916c0-0.905,0.903-0.905,0.903-0.905
	c0.918,0,1.834,0.905,1.834,0.905c0.903,0.916,0.903,1.822,0,1.822c-0.916,5.485-2.737,12.795-6.402,19.187
	c0.915,2.737,1.832,4.569,2.751,5.474c0.914,1.82,1.817,2.739,1.817,2.739c0.918,0,0.918-0.919,0.918-1.82
	c0-3.655,0-6.393,0.916-6.393c0-0.918,0.903-0.918,1.824-0.918c0,0,0.913,0,0.913,0.918c0.916,0.903,0.916,0.903,0.916,1.818
	c-0.916,7.311-1.829,10.965-3.653,11.881c0,0.905-0.916,0.905-0.916,0.905c-0.918-0.905-2.735-0.905-3.654-1.821
	c-1.832-1.823-2.737-4.57-4.56-7.31l0,0C153.875,185.032,153.875,185.951,152.958,185.951L152.958,185.951z M152.958,153.979v-4.559
	h4.56c-0.915,0-0.915,0-0.915,0c-1.82-1.833-2.728-1.833-3.645-2.747v-1.824l0,0l0.917-0.9h-0.917v-4.572h10.95
	c0.921,0,1.834,0,1.834,0.903c0,0,0.916,0.916,0.916,1.833c-0.916,0-0.916,0.916-0.916,1.836c0,0-0.913,0-1.834,0h-6.391
	c2.75,1.818,3.653,2.725,3.653,3.639c0,0.917,0,1.833-0.903,1.833h2.737c0.903,0,1.824,0.916,1.824,0.916
	c0.913,0.92,0.913,0.92,0.913,1.823c0,0.902,0,0.902-0.913,1.819c-0.921,0-0.921,0-1.824,0H152.958z M152.958,139.376v4.572h-2.748
	c0,1.818,0,1.818-0.904,2.725c0,0,0,0,0.904,0c0,0.914,0,1.831,0.915,2.747h1.833v4.559h-1.833c0.92,5.487,0.92,10.059,1.833,13.702
	v18.271c-2.748,5.486-5.486,8.212-6.391,8.212c-0.915,0-1.833-0.905-1.833-0.905c-0.917-0.916-0.917-0.916-0.917-1.82
	c0-0.919,0.917-1.833,1.835-3.666h-10.966v-3.644l0,0h1.824v-5.487h-1.824v-3.653h6.393c0.917,0,1.833,0,1.833-0.916
	c0,0,0,0,0-0.904v-1.821v-0.917h-0.916h-7.31v-4.571h1.824v-3.651h-1.824l0,0v-4.562h10.048c0,0,0.918,0,0.918,0.905
	c0.915,0,0.915,0.916,0.915,0.916c0,0.906,0,0.906-0.915,1.82c0,0.92-0.918,0.92-0.918,0.92h-3.655v3.651h2.738
	c1.835,0,2.75,0.905,2.75,1.823c0.904,0,0.904,0.914,0.904,1.832v5.475c0,0.918,0,1.835-0.904,2.751
	c-0.915,0.902-1.833,0.902-3.655,0.902h-1.833v5.487h6.393h0.915c1.823-2.751,2.738-3.666,3.658-4.569
	c-2.739-7.307-4.573-15.521-5.478-25.58h-11.881v-4.559h10.966c0-0.916,0-1.833,0.915-1.833c0-0.914-0.915-0.914-0.915-0.914
	c0-0.906-0.918-1.824-0.918-2.725h-10.048v-4.572h10.048c0-1.822,0.918-2.737,0.918-2.737c0-0.918,0.915-0.918,1.819-0.918
	c0.915,0,0.915,0,1.834,0.918c0.904,0.915,0.904,1.819,0.904,2.737H152.958L152.958,139.376z M152.958,144.849
	c0,0.918,0,0.918,0,1.824l0,0V144.849z M70.759,182.296c0-0.919,0-0.919,0.917-1.834c5.475,6.391,10.046,10.976,12.782,11.88
	c0.919,0,0.919,0,0.919,0c0.916,0,1.821,0,1.821-0.904c0.916-0.919,0.916-1.833,0.916-2.75c0,0-0.916-0.916-1.821-1.835
	c-4.57-3.64-8.225-6.391-11.879-10.03c5.485-9.142,7.31-18.272,8.212-28.318h2.751c0,0,0.916-0.917,1.821-0.917
	c0-0.914,0-1.82,0-1.82c0-0.918,0-1.818,0-1.818c-0.905-0.92-1.821-0.92-1.821-0.92H70.759v5.476h6.392
	c0,8.226-1.823,16.438-5.475,23.748c-0.917-0.906-0.917-1.823-0.917-1.823V182.296L70.759,182.296z M134.687,139.376v4.572h-4.569
	c0,1.818-0.904,2.725-0.904,3.639c-0.917,0-0.917,0-1.834,0c-0.905,0-1.821,0-1.821,0c-0.916-0.914-0.916-1.82-0.916-3.639h-13.699
	c-0.917,0-0.917,0-1.821,0c0-0.92,0-1.836,0-1.836c0-0.917,0-1.833,0-1.833c0.904-0.903,0.904-0.903,1.821-0.903h13.699
	c0-1.822,0-2.737,0.916-2.737c0-0.918,0.916-0.918,1.821-0.918c0.917,0,0.917,0,1.834,0.918c0,0.915,0.904,1.819,0.904,2.737
	H134.687L134.687,139.376z M134.687,149.42v4.559h-8.213c-0.916,0-0.916,0.918-0.916,1.833v16.44
	c-0.916,5.486-1.831,10.044-2.736,15.52c-2.736,3.666-3.655,5.486-5.487,6.392c0,0-0.915-0.905-1.819-0.905
	c-0.918-0.916-0.918-1.82,0-3.653c3.651-5.477,4.57-10.964,5.474-18.259h-3.654c0.916,2.726,0,5.477-0.915,8.213
	c-1.822,6.393-3.643,9.129-4.558,10.046c-0.919-0.917-1.836-0.917-1.836-0.917c-0.904,0-0.904-0.916-0.904-0.916
	c0-0.919,0-1.82,0-2.739c2.74-3.655,4.57-8.21,4.57-13.687h-1.83c-0.919,0-0.919-0.917-1.836-0.917c0-0.916-0.904-0.916-0.904-1.834
	c0,0,0-0.914,0.904-0.914c0.917-0.918,0.917-0.918,1.836-0.918h9.127v-4.557h-4.569c-1.822,0-2.728,0-3.643-0.92
	c0-0.914-0.915-1.82-0.915-2.736v-6.391c0-0.903,0-1.823,0.915-2.739h0.915c0.905,0,1.823,0,1.823,0
	c0.904,0.916,0.904,0.916,0.904,2.739v3.652c0,0.918,0,1.833,0,1.833c0.915,0,0.915,0.905,1.831,0.905h2.738v-4.571
	c0-1.819,0-2.723,0.919-2.723c0-0.92,0.914-1.836,2.734-1.836H134.687L134.687,149.42z M134.687,157.645h-1.818
	c-1.834,0-2.751,0-3.655,0.905c-0.917,0.916-0.917,2.736-0.917,3.656v21.007c0,0.915,0,2.738,0.917,3.64
	c0.904,0.919,1.821,0.919,3.655,0.919h1.818v-3.644c-0.903-0.915-0.903-0.915-1.818-0.915c0,0-0.918-0.917-0.918-2.751v-1.821h2.736
	v-3.653h-2.736v-4.559h2.736v-4.571h-2.736v-0.915c0-0.905,0-1.821,0.918-2.736c0.915,0,0.915,0,1.818,0V157.645z M59.803,156.729
	c1.827,7.308,4.564,13.699,8.219,20.093c-2.74,2.736-7.31,6.391-12.785,10.949c-0.917,0-0.917,0-1.833,0.916
	c0,0.917,0,1.831,0.916,2.75c0,0,0.917,0.904,1.828,0.904c0.911,0,3.655-1.823,9.134-5.489c1.822-1.82,3.655-3.64,5.477-4.557
	v-11.867c-0.918-0.916-0.918-0.916-0.918-0.916c-2.736-5.476-4.559-12.783-6.391-21.009h7.309v-5.476h-6.392
	c0-0.916,0-2.749,0-3.652c0-0.918,0-1.822,0-1.822c-0.917-0.915-0.917-0.915-1.833-0.915c-0.904,0-1.822,0-1.822,0
	c-0.909,0.915-0.909,0.915-0.909,1.819c-0.911,8.215-3.655,15.521-7.309,22.828c0,0,0,0,0,0.92c0-8.228,0-15.533,0-22.83
	c0-0.918-0.909-1.822-1.829-1.822c0-0.915-0.908-0.915-0.908-0.915c-0.912,0-1.828,0-1.828,0.915c-0.916,0-0.916,0.904-0.916,1.822
	c0,10.044,0,20.996,0,31.97c-1.822,0.906-4.566,2.726-7.303,4.56c0-10.048,0-20.094,0-30.139c0-0.918,0-1.818-0.911-1.818
	c-0.916-0.92-0.916-0.92-1.833-0.92c-0.91,0-1.822,0-1.822,0.92c-0.917,0-0.917,0.9-0.917,1.818c0,10.045,0,20.996,0,32.874
	c-1.827,0-2.737,0.918-3.653,1.821c0,0,0,0.915,0,1.834c0.916,0.917,1.826,0.917,1.826,1.832c0.911,0,1.827,0,1.827-0.915
	c2.738,0,6.391-2.751,12.785-5.475c0,3.639,0,8.213,0,12.78c0,0.919,0,1.823,0.916,1.823c0,0.916,0.916,0.916,1.828,0.916
	c0,0,0.908,0,0.908-0.916c0.92,0,1.829-0.904,1.829-1.823c0-9.142,0-18.267,0-26.481c0,0,0,0.905,0.91,0.905c0,0,0.916,0,1.833,0
	C56.148,164.942,57.975,162.206,59.803,156.729z"/>
<path fill="#727171" d="M158.099,187.464v-7.81c1.74,1.742,3.481,3.48,5.21,5.21c0,0.857,0.859,1.728,0.859,1.728
	c0,0.872-0.859,1.742-0.859,1.742c-0.87,0.869-0.87,0.869-1.729,0.869c-0.869,0-1.741,0-1.741-0.869
	C158.969,188.334,158.969,187.464,158.099,187.464L158.099,187.464z M158.099,171.856v-7.796c0.87-0.871,0.87-0.871,1.74-0.871
	c0.872-0.869,0.872-0.869,1.741,0c0.858,0,0.858,0.871,0.858,0.871c0,0.858,0,1.729,0,1.729
	C160.711,169.259,159.839,170.999,158.099,171.856L158.099,171.856z M158.099,160.579v-4.327h3.481c0.858,0,1.729,0.872,1.729,0.872
	c0.859,0,0.859,0.868,0.859,1.728c0,0.869-0.859,0.869-0.859,1.728c0,0-0.87,0-1.729,0H158.099L158.099,160.579z M158.099,143.245
	v-0.869l0,0V143.245z M158.099,142.376v0.869l-2.587,13.007h2.587v4.327h-8.656c0.86,5.211,2.589,9.551,4.328,12.148
	c1.741,2.6,2.601,4.34,4.328,6.927v7.81c-2.587-3.471-5.197-7.81-8.656-14.736v13.864c0,2.611-0.868,4.34-2.61,5.21h-0.869v-35.55
	h5.211v-2.61h-5.211v-5.197h6.938v-3.457c0.869,0,0.869,0,0-0.872c0,0,0,0-0.87,0h-6.068v-5.195h9.549
	c0.859,0,1.73,0.856,2.587,1.727C158.099,140.646,158.099,141.506,158.099,142.376L158.099,142.376z M158.099,164.061
	L158.099,164.061c-0.856,0.858-1.728,2.588-3.455,5.198c0,0-0.873,0.871-0.873,1.74c0,0,0.873,0.857,0.873,1.729
	c0.868,0,1.728,0,1.728,0c0.871,0,1.728,0,1.728-0.871V164.061z M145.963,138.92v5.195h-5.199h-0.869
	c-0.869,0-0.869,0.872-0.869,0.872l-0.86,2.587v0.87c0.86,0,0.86,0,0.86,0h6.938v5.197h-10.396c-0.872,0-1.74-0.858-1.74-1.718
	c-0.87-0.868-0.87-1.74-0.87-2.61l2.61-7.808c0-0.859,0-0.859,1.729-1.729c0,0,0.869-0.856,1.729-0.856H145.963L145.963,138.92z
	 M145.963,156.252v35.55c-0.869,0.858-2.599,0.858-5.199,0c-2.599,0-4.325-0.87-4.325-1.73c0-0.868,0-1.737,0-1.737
	c0-0.87,0.857-1.742,0.857-1.742c0.869,0,1.729,0,1.729,0c1.738,0.872,3.48,0.872,4.339,0.872c0,0,0,0,0.869,0
	c0-0.872,0-1.742,0-1.742v-25.143h-12.148c0,0,0,0-0.856,0v-4.327c0.856,0,0.856,0,0.856,0H145.963L145.963,156.252z
	 M131.229,189.203c1.729-0.869,3.467-1.739,5.21-3.481c1.727-2.587,3.456-4.325,5.194-7.797c0.873-0.857,0.873-1.728,0.873-1.728
	c0-0.87-0.873-1.742-1.742-1.742c0-0.868-0.869-0.868-1.738,0c0,0-0.86,0-0.86,0.872c-1.727,2.598-4.338,6.069-6.937,7.808V189.203
	L131.229,189.203z M131.229,165.79l0.856,0.858c0.872,0.87,2.61,2.61,3.482,4.351c0,0.857,0.871,0.857,1.729,1.729
	c0,0,0.869,0,1.729-0.871l0.869-0.857c0-0.869-1.729-3.48-4.327-6.938c-0.872-0.871-0.872-0.871-1.74-0.871c-0.87,0-0.87,0-1.742,0
	c0,0.871-0.856,0.871-0.856,0.871V165.79L131.229,165.79z M131.229,148.444v-1.729v0.859
	C131.229,147.574,131.229,147.574,131.229,148.444z M131.229,146.715v1.729c0,0,0,0,0,0.869c-0.858,0-0.858,0-0.858,0v-4.326v0.857
	C131.229,145.845,131.229,146.715,131.229,146.715L131.229,146.715z M131.229,156.252v4.327c0,0,0,0-0.858,0v-0.858v-1.729v-0.868
	L131.229,156.252L131.229,156.252z M131.229,164.061v1.729c0-0.871,0-0.871,0-0.871S131.229,164.919,131.229,164.061
	L131.229,164.061z M131.229,183.135v6.068l-0.858,0.868v-5.207C130.37,183.993,131.229,183.993,131.229,183.135L131.229,183.135z
	 M130.37,171.856v-1.727v0.869V171.856z M130.37,144.987v4.326c-0.87,0.87-0.87,0.87-0.87,0.87c-0.872,0-1.741,0-1.741-0.87v-6.938
	L130.37,144.987L130.37,144.987z M130.37,157.992v1.729v-0.869C130.37,157.992,130.37,157.992,130.37,157.992L130.37,157.992z
	 M130.37,170.13v1.727c-0.87,4.341-1.742,6.938-2.611,6.938l0,0v-10.406h0.869c0.872,0,0.872,0.87,1.742,0.87
	C130.37,169.259,130.37,169.259,130.37,170.13L130.37,170.13z M130.37,184.864v5.207c-0.87,0-0.87,0-1.742,0h-0.869v-3.479
	c0,0,0-0.87,0.869-0.87C128.628,185.722,129.5,184.864,130.37,184.864L130.37,184.864z M127.759,185.722
	c0-0.857,0.869-0.857,0.869-0.857c0.872-0.871,1.742-0.871,1.742-1.729c0-0.869,0-0.869,0-1.738c-0.87,0-0.87-0.873-1.742-0.873
	h-0.869V185.722L127.759,185.722z M127.759,166.648v-4.328l0,0c0.869,0,1.741,0,1.741,0c0,0.869,0.87,0.869,0.87,1.74
	c-0.87,0.858-0.87,0.858-0.87,1.729C129.5,165.79,128.628,166.648,127.759,166.648L127.759,166.648L127.759,166.648z
	 M127.759,156.252v-5.196l0,0c0.869,0.868,0.869,0.868,1.741,0.868c0,0.859,0,0.859,0,1.718c0,0.87,0,0.87,0,1.74
	C128.628,155.382,128.628,156.252,127.759,156.252L127.759,156.252z M127.759,142.376v6.938l0,0l-5.198-6.068
	c-0.869,0-0.869,0-0.869,0s0,0-0.87,0c-1.729,2.6-3.459,5.199-5.199,6.938l-0.869,0.872h13.006v5.196h-4.327v6.068h4.327v4.328
	h-4.327v15.617c1.729-0.869,2.587-0.869,3.458-1.742h0.869v5.198c-6.938,2.612-11.267,4.35-13.877,4.35v-4.35
	c0.871,0,2.61-0.857,4.34-1.729v-17.345h-4.34v-4.328h4.34v-6.068h-3.469c-0.871,0-0.871,0-0.871,0v-10.407
	c1.74-1.729,3.48-4.339,6.066-6.925c0-0.872,0.873-0.872,1.743-0.872c0.869,0,1.74,0,2.598,0.872L127.759,142.376L127.759,142.376z
	 M127.759,168.389v0.87c-0.869,0-0.869,0.871-1.74,0.871c0,1.727,0,3.457-0.857,6.067c0,0.87,0,0.87,0,1.728
	c0,0.87,0.857,0.87,0.857,0.87c0.871,0,0.871,0,1.74,0V168.389L127.759,168.389z M127.759,186.592c-0.869,0.872-0.869,1.742,0,2.611
	v0.868V186.592L127.759,186.592z M113.882,182.266c0,0,0,0,0.871,0c0,0,0.869,0,0.869-0.869c0.87-0.873,0.87-4.329-0.869-11.267
	c0,0,0-0.871-0.871-1.741l0,0V182.266z M113.882,145.845v10.407c-0.87-0.87-0.87-0.87-1.729-0.87c0-0.87,0-0.87,0-1.74
	c-0.857,0-0.857,0-1.729,0l-0.869-0.858c-0.869-0.859-0.869-1.728-0.869-1.728c0-0.872,0-1.742,0.869-1.742
	C111.295,148.444,112.152,146.715,113.882,145.845L113.882,145.845z M113.882,162.32v4.328h-1.729c-0.857,0-0.857-0.858-1.729-0.858
	c0-0.871,0-0.871,0-1.729c0-0.871,0-0.871,0-1.74c0,0,0.872,0,1.729,0H113.882L113.882,162.32z M113.882,168.389v13.877
	c-0.87,0-0.87,0-0.87,0c-0.859-0.869-0.859-0.869-0.859-2.611c0-3.457-0.857-6.067-0.857-8.655c-0.872,0-0.872-0.869,0-1.74
	l0.857-0.87C113.012,168.389,113.012,168.389,113.882,168.389L113.882,168.389z M113.882,185.722v4.35
	c-1.729,0.86-2.587,0.86-3.459,0.86c-0.869-0.86-0.869-0.86-0.869-1.729c0,0,0-0.869,0-1.739c0.869-0.872,0.869-0.872,1.741-0.872
	C112.152,186.592,113.012,185.722,113.882,185.722L113.882,185.722z M60.133,151.056v-2.611c0,0,0,0.869,0,1.739
	C60.133,150.184,60.133,150.184,60.133,151.056L60.133,151.056z M60.133,144.115L60.133,144.115c0.865,0.872,1.735,0.872,2.6,0.872
	h16.48c0.859,0,1.729,0.857,1.729,1.728v10.409c0,0.868-0.871,1.728-0.871,1.728c0,0.869-0.859,0.869-1.728,0.869H65.332
	c-1.735,0-2.599,0.858-3.464,1.729c-0.87,0.871-1.735,1.74-1.735,3.47v17.347c0,1.728,0.865,3.456,1.735,5.198
	c0,0.87,1.729,1.739,2.6,1.739c1.733,0.868,5.203,0.868,10.396,0.868c3.48,0,6.079,0,7.807,0c0.872-0.868,2.611-1.737,3.47-2.607
	c0,0,0.87-0.872,1.729-2.6c0-0.871,0-3.468,0-7.797c0-0.87,0-0.87-0.859-1.74c0,0-0.87,0-1.729-0.872c0,0-0.87,0.872-1.739,0.872
	c0,0.87-0.872,1.74,0,2.598c0,3.472-0.872,6.068-2.6,6.939c-0.871,0-3.469,0.857-6.939,0.857c-4.333,0-6.937-0.857-7.803-1.729
	c-0.869-0.858-0.869-1.728-0.869-2.597v-14.748c0,0,0-0.858,0-1.729c0.869,0,1.735,0,1.735,0h13.876c0.858,0,2.6-0.858,3.469-1.729
	c0.87-0.869,1.729-1.74,1.729-3.469v-14.733c0-0.872-0.859-2.611-1.729-3.481c-0.87-0.859-1.741-0.859-3.469-0.859h-18.21
	c-0.865,0-1.735,0-2.6,0c0,0.859,0,0.859,0,0.859V144.115z M47.127,144.987h6.933c0.87,0,0.87-0.872,1.735-0.872
	c0-0.87,0.87-0.87,0.87-1.739c0-0.87-0.87-1.729-0.87-1.729c-0.865-0.87-0.865-0.87-1.735-0.87h-6.933V144.987L47.127,144.987z
	 M60.133,141.506v2.609c0-0.87,0-0.87,0-1.739C60.133,142.376,60.133,142.376,60.133,141.506L60.133,141.506z M60.133,148.444v2.611
	c0,0,0,0-0.87,0c0,0.868-0.864,0.868-0.864,0.868H47.127v-4.35h11.272c0,0,0.864,0,0.864,0.87
	C60.133,148.444,60.133,148.444,60.133,148.444L60.133,148.444z M47.127,190.071v-4.35h3.47l0.863-0.857v-0.871v-8.666
	c0-0.872,0-0.872,0-0.872c0-0.868-0.863-0.868-0.863-0.868h-3.47v-4.328h6.068c0.865,0,1.735,0,2.6,0.871
	c0.87,0.869,0.87,1.727,0.87,2.598v13.864c0,0.872-0.87,1.742-0.87,2.611c-0.865,0-1.735,0.868-2.6,0.868H47.127L47.127,190.071z
	 M47.127,166.648v-4.328h6.933c0.87,0,0.87,0,1.735,0c0,0.869,0,1.74,0,1.74c0,0.858,0,1.729,0,1.729
	c-0.865,0.858-0.865,0.858-1.735,0.858H47.127L47.127,166.648z M47.127,159.721v-5.209h6.933c0,0.87,0.87,0.87,1.735,0.87
	c0,0.87,0,0.87,0,1.742c0,0.868,0,0.868,0,1.728c-0.865,0-1.735,0.869-1.735,0.869H47.127z M40.189,139.776
	c-0.863,0-1.735,0-1.735,0.87c-0.863,0-0.863,0.859-0.863,1.729c0,0.869,0,0.869,0.863,1.739c0,0,0.872,0.872,1.735,0.872h6.938
	v-5.211H40.189L40.189,139.776z M47.127,147.574v4.35H36.72c-0.864,0-0.864,0-1.735-0.868l-0.865-0.872
	c0-0.87,0.865-1.739,0.865-1.739c0-0.87,0.871-0.87,1.735-0.87H47.127L47.127,147.574z M47.127,154.512v5.209h-6.938
	c-0.863,0-1.735-0.869-1.735-0.869c-0.863-0.859-0.863-0.859-0.863-1.728c0-0.872,0.863-0.872,0.863-1.742
	c0,0,0.872-0.87,1.735-0.87H47.127L47.127,154.512z M47.127,162.32v4.328h-6.938c-0.863,0-1.735,0-1.735-0.858
	c-0.863,0-0.863-0.871-0.863-1.729l0.863-0.871c0-0.869,0.872-0.869,1.735-0.869H47.127L47.127,162.32z M47.127,169.259v4.328
	h-3.469c-0.865,0-1.734,0-1.734,0c0,0.868,0,1.74,0,1.74v8.666c0,0.871,0,0.871,0,0.871c0.87,0.857,0.87,0.857,1.734,0.857h3.469
	v4.35h-6.938c-0.863,0-1.735-0.868-2.598-0.868c-0.871-0.869-0.871-1.739-0.871-2.611v-13.864c0-0.871,0.871-1.729,0.871-2.598
	c0.863-0.871,1.735-0.871,2.598-0.871h3.469H47.127z"/>
<path fill="#727171" d="M47.672,97.009c10.499,20.195,32.314,33.125,56.551,31.504c25.051-1.611,45.233-18.573,52.509-41.195
	l-9.688-4.849c-5.663,19.395-22.625,33.923-43.632,35.546c-18.584,0.812-36.357-8.887-45.242-24.238l11.312-4.039L55.747,77.62
	L42.013,65.502L38.782,83.28l-3.228,17.773L47.672,97.009z"/>
<path fill="#727171" d="M151.078,40.458C140.58,21.069,118.765,8.146,94.527,9.761c-25.044,1.617-45.244,18.579-52.514,41.201
	l9.697,4.848c5.654-19.389,22.622-33.93,43.616-35.546c19.396-1.616,36.357,8.887,46.056,24.238l-12.107,4.038l13.718,11.308
	l13.74,12.119l3.232-17.772l4.043-17.773L151.078,40.458z"/>
<path display="none" fill="#727171" d="M139.571,192.562V187.9h20.434c0-0.919,0.92-0.919,0.92-0.919
	c0.935-0.934,0.935-0.934,0.935-1.853v-39.952l-0.935-0.92h-0.92h-20.434v-5.58h23.205c0.934,0,2.799,0,2.799,0.932
	c0.931,0.921,0.931,1.852,1.85,3.717v45.507c-0.919,0.933-0.919,1.865-1.85,2.798c-0.935,0.932-1.865,0.932-2.799,0.932H139.571
	L139.571,192.562z M139.571,179.548h11.136c0.931,0,1.865,0,2.795-0.921c0.92-0.933,0.92-1.866,0.92-2.797v-21.364
	c0-0.936,0-1.855-0.92-1.855c-0.93-0.921-1.864-1.852-2.795-1.852h-11.136v5.568h7.42c0.934,0,0.934,0,1.852,0
	c0,0.934,0,0.934,0,1.864v14.855v0.934c-0.918,0.915-0.918,0.915-1.852,0.915h-7.42V179.548z M139.571,138.677v5.58h-20.436
	c0-0.932-0.934,0-0.934,0s-0.931,0.92,0,0.92v39.952c0,0.919,0,0.919,0,1.853l0.934,0.919h20.436v4.661h-22.3
	c-1.865,0-2.787,0-3.72-0.932c-0.918-0.933-0.918-1.865-0.918-2.798v-45.507c0-1.865,0-2.796,0.918-3.717
	c0.933-0.932,1.854-0.932,3.72-0.932h1.864H139.571L139.571,138.677z M139.571,150.759h-6.501h-4.663
	c-0.923,0-1.854,0.931-1.854,1.852c-0.92,0-0.92,0.92-0.92,1.855v21.364c0,0.931,0,1.864,0.92,2.797
	c0,0.921,0.931,0.921,1.854,0.921h11.164v-4.652h-6.501c-0.934,0-1.865,0-1.865-0.915c0,0-0.933,0,0-0.934v-14.855
	c-0.933-0.931,0-0.931,0-1.864c0,0,0.932,0,1.865,0h6.501V150.759L139.571,150.759z M71.763,192.562v-5.58c2.772,0,5.57,0,7.42,0
	c5.58,0,8.354,0,9.285,0.919c0.934,0,0.934,0.932,0.934,1.864s0,1.865-0.934,1.865c-0.932,0.932-0.932,0.932-2.786,0.932
	C81.033,192.562,76.4,192.562,71.763,192.562L71.763,192.562z M71.763,176.761v-7.43c3.704-3.717,6.5-8.369,7.42-13.004
	c0.933-0.931,0.933-0.931,0-1.861c0,0,0,0-0.92,0h-6.5v-5.572h10.203c0.932,0,1.865,0.933,2.797,1.865
	c0.919,0.931,0.919,2.771,0.919,3.707c-2.784,7.429-5.566,13.933-10.215,18.581c3.716,2.783,7.431,5.58,12.07,7.434
	c0.932,0,1.865,0.919,1.865,1.854c0,0.931,0,0.931,0,1.865c-0.934,0.93-0.934,0.93-1.865,0.93c-0.921,0.919-0.921,0.919-0.921,0.919
	C82.898,185.129,78.263,182.334,71.763,176.761L71.763,176.761L71.763,176.761z M71.763,143.325v-4.648h13c0.919,0,1.852,0,2.773,0
	c0,0.932,0,1.853,0,1.853c0,0.931,0,1.863,0,2.796c-0.921,0-1.854,0-2.773,0H71.763z M47.605,147.03L47.605,147.03
	c0.925-0.921,0.925-1.854,0.925-2.773l-0.925-0.932V147.03L47.605,147.03z M71.763,138.677v4.648H58.745
	c-1.858,0-1.858,0.932-1.858,1.852v3.717h14.875v5.572H63.39c0.933,3.726,2.79,8.361,4.648,11.148
	c0.925,1.853,1.858,2.784,3.724,3.717l0,0v7.43c-1.866,1.866-3.724,2.787-5.583,3.72c-3.716,2.784-7.435,3.719-9.293,4.648
	c-0.925,0.919-1.857,0.919-2.783,0l-0.933-0.93c0-0.935,0-1.865,0-2.8c0-0.919,0.933-0.919,1.858-1.852
	c4.648-1.854,9.293-3.718,13.009-6.501c-5.575-5.58-8.361-12.085-10.219-18.581h-0.933c-0.925,11.148-2.783,19.515-5.573,26.015
	c0,0.919-0.926,0.919-1.851,0.919c-0.933,0-0.933,0-1.858,0l0,0v-4.639c2.783-7.43,3.709-15.799,3.709-25.071v-8.364
	c0-1.865,0-2.796,0.933-3.717c0.925-0.932,1.857-0.932,3.716-0.932H71.763L71.763,138.677z M71.763,186.981
	c-3.724,0-6.515,0-10.231,0c-6.502,0-11.144-0.934-13.927-3.717l0,0v6.5l0,0c3.709,1.865,6.499,2.797,11.14,2.797
	c3.719,0,8.361,0,13.018,0V186.981z M36.453,142.393c1.857,0.933,4.641,2.784,7.433,4.638c0.924,0.932,0.924,0.932,1.858,0.932
	c0.929,0,0.929,0,1.861-0.932v-3.705h-0.932c-2.787-2.796-5.579-4.648-8.362-5.566c-0.924-0.935-1.857-0.935-1.857,0
	c-0.925,0-0.925,0-1.857,0.918c0,0.932,0,0.932,0,1.853C34.596,141.46,35.528,141.46,36.453,142.393L36.453,142.393z
	 M47.605,176.761v4.639c-1.861-1.852-1.861-2.772-0.932-3.705C46.673,176.761,47.605,176.761,47.605,176.761L47.605,176.761z
	 M47.605,183.265c-0.932-0.931-1.861-2.784-2.795-3.717v-11.149c0-0.932,0-2.784-0.924-3.705c-0.933,0-1.858-0.935-3.716-0.935
	h-5.574c-0.926,0-1.859,0-2.787,0.935c0,0,0,0.921,0,1.854c0,0.92,0,0.92,0,1.852c0.928,0.933,1.861,0.933,2.787,0.933h3.715h0.933
	c0,0.93,0,0.93,0,1.865v6.498l0,0c0,2.786,0,3.705-0.933,5.57c-0.924,1.864-2.782,2.783-5.574,4.636
	c-1.861,0.932-1.861,1.864-1.861,3.729c0,0.932,0.933,0.932,1.861,0.932c0.933,0,0.933,0,1.859,0
	c3.715-1.864,6.498-3.729,8.357-7.433c0.933,1.853,1.857,2.771,4.652,4.636V183.265L47.605,183.265z M33.67,154.466
	c1.858,0.931,4.641,1.861,7.424,4.646c0.934,0,1.859,0,2.792,0c0,0,0.924,0,0.924-0.92c0.934,0,0.934-0.931,0.934-1.864
	c0-0.931,0-0.931-0.934-1.861c-3.716-1.855-6.5-3.707-9.282-5.572c-0.933,0-1.858,0-2.792,0c0,0-0.928,0.933-0.928,1.865
	c0,0,0,0.931,0,1.852C31.809,153.53,32.737,153.53,33.67,154.466z"/>
<path display="none" fill="#727171" d="M26.842,33.068l17.657-8.446l16.889-7.677v9.98h66.792c23.792,0,42.979,19.188,42.979,42.989
	l0,0c0,23.796-19.188,42.985-42.979,42.985H40.663v-12.286c0.765,0,2.3,0,3.065,0h78.307c19.179,0,35.306-11.509,35.306-30.699l0,0
	c0-19.959-16.127-31.474-35.306-31.474H61.388v10.745l-16.889-8.445L26.842,33.068z"/>
</svg>
