<?xml version="1.0" encoding="utf-8"?>
<!-- Generator: Adobe Illustrator 16.0.0, SVG Export Plug-In . SVG Version: 6.00 Build 0)  -->
<!DOCTYPE svg PUBLIC "-//W3C//DTD SVG 1.1//EN" "http://www.w3.org/Graphics/SVG/1.1/DTD/svg11.dtd">
<svg version="1.1" id="圖層_1" xmlns="http://www.w3.org/2000/svg" xmlns:xlink="http://www.w3.org/1999/xlink" x="0px" y="0px"
	 width="85.04px" height="28.348px" viewBox="0 0 85.04 28.348" enable-background="new 0 0 85.04 28.348" xml:space="preserve">
<g>
	<path fill-rule="evenodd" clip-rule="evenodd" fill="#522678" d="M51.549,12.658c1.149-0.364,1.843-0.618,2.081-0.766
		c0.577-0.329,1.056-0.692,1.438-1.093c0.861,0.802,2.11,1.422,3.738,1.859H51.549z M49.174,14.353v-0.439
		c-0.046-0.035-0.021-0.053,0.075-0.053h8.767c0,0,0.024,0.018,0.074,0.053v0.439H49.174z M49.174,16.046V15.5h8.916v0.546H49.174z
		 M58.09,17.193v0.603c0,0-0.024,0.018-0.074,0.055H49.25c-0.05,0-0.075-0.018-0.075-0.055v-0.603H58.09z M56.076,19.052
		l-0.359,1.039c2.3,0.218,4.122,0.492,5.462,0.818l0.503-1.257c-1.629-0.364-2.825-0.563-3.591-0.601l0.779-0.029
		c0.431-0.016,1.088-0.449,1.088-0.986c0.002-1.366,0.009-2.732,0.014-4.099c0-0.387,0-0.761-0.601-1.12
		c0.432,0.11,1.448,0.223,1.882,0.223l0.574-1.368c-2.73-0.109-4.647-0.764-5.751-1.965h2.803c-0.285,0.216-0.622,0.473-1.007,0.765
		l1.44,0.818c0.765-0.655,1.532-1.348,2.299-2.076l-1.006-0.71h-7.044c0-0.038,0.049-0.091,0.144-0.164l-1.583-0.658
		c-0.622,0.875-1.532,1.586-2.729,2.132l1.294,0.984c0.333-0.144,0.886-0.508,1.653-1.091h1.652
		c-0.767,0.799-1.702,1.348-2.804,1.639c-0.337,0.035-0.791,0.109-1.366,0.216l0.646,1.095h-2.946c-0.146,0-0.216,0.056-0.216,0.163
		v6.015c0,0.106,0.07,0.181,0.216,0.217h1.293c-0.909,0.109-2.036,0.236-3.376,0.382l0.285,1.313c2.205-0.146,4.072-0.4,5.606-0.766
		l-0.285-0.929H56.076z M48.528,10.363c-1.006,0.692-2.181,1.2-3.521,1.529l0.935,1.204c1.197-0.256,2.466-0.84,3.81-1.749
		L48.528,10.363z M45.51,8.394v1.313h3.134l0.893-1.313H45.51z"/>
	<path fill-rule="evenodd" clip-rule="evenodd" fill="#522678" d="M71.431,9.924h4.238c-0.479,0.147-1.03,0.329-1.653,0.548
		C73.011,10.253,72.149,10.072,71.431,9.924 M71.502,12.331c0.718-0.146,1.509-0.348,2.369-0.602c0.05,0,0.145-0.019,0.289-0.057
		c0.862,0.219,1.702,0.438,2.518,0.658H71.502z M69.13,14.899c-0.287,0.328-0.601,0.619-0.935,0.874c0-0.037,0-0.072,0-0.11v-1.858
		c0-0.11,0.07-0.164,0.215-0.164h1.437C69.656,14.187,69.417,14.606,69.13,14.899z M74.089,14.462h-2.658
		c0.046-0.218,0.141-0.456,0.285-0.711l-0.574-0.11h2.947V14.462z M74.089,18.999h-5.894v1.366h13.006l0.65-1.366h-5.965v-0.931
		h4.275l0.684-1.311h-4.959v-0.984h4.598l0.649-1.312h-5.247v-0.821h4.688l0.846-1.31h-3.019l0.359-0.658
		c-0.768-0.216-1.604-0.454-2.516-0.708c0.767-0.256,1.604-0.601,2.516-1.04h1.846l0.813-1.311h-6.683V7.958h-1.871v0.655H66.04
		v1.311h4.023l-0.359,0.82c0.289,0.036,0.842,0.146,1.653,0.327c-0.766,0.147-1.578,0.257-2.443,0.329l0.432,0.93h-2.443
		c-0.289,0-0.454,0.126-0.504,0.383v2.514c0,1.019-0.095,1.858-0.289,2.514c-0.143,0.766-0.527,1.548-1.148,2.351l1.652,0.547
		c0.912-1.312,1.438-2.754,1.583-4.318l0.935,0.656c0.479-0.329,0.958-0.73,1.436-1.203h3.523v0.984H69.56v1.311h4.529V18.999z"/>
	<path fill-rule="evenodd" clip-rule="evenodd" fill="#522678" d="M35.418,14.747v-1.598H39.7l0.935-1.436h-5.217v-1.82
		c0.142,0,0.288,0,0.433,0c1.933-0.148,3.358-0.294,4.277-0.442l-0.291-1.377c-1.064,0.146-2.731,0.276-5.001,0.386
		c-2.174,0.146-4.107,0.219-5.799,0.219l0.217,1.379c1.159,0,2.584-0.019,4.277-0.054v1.708h-5.147v1.436h5.147v1.598H35.418z"/>
	<path fill-rule="evenodd" clip-rule="evenodd" fill="#522678" d="M27.154,15.19c-0.628,1.803-1.788,3.42-3.479,4.854l1.738,0.717
		c1.451-1.211,2.635-2.923,3.553-5.132L27.154,15.19z"/>
	<path fill-rule="evenodd" clip-rule="evenodd" fill="#522678" d="M24.037,12.874c0.918,0.33,2.004,0.883,3.263,1.655l1.085-1.158
		c-1.209-0.775-2.294-1.345-3.263-1.712L24.037,12.874z"/>
	<path fill-rule="evenodd" clip-rule="evenodd" fill="#522678" d="M24.107,9.397c0.873,0.367,1.958,0.993,3.263,1.876l1.16-1.104
		c-1.209-0.883-2.32-1.525-3.334-1.931L24.107,9.397z"/>
	<path fill-rule="evenodd" clip-rule="evenodd" fill="#522678" d="M11.381,19.162H3.84v1.436h15.488l0.895-1.436h-6.888v-3.089
		h4.698l0.959-1.435h-5.657v-2.926h5.328l0.836-1.433h-6.164V8.182h-1.954v2.098H7.827c0.291-0.551,0.482-1.159,0.581-1.82
		L6.522,8.182c-0.337,1.252-0.724,2.208-1.16,2.87c-0.578,0.772-1.304,1.489-2.174,2.152l1.596,0.939
		c0.869-0.699,1.643-1.509,2.32-2.43h4.277v2.926H5.582v1.435h5.799V19.162z"/>
	<path fill-rule="evenodd" clip-rule="evenodd" fill="#522678" d="M31.56,14.744h6.319c1.505,0,2.735,1.499,2.735,3.134
		c0,1.636-1.231,2.974-2.735,2.974H31.56c-1.504,0-2.735-1.338-2.735-2.974S30.055,14.744,31.56,14.744 M31.735,16.288h5.948
		c0.768,0,1.396,0.757,1.396,1.59s-0.629,1.431-1.396,1.431h-5.948c-0.766,0-1.396-0.596-1.396-1.431S30.968,16.288,31.735,16.288z"
		/>
</g>
</svg>
