<?xml version="1.0" encoding="utf-8"?>
<!-- Generator: Adobe Illustrator 16.0.0, SVG Export Plug-In . SVG Version: 6.00 Build 0)  -->
<!DOCTYPE svg PUBLIC "-//W3C//DTD SVG 1.1//EN" "http://www.w3.org/Graphics/SVG/1.1/DTD/svg11.dtd">
<svg version="1.1" id="圖層_1" xmlns="http://www.w3.org/2000/svg" xmlns:xlink="http://www.w3.org/1999/xlink" x="0px" y="0px"
	 width="85.04px" height="28.348px" viewBox="0 0 85.04 28.348" enable-background="new 0 0 85.04 28.348" xml:space="preserve">
<g>
	<path fill="#522678" d="M68.394,10.354H79.6c0.429,0,0.426,0.922,0,0.922H68.099C68.099,10.981,67.972,10.354,68.394,10.354
		 M77.035,14.854c0.149,0.032,0.479,0.208,0.92,0.515l-5.493,0.156c0.488-0.516,0.86-0.917,1.206-1.26h4.175L77.035,14.854z
		 M73.809,19.47h-6.222v1.286h13.346l1.156-1.286h-6.373v-0.861h3.819l1.087-1.175h-4.906l-0.02-0.861l3.953-0.154
		c0.44,0.342,0.933,0.867,1.267,1.243l1.39-0.943c-0.731-0.549-1.877-1.458-3.44-2.452h2.019l0.984-1.091h-13.77V12.34h12.443
		c1.981,0,1.984-3.049,0-3.049H67.003c-0.487,0-0.734,0.172-0.734,0.512v4.629c0,2.261-0.534,4.18-1.609,5.759l1.756,0.615
		c0.441-0.548,0.724-1.303,1.026-2.212c0.461-1.39,0.66-2.878,0.66-4.33h3.294c-0.485,0.445-0.934,0.865-1.424,1.311l-1.684,0.05
		c0.146,0.413,0.206,0.739,0.303,1.15l5.2-0.152l0.02,0.81h-4.977v1.175h4.977v0.862H73.809z M58.613,12.448
		c0.546,0,0.558,0.852,0,0.874H47.551v-0.874H58.613z M51.873,18.195h6.443c0.05,0,0.128,0.024,0.218,0.103
		c0.153,0.128,0.15,0.336,0,0.812c-0.043,0.14-0.194,0.259-0.438,0.361c-1.075,0.205-2.439,0.12-4.103-0.257
		c-0.046-0.033-0.097-0.05-0.146-0.05l-0.071,1.491c2.831,0.444,4.76,0.374,5.786-0.205c0.438-0.243,0.681-0.617,0.73-1.133
		c0.052-0.514,0.112-1.003,0.147-1.688c0.016-0.31-0.096-0.516-0.294-0.616c-0.146-0.035-0.268-0.054-0.364-0.054h-7.325
		c0-0.205,0.05-0.591,0.148-0.796h7.4l1.02-1.064h-6.224v-0.812h4.833c1.743,0,1.775-2.817,0-2.817H47.551v-0.586
		c0-0.136,0.097-0.221,0.294-0.257c4.245,0.103,8.248,0,12.007-0.308l-0.511-1.286c-3.856,0.343-8.228,0.445-13.109,0.308
		c-0.439,0-0.635,0.155-0.587,0.462v5.655c0,0.722-0.097,1.407-0.29,2.059c-0.148,0.721-0.562,1.56-1.249,2.519l1.831,0.771
		c1.026-1.646,1.613-3.429,1.613-5.349v-1.172h5.347v0.812h-4.979v1.064h2.854c-0.44,1.884-1.806,3.258-4.1,3.977l1.245,1.028
		C49.673,20.55,50.992,19.632,51.873,18.195z"/>
	<path fill="#522678" d="M11.341,19.501H3.542v1.366h16.016l0.926-1.366h-7.123v-2.938h4.857l0.992-1.362h-5.849v-2.784h5.509
		l0.866-1.363h-6.375V9.059h-2.021v1.995H7.666c0.301-0.524,0.499-1.101,0.602-1.731L6.316,9.059c-0.349,1.192-0.75,2.1-1.2,2.729
		c-0.598,0.733-1.35,1.417-2.249,2.045l1.65,0.894c0.899-0.666,1.698-1.435,2.399-2.31h4.424v2.784H5.344v1.363h5.998V19.501z"/>
	<path fill="#522678" d="M35.561,15.304v-1.521h4.43l0.966-1.366h-5.396v-1.73c0.147,0,0.297,0,0.448,0
		c1.999-0.142,3.473-0.281,4.424-0.421L40.13,8.955c-1.1,0.139-2.825,0.262-5.172,0.367C32.71,9.462,30.71,9.531,28.96,9.531
		l0.224,1.312c1.2,0,2.675-0.018,4.424-0.051v1.625h-5.323v1.366h5.323v1.52h1.952V15.304z"/>
	<path fill="#522678" d="M27.013,15.723c-0.649,1.717-1.848,3.254-3.598,4.618l1.797,0.682c1.5-1.152,2.725-2.779,3.675-4.88
		L27.013,15.723z"/>
	<path fill="#522678" d="M23.79,13.52c0.949,0.313,2.072,0.839,3.375,1.575l1.122-1.103c-1.251-0.736-2.372-1.278-3.375-1.627
		L23.79,13.52z"/>
	<path fill="#522678" d="M23.863,10.214c0.902,0.35,2.025,0.944,3.375,1.783l1.2-1.049c-1.251-0.839-2.398-1.451-3.448-1.835
		L23.863,10.214z"/>
	<path fill="#522678" d="M38.107,15.3h-6.536c-1.557,0-2.829,1.424-2.829,2.98c0,1.556,1.273,2.829,2.829,2.829h6.536
		c1.556,0,2.83-1.274,2.83-2.829S39.663,15.3,38.107,15.3z M37.901,19.642h-6.149c-0.792,0-1.444-0.567-1.444-1.361
		c0-0.795,0.65-1.515,1.444-1.515h6.149c0.794,0,1.444,0.723,1.444,1.515S38.694,19.642,37.901,19.642z"/>
</g>
</svg>
