<?xml version="1.0" encoding="utf-8"?>
<!-- Generator: Adobe Illustrator 16.0.2, SVG Export Plug-In . SVG Version: 6.00 Build 0)  -->
<!DOCTYPE svg PUBLIC "-//W3C//DTD SVG 1.1//EN" "http://www.w3.org/Graphics/SVG/1.1/DTD/svg11.dtd">
<svg version="1.1" id="圖層_1" xmlns="http://www.w3.org/2000/svg" xmlns:xlink="http://www.w3.org/1999/xlink" x="0px" y="0px"
	 width="171.44px" height="171.44px" viewBox="0 0 171.44 171.44" enable-background="new 0 0 171.44 171.44" xml:space="preserve">
<g>
	<polyline fill="none" stroke="#B3B3B3" stroke-width="9" stroke-miterlimit="10" points="96.479,135.867 157.209,135.867 
		157.209,64.376 	"/>
	<polyline fill="none" stroke="#B3B3B3" stroke-width="9" stroke-miterlimit="10" points="14.23,64.376 14.23,135.867 
		74.961,135.867 	"/>
	<polyline fill="none" stroke="#B3B3B3" stroke-width="9" stroke-miterlimit="10" points="96.479,64.376 164.498,64.376 
		164.498,35.573 6.942,35.573 6.942,64.376 74.961,64.376 	"/>
	
		<rect x="74.961" y="35.573" fill-rule="evenodd" clip-rule="evenodd" fill="none" stroke="#B3B3B3" stroke-width="9" stroke-miterlimit="10" width="21.518" height="100.294"/>
</g>
</svg>
