<?xml version="1.0" encoding="utf-8"?>
<!-- Generator: Adobe Illustrator 16.0.0, SVG Export Plug-In . SVG Version: 6.00 Build 0)  -->
<!DOCTYPE svg PUBLIC "-//W3C//DTD SVG 1.1//EN" "http://www.w3.org/Graphics/SVG/1.1/DTD/svg11.dtd">
<svg version="1.1" id="圖層_1" xmlns="http://www.w3.org/2000/svg" xmlns:xlink="http://www.w3.org/1999/xlink" x="0px" y="0px"
	 width="100px" height="100px" viewBox="0 0 100 100" enable-background="new 0 0 100 100" xml:space="preserve">
<g>
	<g>
		<path fill="#888888" d="M65.018,5.785H35.143c-5.079,0-9.395,4.141-9.395,9.219v70.003c0,5.077,4.225,9.208,9.303,9.208
			l29.923-0.032c5.078,0,9.232-4.132,9.232-9.209l0.045-69.975C74.25,9.903,70.117,5.785,65.018,5.785z M45.764,11.312h8.667
			c0.762,0,1.381,0.618,1.381,1.382c0,0.763-0.619,1.381-1.381,1.381h-8.667c-0.764,0-1.382-0.618-1.382-1.381
			C44.382,11.93,45,11.312,45.764,11.312z M40.556,11.751c0.512-0.511,1.444-0.519,1.955,0c0.256,0.255,0.408,0.615,0.408,0.981
			c0,0.36-0.152,0.718-0.408,0.974c-0.255,0.256-0.614,0.408-0.974,0.408c-0.366,0-0.719-0.151-0.981-0.408
			c-0.255-0.255-0.4-0.614-0.4-0.974C40.156,12.366,40.301,12.007,40.556,11.751z M49.819,91.477c-2.28,0-4.135-1.855-4.135-4.135
			c0-2.28,1.854-4.135,4.135-4.135c2.281,0,4.134,1.854,4.134,4.135C53.953,89.621,52.098,91.477,49.819,91.477z M69.963,80.396
			H30.584V18.911h39.378V80.396L69.963,80.396z"/>
	</g>
</g>
</svg>
