<?xml version="1.0" encoding="utf-8"?>
<!-- Generator: Adobe Illustrator 16.0.0, SVG Export Plug-In . SVG Version: 6.00 Build 0)  -->
<!DOCTYPE svg PUBLIC "-//W3C//DTD SVG 1.1//EN" "http://www.w3.org/Graphics/SVG/1.1/DTD/svg11.dtd">
<svg version="1.1" id="圖層_1" xmlns="http://www.w3.org/2000/svg" xmlns:xlink="http://www.w3.org/1999/xlink" x="0px" y="0px"
	 width="85.039px" height="85.039px" viewBox="0 0 85.039 85.039" enable-background="new 0 0 85.039 85.039" xml:space="preserve">
<path fill-rule="evenodd" clip-rule="evenodd" fill="#ABA8A8" d="M68.046,18.5L68.046,18.5H16.89l-0.687,0.344l-1.03,0.686
	l-0.344,0.687l-0.343,1.031V50.43l0.343,1.029l0.344,0.687l1.03,0.688h0.687h21.286l0.687,0.688l0.344,0.688v5.15l-0.344,0.686
	l-0.344,0.686h-0.687l-4.12,0.687l-3.09,1.029l-1.716,0.688l-0.344,0.688l-0.344,0.342l0.344,0.346l0.687,0.684l2.747,1.033
	l2.06,0.686l2.746,0.344l5.837,0.342l5.836-0.342l2.403-0.344l2.404-0.686l2.746-1.033l0.688-0.684l0.342-0.346l-0.342-0.342
	l-0.346-0.688l-1.715-0.688l-3.434-1.029l-4.12-0.687l-0.686-0.343l-0.346-1.028v-5.15l0.346-0.688l0.686-0.688h20.943h1.029
	l0.687-0.688l0.688-0.687l0.342-1.029V21.248l-0.342-1.031l-0.688-0.687l-0.687-0.686L68.046,18.5z M65.985,22.621L65.985,22.621
	H18.949h-0.343v0.344v25.407v0.342h0.343h47.037h0.688v-0.342V22.964l-0.344-0.344H65.985z M18.949,20.56L18.949,20.56l-0.686,0.344
	l-1.029,0.344l-0.344,1.029l-0.343,0.688v25.407l0.343,0.686l0.344,0.686l1.029,0.688h0.686h47.037h1.031l0.686-0.342l0.344-0.346
	l0.344-0.686v-0.686V22.964v-0.688l-0.688-0.687v-0.343l-0.686-0.344l-1.031-0.344H18.949z M16.89,16.098h51.156l2.06,0.344
	l1.717,1.373l1.031,1.373l0.342,2.061V50.43l-0.342,2.062l-1.031,1.371l-1.717,1.375l-2.06,0.342h-19.57v2.746l3.776,0.688
	l3.434,1.031l1.373,1.028l1.375,0.686l0.686,1.033l0.344,1.371l-0.344,1.375L58.09,66.91l-1.719,1.031l-2.4,0.684l-2.404,0.688
	l-2.747,0.345L45.729,70l-3.09,0.343L39.207,70l-2.747-0.343l-2.747-0.345l-2.404-0.688l-2.402-0.684l-1.717-1.031l-1.029-1.373
	l-0.344-1.375l0.344-1.371l0.687-1.033l1.029-0.686l1.717-1.028l3.089-1.031l4.12-0.688v-2.746H16.89l-1.717-0.342l-1.717-1.375
	l-1.03-1.371l-0.343-2.062V21.248l0.343-2.061l1.03-1.373l1.717-1.373L16.89,16.098z"/>
</svg>
