<?xml version="1.0" encoding="utf-8"?>
<!-- Generator: Adobe Illustrator 16.0.0, SVG Export Plug-In . SVG Version: 6.00 Build 0)  -->
<!DOCTYPE svg PUBLIC "-//W3C//DTD SVG 1.1//EN" "http://www.w3.org/Graphics/SVG/1.1/DTD/svg11.dtd">
<svg version="1.1" id="圖層_1" xmlns="http://www.w3.org/2000/svg" xmlns:xlink="http://www.w3.org/1999/xlink" x="0px" y="0px"
	 width="85.039px" height="85.039px" viewBox="0 0 85.039 85.039" enable-background="new 0 0 85.039 85.039" xml:space="preserve">
<g>
	<path fill-rule="evenodd" clip-rule="evenodd" fill="#ABA8A8" d="M69.545,34.883H45.536v-1.2l-0.12-1.081l-0.239-0.96l-0.48-0.96
		l-0.601-0.72l-0.721-0.721l-0.84-0.48l-0.84-0.24l-0.96-0.12h-0.721l-0.6,0.12l-0.721,0.36l-0.6,0.36l-4.081,2.881l-0.48-0.121
		V24.56h33.612h0.479l0.481,0.12l0.359,0.241l0.36,0.359l0.361,0.24l0.119,0.481l0.24,0.479v0.48V34.883z M36.054,33.683l3.48-2.521
		l0.601-0.24l0.601-0.12h0.359l0.48,0.12l0.361,0.24l0.479,0.36l0.24,0.48l0.241,0.48l0.24,0.601v0.601v3.721v0.601l-0.24,0.6
		l-0.241,0.48l-0.36,0.481l-0.48,0.479l-0.601,0.241l-0.719,0.12l-0.601-0.24l-3.841-1.681l0.359-0.84l0.12-0.96v-1.2l-0.12-0.96
		L36.054,33.683z M69.545,60.572L69.545,60.572v0.48l-0.24,0.359l-0.119,0.479l-0.361,0.362l-0.36,0.239l-0.359,0.24l-0.481,0.119
		l-0.479,0.12H33.532V40.285l0.48-0.12l4.922,2.16l0.839,0.362l0.961,0.12l0.96-0.12l0.84-0.362l0.84-0.479l0.721-0.601l0.601-0.84
		l0.48-0.96l0.239-0.96l0.12-1.08v-0.121h24.009V60.572z M19.127,62.973L19.127,62.973l-0.479-0.12l-0.48-0.119l-0.361-0.24
		l-0.359-0.239l-0.361-0.362l-0.12-0.479l-0.24-0.359v-0.48V37.284h2.401v0.121l0.12,1.08l0.241,1.081l0.479,0.84l0.601,0.84
		l0.72,0.601l0.84,0.479l0.84,0.362l0.961,0.12l0.96-0.12l0.84-0.362l4.921-2.16l0.48,0.12v22.688H19.127z M28.611,38.484
		l-3.841,1.681l-0.361,0.12l-0.479,0.12l-0.48-0.12l-0.361-0.12l-0.359-0.24l-0.481-0.359l-0.24-0.361l-0.239-0.6l-0.241-0.479
		v-0.721v-3.721v-0.601l0.241-0.601l0.239-0.48l0.24-0.48l0.481-0.36l0.359-0.24l0.48-0.12h0.361l0.599,0.12l0.601,0.24l3.482,2.521
		l-0.361,0.84l-0.12,0.96v1.2l0.12,0.96L28.611,38.484z M16.727,26.96L16.727,26.96v-0.48l0.24-0.479l0.12-0.481l0.361-0.24
		l0.359-0.359l0.361-0.241l0.48-0.12h0.479h12.004v7.442l-0.48,0.121l-4.081-2.881l-0.6-0.36l-0.721-0.36l-0.6-0.12H23.93
		l-0.961,0.12l-0.84,0.24l-0.84,0.48l-0.72,0.721l-0.601,0.72l-0.479,0.96l-0.241,0.96l-0.12,1.081v1.2h-2.401V26.96z
		 M32.932,37.884h-1.2l-0.48-0.121l-0.359-0.239l-0.241-0.36l-0.12-0.48v-1.2l0.12-0.481l0.241-0.36l0.359-0.24l0.48-0.12h1.2
		l0.48,0.12l0.359,0.24l0.241,0.36l0.12,0.481v1.2l-0.12,0.48l-0.241,0.36l-0.359,0.239L32.932,37.884z M67.145,22.159H33.532
		h-2.401H19.127h-0.96l-0.961,0.36l-0.719,0.36l-0.722,0.6l-0.599,0.72l-0.481,0.841l-0.24,0.961l-0.12,0.959v7.922v2.401v23.289
		l0.12,0.96l0.24,0.842l0.481,0.838l0.599,0.722l0.722,0.6l0.719,0.48l0.961,0.241l0.96,0.12h48.017l0.96-0.12l0.96-0.241l0.72-0.48
		l0.721-0.6l0.601-0.722l0.48-0.838l0.239-0.842l0.12-0.96V37.284v-2.401V26.96l-0.12-0.959l-0.239-0.961l-0.48-0.841l-0.601-0.72
		l-0.721-0.6l-0.72-0.36l-0.96-0.36H67.145z"/>
	<polygon fill-rule="evenodd" clip-rule="evenodd" fill="#ABA8A8" points="48.178,53.85 48.178,55.051 48.298,55.89 48.418,56.611 
		48.657,57.21 48.896,57.813 49.378,58.291 49.858,58.65 50.459,59.012 51.06,59.133 51.06,60.451 53.219,60.451 53.219,59.133 
		53.939,59.012 54.42,58.65 54.898,58.291 55.38,57.813 55.621,57.21 55.86,56.611 56.1,55.89 56.1,55.051 55.98,54.209 
		55.86,53.49 55.621,52.769 55.26,52.169 54.898,51.69 54.42,51.208 53.46,50.369 52.619,49.527 51.778,48.689 51.419,48.327 
		51.179,47.848 50.938,47.248 50.938,46.646 51.06,45.808 51.299,45.326 51.658,45.086 52.259,44.966 52.859,45.086 53.219,45.326 
		53.46,45.808 53.579,46.646 53.579,47.368 56.1,47.368 56.1,46.767 55.98,45.928 55.86,45.206 55.621,44.606 55.38,44.006 
		54.898,43.525 54.42,43.166 53.939,42.927 53.219,42.687 53.219,41.485 51.06,41.485 51.06,42.687 50.459,42.927 49.858,43.166 
		49.378,43.525 49.018,44.006 48.657,44.606 48.418,45.206 48.298,46.048 48.298,46.767 48.298,47.607 48.537,48.448 48.777,49.049 
		49.138,49.647 49.499,50.128 49.858,50.609 50.818,51.57 51.778,52.289 52.619,53.129 52.979,53.61 53.219,54.089 53.339,54.57 
		53.46,55.171 53.339,56.009 53.099,56.491 52.619,56.73 52.139,56.851 51.538,56.73 51.06,56.491 50.818,56.009 50.698,55.171 
		50.698,53.85 	"/>
</g>
</svg>
