<?xml version="1.0" encoding="utf-8"?>
<!-- Generator: Adobe Illustrator 16.0.0, SVG Export Plug-In . SVG Version: 6.00 Build 0)  -->
<!DOCTYPE svg PUBLIC "-//W3C//DTD SVG 1.1//EN" "http://www.w3.org/Graphics/SVG/1.1/DTD/svg11.dtd">
<svg version="1.1" id="圖層_1" xmlns="http://www.w3.org/2000/svg" xmlns:xlink="http://www.w3.org/1999/xlink" x="0px" y="0px"
	 width="28.918px" height="21.584px" viewBox="0 0 28.918 21.584" enable-background="new 0 0 28.918 21.584" xml:space="preserve">
<g>
	<path fill="#555555" d="M21.586,9.742h-5.398l0,0l-0.145-0.359l-0.217-0.217L15.25,8.591l2.593-4.896l0,0h0.071l0,0h0.217
		l0.217-0.216l0.144-0.145V3.118l0,0V2.759l-0.144-0.072l-0.217-0.144l-0.217-0.072l0,0l-0.216,0.072l-0.216,0.144l-0.146,0.072
		l-0.071,0.359l0,0l0.071,0.216l0.146,0.145l-2.521,5.04l0,0l-0.648-0.144v0.359l0,0l0.288,0.072l0.36,0.144l0,0l0,0l0,0l0,0l0,0
		l0.433,0.36l0.358,0.432h-1.439v0.433h1.729l0,0l0,0l0,0l0,0h5.328v9h-7.057v0.359h7.271l0,0h0.072l0.145-0.145V9.959l0,0
		l-0.145-0.145L21.586,9.742L21.586,9.742L21.586,9.742z M14.314,8.375L14.314,8.375v0.359l0,0l-0.359,0.072L13.668,8.95l0,0l0,0
		l0,0h-0.145l0,0l0,0L13.09,9.31l-0.216,0.432l0,0h1.439v0.433h-1.8l0,0H10.57V9.742h1.872l0.288-0.576l0.432-0.432l0,0L10.57,3.767
		V2.901l0,0v-0.43l0,0l0.216,0.072l0.216,0.144l0.072,0.216v0.216l0,0v0.216l-0.072,0.217l0,0l2.664,4.968l0.289-0.144L14.314,8.375
		L14.314,8.375z M10.57,3.767L10.57,3.767L10.57,3.767L10.57,3.767z M10.57,19.534h3.744v-0.359H10.57V19.534L10.57,19.534z
		 M10.57,2.901l0.072,0.146l0.144,0.071l-0.144-0.071l0,0L10.57,2.901z M10.57,2.471L10.57,2.471v0.432l0,0v0.864l0,0l0,0
		l-0.359-0.072L10.14,3.551L9.923,3.334V3.118l0,0V2.901l0.216-0.216l0.072-0.145L10.57,2.471L10.57,2.471z M10.57,9.742H7.259l0,0
		L7.114,9.813L7.043,9.959v9.433l0,0l0.071,0.144h0.145h3.312v-0.358H7.476v-9h3.096L10.57,9.742L10.57,9.742z M10.354,3.118
		L10.354,3.118v0.216l0,0V3.263V3.118l0.072-0.071l0,0l0.144-0.146l-0.216,0.146V3.118L10.354,3.118z"/>
	<path fill="#555555" d="M13.091,18.67h4.968l0,0l0.072-0.146l0.145-0.144V10.82l0,0l-0.145-0.144l-0.072-0.072h-4.968v0.432h4.752
		v7.128h-4.752V18.67z M8.123,10.605L8.123,10.605l-0.072,0.073l-0.145,0.144v7.562l0,0l0.145,0.145l0.072,0.145h4.968v-0.504H8.338
		V11.04h4.753v-0.432H8.123V10.605z"/>
	<path fill="#555555" d="M19.715,18.67L19.715,18.67v-0.504l0,0h0.287l0.217-0.218l0.145-0.215l0.072-0.289l0,0l-0.072-0.215
		l-0.145-0.217l-0.217-0.216h-0.287v-0.505l0,0l0.432,0.145l0.433,0.217l0.217,0.359l0.071,0.432l0,0l-0.071,0.504l-0.217,0.361
		l-0.433,0.215L19.715,18.67L19.715,18.67L19.715,18.67z M19.715,16.799L19.715,16.799L19.715,16.799z M19.715,18.67L19.715,18.67
		v-0.504l0,0h-0.359l-0.217-0.218l-0.146-0.215l-0.071-0.289l0,0l0.071-0.215l0.146-0.217l0.217-0.216h0.359v-0.505l0,0
		l-0.504,0.145l-0.288,0.217l-0.36,0.359v0.432l0,0v0.504l0.36,0.361l0.288,0.215L19.715,18.67L19.715,18.67L19.715,18.67z
		 M19.715,16.799L19.715,16.799L19.715,16.799z"/>
	<polygon fill="#555555" points="19.211,11.397 20.361,11.397 20.361,11.397 20.436,11.397 20.578,11.254 20.578,11.254 
		20.436,11.039 20.361,11.039 19.211,11.039 19.211,11.039 19.141,11.039 18.994,11.254 18.994,11.254 19.141,11.397 	"/>
	<polygon fill="#555555" points="19.211,12.552 20.361,12.552 20.361,12.552 20.436,12.479 20.578,12.334 20.578,12.334 
		20.436,12.118 20.361,12.118 19.211,12.118 19.211,12.118 19.141,12.118 18.994,12.334 18.994,12.334 19.141,12.479 	"/>
	<polygon fill="#555555" points="19.211,13.702 20.361,13.702 20.361,13.702 20.436,13.56 20.578,13.485 20.578,13.485 
		20.436,13.271 20.361,13.271 19.211,13.271 19.211,13.271 19.141,13.271 18.994,13.485 18.994,13.485 19.141,13.56 	"/>
	<polygon fill="#555555" points="19.211,14.78 20.361,14.78 20.361,14.78 20.436,14.64 20.578,14.565 20.578,14.565 20.436,14.423 
		20.361,14.351 19.211,14.351 19.211,14.351 19.141,14.423 18.994,14.565 18.994,14.565 19.141,14.64 	"/>
	<polygon fill="#555555" points="19.211,15.86 20.361,15.86 20.361,15.86 20.436,15.791 20.578,15.646 20.578,15.646 20.436,15.573 
		20.361,15.431 19.211,15.431 19.211,15.431 19.141,15.573 18.994,15.646 18.994,15.646 19.141,15.791 	"/>
</g>
</svg>
