<?xml version="1.0" encoding="utf-8"?>
<!-- Generator: Adobe Illustrator 16.0.0, SVG Export Plug-In . SVG Version: 6.00 Build 0)  -->
<!DOCTYPE svg PUBLIC "-//W3C//DTD SVG 1.1//EN" "http://www.w3.org/Graphics/SVG/1.1/DTD/svg11.dtd">
<svg version="1.1" id="圖層_1" xmlns="http://www.w3.org/2000/svg" xmlns:xlink="http://www.w3.org/1999/xlink" x="0px" y="0px"
	 width="8.504px" height="8.504px" viewBox="9.922 9.922 8.504 8.504" enable-background="new 9.922 9.922 8.504 8.504"
	 xml:space="preserve">
<polygon fill="#BA2A21" points="10.872,14.173 14.172,16.078 17.473,17.984 17.473,14.173 17.473,10.362 14.172,12.268 "/>
</svg>
