<?xml version="1.0" encoding="utf-8"?>
<!-- Generator: Adobe Illustrator 16.0.0, SVG Export Plug-In . SVG Version: 6.00 Build 0)  -->
<!DOCTYPE svg PUBLIC "-//W3C//DTD SVG 1.1//EN" "http://www.w3.org/Graphics/SVG/1.1/DTD/svg11.dtd">
<svg version="1.1" id="圖層_1" xmlns="http://www.w3.org/2000/svg" xmlns:xlink="http://www.w3.org/1999/xlink" x="0px" y="0px"
	 width="100px" height="92px" viewBox="0 0 100 92" enable-background="new 0 0 100 92" xml:space="preserve">
<path fill-rule="evenodd" clip-rule="evenodd" fill="#f05055" d="M49.855,13.711c3.18-2.429,5.737-5.206,8.999-7.066
	c16.295-9.297,37.613,1.393,40.183,19.975c1.249,9.022-1.196,16.871-7.546,23.358C78.5,63.248,65.41,76.421,52.354,89.63
	c-1.479,1.495-2.385,1.506-3.908-0.006C35.177,76.457,21.804,63.39,8.703,50.057c-7.572-7.705-9.855-17.16-6.637-27.474
	C5.263,12.339,12.498,5.92,22.997,3.824c9.982-1.993,18.611,1.073,25.625,8.512C49.044,12.784,49.441,13.254,49.855,13.711
	C49.89,13.749,50.196,13.859,49.855,13.711z"/>
<path fill-rule="evenodd" clip-rule="evenodd" fill="#f05055" d="M49.904,18.24c2.75-2.101,4.932-4.535,7.753-6.145
	C76.25,0.625,91.778,12.929,94,29c1.081,7.803-2.623,14.963-8.115,20.574C74.649,61.052,63.328,72.445,52.036,83.87
	c-1.279,1.293-2.063,1.302-3.38-0.005c-11.477-11.389-23.043-22.69-34.375-34.223c-6.549-6.664-11.19-15.097-8.406-24.018
	c2.765-8.86,8.75-16,19.625-17.583c8.633-1.723,14.821,2.651,23.156,9.083c0.422,0.325,0.86,0.687,1.218,1.082
	C49.904,18.24,50.2,18.368,49.904,18.24z"/>
</svg>
