<?xml version="1.0" encoding="utf-8"?>
<!-- Generator: Adobe Illustrator 16.0.0, SVG Export Plug-In . SVG Version: 6.00 Build 0)  -->
<!DOCTYPE svg PUBLIC "-//W3C//DTD SVG 1.1//EN" "http://www.w3.org/Graphics/SVG/1.1/DTD/svg11.dtd">
<svg version="1.1" id="Capa_1" xmlns="http://www.w3.org/2000/svg" xmlns:xlink="http://www.w3.org/1999/xlink" x="0px" y="0px"
	 width="38.445px" height="38.475px" viewBox="0 0 38.445 38.475" enable-background="new 0 0 38.445 38.475" xml:space="preserve">
<path fill="#FFFFFF" d="M33.68,14.812c0-7.972-6.485-14.458-14.458-14.458S4.764,6.84,4.764,14.812c0,3.033,0.933,5.939,2.698,8.402
	l3.72,5.299v4.338l2.636,5.271h10.809l2.638-5.271l-0.001-4.338l3.719-5.297C32.747,20.751,33.68,17.845,33.68,14.812z
	 M13.395,29.268H25.05v2.215H13.395V29.268z M15.185,35.909l-1.106-2.214h10.287l-1.106,2.214H15.185z M31.418,15.918
	c-0.193,2.166-0.958,4.225-2.237,6.012l-3.6,5.125H12.863l-3.591-5.117L9.265,21.93c-1.281-1.787-2.044-3.846-2.238-6.012
	l0.001-2.212c0.561-6.236,5.816-11.14,12.194-11.14c6.379,0,11.634,4.903,12.193,11.14L31.418,15.918z"/>
</svg>
