<?xml version="1.0" encoding="utf-8"?>
<!-- Generator: Adobe Illustrator 24.0.0, SVG Export Plug-In . SVG Version: 6.00 Build 0)  -->
<svg version="1.1" id="圖層_1" xmlns="http://www.w3.org/2000/svg" xmlns:xlink="http://www.w3.org/1999/xlink" x="0px" y="0px"
	 viewBox="0 0 22 22" style="enable-background:new 0 0 22 22;" xml:space="preserve">
<style type="text/css">
	.st0{fill:#9FA0A0;}
</style>
<path class="st0" d="M20.71,18.8l-6.01-6.01c-0.25-0.16-0.58-0.16-0.82,0.08l-0.17,0.17l-1.97-1.92c2.02-2.56,1.87-6.25-0.49-8.61
	C9.93,1.27,8.29,0.62,6.64,0.62c-1.73,0-3.37,0.66-4.61,1.97c-2.55,2.55-2.55,6.66,0,9.21C3.27,13.04,5,13.7,6.64,13.7
	c1.39,0,2.83-0.5,3.99-1.44l1.94,1.94l-0.16,0.16c-0.25,0.25-0.25,0.58-0.08,0.82l6.09,6.01c0.16,0.16,0.58,0.16,0.82-0.08l1.4-1.48
	C20.96,19.37,20.96,19.04,20.71,18.8z M10.02,10.49c-0.9,0.99-2.14,1.4-3.37,1.4c-1.23,0-2.47-0.41-3.37-1.32
	c-1.89-1.89-1.89-4.94,0-6.75c0.9-0.99,2.14-1.4,3.37-1.4c1.23,0,2.39,0.41,3.37,1.32C11.83,5.63,11.83,8.68,10.02,10.49z"/>
</svg>
