<?xml version="1.0" encoding="utf-8"?>
<!-- Generator: Adobe Illustrator 16.0.0, SVG Export Plug-In . SVG Version: 6.00 Build 0)  -->
<!DOCTYPE svg PUBLIC "-//W3C//DTD SVG 1.1//EN" "http://www.w3.org/Graphics/SVG/1.1/DTD/svg11.dtd">
<svg version="1.1" id="Capa_1" xmlns="http://www.w3.org/2000/svg" xmlns:xlink="http://www.w3.org/1999/xlink" x="0px" y="0px"
	 width="38.445px" height="38.475px" viewBox="0 0 38.445 38.475" enable-background="new 0 0 38.445 38.475" xml:space="preserve">
<g>
	<path fill="#FFFFFF" d="M30.236,14.943l-4.732-3.182h0.479c0.585,0,1.059-0.474,1.059-1.059s-0.474-1.058-1.059-1.058h-1.47
		c1.627-2.097,2.528-4.687,2.528-7.396v-0.01c0-0.583-0.474-1.058-1.059-1.058H13.287c-0.583,0-1.058,0.474-1.058,1.058v0.01
		c0,2.709,0.901,5.298,2.529,7.396h-1.471c-0.583,0-1.058,0.473-1.058,1.058s0.475,1.059,1.058,1.059h0.481l-4.733,3.182
		c-3.345,2.248-5.34,5.997-5.34,10.025c0,2.929,1.06,5.756,2.987,7.963c1.93,2.209,4.592,3.633,7.492,4.01
		c1.813,0.238,3.637,0.354,5.462,0.354c1.825,0,3.648-0.115,5.461-0.354c2.901-0.377,5.563-1.801,7.494-4.01
		c1.925-2.207,2.986-5.034,2.986-7.963C35.577,20.94,33.579,17.191,30.236,14.943z M24.871,3.297
		c-0.256,2.438-1.399,4.696-3.231,6.348h-4.007c-1.834-1.654-2.977-3.91-3.232-6.348H24.871z M24.823,34.843
		c-3.442,0.447-6.934,0.447-10.376,0c-4.924-0.64-8.636-4.885-8.636-9.875c0-3.324,1.646-6.416,4.404-8.269l7.344-4.938h4.151
		l7.345,4.938c2.759,1.853,4.403,4.944,4.403,8.269C33.459,29.958,29.747,34.203,24.823,34.843z"/>
	<g>
		<path fill="#FFFFFF" d="M13.844,22.791c-1.119-0.492-1.678-1.209-1.678-2.148c0-0.895,0.708-1.678,2.126-2.349
			c0.968-0.493,2.349-0.761,4.139-0.806v-0.402c0-0.269,0.148-0.47,0.447-0.604c0.296-0.134,0.596-0.201,0.896-0.201
			c0.447,0,0.782,0.067,1.007,0.201c0.224,0.134,0.335,0.336,0.335,0.604v0.402c1.415,0.134,2.686,0.358,3.804,0.671
			c1.191,0.447,1.938,0.939,2.237,1.477c0.297,0.627,0.336,1.029,0.112,1.208c-0.3,0.269-0.783,0.403-1.454,0.403
			c-0.672,0-1.119-0.201-1.343-0.604c-0.3-0.447-0.822-0.828-1.566-1.141c-0.447-0.18-1.046-0.291-1.79-0.336v3.289
			c2.461,0.224,4.176,0.56,5.146,1.007c1.191,0.627,1.79,1.409,1.79,2.35c0,0.939-0.672,1.745-2.014,2.416
			c-1.194,0.627-2.836,0.962-4.923,1.007v0.537c0,0.269-0.111,0.47-0.335,0.604c-0.225,0.179-0.56,0.268-1.007,0.268
			c-0.375-0.044-0.672-0.134-0.896-0.268c-0.299-0.135-0.447-0.336-0.447-0.604v-0.537c-2.014-0.134-3.58-0.47-4.699-1.007
			c-1.269-0.626-2.052-1.365-2.349-2.215c-0.299-0.627-0.188-1.029,0.335-1.208c0.596-0.224,1.155-0.269,1.678-0.135
			c0.372,0.179,0.596,0.403,0.671,0.672c0.224,0.581,0.708,1.073,1.455,1.477c0.745,0.447,1.714,0.693,2.909,0.738v-3.759
			C16.49,23.574,14.962,23.239,13.844,22.791z M18.43,19.166c-1.045,0.045-1.79,0.156-2.238,0.336
			c-0.821,0.313-1.23,0.693-1.23,1.141c0,0.358,0.26,0.672,0.783,0.939c0.596,0.269,1.491,0.493,2.685,0.672V19.166z M21.115,27.624
			c1.268-0.135,2.274-0.358,3.021-0.672c0.744-0.313,1.119-0.693,1.119-1.141c0.072-0.492-0.336-0.896-1.23-1.209
			c-0.599-0.357-1.566-0.559-2.909-0.604V27.624z"/>
	</g>
</g>
</svg>
