<?xml version="1.0" encoding="utf-8"?>
<!-- Generator: Adobe Illustrator 16.0.0, SVG Export Plug-In . SVG Version: 6.00 Build 0)  -->
<!DOCTYPE svg PUBLIC "-//W3C//DTD SVG 1.1//EN" "http://www.w3.org/Graphics/SVG/1.1/DTD/svg11.dtd">
<svg version="1.1" id="圖層_1" xmlns="http://www.w3.org/2000/svg" xmlns:xlink="http://www.w3.org/1999/xlink" x="0px" y="0px"
	 width="100px" height="100px" viewBox="0 0 100 100" enable-background="new 0 0 100 100" xml:space="preserve">
<g id="sign_·_ecommerce_·_shopping_·_tag_·_sale">
	<g>
		<path fill="#888888" d="M33.176,81.37c-0.598,0-1.155-0.237-1.57-0.669c-0.403-0.414-0.621-0.965-0.611-1.546
			c0.009-0.584,0.245-1.129,0.665-1.533l4.338-4.343c0.168-0.168,0.261-0.394,0.261-0.632c0-0.237-0.093-0.46-0.26-0.627
			l-2.174-2.176c-0.168-0.167-0.394-0.26-0.633-0.26c-0.238,0-0.461,0.092-0.63,0.26l-2.172,2.175
			c-0.993,0.993-2.313,1.539-3.716,1.539c-1.403,0-2.722-0.546-3.714-1.539l-2.172-2.175c-0.992-0.992-1.539-2.311-1.539-3.713
			s0.546-2.721,1.539-3.714l4.346-4.347c0.416-0.402,0.954-0.619,1.522-0.619c0.568,0,1.105,0.217,1.515,0.61
			c0.863,0.836,0.887,2.22,0.056,3.084l-4.355,4.354c-0.168,0.168-0.261,0.394-0.261,0.632s0.093,0.462,0.261,0.629l2.174,2.174
			c0.168,0.169,0.393,0.262,0.631,0.262s0.462-0.092,0.63-0.261l2.172-2.174c0.994-0.993,2.313-1.539,3.715-1.539
			c1.403,0,2.722,0.546,3.715,1.538l1.984,1.985h0.377l0,0.39c0.873,0.966,1.35,2.204,1.35,3.516c0,1.403-0.547,2.723-1.54,3.713
			l-4.346,4.346C34.282,81.152,33.744,81.37,33.176,81.37L33.176,81.37z"/>
	</g>
	<g>
		<path fill="#888888" d="M44.511,70.035c-0.764,0-1.481-0.406-1.873-1.06L32.861,52.68c-0.516-0.859-0.381-1.954,0.327-2.661
			l2.174-2.175c0.413-0.411,0.96-0.636,1.542-0.636c0.395,0,0.783,0.107,1.122,0.311l16.295,9.776
			c0.5,0.301,0.852,0.776,0.992,1.342c0.142,0.566,0.055,1.151-0.246,1.649c-0.39,0.653-1.107,1.06-1.871,1.06
			c-0.394,0-0.781-0.107-1.12-0.311l-3.972-2.385l-4.11,4.109l2.382,3.971c0.618,1.031,0.283,2.374-0.746,2.994
			C45.292,69.928,44.904,70.035,44.511,70.035z M41.68,58.907l2.564-2.565l-6.416-3.852L41.68,58.907z"/>
	</g>
	<g>
		<path fill="#888888" d="M57.992,56.548c-0.581,0-1.128-0.227-1.54-0.637L43.416,42.874c-0.449-0.463-0.667-1.015-0.657-1.597
			c0.01-0.582,0.246-1.125,0.665-1.531c0.41-0.395,0.948-0.612,1.516-0.612c0.597,0,1.154,0.237,1.568,0.667l11.486,11.483
			l4.978-4.976c0.416-0.402,0.955-0.619,1.521-0.619c0.567,0,1.105,0.216,1.515,0.609c0.863,0.837,0.887,2.219,0.056,3.084
			l-6.529,6.528C59.122,56.321,58.573,56.548,57.992,56.548z"/>
	</g>
	<g>
		<path fill="#888888" d="M69.305,45.235c-0.582,0-1.13-0.226-1.54-0.638L54.729,31.563c-0.412-0.411-0.64-0.959-0.64-1.542
			s0.228-1.131,0.64-1.543l5.432-5.432c0.455-0.44,0.993-0.657,1.562-0.657c0.596,0,1.153,0.236,1.567,0.666
			c0.835,0.865,0.811,2.248-0.055,3.083l-3.881,3.883l3.434,3.434l1.719-1.716c0.416-0.403,0.954-0.62,1.523-0.62
			c0.568,0,1.106,0.218,1.515,0.613c0.863,0.832,0.888,2.215,0.055,3.081l-1.727,1.726l3.433,3.436l3.893-3.891
			c0.453-0.44,0.991-0.657,1.558-0.657c0.596,0,1.154,0.236,1.57,0.664c0.836,0.866,0.812,2.249-0.055,3.084l-5.424,5.425
			C70.435,45.009,69.888,45.235,69.305,45.235z"/>
	</g>
	<g>
		<path fill="#888888" d="M33.196,96.187c-2.224,0-4.315-0.866-5.888-2.44L5.579,72.021c-3.244-3.248-3.244-8.531,0-11.775
			l46.025-46.009c2.21-2.202,5.009-3.612,8.096-4.08L83.36,6.623c0.405-0.061,0.817-0.091,1.226-0.091
			c0.419,0,0.84,0.032,1.255,0.095c4.539,0.694,7.667,4.95,6.975,9.488L91.14,27.007c3.636,6.742,5.719,16.492,5.719,26.801
			c0,20.176-7.706,35.979-17.543,35.979c-7.012,0-13.039-7.781-15.875-20.397L39.083,93.748
			C37.511,95.32,35.419,96.187,33.196,96.187z M84.601,10.885c-0.203,0-0.405,0.016-0.603,0.045l-23.659,3.534
			c-2.155,0.326-4.113,1.311-5.66,2.849L8.666,63.328c-1.545,1.548-1.545,4.063,0,5.607L30.39,90.662
			c0.751,0.717,1.75,1.117,2.804,1.117c1.054,0,2.053-0.4,2.815-1.129l46.036-46.024c1.514-1.509,2.524-3.501,2.847-5.611
			l1.72-11.182c-0.681-1.152-1.495-2.214-2.429-3.165c-0.203,0.268-0.426,0.52-0.665,0.753c-1.273,1.245-2.958,1.931-4.742,1.931
			c-1.845,0-3.57-0.727-4.858-2.046c-2.614-2.677-2.563-6.985,0.113-9.601c1.304-1.242,3.005-1.922,4.797-1.922
			s3.493,0.681,4.789,1.917c1.199,1.195,1.895,2.75,1.984,4.417c0.688,0.523,1.334,1.1,1.932,1.726l0.979-6.383
			c0.03-0.198,0.047-0.401,0.047-0.605c0.002-1.06-0.408-2.056-1.156-2.806S85.659,10.886,84.601,10.885z M67.156,65.672
			c2.048,11.649,7.026,19.755,12.159,19.755c7.021,0,13.184-14.774,13.184-31.617c0.091-6.29-0.796-12.484-2.638-18.459
			l-0.668,4.317c-0.459,3.025-1.906,5.881-4.074,8.04L67.156,65.672z M78.301,18.082c-0.493,0.093-0.943,0.334-1.302,0.702
			c-0.462,0.472-0.71,1.095-0.702,1.754c0.007,0.659,0.272,1.276,0.745,1.736c0.464,0.453,1.075,0.702,1.724,0.702
			c0.625,0,1.215-0.231,1.672-0.653c-0.368-0.084-0.744-0.128-1.126-0.131c-1.198,0-2.179-0.978-2.179-2.18
			C77.133,19.176,77.606,18.448,78.301,18.082z"/>
	</g>
</g>
</svg>
