<?xml version="1.0" encoding="utf-8"?>
<!-- Generator: Adobe Illustrator 16.0.0, SVG Export Plug-In . SVG Version: 6.00 Build 0)  -->
<!DOCTYPE svg PUBLIC "-//W3C//DTD SVG 1.1//EN" "http://www.w3.org/Graphics/SVG/1.1/DTD/svg11.dtd">
<svg version="1.1" id="圖層_1" xmlns="http://www.w3.org/2000/svg" xmlns:xlink="http://www.w3.org/1999/xlink" x="0px" y="0px"
	 width="100px" height="100px" viewBox="0 0 100 100" enable-background="new 0 0 100 100" xml:space="preserve">
<radialGradient id="SVGID_1_" cx="50.9146" cy="53.2939" r="47.493" gradientUnits="userSpaceOnUse">
	<stop  offset="0" style="stop-color:#F0EC9D"/>
	<stop  offset="1" style="stop-color:#EAC72C"/>
</radialGradient>
<path fill-rule="evenodd" clip-rule="evenodd" fill="url(#SVGID_1_)" d="M20.842,34.581c4.577,0,9.151-0.023,13.727,0.023
	c0.882,0.006,1.243-0.264,1.518-1.119c2.515-7.874,5.091-15.73,7.639-23.591c0.156-0.474,0.229-0.975,0.335-1.462
	c0.611-2.746,2.912-4.767,5.563-4.879c2.944-0.128,5.317,1.593,6.189,4.408c1.58,5.1,3.188,10.189,4.8,15.272
	c1.066,3.354,2.2,6.685,3.228,10.048c0.294,0.979,0.716,1.335,1.79,1.329c8.374-0.052,16.751-0.038,25.124-0.019
	c1.001,0,2.003,0.099,2.998,0.227c2.33,0.307,3.85,1.675,4.494,3.873c0.64,2.193,0.127,4.241-1.64,5.722
	c-2.099,1.757-4.317,3.379-6.526,4.999c-5.312,3.89-10.636,7.769-15.993,11.601c-0.784,0.56-0.885,1.033-0.596,1.917
	c2.735,8.328,5.466,16.657,8.082,25.029c0.417,1.333,0.582,2.934,0.28,4.277c-0.833,3.682-4.948,5.399-8.095,3.321
	c-4.119-2.71-8.082-5.667-12.089-8.552c-3.493-2.507-6.98-5.021-10.418-7.603c-0.898-0.673-1.489-0.752-2.452-0.037
	c-6.804,5.027-13.638,10.019-20.536,14.917c-1.217,0.868-2.727,1.62-4.181,1.807c-3.18,0.405-5.908-2.182-5.934-5.402
	c-0.009-1.158,0.163-2.369,0.514-3.476c2.571-8.101,5.189-16.177,7.851-24.244c0.316-0.957,0.131-1.427-0.663-2.001
	c-6.573-4.728-13.111-9.5-19.662-14.261c-0.991-0.717-2.117-1.297-2.984-2.14c-1.883-1.824-2.114-4.096-1.19-6.453
	c0.882-2.258,3.051-3.589,5.513-3.582c4.438,0.006,8.875,0,13.314,0C20.842,34.551,20.842,34.565,20.842,34.581z"/>
</svg>
