<?xml version="1.0" encoding="utf-8"?>
<!-- Generator: Adobe Illustrator 16.0.0, SVG Export Plug-In . SVG Version: 6.00 Build 0)  -->
<!DOCTYPE svg PUBLIC "-//W3C//DTD SVG 1.1//EN" "http://www.w3.org/Graphics/SVG/1.1/DTD/svg11.dtd">
<svg version="1.1" id="圖層_1" xmlns="http://www.w3.org/2000/svg" xmlns:xlink="http://www.w3.org/1999/xlink" x="0px" y="0px"
	 width="85.039px" height="85.039px" viewBox="0 0 85.039 85.039" enable-background="new 0 0 85.039 85.039" xml:space="preserve">
<g>
	<path fill="#ABA8A8" d="M20.336,38.051l-0.031-1.007h1.007L20.336,38.051z M20.336,38.051l0.977-1.007h49.004v1.96H21.313
		L20.336,38.051z M70.316,37.044h1.006l-0.029,1.007L70.316,37.044z M70.316,37.044l0.977,1.007l-0.04,1.293L69.3,39.292l0.04-1.295
		L70.316,37.044z M71.253,39.344v0.031l-0.001,0.028L71.253,39.344z M71.253,39.344v0.031l-0.079,1.254l-1.953-0.115L69.3,39.26
		L71.253,39.344z M71.174,40.629l-0.003,0.031l0.007-0.063L71.174,40.629z M71.174,40.629l-0.003,0.031l-0.117,1.254l-1.945-0.176
		l0.117-1.254L71.174,40.629z M71.054,41.915l-0.002,0.031l-0.007,0.03L71.054,41.915z M71.054,41.915l-0.009,0.062l-0.194,1.255
		l-1.93-0.299l0.194-1.255L71.054,41.915z M70.851,43.231l-0.005,0.035l-0.008,0.042L70.851,43.231z M70.851,43.231l-0.005,0.035
		L70.61,44.48l-1.921-0.367l0.234-1.216L70.851,43.231z M70.61,44.48l-0.006,0.031l-0.001,0.007L70.61,44.48z M70.61,44.48
		l-0.007,0.038l-0.274,1.176l-1.906-0.443l0.273-1.177L70.61,44.48z M70.329,45.694l-0.006,0.028l-0.011,0.029L70.329,45.694z
		 M70.329,45.694l-0.017,0.058l-0.353,1.175l-1.876-0.558l0.354-1.176L70.329,45.694z M69.96,46.927l-0.01,0.039L69.96,46.927z
		 M69.96,46.927l-0.01,0.039l-0.393,1.139l-1.854-0.637l0.393-1.139L69.96,46.927z M69.558,48.104l-0.005,0.013l-0.023,0.052
		L69.558,48.104z M69.558,48.104l-0.028,0.064l-0.47,1.097L67.261,48.5l0.469-1.099L69.558,48.104z M69.06,49.266l-0.009,0.021
		l-0.012,0.021L69.06,49.266z M69.06,49.266l-0.021,0.043l-0.508,1.059l-1.762-0.851l0.51-1.06L69.06,49.266z M68.531,50.367
		l-0.003,0.004l-0.01,0.02L68.531,50.367z M68.531,50.367l-0.013,0.023l-0.548,1.056l-1.739-0.894l0.55-1.06L68.531,50.367z
		 M67.971,51.446l-0.03,0.06l-0.005,0.007L67.971,51.446z M67.971,51.446l-0.035,0.066l-0.628,1.02l-1.668-1.026l0.627-1.02
		L67.971,51.446z M67.308,52.532l-0.036,0.049l0.056-0.082L67.308,52.532z M67.308,52.532l-0.036,0.049l-0.667,0.94l-1.594-1.125
		l0.667-0.94L67.308,52.532z M66.604,53.521l-0.022,0.033l-0.009,0.01L66.604,53.521z M66.604,53.521l-0.031,0.043l-0.744,0.94
		l-1.532-1.208l0.744-0.941L66.604,53.521z M65.829,54.505l-0.027,0.039l-0.038,0.045L65.829,54.505z M65.829,54.505l-0.027,0.039
		l-0.784,0.901l-1.478-1.287l0.785-0.9L65.829,54.505z M65.018,55.445l-0.031,0.031l0.045-0.048L65.018,55.445z M65.018,55.445
		l-0.031,0.031l-0.823,0.862l-1.415-1.346l0.821-0.864L65.018,55.445z M64.163,56.339l-0.292,0.307h-0.415L64.163,56.339z
		 M64.163,56.339l-0.707-0.673L64.163,56.339z M64.163,56.339l-0.292,0.307h-0.415L64.163,56.339z M64.163,56.339l-0.707,0.307
		H28.173v-1.959h35.283L64.163,56.339z M28.173,56.646h-0.416l-0.293-0.307L28.173,56.646z M28.173,56.646l-0.708-0.307
		l-0.823-0.862l1.417-1.348l0.823,0.864L28.173,56.646z M26.641,55.477l-0.007-0.009l-0.023-0.026L26.641,55.477z M26.641,55.477
		l-0.03-0.035l-0.785-0.9l1.478-1.28l0.784,0.904L26.641,55.477z M25.826,54.541l-0.015-0.017l-0.039-0.046L25.826,54.541z
		 M25.826,54.541l-0.015-0.017l-0.746-0.9l1.508-1.247l0.745,0.9L25.826,54.541z M25.066,53.624l-0.008-0.01l-0.045-0.066
		L25.066,53.624z M25.066,53.624l-0.054-0.076l-0.667-0.981l1.616-1.094l0.667,0.98L25.066,53.624z M24.346,52.566l-0.026-0.034
		l-0.032-0.053L24.346,52.566z M24.346,52.566l-0.026-0.034l-0.627-1.02l1.669-1.026l0.627,1.02L24.346,52.566z M23.692,51.513
		l-0.004-0.007l-0.029-0.06L23.692,51.513z M23.692,51.513l-0.034-0.066l-0.549-1.056l1.738-0.897l0.549,1.06L23.692,51.513z
		 M23.109,50.391l-0.009-0.02l-0.002-0.004L23.109,50.391z M23.109,50.391l-0.012-0.023l-0.51-1.059l1.761-0.852l0.511,1.06
		L23.109,50.391z M22.587,49.309l-0.01-0.02l-0.009-0.023L22.587,49.309z M22.587,49.309l-0.019-0.043l-0.47-1.097l1.799-0.768
		l0.471,1.099L22.587,49.309z M22.098,48.169l-0.022-0.052l-0.005-0.013L22.098,48.169z M22.098,48.169l-0.027-0.064l-0.392-1.139
		l1.853-0.637l0.393,1.139L22.098,48.169z M21.679,46.966L21.679,46.966l-0.011-0.039L21.679,46.966z M21.679,46.966l-0.011-0.039
		l-0.353-1.175l1.876-0.559l0.353,1.176L21.679,46.966z M21.315,45.752l-0.008-0.029l-0.008-0.028L21.315,45.752z M21.315,45.752
		l-0.016-0.058l-0.273-1.176l1.906-0.444l0.275,1.177L21.315,45.752z M21.025,44.519l-0.002-0.007l-0.006-0.031L21.025,44.519z
		 M21.025,44.519l-0.008-0.038l-0.236-1.215l1.923-0.368l0.235,1.216L21.025,44.519z M20.782,43.266l-0.003-0.035l0.011,0.076
		L20.782,43.266z M20.782,43.266l-0.003-0.035l-0.196-1.255l1.93-0.299l0.196,1.255L20.782,43.266z M20.583,41.976l-0.004-0.03
		l-0.003-0.031L20.583,41.976z M20.583,41.976l-0.008-0.062l-0.118-1.254l1.945-0.176l0.118,1.254L20.583,41.976z M20.457,40.661
		l-0.004-0.031l0-0.03L20.457,40.661z M20.457,40.661l-0.004-0.031l-0.078-1.254l1.953-0.115l0.078,1.254L20.457,40.661z
		 M20.375,39.375v-0.031l0.001,0.06L20.375,39.375z M20.375,39.375v-0.031l-0.039-1.293l1.952-0.055l0.04,1.295L20.375,39.375z
		 M20.336,38.051l-0.031-1.007h1.007L20.336,38.051z M20.336,38.051l0.977-0.027L20.336,38.051z"/>
	<path fill="#ABA8A8" d="M51.699,65.53l-0.005-0.064l0.005-0.063V65.53z M53.65,65.53l-0.977-0.064L53.65,65.53z M51.699,65.53
		l-0.005-0.064l0.005-0.063V65.53z M51.699,65.402h1.951l0.04,0.587l-1.953,0.129l-0.038-0.588V65.402z M51.745,66.181l-0.007-0.053
		l-0.001-0.01L51.745,66.181z M51.737,66.118l1.944-0.191l0.079,0.59l-1.937,0.251l-0.079-0.587L51.737,66.118z M51.848,66.892
		l-0.014-0.05l-0.01-0.074L51.848,66.892z M51.824,66.768l1.914-0.374l0.156,0.589l-1.892,0.498l-0.155-0.589L51.824,66.768z
		 M52.037,67.583l-0.021-0.059l-0.013-0.044L52.037,67.583z M52.003,67.48l1.857-0.603l0.196,0.51l-1.823,0.705l-0.196-0.51
		L52.003,67.48z M52.257,68.15l-0.005-0.01l-0.019-0.048L52.257,68.15z M52.233,68.093l1.8-0.763l0.236,0.51l-1.778,0.818
		l-0.234-0.508L52.233,68.093z M52.545,68.762l-0.024-0.039l-0.029-0.064L52.545,68.762z M52.491,68.658l1.724-0.921l0.313,0.509
		l-1.668,1.025l-0.315-0.51L52.491,68.658z M52.905,69.335l-0.045-0.063l-0.008-0.012L52.905,69.335z M52.86,69.271l1.623-1.085
		l0.313,0.429l-1.577,1.148l-0.314-0.429L52.86,69.271z M53.284,69.85l-0.018-0.021l-0.047-0.065L53.284,69.85z M53.22,69.764
		l1.512-1.23l0.393,0.43l-1.448,1.318l-0.392-0.432L53.22,69.764z M53.741,70.344l-0.033-0.029l-0.032-0.033L53.741,70.344z
		 M53.676,70.281l1.382-1.382l0.433,0.393l-1.318,1.444l-0.431-0.393L53.676,70.281z M54.256,70.806l-0.041-0.029l-0.043-0.04
		L54.256,70.806z M54.172,70.736l1.232-1.514l0.432,0.313l-1.147,1.583l-0.433-0.313L54.172,70.736z M54.749,71.159l-0.056-0.036
		l-0.005-0.004L54.749,71.159z M54.688,71.119l1.085-1.623l0.512,0.313l-1.026,1.663l-0.51-0.313L54.688,71.119z M55.361,71.528
		l-0.036-0.017l-0.066-0.039L55.361,71.528z M55.259,71.473l0.922-1.719l0.51,0.233l-0.818,1.777l-0.511-0.236L55.259,71.473z
		 M55.932,71.787l-0.06-0.022l-0.008-0.004L55.932,71.787z M55.872,71.765l0.758-1.8l0.51,0.196l-0.696,1.822l-0.512-0.196
		L55.872,71.765z M56.539,72.017l-0.02-0.003l-0.076-0.03L56.539,72.017z M56.443,71.983l0.601-1.857l0.587,0.158l-0.505,1.891
		l-0.587-0.158L56.443,71.983z M57.252,72.198l-0.079-0.01l-0.047-0.014L57.252,72.198z M57.126,72.175l0.38-1.913l0.587,0.077
		l-0.252,1.938l-0.589-0.079L57.126,72.175z M57.901,72.284h-0.007l-0.054-0.007L57.901,72.284z M57.841,72.277l0.191-1.946
		l0.589,0.039l-0.132,1.953l-0.588-0.039L57.841,72.277z M58.621,72.323l-0.066,0.004l-0.065-0.004H58.621z M58.621,70.37
		l-0.066,0.977L58.621,70.37z M58.621,72.323l-0.066,0.004l-0.065-0.004H58.621z M58.489,72.323V70.37l0.59-0.039l0.129,1.953
		l-0.587,0.039H58.489z M59.271,72.277l-0.055,0.007h-0.008L59.271,72.277z M59.208,72.284l-0.191-1.945l0.587-0.077l0.255,1.937
		l-0.588,0.079L59.208,72.284z M59.983,72.175l-0.045,0.012l-0.08,0.012L59.983,72.175z M59.858,72.198l-0.38-1.914l0.587-0.158
		l0.507,1.891l-0.589,0.158L59.858,72.198z M60.668,71.983l-0.076,0.03l-0.02,0.003L60.668,71.983z M60.572,72.017l-0.603-1.855
		l0.51-0.196l0.698,1.822l-0.51,0.196L60.572,72.017z M61.238,71.765l-0.061,0.022l0.069-0.026L61.238,71.765z M61.178,71.787
		l-0.759-1.8l0.51-0.233l0.819,1.774l-0.51,0.236L61.178,71.787z M61.851,71.473l-0.063,0.039l-0.04,0.017L61.851,71.473z
		 M61.748,71.528l-0.922-1.719l0.51-0.313l1.026,1.663l-0.512,0.313L61.748,71.528z M62.421,71.119l-0.003,0.004l-0.056,0.036
		L62.421,71.119z M62.362,71.159l-1.089-1.623l0.432-0.313l1.148,1.583l-0.433,0.313L62.362,71.159z M62.938,70.736l-0.041,0.04
		l-0.043,0.029L62.938,70.736z M62.854,70.806l-1.232-1.514l0.431-0.393l1.316,1.444l-0.431,0.393L62.854,70.806z M63.435,70.281
		l-0.03,0.033l-0.036,0.029L63.435,70.281z M63.368,70.344l-1.382-1.381l0.393-0.43l1.448,1.316l-0.393,0.432L63.368,70.344z
		 M63.892,69.764l-0.047,0.064l-0.018,0.021L63.892,69.764z M63.827,69.85l-1.513-1.234l0.313-0.429l1.576,1.148l-0.313,0.429
		L63.827,69.85z M64.251,69.271l-0.047,0.063l0.055-0.075L64.251,69.271z M64.204,69.335l-1.623-1.089l0.313-0.509l1.67,1.024
		l-0.313,0.51L64.204,69.335z M64.618,68.658l-0.029,0.063l-0.024,0.041L64.618,68.658z M64.564,68.762l-1.723-0.922l0.236-0.51
		l1.774,0.82l-0.234,0.508L64.564,68.762z M64.876,68.093l-0.017,0.046l-0.007,0.012L64.876,68.093z M64.853,68.15l-1.798-0.763
		l0.194-0.51l1.823,0.705l-0.196,0.51L64.853,68.15z M65.106,67.48l-0.011,0.043l-0.023,0.06L65.106,67.48z M65.072,67.583
		l-1.855-0.601l0.154-0.589l1.893,0.498l-0.157,0.589L65.072,67.583z M65.287,66.768l-0.011,0.072l-0.013,0.052L65.287,66.768z
		 M65.264,66.892l-1.915-0.375l0.079-0.59l1.937,0.254l-0.077,0.587L65.264,66.892z M65.372,66.118v0.01l-0.008,0.053L65.372,66.118
		z M65.364,66.181l-1.943-0.191l0.04-0.587l1.951,0.128l-0.04,0.588L65.364,66.181z M65.412,65.402l0.005,0.063l-0.005,0.064V65.402
		z M63.461,65.402l0.975,0.063L63.461,65.402z M65.412,65.402l0.005,0.063l-0.005,0.064V65.402z M65.412,65.53h-1.951l-0.04-0.587
		l1.951-0.13l0.04,0.589V65.53z M65.364,64.752l0.007,0.053l0.001,0.009L65.364,64.752z M65.372,64.813l-1.944,0.19l-0.079-0.589
		l1.938-0.25l0.077,0.587L65.372,64.813z M65.264,64.041l0.013,0.051l0.011,0.073L65.264,64.041z M65.287,64.165l-1.916,0.374
		l-0.154-0.589l1.89-0.498l0.157,0.589L65.287,64.165z M65.072,63.35l0.021,0.058l0.013,0.045L65.072,63.35z M65.106,63.452
		l-1.857,0.604l-0.194-0.511l1.821-0.705l0.196,0.51L65.106,63.452z M64.853,62.782l0.005,0.01l0.019,0.048L64.853,62.782z
		 M64.876,62.84l-1.798,0.764l-0.236-0.511l1.776-0.82l0.234,0.51L64.876,62.84z M64.561,62.169l0.04,0.065l0.018,0.038
		L64.561,62.169z M64.618,62.272l-1.719,0.922l-0.313-0.508l1.661-1.025l0.313,0.508L64.618,62.272z M64.21,61.598l0.003,0.007
		l0.034,0.057L64.21,61.598z M64.247,61.661l-1.624,1.085l-0.313-0.429l1.587-1.148l0.313,0.429L64.247,61.661z M63.827,61.083
		l0.036,0.043l0.033,0.043L63.827,61.083z M63.896,61.169l-1.518,1.23l-0.393-0.431l1.448-1.317l0.393,0.432L63.896,61.169z
		 M63.368,60.589l0.035,0.029l0.031,0.033L63.368,60.589z M63.435,60.651l-1.383,1.382l-0.431-0.393l1.316-1.444l0.431,0.393
		L63.435,60.651z M62.854,60.127l0.043,0.029l0.041,0.04L62.854,60.127z M62.938,60.196l-1.232,1.514l-0.432-0.313l1.147-1.583
		l0.433,0.313L62.938,60.196z M62.362,59.773l0.056,0.036l0.003,0.004L62.362,59.773z M62.421,59.813l-1.085,1.623l-0.51-0.313
		l1.024-1.663l0.512,0.313L62.421,59.813z M61.748,59.404l0.038,0.017l0.064,0.039L61.748,59.404z M61.851,59.46l-0.922,1.719
		l-0.51-0.234l0.819-1.776l0.51,0.236L61.851,59.46z M61.181,59.146l0.047,0.018l0.011,0.005L61.181,59.146z M61.238,59.168
		l-0.762,1.8l-0.51-0.198l0.706-1.82l0.508,0.196L61.238,59.168z M60.567,58.916l0.046,0.01l0.06,0.023L60.567,58.916z
		 M60.673,58.949l-0.603,1.857l-0.589-0.159l0.498-1.89l0.588,0.158L60.673,58.949z M59.858,58.734l0.072,0.01l0.049,0.014
		L59.858,58.734z M59.979,58.758l-0.376,1.913l-0.587-0.077l0.254-1.938l0.588,0.079L59.979,58.758z M59.208,58.648h0.008
		l0.055,0.007L59.208,58.648z M59.271,58.655l-0.191,1.946l-0.59-0.039l0.132-1.953l0.587,0.039L59.271,58.655z M58.489,58.609
		l0.065-0.004l0.066,0.004H58.489z M58.489,60.563l0.065-0.977L58.489,60.563z M58.489,58.609l0.065-0.004l0.066,0.004H58.489z
		 M58.621,58.609v1.953l-0.589,0.039l-0.131-1.953l0.588-0.039H58.621z M57.841,58.655l0.053-0.007h0.008L57.841,58.655z
		 M57.901,58.648l0.191,1.945l-0.587,0.077l-0.254-1.937l0.589-0.079L57.901,58.648z M57.13,58.758l0.049-0.014l0.073-0.01
		L57.13,58.758z M57.252,58.734l0.376,1.913l-0.588,0.159l-0.498-1.891l0.588-0.158L57.252,58.734z M56.438,58.949l0.058-0.023
		l0.046-0.01L56.438,58.949z M56.542,58.916l0.601,1.854l-0.508,0.198l-0.706-1.822l0.51-0.196L56.542,58.916z M55.872,59.168
		l0.011-0.005l0.046-0.018L55.872,59.168z M55.929,59.146l0.762,1.799l-0.51,0.234l-0.819-1.774l0.511-0.236L55.929,59.146z
		 M55.259,59.46l0.064-0.039l0.038-0.017L55.259,59.46z M55.361,59.404l0.924,1.719l-0.512,0.313l-1.024-1.663l0.51-0.313
		L55.361,59.404z M54.688,59.813l0.005-0.004l0.056-0.036L54.688,59.813z M54.749,59.773l1.087,1.623l-0.432,0.313l-1.148-1.583
		l0.433-0.313L54.749,59.773z M54.172,60.196l0.041-0.04l0.043-0.029L54.172,60.196z M54.256,60.127l1.234,1.514l-0.433,0.393
		l-1.316-1.444l0.431-0.393L54.256,60.127z M53.676,60.651l0.031-0.033l0.034-0.029L53.676,60.651z M53.741,60.589l1.383,1.38
		l-0.393,0.431l-1.447-1.316l0.392-0.432L53.741,60.589z M53.215,61.169l0.031-0.043l0.038-0.043L53.215,61.169z M53.284,61.083
		l1.517,1.234l-0.313,0.429l-1.586-1.148l0.313-0.429L53.284,61.083z M52.863,61.661l0.033-0.057l0.005-0.007L52.863,61.661z
		 M52.901,61.598l1.623,1.089l-0.314,0.508l-1.66-1.025l0.313-0.508L52.901,61.598z M52.491,62.272l0.018-0.038l0.041-0.065
		L52.491,62.272z M52.55,62.169l1.72,0.924l-0.236,0.511l-1.776-0.821l0.234-0.51L52.55,62.169z M52.233,62.84l0.019-0.044
		l0.005-0.014L52.233,62.84z M52.257,62.782l1.8,0.763l-0.196,0.511l-1.823-0.706l0.196-0.51L52.257,62.782z M52.003,63.452
		l0.013-0.043l0.021-0.06L52.003,63.452z M52.037,63.35l1.857,0.601l-0.156,0.589l-1.891-0.498l0.155-0.589L52.037,63.35z
		 M51.824,64.165l0.01-0.073l0.014-0.051L51.824,64.165z M51.848,64.041l1.913,0.374l-0.079,0.589l-1.937-0.252l0.079-0.587
		L51.848,64.041z M51.737,64.813l0.001-0.009l0.007-0.053L51.737,64.813z M51.745,64.752l1.945,0.191l-0.04,0.587l-1.951-0.128
		l0.038-0.589L51.745,64.752z M51.699,65.53l-0.005-0.064l0.005-0.063V65.53z M53.65,65.53l-0.977-0.064L53.65,65.53z"/>
	<path fill="#ABA8A8" d="M26.216,65.53l-0.004-0.064l0.004-0.063V65.53z M28.169,65.53l-0.976-0.064L28.169,65.53z M26.216,65.53
		l-0.004-0.064l0.004-0.063V65.53z M26.216,65.402h1.953l0.04,0.587l-1.953,0.129l-0.04-0.588V65.402z M26.264,66.181l-0.008-0.053
		v-0.01L26.264,66.181z M26.256,66.118l1.945-0.191l0.078,0.59l-1.938,0.251l-0.077-0.587L26.256,66.118z M26.364,66.896
		l-0.012-0.046l-0.012-0.083L26.364,66.896z M26.341,66.768l1.915-0.379l0.158,0.59l-1.892,0.505l-0.157-0.587L26.341,66.768z
		 M26.556,67.579l-0.029-0.075l-0.006-0.021L26.556,67.579z M26.521,67.483l1.857-0.601l0.195,0.509l-1.822,0.695l-0.196-0.508
		L26.521,67.483z M26.775,68.15l-0.023-0.063l0.026,0.069L26.775,68.15z M26.752,68.087l1.799-0.757l0.235,0.51l-1.777,0.818
		l-0.235-0.508L26.752,68.087z M27.063,68.762l-0.025-0.039l-0.029-0.064L27.063,68.762z M27.01,68.658l1.723-0.921l0.313,0.509
		l-1.669,1.025l-0.313-0.51L27.01,68.658z M27.423,69.335l-0.046-0.063L27.37,69.26L27.423,69.335z M27.377,69.271L29,68.187
		l0.313,0.429l-1.577,1.148l-0.313-0.429L27.377,69.271z M27.802,69.85l-0.019-0.021l-0.046-0.065L27.802,69.85z M27.736,69.764
		l1.512-1.23l0.393,0.43l-1.447,1.318l-0.393-0.432L27.736,69.764z M28.259,70.344l-0.034-0.029l-0.03-0.033L28.259,70.344z
		 M28.194,70.281l1.381-1.382l0.432,0.393l-1.316,1.444l-0.432-0.393L28.194,70.281z M28.775,70.803l-0.063-0.046l-0.021-0.021
		L28.775,70.803z M28.691,70.736l1.232-1.511l0.431,0.313l-1.148,1.577l-0.431-0.313L28.691,70.736z M29.267,71.162l-0.061-0.046
		l0.073,0.053L29.267,71.162z M29.206,71.116l1.087-1.623l0.51,0.313l-1.025,1.669l-0.51-0.313L29.206,71.116z M29.88,71.528
		l-0.063-0.026l-0.041-0.026L29.88,71.528z M29.777,71.476l0.923-1.722l0.509,0.233l-0.82,1.777l-0.509-0.236L29.777,71.476z
		 M30.451,71.787l-0.062-0.022l-0.007-0.004L30.451,71.787z M30.389,71.765l0.759-1.8l0.509,0.196l-0.697,1.822l-0.509-0.196
		L30.389,71.765z M31.056,72.017l-0.019-0.003l-0.077-0.03L31.056,72.017z M30.96,71.983l0.601-1.857l0.589,0.158l-0.505,1.891
		l-0.589-0.158L30.96,71.983z M31.771,72.198l-0.08-0.01l-0.046-0.014L31.771,72.198z M31.645,72.175l0.379-1.913l0.588,0.077
		l-0.253,1.938l-0.588-0.079L31.645,72.175z M32.42,72.284h-0.008l-0.053-0.007L32.42,72.284z M32.359,72.277l0.191-1.946
		l0.588,0.039l-0.13,1.953l-0.588-0.039L32.359,72.277z M33.138,72.323l-0.065,0.004l-0.065-0.004H33.138z M33.138,70.37
		l-0.065,0.977L33.138,70.37z M33.138,72.323l-0.065,0.004l-0.065-0.004H33.138z M33.008,72.323V70.37l0.588-0.039l0.13,1.953
		l-0.588,0.039H33.008z M33.787,72.277l-0.053,0.007h-0.008L33.787,72.277z M33.726,72.284l-0.191-1.945l0.588-0.077l0.252,1.937
		l-0.588,0.079L33.726,72.284z M34.502,72.175l-0.046,0.012l-0.081,0.012L34.502,72.175z M34.375,72.198l-0.379-1.914l0.588-0.158
		l0.505,1.891l-0.587,0.158L34.375,72.198z M35.185,71.983l-0.075,0.03l-0.021,0.003L35.185,71.983z M35.089,72.017l-0.601-1.855
		l0.51-0.196l0.698,1.822l-0.511,0.196L35.089,72.017z M35.757,71.765l-0.061,0.022l0.067-0.024L35.757,71.765z M35.696,71.787
		l-0.759-1.8l0.51-0.233l0.82,1.774l-0.51,0.236L35.696,71.787z M36.37,71.473l-0.064,0.039l-0.039,0.017L36.37,71.473z
		 M36.267,71.528l-0.923-1.719l0.51-0.313l1.025,1.663l-0.509,0.313L36.267,71.528z M36.94,71.119l-0.005,0.004l-0.057,0.036
		L36.94,71.119z M36.878,71.159l-1.087-1.623l0.431-0.313l1.149,1.583l-0.431,0.313L36.878,71.159z M37.456,70.736l-0.042,0.04
		l-0.042,0.029L37.456,70.736z M37.372,70.806l-1.233-1.514l0.431-0.393l1.317,1.444l-0.431,0.393L37.372,70.806z M37.952,70.281
		l-0.03,0.033l-0.035,0.029L37.952,70.281z M37.887,70.344l-1.382-1.381l0.392-0.43l1.448,1.316l-0.392,0.432L37.887,70.344z
		 M38.409,69.764l-0.046,0.064l-0.019,0.021L38.409,69.764z M38.344,69.85l-1.513-1.234l0.314-0.429l1.577,1.148l-0.313,0.429
		L38.344,69.85z M38.768,69.271l-0.045,0.063l0.053-0.075L38.768,69.271z M38.723,69.335L37.1,68.246l0.313-0.509l1.669,1.024
		l-0.314,0.51L38.723,69.335z M39.136,68.658l-0.029,0.064l-0.024,0.039L39.136,68.658z M39.083,68.762l-1.723-0.922l0.236-0.51
		l1.777,0.82l-0.236,0.508L39.083,68.762z M39.394,68.087l-0.022,0.063l-0.004,0.006L39.394,68.087z M39.372,68.15l-1.8-0.759
		l0.195-0.509l1.823,0.696l-0.196,0.508L39.372,68.15z M39.625,67.48l-0.008,0.031l-0.026,0.067L39.625,67.48z M39.59,67.579
		l-1.856-0.597l0.156-0.589l1.891,0.498l-0.156,0.589L39.59,67.579z M39.804,66.768l-0.009,0.072l-0.014,0.052L39.804,66.768z
		 M39.781,66.892l-1.914-0.375l0.079-0.59l1.938,0.254l-0.079,0.587L39.781,66.892z M39.891,66.118l-0.001,0.01l-0.006,0.053
		L39.891,66.118z M39.883,66.181l-1.946-0.191l0.04-0.587l1.952,0.128l-0.039,0.588L39.883,66.181z M39.929,65.402l0.005,0.063
		l-0.005,0.064V65.402z M37.977,65.402l0.977,0.063L37.977,65.402z M39.929,65.402l0.005,0.063l-0.005,0.064V65.402z M39.929,65.53
		h-1.952l-0.04-0.587l1.953-0.13l0.039,0.589V65.53z M39.883,64.752l0.006,0.053l0.001,0.009L39.883,64.752z M39.891,64.813
		l-1.945,0.19l-0.079-0.589l1.937-0.25l0.079,0.587L39.891,64.813z M39.781,64.041l0.013,0.051l0.01,0.073L39.781,64.041z
		 M39.804,64.165l-1.915,0.374l-0.156-0.589l1.891-0.498l0.156,0.589L39.804,64.165z M39.59,63.354l0.026,0.065l0.009,0.033
		L39.59,63.354z M39.625,63.452l-1.857,0.597l-0.195-0.508l1.822-0.696l0.196,0.509L39.625,63.452z M39.372,62.782l0.022,0.063
		l-0.026-0.069L39.372,62.782z M39.394,62.845l-1.799,0.759l-0.236-0.511l1.776-0.82l0.236,0.51L39.394,62.845z M39.078,62.169
		l0.04,0.065l0.018,0.038L39.078,62.169z M39.136,62.272l-1.719,0.922l-0.314-0.508l1.662-1.025l0.313,0.508L39.136,62.272z
		 M38.727,61.598l0.003,0.007l0.035,0.057L38.727,61.598z M38.765,61.661l-1.623,1.085l-0.313-0.429l1.584-1.148l0.314,0.429
		L38.765,61.661z M38.344,61.083l0.038,0.043l0.031,0.043L38.344,61.083z M38.413,61.169l-1.516,1.23l-0.392-0.431l1.447-1.317
		l0.392,0.432L38.413,61.169z M37.887,60.589l0.034,0.029l0.031,0.033L37.887,60.589z M37.952,60.651l-1.382,1.382l-0.431-0.393
		l1.317-1.444l0.431,0.393L37.952,60.651z M37.372,60.127l0.042,0.029l0.043,0.04L37.372,60.127z M37.456,60.196l-1.233,1.514
		l-0.431-0.313l1.149-1.583l0.431,0.313L37.456,60.196z M36.878,59.773l0.056,0.036l0.006,0.004L36.878,59.773z M36.94,59.813
		l-1.087,1.623l-0.51-0.313l1.026-1.663l0.509,0.313L36.94,59.813z M36.267,59.404l0.038,0.017l0.065,0.039L36.267,59.404z
		 M36.37,59.46l-0.923,1.719l-0.51-0.234l0.82-1.776l0.51,0.236L36.37,59.46z M35.696,59.146l0.061,0.022l0.007,0.004L35.696,59.146
		z M35.757,59.168l-0.759,1.8l-0.51-0.198l0.697-1.82l0.511,0.196L35.757,59.168z M35.086,58.916l0.032,0.006l0.067,0.027
		L35.086,58.916z M35.185,58.949l-0.597,1.857L34,60.647l0.498-1.89l0.588,0.158L35.185,58.949z M34.375,58.734l0.072,0.01
		l0.05,0.014L34.375,58.734z M34.498,58.758l-0.375,1.913l-0.588-0.077l0.252-1.938l0.588,0.079L34.498,58.758z M33.726,58.648
		h0.007l0.054,0.007L33.726,58.648z M33.787,58.655l-0.191,1.946l-0.588-0.039l0.13-1.953l0.588,0.039L33.787,58.655z
		 M33.008,58.609l0.065-0.004l0.065,0.004H33.008z M33.008,60.563l0.065-0.977L33.008,60.563z M33.008,58.609l0.065-0.004
		l0.065,0.004H33.008z M33.138,58.609v1.953l-0.588,0.039l-0.13-1.953l0.588-0.039H33.138z M32.359,58.655l0.053-0.007h0.008
		L32.359,58.655z M32.42,58.648l0.192,1.945l-0.588,0.077l-0.253-1.937l0.588-0.079L32.42,58.648z M31.647,58.758l0.051-0.014
		l0.072-0.01L31.647,58.758z M31.771,58.734l0.375,1.913l-0.588,0.159l-0.498-1.891l0.588-0.158L31.771,58.734z M30.956,58.949
		l0.059-0.023l0.045-0.01L30.956,58.949z M31.06,58.916l0.602,1.854l-0.509,0.198l-0.705-1.822l0.509-0.196L31.06,58.916z
		 M30.389,59.168l0.011-0.005l0.047-0.018L30.389,59.168z M30.447,59.146l0.762,1.799L30.7,61.179l-0.82-1.774l0.509-0.236
		L30.447,59.146z M29.777,59.457l0.04-0.023l0.063-0.029L29.777,59.457z M29.88,59.404l0.922,1.722l-0.51,0.313l-1.026-1.669
		l0.51-0.313L29.88,59.404z M29.206,59.816l0.061-0.046l0.012-0.007L29.206,59.816z M29.267,59.771l1.087,1.623l-0.431,0.313
		l-1.148-1.577l0.431-0.313L29.267,59.771z M28.691,60.196l0.02-0.021l0.064-0.046L28.691,60.196z M28.775,60.13l1.232,1.511
		l-0.432,0.393l-1.317-1.444l0.432-0.393L28.775,60.13z M28.194,60.651l0.03-0.033l0.034-0.029L28.194,60.651z M28.259,60.589
		l1.382,1.38l-0.393,0.431l-1.447-1.316l0.393-0.432L28.259,60.589z M27.732,61.169l0.031-0.043l0.038-0.043L27.732,61.169z
		 M27.802,61.083l1.516,1.234l-0.313,0.429l-1.585-1.148l0.313-0.429L27.802,61.083z M27.381,61.661l0.035-0.057l0.003-0.007
		L27.381,61.661z M27.419,61.598l1.623,1.089l-0.313,0.508l-1.661-1.025l0.313-0.508L27.419,61.598z M27.01,62.272l0.018-0.038
		l0.041-0.065L27.01,62.272z M27.068,62.169l1.719,0.924l-0.235,0.511l-1.776-0.821l0.235-0.51L27.068,62.169z M26.752,62.845
		l0.023-0.063l0.003-0.007L26.752,62.845z M26.775,62.782l1.799,0.759l-0.195,0.508l-1.822-0.695l0.196-0.509L26.775,62.782z
		 M26.521,63.449l0.005-0.021l0.03-0.075L26.521,63.449z M26.556,63.354l1.857,0.6l-0.158,0.591l-1.891-0.508l0.157-0.587
		L26.556,63.354z M26.341,64.165l0.011-0.081l0.013-0.048L26.341,64.165z M26.364,64.036l1.914,0.379l-0.078,0.589l-1.937-0.252
		l0.077-0.587L26.364,64.036z M26.256,64.813v-0.009l0.008-0.053L26.256,64.813z M26.264,64.752l1.945,0.191l-0.04,0.587
		l-1.953-0.128l0.04-0.589L26.264,64.752z M26.216,65.53l-0.004-0.064l0.004-0.063V65.53z M28.169,65.53l-0.976-0.064L28.169,65.53z
		"/>
	<path fill="#ABA8A8" d="M45.868,14.195l0.23-0.692l0.726,0.022L45.868,14.195z M45.868,14.195l0.925,0.307L45.868,14.195z
		 M45.868,14.195l0.23-0.692l0.726,0.022L45.868,14.195z M45.868,14.195l0.956-0.669l1.216,0.04l-0.063,1.953l-1.214-0.04
		L45.868,14.195z M48.04,13.565h0.033l0.033,0.001L48.04,13.565z M48.04,13.565h0.033l1.178,0.079l-0.132,1.952l-1.175-0.078
		L48.04,13.565z M49.251,13.644h0.007l0.053,0.006L49.251,13.644z M49.251,13.644l0.06,0.006l1.178,0.157l-0.254,1.938l-1.175-0.157
		L49.251,13.644z M50.488,13.807l0.035,0.004l0.021,0.004L50.488,13.807z M50.488,13.807l0.035,0.004l1.176,0.195l-0.323,1.93
		l-1.175-0.196L50.488,13.807z M51.699,14.007l0.017,0.003l0.053,0.012L51.699,14.007z M51.699,14.007l0.069,0.016l1.135,0.275
		l-0.459,1.899l-1.136-0.275L51.699,14.007z M52.903,14.297l0.04,0.008l0.036,0.01L52.903,14.297z M52.903,14.297l0.04,0.008
		l1.099,0.313l-0.538,1.884l-1.097-0.313L52.903,14.297z M54.042,14.619l0.029,0.012l-0.076-0.025L54.042,14.619z M54.042,14.619
		l0.029,0.012l1.099,0.353l-0.599,1.861l-1.098-0.353L54.042,14.619z M55.17,14.983l0.046,0.015l0.01,0.004L55.17,14.983z
		 M55.17,14.983l0.056,0.019l1.099,0.431l-0.712,1.822l-1.099-0.432L55.17,14.983z M56.324,15.434l0.025,0.01l0.027,0.013
		L56.324,15.434z M56.324,15.434l0.053,0.023l1.02,0.47l-0.819,1.777l-1.02-0.471L56.324,15.434z M57.396,15.927l0.026,0.015
		L57.341,15.9L57.396,15.927z M57.396,15.927l0.026,0.015l1.02,0.51l-0.872,1.746l-1.02-0.51L57.396,15.927z M58.442,16.452
		l0.047,0.023l0.02,0.012L58.442,16.452z M58.442,16.452l0.066,0.035l0.979,0.588l-1.003,1.677l-0.979-0.588L58.442,16.452z
		 M59.488,17.074l0.015,0.007l0.062,0.038L59.488,17.074z M59.488,17.074l0.015,0.007l0.94,0.588l-1.032,1.662l-0.942-0.588
		L59.488,17.074z M60.443,17.67l0.046,0.035l-0.067-0.049L60.443,17.67z M60.443,17.67l0.046,0.035l0.942,0.666l-1.127,1.593
		l-0.94-0.667L60.443,17.67z M61.432,18.371l0.036,0.027l0.005,0.003L61.432,18.371z M61.432,18.371l0.036,0.027l0.902,0.705
		l-1.202,1.539l-0.901-0.705L61.432,18.371z M62.37,19.103l0.021,0.016l0.033,0.03L62.37,19.103z M62.37,19.103l0.055,0.046
		l0.823,0.745l-1.309,1.447l-0.824-0.744L62.37,19.103z M63.248,19.894l0.018,0.015l0.042,0.04L63.248,19.894z M63.248,19.894
		l0.018,0.015l0.825,0.784l-1.35,1.416l-0.821-0.783L63.248,19.894z M64.091,20.693l0.017,0.018l0.017,0.017L64.091,20.693z
		 M64.091,20.693l0.033,0.035l0.785,0.823l-1.417,1.347l-0.784-0.823L64.091,20.693z M64.909,21.551l0.015,0.019l-0.055-0.061
		L64.909,21.551z M64.909,21.551l0.015,0.019l0.744,0.823l-1.445,1.31l-0.745-0.823L64.909,21.551z M65.668,22.394l0.029,0.033
		l0.017,0.021L65.668,22.394z M65.668,22.394l0.046,0.054l0.706,0.901l-1.537,1.202l-0.706-0.901L65.668,22.394z M66.42,23.349
		l0.026,0.039l-0.029-0.043L66.42,23.349z M66.42,23.349l0.026,0.039l0.666,0.94l-1.592,1.125l-0.666-0.94L66.42,23.349z
		 M67.112,24.328l0.037,0.046l0.013,0.022L67.112,24.328z M67.112,24.328l0.037,0.046l0.587,0.94l-1.661,1.034l-0.589-0.942
		L67.112,24.328z M67.736,25.315l0.007,0.016l-0.045-0.076L67.736,25.315z M67.736,25.315l0.007,0.016l0.589,0.98l-1.678,1.002
		l-0.587-0.979L67.736,25.315z M68.332,26.311l0.012,0.019l0.022,0.045L68.332,26.311z M68.332,26.311l0.034,0.064l0.51,1.02
		l-1.747,0.873l-0.508-1.02L68.332,26.311z M68.876,27.395l0.015,0.026l0.026,0.056L68.876,27.395z M68.876,27.395l0.015,0.026
		l0.472,1.019l-1.777,0.82l-0.471-1.02L68.876,27.395z M69.362,28.44l0.012,0.028l0.01,0.025L69.362,28.44z M69.362,28.44
		l0.021,0.053l0.431,1.099l-1.821,0.712l-0.432-1.099L69.362,28.44z M69.814,29.592l0.004,0.009l0.017,0.049L69.814,29.592z
		 M69.814,29.592l0.021,0.058l0.353,1.097l-1.86,0.597l-0.354-1.097L69.814,29.592z M70.188,30.747l0.012,0.032l0.013,0.044
		L70.188,30.747z M70.188,30.747l0.012,0.032l0.313,1.097l-1.884,0.537l-0.313-1.098L70.188,30.747z M70.513,31.875l0.008,0.039
		l-0.018-0.074L70.513,31.875z M70.513,31.875l0.008,0.039l0.274,1.136l-1.899,0.459l-0.275-1.137L70.513,31.875z M70.795,33.05
		l0.013,0.05l0.004,0.018L70.795,33.05z M70.795,33.05l0.017,0.068l0.194,1.176l-1.93,0.322l-0.195-1.175L70.795,33.05z
		 M71.006,34.295l0.005,0.035l-0.008-0.056L71.006,34.295z M71.006,34.295l0.005,0.035l0.156,1.176l-1.938,0.254l-0.157-1.177
		L71.006,34.295z M71.167,35.506l0.007,0.054v0.008L71.167,35.506z M71.167,35.506l0.007,0.062l0.079,1.176l-1.953,0.13
		l-0.079-1.176L71.167,35.506z M71.253,36.744v0.034l-0.001-0.066L71.253,36.744z M71.253,36.744v0.034l0.04,1.215l-1.953,0.061
		l-0.04-1.215L71.253,36.744z M71.293,37.993l0.033,1.011h-1.01L71.293,37.993z M71.293,37.993l-0.977,0.031L71.293,37.993z
		 M71.293,37.993l0.033,1.011h-1.01L71.293,37.993z M71.293,37.993l-0.977,1.011H38.954v-1.96h31.363L71.293,37.993z M38.954,39.004
		h-1.355l0.428-1.287L38.954,39.004z M38.954,39.004l-0.927-1.287l7.842-23.523l1.853,0.614L39.88,38.331L38.954,39.004z"/>
	<path fill="#ABA8A8" d="M18.364,24.207l0.009,0.097l-0.009,0.096V24.207z M16.419,24.207l0.973,0.097L16.419,24.207z
		 M18.364,24.207l0.009,0.097l-0.009,0.096V24.207z M18.364,24.399h-1.945l-0.04-0.393l1.945-0.191l0.04,0.392V24.399z
		 M18.279,23.601l0.035,0.104l0.011,0.111L18.279,23.601z M18.325,23.815l-1.898,0.406l-0.118-0.353l1.854-0.62l0.117,0.353
		L18.325,23.815z M18.088,23.083l0.045,0.082l0.028,0.083L18.088,23.083z M18.162,23.248l-1.781,0.785l-0.195-0.353l1.707-0.95
		l0.196,0.353L18.162,23.248z M17.781,22.57l0.062,0.072l0.049,0.089L17.781,22.57z M17.893,22.73l-1.597,1.109l-0.235-0.273
		l1.485-1.271l0.235,0.275L17.893,22.73z M17.439,22.188l0.058,0.049l0.05,0.058L17.439,22.188z M17.546,22.295l-1.378,1.378
		l-0.274-0.235l1.271-1.485l0.274,0.235L17.546,22.295z M17.003,21.842l0.089,0.048l0.072,0.063L17.003,21.842z M17.165,21.953
		l-1.109,1.597l-0.353-0.196l0.948-1.708l0.353,0.196L17.165,21.953z M16.486,21.573l0.083,0.027l0.081,0.045L16.486,21.573z
		 M16.65,21.646l-0.784,1.78l-0.353-0.117l0.621-1.853l0.352,0.118L16.65,21.646z M15.919,21.409l0.11,0.011l0.105,0.036
		L15.919,21.409z M16.134,21.456l-0.407,1.898l-0.392-0.039l0.191-1.945l0.392,0.039L16.134,21.456z M15.336,21.371l0.096-0.01
		l0.096,0.01H15.336z M15.336,23.315l0.096-0.973L15.336,23.315z M15.336,21.371l0.096-0.01l0.096,0.01H15.336z M15.527,21.371
		v1.945l-0.392,0.039l-0.192-1.945l0.393-0.039H15.527z M14.729,21.456l0.104-0.036l0.11-0.011L14.729,21.456z M14.943,21.409
		l0.407,1.899l-0.353,0.117l-0.621-1.853l0.353-0.118L14.943,21.409z M14.212,21.646l0.081-0.044l0.083-0.028L14.212,21.646z
		 M14.376,21.573l0.785,1.78l-0.353,0.196l-0.949-1.708l0.353-0.196L14.376,21.573z M13.699,21.953l0.073-0.062l0.088-0.049
		L13.699,21.953z M13.859,21.842l1.11,1.596l-0.275,0.235l-1.271-1.485l0.275-0.235L13.859,21.842z M13.317,22.295l0.049-0.058
		l0.058-0.049L13.317,22.295z M13.424,22.188l1.377,1.378l-0.235,0.273l-1.485-1.27l0.235-0.275L13.424,22.188z M12.97,22.73
		l0.049-0.088l0.063-0.073L12.97,22.73z M13.082,22.57l1.596,1.11l-0.195,0.353l-1.708-0.95l0.196-0.353L13.082,22.57z
		 M12.702,23.248l0.027-0.083l0.045-0.083L12.702,23.248z M12.774,23.083l1.781,0.785l-0.118,0.353l-1.853-0.621l0.117-0.353
		L12.774,23.083z M12.538,23.815l0.01-0.11l0.037-0.105L12.538,23.815z M12.584,23.601l1.898,0.406l-0.04,0.393l-1.945-0.192
		l0.04-0.392L12.584,23.601z M12.499,24.399l-0.009-0.096l0.009-0.097V24.399z M14.443,24.399l-0.972-0.096L14.443,24.399z
		 M12.499,24.399l-0.009-0.096l0.009-0.097V24.399z M12.499,24.207h1.945l0.04,0.392l-1.945,0.192l-0.04-0.392V24.207z
		 M12.584,25.005l-0.036-0.104l-0.011-0.11L12.584,25.005z M12.538,24.791l1.899-0.407l0.118,0.353l-1.853,0.62l-0.117-0.352
		L12.538,24.791z M12.774,25.522l-0.044-0.081l-0.028-0.084L12.774,25.522z M12.702,25.357l1.781-0.784l0.195,0.352l-1.708,0.95
		l-0.196-0.353L12.702,25.357z M13.082,26.036l-0.062-0.072l-0.05-0.089L13.082,26.036z M12.97,25.875l1.596-1.109l0.235,0.273
		l-1.484,1.271l-0.235-0.274L12.97,25.875z M13.424,26.417l-0.058-0.049l-0.049-0.058L13.424,26.417z M13.317,26.31l1.377-1.378
		l0.275,0.236l-1.271,1.484l-0.275-0.235L13.317,26.31z M13.859,26.765l-0.088-0.049l-0.073-0.063L13.859,26.765z M13.699,26.652
		l1.11-1.596l0.353,0.195l-0.949,1.708l-0.353-0.195L13.699,26.652z M14.376,27.033l-0.083-0.027l-0.082-0.046L14.376,27.033z
		 M14.212,26.959l0.785-1.78l0.353,0.118l-0.621,1.854l-0.353-0.118L14.212,26.959z M14.943,27.197l-0.108-0.011l-0.106-0.035
		L14.943,27.197z M14.729,27.151l0.406-1.899l0.392,0.038l-0.191,1.945l-0.393-0.038L14.729,27.151z M15.527,27.235l-0.096,0.01
		l-0.096-0.01H15.527z M15.527,25.29l-0.096,0.973L15.527,25.29z M15.527,27.235l-0.096,0.01l-0.096-0.01H15.527z M15.336,27.235
		V25.29l0.392-0.038l0.191,1.945l-0.392,0.038H15.336z M16.134,27.151l-0.105,0.035l-0.11,0.011L16.134,27.151z M15.919,27.197
		l-0.406-1.899l0.353-0.118l0.62,1.853l-0.352,0.118L15.919,27.197z M16.65,26.959l-0.081,0.046l-0.083,0.027L16.65,26.959z
		 M16.486,27.033l-0.784-1.781l0.353-0.195l0.948,1.708l-0.353,0.195L16.486,27.033z M17.165,26.652l-0.071,0.062l-0.09,0.05
		L17.165,26.652z M17.003,26.765l-1.109-1.597l0.274-0.236l1.271,1.485l-0.274,0.235L17.003,26.765z M17.546,26.31l-0.049,0.057
		l-0.059,0.05L17.546,26.31z M17.439,26.417l-1.378-1.378l0.235-0.273l1.485,1.27l-0.235,0.274L17.439,26.417z M17.893,25.875
		l-0.048,0.088l-0.063,0.073L17.893,25.875z M17.781,26.036l-1.596-1.11l0.195-0.352l1.708,0.949l-0.196,0.353L17.781,26.036z
		 M18.162,25.357l-0.028,0.083l-0.045,0.083L18.162,25.357z M18.088,25.522l-1.78-0.785l0.118-0.353l1.853,0.621l-0.117,0.352
		L18.088,25.522z M18.325,24.791l-0.011,0.11l-0.035,0.104L18.325,24.791z M18.279,25.005l-1.899-0.407l0.04-0.392l1.945,0.192
		l-0.04,0.392L18.279,25.005z M18.364,24.207l0.009,0.097l-0.009,0.096V24.207z M16.419,24.207l0.973,0.097L16.419,24.207z"/>
	<path fill="#ABA8A8" d="M20.332,38.024v-13.72h1.96v13.72H20.332z M21.313,23.323h0.979v0.981L21.313,23.323z M22.292,24.304
		l-0.979,0.979h-3.92v-1.96h3.92L22.292,24.304z"/>
	<rect x="38.601" y="62.525" fill="#ABA8A8" width="14.427" height="1.961"/>
</g>
</svg>
