<?xml version="1.0" encoding="utf-8"?>
<!-- Generator: Adobe Illustrator 16.0.0, SVG Export Plug-In . SVG Version: 6.00 Build 0)  -->
<!DOCTYPE svg PUBLIC "-//W3C//DTD SVG 1.1//EN" "http://www.w3.org/Graphics/SVG/1.1/DTD/svg11.dtd">
<svg version="1.1" id="圖層_1" xmlns="http://www.w3.org/2000/svg" xmlns:xlink="http://www.w3.org/1999/xlink" x="0px" y="0px"
	 width="85.039px" height="85.039px" viewBox="0 0 85.039 85.039" enable-background="new 0 0 85.039 85.039" xml:space="preserve">
<path fill="#D9261C" d="M48.837,37.825h0.452h0.501c0.705,0,1.476,0.372,1.476,1.687v1.538c0,1.353-1.352,1.6-1.519,1.6h-0.91
	V37.825z M46.661,42.648H44.15v-3.313c0-1.384,1.425-1.508,1.592-1.509l0.919-0.002V42.648z M41.875,39.283l0.097,9.929
	c0.006,0.668,0.196,1.16,0.586,1.472c0.392,0.315,1.062,0.492,2.011,0.537h6.697c1.781,0,2.607-1.805,2.658-3.305l-1.777-1.176
	c0.042,0.815-0.294,2.058-1.049,2.537c-0.224,0.135-0.475,0.182-0.754,0.135h-5.275c-0.332,0-0.586-0.09-0.754-0.269
	c-0.164-0.043-0.222-0.27-0.164-0.668v-4.018h5.645c1.588,0,3.695-1.117,3.646-3.332l-0.034-1.578
	c-0.033-1.493-0.655-3.617-2.667-3.617l-5.298-0.002C43.147,35.928,41.859,37.703,41.875,39.283z"/>
<path fill="#D9261C" d="M67.658,41.04v-1.81h3.678v1.81H67.658z M65.482,41.04h-4.546v1.743l16.419,0.012l0.872-1.755h-4.713v-1.81
	l3.424,0.005l0.872-1.745h-4.296v-1.675h-2.179v1.675h-3.678v-1.607h-2.176v1.607h-3.96v1.739h3.96V41.04z M58.173,43.25v7.902
	h2.093V39.768c0.394-1.071,0.754-2.277,1.089-3.618l-2.093-0.266c-0.221,1.204-0.585,2.344-1.089,3.416c0,0,0,0.023,0,0.066
	c-0.836,1.608-1.644,2.834-2.426,3.684l2.093,0.67C57.894,43.54,58.009,43.386,58.173,43.25z"/>
<path fill-rule="evenodd" clip-rule="evenodd" fill="#D9261C" d="M13.637,45.024c0.435,0.567,0.87,1.135,1.31,1.703l2.057-0.918
	c-0.998-1.224-2.121-2.424-3.366-3.604v-0.327h1.588l1.125-1.706h-2.712v-2.161c1.31-0.131,2.276-0.285,2.899-0.459l-0.563-1.638
	c-1.934,0.392-4.521,0.721-7.768,0.981l0.467,1.639c0.751-0.042,1.625-0.11,2.625-0.196v1.833H8.205v1.706h2.807
	c-0.811,1.747-2.088,3.385-3.838,4.913l2.34,0.721c0.563-0.567,1.155-1.331,1.782-2.291v5.896h2.341V45.024z"/>
<path fill-rule="evenodd" clip-rule="evenodd" fill="#D9261C" d="M22.912,35.996L22.912,35.996c3.157,0,5.74,2.583,5.74,5.74v8.002
	h-2.477V42.98c0-2.644-0.62-4.807-3.263-4.807c-2.644,0-3.263,2.163-3.263,4.807v6.758h-2.477v-8.002
	C17.172,38.579,19.753,35.996,22.912,35.996"/>
<polygon fill-rule="evenodd" clip-rule="evenodd" fill="#D9261C" points="15.596,49.313 29.562,49.313 28.583,50.983 15.596,50.983 
	"/>
<rect x="18.013" y="40.867" fill-rule="evenodd" clip-rule="evenodd" fill="#D9261C" width="8.876" height="1.67"/>
<rect x="18.013" y="45.02" fill-rule="evenodd" clip-rule="evenodd" fill="#D9261C" width="8.876" height="1.669"/>
<path fill-rule="evenodd" clip-rule="evenodd" fill="#D9261C" d="M35.203,39.499h2.2c1.942,0,3.531,1.78,3.531,3.721
	c0,1.942-1.59,3.531-3.531,3.531h-2.2c-1.942,0-3.533-1.588-3.533-3.531C31.67,41.277,33.261,39.499,35.203,39.499 M35.43,41.331
	h1.718c0.992,0,1.802,0.9,1.802,1.889c0,0.991-0.813,1.7-1.802,1.7H35.43c-0.989,0-1.802-0.709-1.802-1.7
	S34.439,41.331,35.43,41.331z"/>
<path fill-rule="evenodd" clip-rule="evenodd" fill="#D9261C" d="M69.605,43.232c2.678,0.035,7.018,0.795,7.018,3.353v4.5
	l-2.332,0.027v-3.799c0-1.429-2.004-2.364-4.708-2.387c-2.645,0-4.95,0.872-4.95,2.356v3.802h-2.404v-4.5
	C62.269,44.147,66.447,43.232,69.605,43.232"/>
<rect x="62.851" y="46.424" fill-rule="evenodd" clip-rule="evenodd" fill="#D9261C" width="12.306" height="1.429"/>
<rect x="62.851" y="49.038" fill-rule="evenodd" clip-rule="evenodd" fill="#D9261C" width="12.306" height="1.432"/>
</svg>
