<?xml version="1.0" encoding="utf-8"?>
<!-- Generator: Adobe Illustrator 16.0.0, SVG Export Plug-In . SVG Version: 6.00 Build 0)  -->
<!DOCTYPE svg PUBLIC "-//W3C//DTD SVG 1.1//EN" "http://www.w3.org/Graphics/SVG/1.1/DTD/svg11.dtd">
<svg version="1.1" id="Capa_1" xmlns="http://www.w3.org/2000/svg" xmlns:xlink="http://www.w3.org/1999/xlink" x="0px" y="0px"
	 width="38.445px" height="38.475px" viewBox="0 0 38.445 38.475" enable-background="new 0 0 38.445 38.475" xml:space="preserve">
<g>
	<path fill="#FFFFFF" d="M14.06,29.297H4.545c-0.238,0-0.432-0.195-0.432-0.433V5.508c0-0.238,0.193-0.433,0.432-0.433H29.63
		c0.24,0,0.433,0.195,0.433,0.433v14.706c0,0.718,0.582,1.298,1.298,1.298c0.717,0,1.299-0.58,1.299-1.298V5.508
		c0-1.669-1.359-3.026-3.028-3.026H4.545c-1.669,0-3.027,1.357-3.027,3.026v23.357c0,1.668,1.358,3.026,3.027,3.026h9.516
		c0.717,0,1.299-0.58,1.299-1.297C15.359,29.877,14.777,29.297,14.06,29.297z"/>
	<path fill="#FFFFFF" d="M20.897,14.157c-0.715,0-1.297,0.582-1.297,1.299v7.784c0,0.718,0.581,1.298,1.297,1.298h1.298
		c2.861,0,5.189-2.329,5.189-5.19s-2.328-5.19-5.189-5.19H20.897z M24.789,19.348c0,1.43-1.163,2.595-2.594,2.595v-5.189
		C23.626,16.753,24.789,17.918,24.789,19.348z"/>
	<path fill="#FFFFFF" d="M15.707,24.538c0.717,0,1.298-0.58,1.298-1.298v-5.623c0-1.907-1.553-3.46-3.46-3.46
		c-1.908,0-3.461,1.553-3.461,3.46v5.623c0,0.718,0.581,1.298,1.298,1.298c0.716,0,1.298-0.58,1.298-1.298v-1.297h1.729v1.297
		C14.409,23.958,14.991,24.538,15.707,24.538z M12.679,19.349v-1.731c0-0.477,0.389-0.864,0.865-0.864
		c0.476,0,0.864,0.387,0.864,0.864v1.731H12.679z"/>
	<path fill="#FFFFFF" d="M24.116,9.178h9.516c0.238,0,0.432,0.195,0.432,0.433v23.356c0,0.238-0.193,0.433-0.432,0.433H8.547
		c-0.24,0-0.433-0.195-0.433-0.433V18.261c0-0.718-0.582-1.298-1.298-1.298c-0.717,0-1.299,0.58-1.299,1.298v14.706
		c0,1.669,1.359,3.026,3.028,3.026h25.086c1.669,0,3.027-1.357,3.027-3.026V9.61c0-1.668-1.358-3.026-3.027-3.026h-9.516
		c-0.717,0-1.299,0.58-1.299,1.297C22.817,8.598,23.399,9.178,24.116,9.178z"/>
</g>
</svg>
