<?xml version="1.0" encoding="utf-8"?>
<!-- Generator: Adobe Illustrator 16.0.0, SVG Export Plug-In . SVG Version: 6.00 Build 0)  -->
<!DOCTYPE svg PUBLIC "-//W3C//DTD SVG 1.1//EN" "http://www.w3.org/Graphics/SVG/1.1/DTD/svg11.dtd">
<svg version="1.1" id="圖層_1" xmlns="http://www.w3.org/2000/svg" xmlns:xlink="http://www.w3.org/1999/xlink" x="0px" y="0px"
	 width="22.314px" height="24.875px" viewBox="0 0 22.314 24.875" enable-background="new 0 0 22.314 24.875" xml:space="preserve">
<path display="none" fill="#F5E829" d="M11.193,21.053h1.009l0,0l0.144,0.072h0.146l0.071,0.072l0.145,0.072l0.071,0.144
	l0.072,0.071v0.145l0.072,0.145l0,0l-0.072,0.144v0.144l-0.072,0.072l-0.071,0.145l-0.145,0.072l-0.071,0.071h-0.146h-0.144h-1.009
	v1.728h5.977l0,0h0.144h0.145h0.144l0.072-0.071l0.144-0.072l0.145-0.071l0.072-0.072l0.144-0.072l0.072-0.145l0.071-0.072
	l0.072-0.143l0.072-0.145v-0.072l0.072-0.145v-0.144v-0.146V2.189l0,0V2.045V1.901l-0.072-0.144V1.613l-0.072-0.144l-0.072-0.072
	l-0.07-0.144l-0.072-0.072l-0.144-0.072l-0.072-0.144h-0.145l-0.144-0.072l-0.072-0.072h-0.144l-0.145-0.072H17.17l0,0h-5.977v1.8
	h5.832v18.217h-5.832L11.193,21.053L11.193,21.053z M9.538,21.773L9.538,21.773v-0.145l0.071-0.145l0.072-0.071l0.072-0.144
	l0.072-0.072l0.144-0.072h0.146l0.144-0.072h0.936v-0.287H5.29V2.549h5.903v-1.8H5.146l0,0H5.001L4.857,0.821h-0.07L4.642,0.893
	L4.498,0.965H4.354L4.282,1.109L4.137,1.181L4.065,1.253l-0.07,0.144L3.921,1.469L3.85,1.613v0.145L3.777,1.901v0.144v0.144v20.592
	l0,0v0.145v0.145l0.072,0.144v0.072l0.072,0.144l0.072,0.145l0.071,0.072l0.072,0.144l0.146,0.071l0.071,0.072l0.145,0.072
	l0.144,0.072l0.145,0.072h0.071h0.145h0.144h6.048v-1.729h-0.936l0,0h-0.145H9.969L9.825,22.35l-0.072-0.072l-0.072-0.144
	l-0.072-0.071l-0.071-0.145L9.538,21.773L9.538,21.773z"/>
<g>
	<polygon fill="#838280" points="15.585,10.668 15.585,10.668 15.657,10.957 15.802,11.245 15.874,11.533 15.945,11.82 
		16.018,12.108 16.018,12.396 16.089,12.685 16.089,12.973 16.089,12.973 16.089,13.044 16.089,13.117 16.161,13.262 16.233,13.404 
		16.306,13.549 16.449,13.621 16.594,13.691 16.737,13.766 16.81,13.766 16.881,13.766 16.881,13.766 16.881,13.766 16.881,13.766 
		16.953,13.766 17.025,13.766 17.169,13.691 17.313,13.621 17.458,13.549 17.529,13.404 17.602,13.262 17.673,13.117 17.673,13.044 
		17.673,12.973 17.673,12.973 17.673,12.612 17.602,12.181 17.602,11.82 17.458,11.46 17.386,11.101 17.241,10.74 17.169,10.38 
		16.953,10.021 16.953,10.021 16.881,9.805 16.737,9.588 16.594,9.373 16.521,9.156 16.377,8.94 16.233,8.796 16.089,8.581 
		15.874,8.437 15.729,8.221 15.585,8.077 15.369,7.933 15.226,7.717 15.01,7.572 14.865,7.429 14.649,7.285 14.434,7.141 
		14.434,7.141 14.218,7.068 14.001,6.925 13.785,6.853 13.642,6.708 13.426,6.637 13.209,6.564 12.921,6.493 12.706,6.42 
		12.489,6.349 12.273,6.276 12.058,6.276 11.841,6.205 11.625,6.205 11.337,6.133 11.122,6.133 10.905,6.133 10.905,6.133 
		10.833,6.133 10.762,6.133 10.617,6.205 10.474,6.276 10.33,6.349 10.257,6.493 10.186,6.637 10.113,6.78 10.113,6.853 
		10.113,6.925 10.113,6.925 10.113,6.997 10.113,7.068 10.186,7.212 10.257,7.356 10.33,7.5 10.474,7.572 10.545,7.645 
		10.689,7.717 10.833,7.717 10.905,7.717 10.905,7.717 11.266,7.717 11.625,7.789 11.985,7.86 12.346,7.933 12.706,8.077 
		12.993,8.148 13.354,8.364 13.642,8.509 13.93,8.725 14.218,8.94 14.505,9.229 14.722,9.444 15.01,9.732 15.226,10.021 
		15.369,10.38 	"/>
	<polygon fill="#838280" points="20.122,8.509 20.122,8.509 19.978,8.148 19.762,7.86 19.545,7.5 19.401,7.212 19.186,6.925 
		18.97,6.637 18.753,6.349 18.465,6.061 18.25,5.772 17.961,5.557 17.745,5.269 17.458,5.053 17.169,4.836 16.881,4.621 
		16.594,4.404 16.233,4.188 16.233,4.188 15.945,4.044 15.657,3.829 15.297,3.685 15.01,3.541 14.722,3.396 14.361,3.252 
		14.001,3.181 13.713,3.037 13.354,2.964 12.993,2.893 12.633,2.82 12.273,2.749 11.985,2.749 11.625,2.677 11.266,2.677 
		10.905,2.677 10.905,2.677 10.905,2.677 10.905,2.677 10.833,2.677 10.762,2.677 10.617,2.749 10.474,2.749 10.33,2.893 
		10.257,2.964 10.186,3.108 10.113,3.252 10.113,3.325 10.113,3.396 10.113,3.396 10.113,3.541 10.113,3.612 10.186,3.757 
		10.257,3.9 10.33,3.973 10.474,4.044 10.545,4.188 10.689,4.188 10.833,4.188 10.905,4.188 10.905,4.188 11.193,4.261 
		11.481,4.261 11.841,4.261 12.129,4.333 12.417,4.333 12.706,4.404 12.993,4.477 13.354,4.549 13.642,4.692 13.93,4.765 
		14.146,4.909 14.434,4.98 14.722,5.125 15.01,5.269 15.226,5.413 15.514,5.557 15.729,5.701 16.018,5.917 16.233,6.061 
		16.449,6.276 16.666,6.493 16.881,6.708 17.098,6.925 17.313,7.141 17.529,7.356 17.745,7.572 17.89,7.86 18.105,8.077 
		18.25,8.364 18.394,8.581 18.538,8.869 18.682,9.156 18.682,9.156 18.897,9.588 19.113,10.093 19.257,10.524 19.33,11.028 
		19.474,11.533 19.545,11.964 19.545,12.469 19.545,12.973 19.545,12.973 19.545,13.044 19.617,13.117 19.617,13.262 19.689,13.404 
		19.833,13.549 19.905,13.621 20.049,13.691 20.193,13.766 20.266,13.766 20.337,13.766 20.337,13.766 20.337,13.766 20.337,13.766 
		20.409,13.766 20.554,13.766 20.697,13.691 20.77,13.621 20.914,13.549 20.985,13.404 21.058,13.262 21.129,13.117 21.129,13.044 
		21.129,12.973 21.129,12.973 21.129,12.685 21.129,12.396 21.129,12.108 21.058,11.82 21.058,11.533 20.985,11.245 20.985,10.957 
		20.914,10.668 20.841,10.38 20.77,10.093 20.625,9.805 20.554,9.588 20.481,9.301 20.337,9.013 20.266,8.725 	"/>
	<polygon fill="#838280" points="17.458,16.572 17.458,16.572 17.386,16.5 17.241,16.43 17.098,16.355 16.953,16.285 16.81,16.212 
		16.666,16.141 16.521,16.141 16.377,16.141 16.377,16.141 16.306,16.141 16.161,16.141 16.089,16.141 15.945,16.212 15.874,16.212 
		15.729,16.285 15.657,16.355 15.585,16.43 13.93,17.438 13.93,17.438 13.713,17.363 13.498,17.221 13.138,17.004 12.706,16.717 
		12.489,16.5 12.201,16.212 11.914,15.997 11.554,15.637 11.193,15.275 10.762,14.917 10.33,14.484 9.897,13.98 9.897,13.98 
		9.465,13.477 9.033,13.044 8.673,12.612 8.313,12.181 8.025,11.893 7.81,11.533 7.594,11.245 7.377,10.957 7.089,10.524 
		6.874,10.165 6.729,9.948 6.729,9.732 7.881,8.148 7.881,8.148 7.953,8.077 8.025,7.933 8.098,7.86 8.098,7.717 8.169,7.572 
		8.169,7.429 8.169,7.285 8.169,7.212 8.169,7.068 8.169,6.925 8.169,6.78 8.098,6.708 8.025,6.564 7.953,6.42 7.881,6.349 
		7.81,6.276 5.218,3.469 5.218,3.469 5.073,3.325 5.001,3.252 4.857,3.181 4.713,3.108 4.569,3.037 4.426,3.037 4.209,2.964 
		4.065,2.964 4.065,2.964 3.921,2.964 3.777,3.037 3.562,3.037 3.417,3.108 3.273,3.181 3.129,3.325 2.985,3.396 2.914,3.541 
		2.193,4.404 2.193,4.404 2.049,4.549 1.905,4.765 1.833,4.909 1.762,5.053 1.689,5.196 1.617,5.341 1.474,5.557 1.474,5.701 
		1.401,5.917 1.33,6.061 1.33,6.276 1.257,6.42 1.257,6.637 1.186,6.853 1.186,7.068 1.186,7.285 1.186,7.285 1.186,7.645 
		1.257,8.004 1.33,8.364 1.401,8.796 1.545,9.229 1.617,9.661 1.833,10.093 1.978,10.524 1.978,10.524 2.193,10.885 2.337,11.316 
		2.554,11.677 2.77,12.108 3.058,12.469 3.273,12.9 3.562,13.333 3.85,13.691 4.138,14.125 4.426,14.557 4.785,14.988 5.073,15.42 
		5.434,15.854 5.793,16.285 6.153,16.645 6.585,17.077 6.585,17.077 7.018,17.581 7.521,18.014 8.025,18.588 8.602,19.094 
		9.25,19.668 9.897,20.172 10.257,20.46 10.617,20.749 10.978,20.964 11.337,21.252 11.337,21.252 11.697,21.469 12.058,21.686 
		12.417,21.9 12.777,22.117 13.065,22.262 13.426,22.404 13.713,22.549 14.073,22.691 14.361,22.766 14.649,22.909 15.01,22.98 
		15.297,23.053 15.585,23.125 15.874,23.125 16.161,23.195 16.449,23.195 16.449,23.195 16.737,23.125 17.098,23.125 17.458,23.053 
		17.745,22.98 18.033,22.836 18.321,22.691 18.609,22.549 18.897,22.333 19.833,21.686 19.833,21.686 19.978,21.611 20.049,21.469 
		20.193,21.325 20.266,21.252 20.337,21.107 20.409,20.893 20.409,20.749 20.481,20.604 20.481,20.604 20.481,20.46 20.481,20.245 
		20.409,20.102 20.409,19.957 20.337,19.813 20.266,19.668 20.193,19.523 20.049,19.38 	"/>
</g>
</svg>
