<?xml version="1.0" encoding="utf-8"?>
<!-- Generator: Adobe Illustrator 24.0.0, SVG Export Plug-In . SVG Version: 6.00 Build 0)  -->
<svg version="1.1" id="圖層_1" xmlns="http://www.w3.org/2000/svg" xmlns:xlink="http://www.w3.org/1999/xlink" x="0px" y="0px"
	 viewBox="0 0 20 14" style="enable-background:new 0 0 20 14;" xml:space="preserve">
<style type="text/css">
	.st0{fill:#C9CACA;}
</style>
<g>
	<path class="st0" d="M1.42,1.96V1.74L1.49,1.6l0.07-0.14l0.07-0.14l0.14-0.07l0.14-0.14h0.22l0.14-0.07h13.03l0.22,0.07h0.14
		l0.14,0.14l0.14,0.07l0.14,0.14l0.07,0.14l0.07,0.14v0.22v1.58h0.58V1.96l-0.07-0.29l-0.07-0.29l-0.14-0.29l-0.14-0.22l-0.22-0.14
		l-0.29-0.14L15.6,0.52l-0.29-0.07H2.28L1.99,0.52L1.7,0.59L1.49,0.73L1.27,0.88L1.06,1.09L0.91,1.38L0.84,1.67v0.29v7.2v0.36
		l0.07,0.22l0.14,0.29l0.22,0.22l0.22,0.22l0.22,0.07l0.29,0.14h0.29h5.33v1.15H7.46H7.25l-0.22,0.07l-0.22,0.14L6.6,12.18
		l-0.14,0.14l-0.14,0.22l-0.07,0.22v0.29h0.58V12.9l0.07-0.14l0.07-0.07l0.07-0.14l0.07-0.07l0.14-0.07h0.14h0.07h2.66h0.14h0.14
		l0.07,0.07l0.07,0.07l0.14,0.14v0.07l0.07,0.14v0.14h0.58v-0.29l-0.07-0.22l-0.14-0.22l-0.14-0.14l-0.14-0.14l-0.22-0.14
		l-0.29-0.07h-0.22H9.98v-1.15h3.17v-0.58H9.84H9.7H7.9H7.75H2.28H2.14l-0.22-0.07L1.78,9.95L1.63,9.8L1.56,9.73L1.49,9.52
		L1.42,9.37V9.16V9.01h11.74V8.44H1.42V1.96z M9.41,10.67v1.15H8.18v-1.15H9.41z"/>
	<rect x="7.54" y="9.3" class="st0" width="2.59" height="0.58"/>
	<path class="st0" d="M19.34,4.19l-0.07-0.07h-0.14h-2.52h-2.52h-0.07l-0.14,0.07v0.14L13.8,4.4v8.64l0.07,0.07v0.14h0.14l0.07,0.07
		h2.52h2.52l0.14-0.07h0.07l0.07-0.14v-0.07V4.4V4.33L19.34,4.19z M18.84,12.76h-2.23h-2.23V4.69h2.23h2.23V12.76z"/>
	<rect x="15.6" y="11.32" class="st0" width="2.09" height="0.58"/>
</g>
</svg>
