<?xml version="1.0" encoding="utf-8"?>
<!-- Generator: Adobe Illustrator 16.0.0, SVG Export Plug-In . SVG Version: 6.00 Build 0)  -->
<!DOCTYPE svg PUBLIC "-//W3C//DTD SVG 1.1//EN" "http://www.w3.org/Graphics/SVG/1.1/DTD/svg11.dtd">
<svg version="1.1" id="圖層_1" xmlns="http://www.w3.org/2000/svg" xmlns:xlink="http://www.w3.org/1999/xlink" x="0px" y="0px"
	 width="50px" height="50px" viewBox="0 0 50 50" enable-background="new 0 0 50 50" xml:space="preserve">
<g>
	<path fill="#777777" d="M25.08,0.289c6.74,0,12.999,2.729,17.33,7.221c4.49,4.494,7.222,10.591,7.222,17.491
		c0,13.64-11.073,24.711-24.551,24.711v-2.565c12.196,0,22.144-9.949,22.144-22.146c0-6.096-2.406-11.714-6.578-15.725
		c-4.01-4.011-9.467-6.418-15.565-6.418L25.08,0.289L25.08,0.289z M25.08,49.712c-6.9,0-12.998-2.89-17.492-7.381
		c-4.493-4.332-7.22-10.591-7.22-17.33c0-6.9,2.727-12.998,7.22-17.491C12.082,3.018,18.18,0.289,25.08,0.289v2.568
		c-6.099,0-11.714,2.407-15.726,6.418C5.341,13.286,2.776,18.904,2.776,25c0,6.098,2.565,11.555,6.578,15.727
		c4.012,4.012,9.627,6.418,15.726,6.418V49.712z"/>
	<path fill="#777777" d="M41.447,24.841L41.447,24.841L41.447,24.841l-0.161,0.16l-0.162,0.321l-0.161,0.161l-0.316,0.16l-0.16,0.16
		l-0.322,0.16l-0.16,0.163l-0.32,0.159l-0.32,0.16l-0.321,0.16h-0.321h-0.322h-0.317h-0.16l0,0h-0.323l-0.16-0.16l-0.319-0.16h-0.32
		l-0.483-0.322l-0.479-0.32l-0.645-0.481l-0.319-0.32h-0.161l0,0l0,0l-0.159,0.16v0.321l-0.161,0.321l-0.162,0.32l-0.319,0.643
		l-0.322,0.801l-2.726-2.887v-4.492l0.16-0.321l0.479-0.482l0.484-0.48l0.481-0.643l0.318-0.48l0.321-0.481l0.479-0.803l0.322-0.482
		l0.159-0.321l0,0l0.16-0.161l0.162-0.16l0.161-0.161l0.159-0.16v-0.161h0.161h0.159V14.57h0.16l0,0l0.16,0.161l0,0l0.159,0.161l0,0
		l0,0l0.164,0.16l0,0v0.161v0.16v0.161v0.16v0.161l0,0l-0.164,0.643v0.318v0.323v0.32v0.321l0.164,0.162l0,0v0.16l0.16,0.161l0,0
		l0.319,0.482l0.643,0.642l1.926,1.925l1.768,1.764l0.8,0.964l0,0l0.161,0.161l0.16,0.16v0.16l0,0v0.161l0,0L41.447,24.841
		L41.447,24.841L41.447,24.841z M30.855,41.688V38.96l0.321,0.16h0.159h0.158l0.324,0.161h0.16l0.321,0.16l0.16,0.162l0.157,0.16
		l0.16,0.158l0.162,0.16l0.16,0.322l0,0v0.16v0.16v0.159l0,0l0,0v0.159v0.162l0,0l-0.16,0.158l0,0l-0.322,0.162H32.46l-0.16,0.16
		h-0.321h-0.16l0,0h-0.643h-0.32V41.688z M30.855,35.271l0.16-1.127v-0.639l0.161-0.643l0.159-0.643l0.158-0.644l0,0v-0.318
		l0.163-0.481l0.161-0.323l0.16-0.317l0.481-0.965l0.642-0.803l-2.246-2.407V35.271L30.855,35.271z M30.855,24.519l-2.408-2.246l0,0
		l0.32-0.321l0.164-0.161l0.641-0.481l0.48-0.481l0.479-0.482l0.323-0.32V24.519L30.855,24.519z M30.855,25.963l-3.369-3.208l0,0
		l-0.48,0.161l-0.643,0.159l-0.643,0.161H25.08l-0.802,0.16l-0.642,0.16l-1.446,0.162h-1.443l-1.125,0.159h-1.284l0,0h-0.32h-0.321
		h-0.322l-0.319,0.162h-0.321L16.414,24.2h-0.481l-0.32,0.16l0,0l-0.963-1.123l0,0l-1.124-1.124l0,0l-0.481-0.481l0,0l0,0
		l-0.161-0.161h-0.16l0,0l-0.162-0.16h-0.158h-0.159l-0.163,0.16h-0.16l0,0v0.161H11.76l-0.162,0.16v0.161v0.16v0.161v0.161v0.161
		l0,0l0.483,0.641l0,0l0.801,1.444l0,0l0.804,1.283l0,0l0.159,0.483l0,0l-0.32,0.642v0.319l-0.16,0.484l-0.16,0.318v0.479v0.322
		v0.32l0,0v0.32v0.484l0.16,0.316l0.16,0.322v0.32l0.162,0.321l0.319,0.642l0.323,0.645l0.16,0.479l0.16,0.16v0.325v0.158
		l0.16,0.161l0,0l-0.16,0.318v0.321v0.161v0.32l-0.16,0.642l-0.16,0.481l-0.162,0.479l-0.162,0.483v0.48l-0.16,0.158v0.322l0,0l0,0
		l0.16,0.322v0.158V38.8l0.323,0.321l0.16,0.482l0.319,0.479l0.16,0.321l0.323,0.32l0.159,0.16l0,0l0.324,0.321l0.158,0.157h0.161
		l0.161,0.164l0.16,0.158h0.321h0.161l0,0h1.284h0.641h0.643l0,0h0.159h0.16h0.162l0.161-0.158h0.161v-0.164h0.162v-0.157h0.158
		v-0.162v-0.159v-0.16l0,0v-0.32v-0.162l0,0l-0.158-0.159v-0.16v-0.159l-0.162-0.16h-0.161l-0.161-0.162l-0.162-0.16h-0.16h-0.318
		l-0.323-0.16h-0.322h-0.32l0,0l-0.159-0.16L18.019,38.8v-0.159l-0.16-0.32L17.698,38v-0.162V37.68v-0.16l0,0v-0.16v-0.162l0,0
		l0.482-0.803l0.159-0.643l0.482-0.643l0.322-0.803l0.161-0.479l0.159-0.483v-0.318l0.159-0.481v-0.321l0.16-0.48l0,0l0,0l0,0
		v-0.161h0.162l0,0h0.483l0.479-0.159h0.483h0.318h0.482h0.484h0.962l0.96,0.159h0.803h0.482h0.323h0.316h0.321l0,0h0.163l0,0l0,0
		v0.161l0.158,0.32v0.322l0.162,0.481v0.479l0.16,1.284l0.16,2.567l0.158,1.285v0.479v0.48l0,0l0.162,0.322v0.319l0.16,0.321v0.162
		l0.162,0.158v0.16l0.156,0.159l0.162,0.162l0.16,0.157l0.162,0.164h0.159l0.16,0.158h0.321h0.16l0,0h0.961h0.162v-2.728h-0.322l0,0
		l0,0V38.8v-0.641v-0.802l0.16-0.965l0.162-1.121v-9.309H30.855z"/>
	
		<rect x="11.396" y="14.484" transform="matrix(-0.7071 -0.7071 0.7071 -0.7071 24.5004 40.251)" fill="#777777" width="18.381" height="1.134"/>
	<path fill="#777777" d="M25.08,0.289c6.74,0,12.999,2.729,17.33,7.221c4.49,4.494,7.222,10.591,7.222,17.491
		c0,13.64-11.073,24.711-24.551,24.711v-2.565c12.196,0,22.144-9.949,22.144-22.146c0-6.096-2.406-11.714-6.578-15.725
		c-4.01-4.011-9.467-6.418-15.565-6.418L25.08,0.289L25.08,0.289z M25.08,49.712c-6.9,0-12.998-2.89-17.492-7.381
		c-4.493-4.332-7.22-10.591-7.22-17.33c0-6.9,2.727-12.998,7.22-17.491C12.082,3.018,18.18,0.289,25.08,0.289v2.568
		c-6.099,0-11.714,2.407-15.726,6.418C5.341,13.286,2.776,18.904,2.776,25c0,6.098,2.565,11.555,6.578,15.727
		c4.012,4.012,9.627,6.418,15.726,6.418V49.712z"/>
	<path fill="#777777" d="M41.447,24.841L41.447,24.841L41.447,24.841l-0.161,0.16l-0.162,0.321l-0.161,0.161l-0.316,0.16l-0.16,0.16
		l-0.322,0.16l-0.16,0.163l-0.32,0.159l-0.32,0.16l-0.321,0.16h-0.321h-0.322h-0.317h-0.16l0,0h-0.323l-0.16-0.16l-0.319-0.16h-0.32
		l-0.483-0.322l-0.479-0.32l-0.645-0.481l-0.319-0.32h-0.161l0,0l0,0l-0.159,0.16v0.321l-0.161,0.321l-0.162,0.32l-0.319,0.643
		l-0.322,0.801l-2.726-2.887v-4.492l0.16-0.321l0.479-0.482l0.484-0.48l0.481-0.643l0.318-0.48l0.321-0.481l0.479-0.803l0.322-0.482
		l0.159-0.321l0,0l0.16-0.161l0.162-0.16l0.161-0.161l0.159-0.16v-0.161h0.161h0.159V14.57h0.16l0,0l0.16,0.161l0,0l0.159,0.161l0,0
		l0,0l0.164,0.16l0,0v0.161v0.16v0.161v0.16v0.161l0,0l-0.164,0.643v0.318v0.323v0.32v0.321l0.164,0.162l0,0v0.16l0.16,0.161l0,0
		l0.319,0.482l0.643,0.642l1.926,1.925l1.768,1.764l0.8,0.964l0,0l0.161,0.161l0.16,0.16v0.16l0,0v0.161l0,0L41.447,24.841
		L41.447,24.841L41.447,24.841z M30.855,41.688V38.96l0.321,0.16h0.159h0.158l0.324,0.161h0.16l0.321,0.16l0.16,0.162l0.157,0.16
		l0.16,0.158l0.162,0.16l0.16,0.322l0,0v0.16v0.16v0.159l0,0l0,0v0.159v0.162l0,0l-0.16,0.158l0,0l-0.322,0.162H32.46l-0.16,0.16
		h-0.321h-0.16l0,0h-0.643h-0.32V41.688z M30.855,35.271l0.16-1.127v-0.639l0.161-0.643l0.159-0.643l0.158-0.644l0,0v-0.318
		l0.163-0.481l0.161-0.323l0.16-0.317l0.481-0.965l0.642-0.803l-2.246-2.407V35.271L30.855,35.271z M30.855,24.519l-2.408-2.246l0,0
		l0.32-0.321l0.164-0.161l0.641-0.481l0.48-0.481l0.479-0.482l0.323-0.32V24.519L30.855,24.519z M30.855,25.963l-3.369-3.208l0,0
		l-0.48,0.161l-0.643,0.159l-0.643,0.161H25.08l-0.802,0.16l-0.642,0.16l-1.446,0.162h-1.443l-1.125,0.159h-1.284l0,0h-0.32h-0.321
		h-0.322l-0.319,0.162h-0.321L16.414,24.2h-0.481l-0.32,0.16l0,0l-0.963-1.123l0,0l-1.124-1.124l0,0l-0.481-0.481l0,0l0,0
		l-0.161-0.161h-0.16l0,0l-0.162-0.16h-0.158h-0.159l-0.163,0.16h-0.16l0,0v0.161H11.76l-0.162,0.16v0.161v0.16v0.161v0.161v0.161
		l0,0l0.483,0.641l0,0l0.801,1.444l0,0l0.804,1.283l0,0l0.159,0.483l0,0l-0.32,0.642v0.319l-0.16,0.484l-0.16,0.318v0.479v0.322
		v0.32l0,0v0.32v0.484l0.16,0.316l0.16,0.322v0.32l0.162,0.321l0.319,0.642l0.323,0.645l0.16,0.479l0.16,0.16v0.325v0.158
		l0.16,0.161l0,0l-0.16,0.318v0.321v0.161v0.32l-0.16,0.642l-0.16,0.481l-0.162,0.479l-0.162,0.483v0.48l-0.16,0.158v0.322l0,0l0,0
		l0.16,0.322v0.158V38.8l0.323,0.321l0.16,0.482l0.319,0.479l0.16,0.321l0.323,0.32l0.159,0.16l0,0l0.324,0.321l0.158,0.157h0.161
		l0.161,0.164l0.16,0.158h0.321h0.161l0,0h1.284h0.641h0.643l0,0h0.159h0.16h0.162l0.161-0.158h0.161v-0.164h0.162v-0.157h0.158
		v-0.162v-0.159v-0.16l0,0v-0.32v-0.162l0,0l-0.158-0.159v-0.16v-0.159l-0.162-0.16h-0.161l-0.161-0.162l-0.162-0.16h-0.16h-0.318
		l-0.323-0.16h-0.322h-0.32l0,0l-0.159-0.16L18.019,38.8v-0.159l-0.16-0.32L17.698,38v-0.162V37.68v-0.16l0,0v-0.16v-0.162l0,0
		l0.482-0.803l0.159-0.643l0.482-0.643l0.322-0.803l0.161-0.479l0.159-0.483v-0.318l0.159-0.481v-0.321l0.16-0.48l0,0l0,0l0,0
		v-0.161h0.162l0,0h0.483l0.479-0.159h0.483h0.318h0.482h0.484h0.962l0.96,0.159h0.803h0.482h0.323h0.316h0.321l0,0h0.163l0,0l0,0
		v0.161l0.158,0.32v0.322l0.162,0.481v0.479l0.16,1.284l0.16,2.567l0.158,1.285v0.479v0.48l0,0l0.162,0.322v0.319l0.16,0.321v0.162
		l0.162,0.158v0.16l0.156,0.159l0.162,0.162l0.16,0.157l0.162,0.164h0.159l0.16,0.158h0.321h0.16l0,0h0.961h0.162v-2.728h-0.322l0,0
		l0,0V38.8v-0.641v-0.802l0.16-0.965l0.162-1.121v-9.309H30.855z"/>
	
		<rect x="11.396" y="14.484" transform="matrix(-0.7071 -0.7071 0.7071 -0.7071 24.5004 40.251)" fill="#777777" width="18.381" height="1.134"/>
</g>
</svg>
