<?xml version="1.0" encoding="utf-8"?>
<!-- Generator: Adobe Illustrator 16.0.0, SVG Export Plug-In . SVG Version: 6.00 Build 0)  -->
<!DOCTYPE svg PUBLIC "-//W3C//DTD SVG 1.1//EN" "http://www.w3.org/Graphics/SVG/1.1/DTD/svg11.dtd">
<svg version="1.1" id="圖層_1" xmlns="http://www.w3.org/2000/svg" xmlns:xlink="http://www.w3.org/1999/xlink" x="0px" y="0px"
	 width="100px" height="100px" viewBox="0 0 100 100" enable-background="new 0 0 100 100" xml:space="preserve">
<g>
	<path fill="#888888" d="M68.617,22.293c-7.362,9.124-0.856,13.345-6.249,22.435c3.157-12.142-15.062-28.188-4.261-42.331
		c-18.802,10.343-13.215,31.022-21.986,46.59c3.957-7.06-2.002-22.059-8.7-26.669c8.138,11.615-8.352,30.317-7.448,47.114
		c0.544,24.229,32.847,38.475,50.899,19.18C94.631,63.225,64.316,46.003,68.617,22.293z M39.996,77.258v-0.064
		c0-0.043,0-0.084,0.009-0.133c0-0.031,0.013-0.057,0.013-0.094c0.012-0.082,0.025-0.158,0.025-0.24v-0.016
		c0.023-0.094,0.023-0.203,0.036-0.285c0.012-0.035,0.012-0.049,0.012-0.064c1.195-8.961,8.966-21.656,12.307-30.017
		c-0.277,10.362,13.225,23.288,4.598,33.458c3.271-2.242,6.14-4.922,8.604-8.025C67.535,100.098,37.905,100.041,39.996,77.258z"/>
</g>
</svg>
