<?xml version="1.0" encoding="utf-8"?>
<!-- Generator: Adobe Illustrator 16.0.0, SVG Export Plug-In . SVG Version: 6.00 Build 0)  -->
<!DOCTYPE svg PUBLIC "-//W3C//DTD SVG 1.1//EN" "http://www.w3.org/Graphics/SVG/1.1/DTD/svg11.dtd">
<svg version="1.1" id="圖層_1" xmlns="http://www.w3.org/2000/svg" xmlns:xlink="http://www.w3.org/1999/xlink" x="0px" y="0px"
	 width="100px" height="100px" viewBox="0 0 100 100" enable-background="new 0 0 100 100" xml:space="preserve">
<path fill="#888888" d="M50.001,1.433c-15.597,0-28.313,12.716-28.313,28.316c0,24.411,28.313,68.819,28.313,68.819
	s28.31-44.747,28.31-68.819C78.311,14.148,65.597,1.433,50.001,1.433z M50.081,47.801c-9.676,0-18.059-8.388-18.059-18.05
	c0-9.998,8.383-18.067,18.059-18.067c9.99,0,17.73,8.069,17.73,18.067C67.811,39.413,60.07,47.801,50.081,47.801z"/>
</svg>
