<?xml version="1.0" encoding="utf-8"?>
<!-- Generator: Adobe Illustrator 16.0.0, SVG Export Plug-In . SVG Version: 6.00 Build 0)  -->
<!DOCTYPE svg PUBLIC "-//W3C//DTD SVG 1.1//EN" "http://www.w3.org/Graphics/SVG/1.1/DTD/svg11.dtd">
<svg version="1.1" id="圖層_1" xmlns="http://www.w3.org/2000/svg" xmlns:xlink="http://www.w3.org/1999/xlink" x="0px" y="0px"
	 width="200px" height="200px" viewBox="0 0 200 200" enable-background="new 0 0 200 200" xml:space="preserve">
<path display="none" fill="#727171" d="M138.795,182.6v-4.461h15.198c0,0,0.897,0,0.897-0.896c0.896,0,0.896-0.896,0.896-1.798
	v-2.68h-16.995v-5.373h16.995v-4.468h-16.995v-4.462h16.995v-2.693c0-0.896,0-0.896-0.896-1.793h-0.897h-15.198v-14.304h25.035
	c0,0,0.898,0,0.898,0.896c0.896,0,0.896,0.887,0.896,1.783c0,0,0,0.896-0.896,1.797h-0.898h-24.139c0,0.896,0,1.783,0,1.783
	c-0.896,0.896-0.896,1.78-0.896,2.68h17.879c1.797,0,2.694,0.898,2.694,0.898c0.897,0.896,1.78,1.793,1.78,2.69v26.817
	c0,0.896-0.883,1.785-1.78,2.683s-1.798,0.896-2.694,0.896h-17.879V182.6L138.795,182.6z M148.631,187.964
	c3.578,0.896,8.043,2.69,13.415,5.373c0.888,0,1.784,0,2.685,0l0.896-0.896c0.896-0.887,0.896-1.785,0.896-2.683
	c-0.896-0.899-0.896-0.899-1.793-0.899c-6.26-3.578-10.734-5.36-15.201-5.36c-0.896-0.897-1.797,0-1.797,0
	c-0.885,0-0.885,0.896-1.778,1.782c0,0,0,0.9,0.896,1.785C146.848,187.064,147.732,187.964,148.631,187.964z M79.768,192.439
	c0.892,0,1.783-0.885,2.682-0.885c0.897-1.799,1.791-2.695,1.791-3.594v-30.396c0-0.897-0.894-1.797-1.791-2.691
	c0,0-0.899-0.896-2.682-0.896H61.876v5.371H77.09h0.891c0.891,0.898,0.891,0.898,0.891,1.784v3.591H61.876v5.36h16.996v5.362H61.876
	v5.363h16.996v4.473c0,0.898,0,0.898-0.891,1.783H77.09H61.876v5.375H79.768L79.768,192.439z M61.876,153.091v-0.887
	c0.899-0.897,0.899-1.794,0.899-2.69h24.151c0.892,0,0.892,0,1.782-0.9c0,0,0.896-0.895,0.896-1.778
	c0-0.896-0.896-0.896-0.896-1.785c-0.89,0-0.89,0-1.782,0H74.4c1.79-3.591,2.689-5.372,2.689-6.258c0-0.896-0.899-0.896-0.899-1.796
	c-0.896,0-1.79,0-2.681,0c0,0-0.896,0.896-1.795,1.796c0,0.886-0.892,2.667-2.679,4.463c0,0.897-0.892,0.897-0.892,1.795h-6.267
	V153.091L61.876,153.091z M138.795,139.674v14.303h-15.213c-0.885,0-1.782,0-1.782,0c0,0.896,0,0.896,0,1.793v2.694h16.995v4.462
	H121.8v4.467h16.995v5.373H121.8v2.68c0,0.898,0,1.799,0,1.799c0.897,0,0.897,0.896,1.782,0.896h15.213v4.461h-18.777
	c-0.896,0-1.795-0.896-2.695-0.896c-0.883-0.896-0.883-1.784-0.883-2.682v-26.818c0-0.896,0-1.794,0.883-2.689
	c0.9-0.9,1.799-0.9,2.695-0.9h3.564h9.85c0-0.895,0.889-2.68,0.889-3.564c0,0,0,0,0.896-0.896H113.76c-0.896,0-1.797,0-1.797,0
	c-0.896-0.897-0.896-1.797-0.896-1.797c0-0.896,0-1.782,0.896-1.782c0-0.896,0.898-0.896,1.797-0.896h25.036L138.795,139.674
	L138.795,139.674z M126.275,183.498c-4.479,2.684-8.055,3.566-13.416,4.466c-1.793,0-2.692,0.896-2.692,2.69
	c0,0,0.899,0.9,0.899,1.785c0.895,0.896,4.473,0.896,8.951-0.885c2.68-0.9,5.357-1.799,8.938-3.594c0,0,0.885-0.896,0.885-1.781
	c0,0,0-0.898,0-1.785c-0.885-0.896-0.885-0.896-1.781-0.896C127.173,183.498,127.173,183.498,126.275,183.498z M61.876,153.977
	L61.876,153.977c0,0,0,0,0-0.886v-8.044h-7.151l0,0c0-1.795-1.787-4.477-4.469-6.258c-0.896-0.896-1.788-1.796-1.788-1.796
	c-0.894,0-1.791,0.897-1.791,1.796c-0.899,0-0.899,0.885-0.899,1.781c0,0,0,0.886,0.899,1.783c0.897,0,1.791,0.896,2.682,2.69
	H35.943c-0.892,0-1.784,0-1.784,0c0,0.89-0.897,1.785-0.897,1.785c0,0.884,0.897,1.778,0.897,1.778c0.892,0.9,0.892,0.9,1.784,0.9
	h21.469c0,1.793-0.896,3.577-0.896,4.463h-9.838h-3.577c-0.899,0-1.791,0.896-2.681,0.896c-0.897,0.896-0.897,1.794-0.897,2.691
	v30.396c0,0.896,0,1.795,0.897,3.592c0.891,0,1.782,0.887,2.681,0.887h18.775v-5.375H46.678c-0.899,0-0.899,0-1.79,0
	c0,0-0.891-0.887,0-1.783v-4.473h16.988v-5.363H44.888v-5.362h16.988v-5.36H44.888v-3.591c-0.891-0.886,0-0.886,0-1.784
	c0,0,0.891,0,1.79,0h15.198V153.977z"/>
<polygon display="none" fill="#727171" points="44.979,127.916 44.979,73.177 27.825,73.177 27.825,60.922 97.27,9.451 
	99.717,7.822 101.348,9.451 170.79,60.922 170.79,73.177 153.639,73.177 153.639,127.916 62.139,127.916 62.139,118.932 
	144.65,118.932 144.65,65.825 162.624,65.825 99.717,18.438 35.992,65.825 53.152,65.825 53.152,127.916 "/>
<path fill="#727171" d="M99.232,32.169L99.232,32.169v6.836l0,0c12.282-13.666,24.577-20.501,34.974-18.792
	c31.19,3.417,41.59,63.212-34.974,99.094l0,0v11.1l0,0c47.254-22.211,67.114-52.106,70.896-76.024V39.005
	c-2.847-16.231-13.229-28.188-28.358-29.897C129.477,7.398,114.359,15.085,99.232,32.169z M99.232,32.169
	C67.092-8.827,31.175,7.398,27.401,40.714v11.104c2.833,24.771,22.678,55.532,71.831,78.586v-11.1
	c-104.919-49.547-46.319-140.097,0-80.303V32.169z"/>
<path display="none" fill="#727171" d="M152.958,185.951V167.68c0.917,1.832,0.917,4.571,1.823,6.391
	c1.82-3.643,2.736-8.213,4.572-14.604c0-0.914,0-0.914,0.914-0.914c0-0.906,0.9-0.906,0.9-0.906c0.918,0,1.834,0.906,1.834,0.906
	c0.9,0.914,0.9,1.82,0,1.82c-0.916,5.484-2.734,12.795-6.4,19.188c0.916,2.736,1.832,4.568,2.752,5.476
	c0.914,1.819,1.814,2.737,1.814,2.737c0.918,0,0.918-0.918,0.918-1.818c0-3.655,0-6.395,0.916-6.395
	c0-0.918,0.902-0.918,1.824-0.918c0,0,0.912,0,0.912,0.918c0.916,0.902,0.916,0.902,0.916,1.817
	c-0.916,7.312-1.828,10.966-3.652,11.882c0,0.904-0.916,0.904-0.916,0.904c-0.918-0.904-2.732-0.904-3.652-1.82
	c-1.832-1.822-2.736-4.57-4.562-7.313l0,0C153.875,185.031,153.875,185.951,152.958,185.951L152.958,185.951z M152.958,153.979
	v-4.559h4.56c-0.914,0-0.914,0-0.914,0c-1.818-1.833-2.729-1.833-3.646-2.747v-1.823l0,0l0.917-0.898h-0.917v-4.572h10.95
	c0.921,0,1.834,0,1.834,0.9c0,0,0.916,0.916,0.916,1.834c-0.916,0-0.916,0.916-0.916,1.838c0,0-0.913,0-1.834,0h-6.391
	c2.75,1.816,3.65,2.725,3.65,3.639c0,0.917,0,1.833-0.9,1.833h2.734c0.9,0,1.824,0.916,1.824,0.916c0.91,0.92,0.91,0.92,0.91,1.823
	c0,0.9,0,0.9-0.91,1.816c-0.924,0-0.924,0-1.824,0H152.958z M152.958,139.376v4.571h-2.748c0,1.818,0,1.818-0.903,2.726
	c0,0,0,0,0.903,0c0,0.914,0,1.831,0.915,2.747h1.833v4.559h-1.833c0.92,5.487,0.92,10.062,1.833,13.703v18.271
	c-2.748,5.484-5.485,8.212-6.392,8.212c-0.914,0-1.832-0.903-1.832-0.903c-0.918-0.916-0.918-0.916-0.918-1.82
	c0-0.92,0.918-1.834,1.836-3.666h-10.967v-3.646l0,0h1.822v-5.485h-1.822v-3.653h6.394c0.917,0,1.833,0,1.833-0.916c0,0,0,0,0-0.903
	v-1.82v-0.916h-0.916h-7.311v-4.572h1.822v-3.649h-1.822l0,0v-4.563h10.049c0,0,0.918,0,0.918,0.906
	c0.914,0,0.914,0.916,0.914,0.916c0,0.905,0,0.905-0.914,1.819c0,0.92-0.918,0.92-0.918,0.92h-3.655v3.651h2.737
	c1.836,0,2.75,0.904,2.75,1.822c0.904,0,0.904,0.914,0.904,1.832v5.475c0,0.918,0,1.836-0.904,2.752
	c-0.914,0.902-1.832,0.902-3.654,0.902h-1.833v5.484h6.394h0.914c1.823-2.751,2.738-3.666,3.658-4.566
	c-2.738-7.31-4.572-15.521-5.479-25.58h-11.881v-4.562h10.967c0-0.916,0-1.833,0.914-1.833c0-0.914-0.914-0.914-0.914-0.914
	c0-0.904-0.918-1.822-0.918-2.726h-10.049v-4.571h10.049c0-1.82,0.918-2.734,0.918-2.734c0-0.918,0.914-0.918,1.817-0.918
	c0.915,0,0.915,0,1.835,0.918c0.902,0.914,0.902,1.816,0.902,2.734L152.958,139.376L152.958,139.376z M152.958,144.85
	c0,0.918,0,0.918,0,1.823l0,0V144.85z M70.759,182.296c0-0.919,0-0.919,0.917-1.834c5.475,6.392,10.046,10.976,12.782,11.88
	c0.919,0,0.919,0,0.919,0c0.916,0,1.821,0,1.821-0.904c0.916-0.918,0.916-1.832,0.916-2.75c0,0-0.916-0.916-1.821-1.834
	c-4.57-3.641-8.225-6.392-11.879-10.031c5.485-9.141,7.31-18.27,8.212-28.315h2.751c0,0,0.916-0.917,1.821-0.917
	c0-0.914,0-1.818,0-1.818c0-0.918,0-1.817,0-1.817c-0.905-0.921-1.821-0.921-1.821-0.921H70.759v5.477h6.392
	c0,8.227-1.823,16.438-5.475,23.748c-0.917-0.906-0.917-1.822-0.917-1.822V182.296L70.759,182.296z M134.688,139.376v4.571h-4.567
	c0,1.818-0.904,2.726-0.904,3.64c-0.917,0-0.917,0-1.834,0c-0.903,0-1.819,0-1.819,0c-0.916-0.914-0.916-1.819-0.916-3.64h-13.699
	c-0.916,0-0.916,0-1.82,0c0-0.92,0-1.836,0-1.836c0-0.916,0-1.832,0-1.832c0.904-0.903,0.904-0.903,1.82-0.903h13.699
	c0-1.821,0-2.737,0.916-2.737c0-0.918,0.916-0.918,1.819-0.918c0.917,0,0.917,0,1.834,0.918c0,0.916,0.904,1.819,0.904,2.737
	H134.688L134.688,139.376z M134.688,149.42v4.559h-8.213c-0.916,0-0.916,0.918-0.916,1.834v16.439
	c-0.916,5.486-1.832,10.044-2.735,15.52c-2.735,3.666-3.654,5.486-5.486,6.395c0,0-0.915-0.902-1.817-0.902
	c-0.918-0.916-0.918-1.82,0-3.654c3.649-5.479,4.568-10.963,5.475-18.258h-3.654c0.916,2.725,0,5.477-0.915,8.213
	c-1.821,6.393-3.644,9.129-4.558,10.045c-0.92-0.916-1.836-0.916-1.836-0.916c-0.904,0-0.904-0.916-0.904-0.916
	c0-0.92,0-1.82,0-2.739c2.74-3.655,4.57-8.21,4.57-13.687h-1.83c-0.92,0-0.92-0.918-1.836-0.918c0-0.916-0.904-0.916-0.904-1.834
	c0,0,0-0.914,0.904-0.914c0.916-0.918,0.916-0.918,1.836-0.918h9.127v-4.559h-4.569c-1.821,0-2.728,0-3.644-0.92
	c0-0.914-0.914-1.818-0.914-2.734v-6.393c0-0.903,0-1.823,0.914-2.739h0.916c0.904,0,1.822,0,1.822,0
	c0.902,0.916,0.902,0.916,0.902,2.739v3.65c0,0.918,0,1.832,0,1.832c0.915,0,0.915,0.905,1.831,0.905h2.735v-4.571
	c0-1.816,0-2.723,0.922-2.723c0-0.92,0.913-1.836,2.732-1.836H134.688L134.688,149.42z M134.688,157.645h-1.816
	c-1.834,0-2.751,0-3.655,0.905c-0.917,0.916-0.917,2.736-0.917,3.656v21.007c0,0.915,0,2.738,0.917,3.641
	c0.904,0.918,1.821,0.918,3.655,0.918h1.816v-3.644c-0.901-0.915-0.901-0.915-1.816-0.915c0,0-0.918-0.917-0.918-2.751v-1.821h2.734
	v-3.652h-2.734v-4.559h2.734v-4.572h-2.734v-0.914c0-0.903,0-1.819,0.918-2.734c0.915,0,0.915,0,1.816,0V157.645L134.688,157.645z
	 M59.803,156.729c1.827,7.311,4.564,13.699,8.219,20.094c-2.74,2.736-7.31,6.393-12.785,10.949c-0.917,0-0.917,0-1.833,0.916
	c0,0.916,0,1.83,0.916,2.75c0,0,0.917,0.903,1.828,0.903s3.655-1.823,9.134-5.489c1.822-1.82,3.655-3.64,5.477-4.557v-11.867
	c-0.918-0.916-0.918-0.916-0.918-0.916c-2.736-5.476-4.559-12.783-6.391-21.009h7.309v-5.476h-6.392c0-0.916,0-2.75,0-3.652
	c0-0.918,0-1.822,0-1.822c-0.917-0.914-0.917-0.914-1.833-0.914c-0.904,0-1.822,0-1.822,0c-0.909,0.914-0.909,0.914-0.909,1.818
	c-0.911,8.215-3.655,15.521-7.309,22.828c0,0,0,0,0,0.92c0-8.229,0-15.533,0-22.83c0-0.918-0.909-1.822-1.829-1.822
	c0-0.914-0.908-0.914-0.908-0.914c-0.912,0-1.828,0-1.828,0.914c-0.916,0-0.916,0.904-0.916,1.822c0,10.044,0,20.996,0,31.971
	c-1.822,0.905-4.566,2.725-7.303,4.559c0-10.047,0-20.094,0-30.139c0-0.918,0-1.818-0.911-1.818c-0.916-0.92-0.916-0.92-1.833-0.92
	c-0.91,0-1.822,0-1.822,0.92c-0.917,0-0.917,0.9-0.917,1.818c0,10.045,0,20.996,0,32.875c-1.827,0-2.737,0.918-3.653,1.82
	c0,0,0,0.915,0,1.834c0.916,0.917,1.826,0.917,1.826,1.832c0.911,0,1.827,0,1.827-0.915c2.738,0,6.391-2.751,12.785-5.476
	c0,3.64,0,8.214,0,12.781c0,0.918,0,1.82,0.916,1.82c0,0.916,0.916,0.916,1.828,0.916c0,0,0.908,0,0.908-0.916
	c0.92,0,1.829-0.902,1.829-1.82c0-9.145,0-18.27,0-26.481c0,0,0,0.905,0.91,0.905c0,0,0.916,0,1.833,0
	C56.148,164.941,57.975,162.206,59.803,156.729z"/>
<g display="none" enable-background="new    ">
	<path display="inline" fill="#727171" d="M43.017,159.986c-2.032,0.783-3.362,1.172-3.984,1.172
		c-0.784-0.313-1.252-0.938-1.406-1.875c-0.315-0.78-0.234-1.406,0.234-1.875c0.154-0.469,0.703-0.938,1.641-1.406
		c3.281-1.406,5.859-2.654,7.734-3.75c2.498-2.188,4.53-3.281,6.094-3.281h24.14c1.091,0.157,1.952,0.549,2.578,1.172
		c0.623,0.627,0.938,1.406,0.938,2.344c0,0.314,0,0.55,0,0.703c-1.095,2.971-4.688,6.408-10.781,10.313
		c5.625,1.875,11.953,3.047,18.984,3.517c0.78,0.156,1.406,0.469,1.875,0.938c0.312,0.469,0.469,1.172,0.469,2.109
		c-0.157,0.625-0.469,1.172-0.938,1.641c-0.469,0.469-1.172,0.703-2.109,0.703c-5.94-0.623-13.909-2.655-23.906-6.094
		c-1.721,0.783-3.516,1.486-5.391,2.108c-3.596,1.406-7.346,2.425-11.25,3.048c-6.72,1.094-10.547,1.328-11.484,0.702
		c-0.469-0.469-0.703-1.172-0.703-2.108c-0.157-0.623,0-1.172,0.469-1.642c0.623-0.622,1.249-0.938,1.875-0.938
		c8.123-0.623,15-1.951,20.625-3.983c-5.94-3.28-9.456-5.468-10.547-6.563C47.235,157.564,45.514,158.58,43.017,159.986z
		 M61.767,136.549c0.312-0.469,0.938-0.703,1.875-0.703c0.623,0,1.172,0.234,1.641,0.703c0.623,0.469,0.938,1.721,0.938,3.75h19.922
		c0.938,0,1.718,0.234,2.344,0.703c0.78,0.626,1.249,1.252,1.406,1.875c0.938,2.344,0.623,5.705-0.938,10.078
		c-0.469,0.626-1.018,1.172-1.641,1.641c-0.626,0.157-1.252,0.157-1.875,0c-1.406-0.623-1.875-1.875-1.406-3.75
		c0.938-2.187,1.326-3.75,1.172-4.688c-0.315-0.623-0.703-0.938-1.172-0.938H43.251c-0.626,0.156-1.018,0.313-1.172,0.469
		c-0.469,0.313-0.626,0.703-0.469,1.172v4.453c0,0.783-0.315,1.406-0.938,1.875c-0.469,0.469-1.018,0.703-1.641,0.703
		c-0.784,0-1.406-0.234-1.875-0.703c-0.469-0.623-0.703-1.25-0.703-1.875v-6.328c-0.157-1.25,0.312-2.344,1.406-3.281
		c0.938-0.938,1.952-1.406,3.047-1.406h20.156C61.063,138.27,61.298,137.018,61.767,136.549z M47.704,190.689
		c-0.938-0.158-1.721-0.549-2.344-1.172c-0.626-0.938-0.938-1.875-0.938-2.813v-11.483c0-0.939,0.312-1.719,0.938-2.345
		c0.623-0.78,1.406-1.172,2.344-1.172h3.75h27.891c1.249,0.157,2.187,0.549,2.813,1.172c0.623,0.626,1.015,1.406,1.172,2.345v11.483
		c0,0.938-0.469,1.875-1.406,2.813c-0.784,0.779-1.641,1.172-2.578,1.172H47.704z M51.454,176.627
		c-0.784,0.157-1.252,0.314-1.406,0.469c-0.469,0.469-0.626,1.018-0.469,1.641v5.156c-0.157,0.78,0,1.25,0.469,1.406
		c0.312,0.313,0.78,0.469,1.406,0.469h24.844c0.469,0.154,0.938,0,1.406-0.469c0.312-0.314,0.469-0.783,0.469-1.406v-5.156
		c-0.157-0.779-0.315-1.248-0.469-1.405c-0.469-0.47-0.938-0.703-1.406-0.703L51.454,176.627L51.454,176.627z M64.11,161.158
		c5.31-2.813,8.515-4.999,9.609-6.563c0.154-0.154,0.154-0.313,0-0.47c-0.157-0.153-0.469-0.233-0.938-0.233h-18.28
		c-0.784,0-1.406,0.08-1.875,0.233c3.435,2.501,6.171,4.299,8.203,5.392C61.92,160.145,63.016,160.689,64.11,161.158z"/>
	<path display="inline" fill="#727171" d="M112.204,189.752c-0.47,0.938-1.019,1.482-1.642,1.641c-0.625,0.154-1.252,0.154-1.875,0
		c-0.783-0.469-1.252-0.938-1.405-1.406c-0.157-0.625-0.157-1.405,0-2.344c1.875-5.313,2.813-11.326,2.813-18.047v-27.656
		c0-1.248,0.469-2.187,1.405-2.813c0.78-0.938,1.718-1.406,2.813-1.406h8.438c1.249,0,2.188,0.469,2.813,1.406
		c0.938,0.783,1.406,1.721,1.406,2.813v44.297c-0.156,1.562-0.55,2.891-1.172,3.984c-0.783,1.092-1.875,1.641-3.281,1.641
		c-3.597,0-5.705-0.313-6.328-0.938c-0.469-0.626-0.703-1.252-0.703-1.875c0-1.721,1.016-2.578,3.048-2.578
		c1.875,0,2.89-0.08,3.047-0.234c0.312-0.313,0.469-0.782,0.469-1.405v-12.188h-7.03
		C114.701,180.143,113.764,185.846,112.204,189.752z M122.048,152.486v-8.438c0.153-0.469,0-0.78-0.469-0.938
		c-0.157-0.312-0.47-0.469-0.938-0.469h-4.219c-0.469,0.157-0.783,0.314-0.938,0.469c-0.315,0.314-0.469,0.703-0.469,1.172v8.203
		h7.032V152.486z M122.048,167.721v-10.313h-7.03v10.313H122.048z M135.643,191.393c-0.47,0.469-1.02,0.703-1.642,0.703
		c-0.784,0-1.405-0.234-1.875-0.703c-0.469-0.625-0.703-1.252-0.703-1.875v-46.875c0-1.406,0.47-2.578,1.406-3.516
		c0.938-0.779,1.952-1.172,3.047-1.172h6.328h5.625h9.844c1.406,0.156,2.421,0.703,3.048,1.641c0.938,1.096,1.09,3.281,0.469,6.563
		c-0.627,3.907-1.723,6.174-3.281,6.797c-2.032,1.405-5.625,1.172-10.781-0.703c-0.938-0.469-1.486-0.938-1.641-1.405
		c-0.315-0.623-0.234-1.25,0.233-1.875c0.622-1.25,1.642-1.642,3.048-1.173c3.75,0.938,5.858,1.173,6.327,0.703
		c0.312-0.312,0.546-0.546,0.703-0.703c0.78-1.405,1.172-2.655,1.172-3.75c0-0.469-0.233-0.78-0.702-0.938
		c-0.47-0.153-0.938-0.233-1.406-0.233h-6.563h-0.469h-6.328h-2.813c-0.625,0-1.172,0.233-1.641,0.703
		c-0.314,0.469-0.469,1.019-0.469,1.642v10.313h20.391c1.406-0.154,2.422,0.234,3.047,1.172c1.092,1.096,1.406,2.424,0.938,3.984
		c-1.722,7.346-4.453,13.594-8.203,18.75c2.187,2.031,5.233,4.219,9.142,6.563c0.938,0.623,1.482,1.249,1.641,1.875
		c0,0.78-0.081,1.482-0.234,2.109c-0.626,0.779-1.172,1.248-1.641,1.406c-2.344,0.312-6.409-2.345-12.188-7.97
		c-0.784,0.938-1.641,1.718-2.577,2.345c-4.846,3.903-7.815,5.625-8.906,5.155c-0.627-0.157-1.172-0.469-1.642-0.938
		C136.346,190.768,136.109,191.234,135.643,191.393z M136.579,160.455v26.25c0.153-0.469,0.469-0.783,0.938-0.938
		c3.28-1.722,6.17-3.75,8.672-6.095c-4.065-5.625-6.879-12.03-8.438-19.219L136.579,160.455L136.579,160.455z M142.673,160.455
		c1.56,6.094,3.827,11.25,6.798,15.469c2.027-2.813,3.357-5.232,3.983-7.266c1.875-4.063,2.578-6.563,2.108-7.5
		c-0.314-0.469-0.703-0.703-1.172-0.703H142.673L142.673,160.455z"/>
</g>
<path fill="#727171" d="M148.712,190.981v-5.461c3.638,0.923,5.456,0,6.367-0.899c1.815-0.912,2.724-1.822,3.629-3.635
	c0.912-3.639,0.912-11.82,0.912-27.266c0-3.637,0-5.447,0-6.358c-0.912,0-0.912,0-1.817,0h-9.091v-5.45h11.815
	c0.912,0,1.816,0,2.729,0c0.906,0.899,1.817,0.899,1.817,1.813c0,1.823,0.905,2.725,0.905,3.638
	c-0.905,17.266-0.905,28.162-2.724,33.624c-0.911,4.534-2.729,7.271-5.455,9.095c-0.905,0.9-3.634,0.9-6.356,0.9
	C150.529,190.981,149.626,190.981,148.712,190.981L148.712,190.981z M148.712,170.99c0.914,1.813,0.914,2.723,0.914,3.635
	c0,0,0.903,0.899,1.817,1.824c0,0,0.906,0,1.816,0l0.907-0.925c0.911-1.812-0.907-8.17-5.456-19.079L148.712,170.99L148.712,170.99z
	 M148.712,141.912v5.45h-4.542c-1.818,6.358-4.541,9.083-5.451,9.996c-0.906,0-1.82,0-1.82-0.913c-0.905,0-1.813-0.9-1.813-1.813
	l0,0v31.811c0,0,0,0,0-0.923v-38.158v-0.913v8.184c0-0.912,0-0.912,0.906-1.823c2.727-4.535,4.543-9.997,5.453-15.443
	c0-0.911,0-1.812,0.906-1.812c0.912-0.912,0.912-0.912,1.817-0.912c0.913,0,0.913,0.912,1.817,0.912c0,0.9,0,1.812,0,2.725
	c0,0.912,0,2.723-0.904,3.635h3.63V141.912z M148.712,156.445c0,0,0-0.9-0.905-1.813c0-0.912-0.912-0.912-0.912-1.824
	c-0.906,0-1.812,0-2.725,0.912c0,0-0.904,0-0.904,0.912s0,1.813,0,2.726c2.723,4.546,4.541,9.996,5.446,13.632V156.445
	L148.712,156.445z M148.712,185.521c-0.905,0-2.724-0.899-4.542-0.899c-1.818-0.912-2.725,0-3.635,1.822c0,0,0,0.9,0,1.813
	c0.91,0,0.91,0.899,1.816,0.899c1.817,0.925,4.541,1.825,6.359,1.825L148.712,185.521L148.712,185.521z M135.086,146.449v8.184l0,0
	l0,0l0,0v31.812c0,0.899,0,1.813-0.91,1.813c-0.906,0.898-1.818,1.824-3.637,1.824h-6.359v-5.461h3.637c0.904,0,0.904,0,1.816,0
	c0-0.912,0-0.912,0-1.822v-14.533h-5.453v-5.461h5.453v-11.809c0-0.91,0-1.82,0-1.82c-0.912,0-0.912-0.901-1.816-0.901h-3.637
	v-13.633c0,0,0,0,0.912,0c0.907,0,0.907,0.911,1.813,1.813c0,0,0,0.91,0,1.823c0,0.912-0.904,1.813-0.904,3.634
	c-0.907,0-0.907,0.899-0.907,1.813h5.447c1.817,0,2.729,0,3.637,0.913C135.086,145.549,135.086,145.549,135.086,146.449z
	 M80.559,144.637c0.913,0.912,1.819,1.813,1.819,2.726c0.912,0,1.818,0.911,2.729,0.911c0-0.911,0.906-0.911,1.813-0.911
	c0-0.913,0-1.813,0-2.726s-1.813-2.725-5.448-4.547l-0.913-0.899V144.637L80.559,144.637z M124.18,134.642v13.632h-4.543
	c-0.912,0-0.912,0-1.816,0.9c0,0,0,0.91,0,1.822v11.809h6.359v5.459h-6.359v14.533c0,0.912,0,0.912,0,1.824c0.904,0,0.904,0,1.816,0
	h4.543v5.459h-8.181c-0.905,0-1.815-0.925-2.722-0.925c-0.912-0.899-0.912-1.813-0.912-3.636v-38.158c0-1.813,0-2.725,0.912-2.725
	c0.904-0.913,1.815-0.913,2.722-0.913h3.638l0,0c1.817-5.446,3.637-9.083,3.637-9.083S123.271,134.642,124.18,134.642
	L124.18,134.642z M80.559,190.981v-7.272c0.913,0.912,1.819,1.813,1.819,1.813c0.912-0.898,0.912-1.813,0.912-2.723
	c0-4.537,0.906-6.35,1.817-6.35c0-0.925,0.906-0.925,1.813-0.925c0.913,0,1.818,0.925,1.818,0.925c0,0.898,0,0.898,0,1.813
	c0,5.447-0.906,9.082-1.818,11.82c-0.906,0.899-1.813,1.813-3.629,1.813C82.378,191.894,81.472,190.981,80.559,190.981
	L80.559,190.981z M80.559,170.99v-11.82c0,0,0.913,0,1.819,0c0,0,0.912,0,1.818,0.912c0,0.912,0,1.822,0,2.723
	C83.29,165.527,81.472,168.264,80.559,170.99L80.559,170.99z M80.559,156.445v-5.449h5.454c0.906,0,0.906,0,1.819,0.913
	c0.906,0,0.906,0.899,0.906,1.812c0,0.914,0,0.912-0.906,1.824c-0.913,0-0.913,0.9-1.819,0.9H80.559L80.559,156.445z
	 M75.105,141.912c1.818,0.899,3.636,1.813,5.454,2.727v-5.447c-0.906-0.912-1.818-1.825-3.636-1.825
	c-0.907-0.911-0.907-0.911-1.818-0.911c-0.905,0-0.905,0.911-1.812,1.824c0,0,0,0.912,0,1.813
	C73.293,140.09,74.2,141,75.105,141.912L75.105,141.912z M80.559,150.996v5.449h-9.996c0,4.549,1.818,9.994,3.637,15.456
	c1.816-2.735,2.723-7.272,4.541-10.907c0-0.912,0.912-1.824,1.818-1.824l0,0v11.82c-1.818,1.813-2.724,3.635-4.542,6.357
	c0.907,1.814,2.725,3.639,3.636,5.449c0,0,0.906,0,0.906,0.912v7.271l0,0c-2.724-1.825-5.454-5.461-8.177-9.084
	c-1.818,1.813-4.542,3.623-6.36,4.546c-2.724,1.813-5.454,2.713-8.178,3.638c-0.912,0-1.817,0-1.817,0
	c-0.912-0.925-1.818-0.925-1.818-1.824c0-1.813,0.906-2.735,1.818-3.635c6.36-1.824,10.901-4.535,14.538-8.173
	c-2.724-6.358-4.542-13.646-5.455-20.004H50.572v10.909c3.636-1.827,5.454-2.727,7.271-2.727c0.906-0.912,1.819-0.912,2.725-0.912
	c0,0.912,0.912,0.912,0.912,1.812c0,0.912,0,1.827,0,1.827c0,1.811-3.636,3.636-9.996,5.447c-0.912,0-0.912,0-0.912,0v12.719
	c0,0.923,0,1.822,0,2.736c-1.818,1.824-3.637,2.725-5.454,2.725c-5.448,0.912-9.083,0-9.996-1.825c0-0.899,0-0.899,0-1.813
	c0.912-1.822,1.818-1.822,3.635-1.822c3.636,0.923,5.455,0.923,6.36,0c0-0.898,0.911-0.898,0.911-1.813v-9.996
	c-3.635,0.912-7.271,1.813-9.995,2.736c-0.912,0-1.819-0.925-1.819-0.925c-0.906,0-1.818-0.899-1.818-1.812s0.912-1.813,0.912-1.813
	c0-0.911,0.906-0.911,1.813-0.911c3.635-0.899,7.271-1.825,10.907-2.726v-11.819h-9.995c-0.912,0-1.819,0-1.819-0.899
	c-0.906-0.912-0.906-0.912-0.906-1.824s0-1.813,0.906-1.813c0-0.912,0.907-0.912,1.819-0.912h9.995v-7.271
	c-3.635,0.912-6.359,0.912-9.089,0.912c-0.906,0-1.818,0-1.818-0.912c-0.907,0-0.907-0.913-0.907-1.813c0-0.912,0-0.912,0-1.822
	c0.907,0,0.907-0.899,1.819-0.899c8.178,0,15.449-0.912,20.896-2.735c0.912-0.9,1.818-0.9,2.731,0c0.906,0,0.906,0.91,0.906,0.91
	c0,0.913,0,1.825,0,1.825c-0.906,1.81-3.637,2.722-9.996,3.621v8.185h13.631c0-4.547,0-9.084,0-12.718c-0.906-0.913,0-1.823,0-1.823
	c0.905-0.9,0.905-0.9,1.818-0.9c0.906,0,1.818,0,2.724,0.9c0,0,0,0.91,0,1.823c0,3.634,0,8.171,0.912,12.718h10.904V150.996z"/>
</svg>
