<?xml version="1.0" encoding="utf-8"?>
<!-- Generator: Adobe Illustrator 16.0.0, SVG Export Plug-In . SVG Version: 6.00 Build 0)  -->
<!DOCTYPE svg PUBLIC "-//W3C//DTD SVG 1.1//EN" "http://www.w3.org/Graphics/SVG/1.1/DTD/svg11.dtd">
<svg version="1.1" id="圖層_1" xmlns="http://www.w3.org/2000/svg" xmlns:xlink="http://www.w3.org/1999/xlink" x="0px" y="0px"
	 width="100px" height="100px" viewBox="0 0 100 100" enable-background="new 0 0 100 100" xml:space="preserve">
<path fill="none" stroke="#FDD000" stroke-width="7" stroke-miterlimit="10" d="M22.468,35.44c4.322,0,8.64-0.021,12.96,0.021
	c0.833,0.007,1.175-0.249,1.436-1.057c2.375-7.435,4.805-14.852,7.212-22.274c0.143-0.447,0.218-0.919,0.317-1.38
	c0.572-2.593,2.749-4.502,5.247-4.606c2.779-0.121,5.023,1.504,5.847,4.162c1.492,4.814,3.008,9.62,4.531,14.419
	c1.008,3.167,2.077,6.313,3.043,9.487c0.286,0.926,0.682,1.262,1.697,1.256c7.906-0.05,15.813-0.038,23.724-0.019
	c0.938,0,1.89,0.093,2.828,0.215c2.202,0.289,3.638,1.582,4.247,3.658c0.602,2.07,0.117,4.004-1.555,5.402
	c-1.977,1.661-4.072,3.189-6.16,4.718c-5.014,3.673-10.043,7.335-15.101,10.952c-0.741,0.527-0.837,0.976-0.566,1.809
	c2.59,7.865,5.166,15.729,7.639,23.638c0.394,1.256,0.55,2.766,0.263,4.034c-0.789,3.481-4.676,5.099-7.646,3.14
	c-3.889-2.562-7.628-5.353-11.413-8.075c-3.296-2.368-6.59-4.743-9.835-7.18c-0.851-0.635-1.405-0.708-2.313-0.031
	c-6.428,4.743-12.881,9.455-19.393,14.08c-1.151,0.821-2.577,1.529-3.948,1.71c-3.004,0.379-5.575-2.063-5.601-5.104
	c-0.01-1.094,0.154-2.237,0.485-3.28c2.429-7.647,4.901-15.275,7.413-22.892c0.298-0.902,0.124-1.35-0.627-1.89
	c-6.205-4.464-12.376-8.97-18.563-13.465c-0.936-0.678-1.999-1.225-2.817-2.021c-1.779-1.722-1.996-3.867-1.125-6.092
	c0.835-2.132,2.883-3.388,5.205-3.382c4.191,0.005,8.382,0,12.573,0C22.468,35.413,22.468,35.426,22.468,35.44z"/>
</svg>
