<?xml version="1.0" encoding="utf-8"?>
<!-- Generator: Adobe Illustrator 16.0.2, SVG Export Plug-In . SVG Version: 6.00 Build 0)  -->
<!DOCTYPE svg PUBLIC "-//W3C//DTD SVG 1.1//EN" "http://www.w3.org/Graphics/SVG/1.1/DTD/svg11.dtd">
<svg version="1.1" id="圖層_1" xmlns="http://www.w3.org/2000/svg" xmlns:xlink="http://www.w3.org/1999/xlink" x="0px" y="0px"
	 width="45.79px" height="45.79px" viewBox="0 0 45.79 45.79" enable-background="new 0 0 45.79 45.79" xml:space="preserve">
<path fill-rule="evenodd" clip-rule="evenodd" fill="#B3B3B3" d="M23.111,45.323c-0.072-0.144-0.144-0.288-0.216-0.432v-24.84
	c3.096,0,5.616-2.448,5.616-5.544c0-3.097-2.52-5.616-5.616-5.616V0.468c5.616,0.071,11.16,4.104,12.456,12.096
	c0,0.072,0,0.072,0.072,0.144v3.24C34.343,24.876,26.135,38.411,23.111,45.323z M22.895,44.892
	c-3.168-6.984-11.736-21.024-12.528-29.376v-2.304V13.14c1.152-8.568,6.84-12.744,12.528-12.672v8.424
	c-3.096,0-5.544,2.52-5.544,5.616c0,3.096,2.448,5.544,5.544,5.544V44.892z"/>
</svg>
