<?xml version="1.0" encoding="utf-8"?>
<!-- Generator: Adobe Illustrator 16.0.2, SVG Export Plug-In . SVG Version: 6.00 Build 0)  -->
<!DOCTYPE svg PUBLIC "-//W3C//DTD SVG 1.1//EN" "http://www.w3.org/Graphics/SVG/1.1/DTD/svg11.dtd">
<svg version="1.1" id="圖層_1" xmlns="http://www.w3.org/2000/svg" xmlns:xlink="http://www.w3.org/1999/xlink" x="0px" y="0px"
	 width="45.79px" height="45.79px" viewBox="0 0 45.79 45.79" enable-background="new 0 0 45.79 45.79" xml:space="preserve">
<path fill-rule="evenodd" clip-rule="evenodd" fill="#B3B3B3" d="M30.167,2.663h3.456l0,0h0.216h0.216l0.216,0.072l0.216,0.072
	l0.144,0.144l0.216,0.072l0.144,0.144l0.144,0.144l0.144,0.144l0.144,0.144l0.144,0.216l0.072,0.144l0.072,0.216l0.072,0.216v0.216
	v0.216v36.144l0,0v0.216v0.216l-0.072,0.216l-0.072,0.144l-0.072,0.216l-0.144,0.144l-0.144,0.216l-0.144,0.144l-0.144,0.144
	l-0.144,0.072l-0.216,0.144l-0.144,0.072l-0.216,0.072l-0.216,0.072l-0.216,0.072h-0.216h-3.456v-6.768h3.888l0,0v-27h-3.888V5.831
	h0.504V4.463h-0.504V2.663z M22.967,2.663h7.2v1.8h-0.432v1.368h0.432v3.528h-7.2V5.831h4.68V4.463h-4.68V2.663L22.967,2.663z
	 M30.167,43.127h-7.2v-1.944h2.808l0,0h0.144h0.072l0.144-0.072h0.144l0.072-0.072l0.144-0.072l0.072-0.072l0.144-0.072l0.072-0.144
	l0.072-0.072l0.072-0.144v-0.072l0.072-0.144v-0.072l0.072-0.144v-0.144l0,0v-0.144l-0.072-0.144v-0.144l-0.072-0.072v-0.144
	l-0.072-0.072l-0.072-0.144l-0.072-0.072l-0.144-0.072l-0.072-0.072l-0.144-0.072l-0.072-0.072h-0.144l-0.144-0.072h-0.072h-0.144
	h-2.808v-2.232h7.2V43.127z M12.239,2.663h10.728v1.8h-4.752l0,0v1.368h4.752v3.528h-11.16v27h11.16v2.232h-2.88l0,0l0,0h-0.144
	h-0.144l-0.072,0.072h-0.144l-0.144,0.072l-0.072,0.072l-0.144,0.072l-0.072,0.072l-0.072,0.072l-0.072,0.144l-0.072,0.072
	l-0.072,0.144v0.072l-0.072,0.144v0.144v0.144l0,0v0.144v0.144l0.072,0.072v0.144l0.072,0.072l0.072,0.144l0.072,0.072l0.072,0.144
	l0.072,0.072l0.144,0.072l0.072,0.072l0.144,0.072h0.144l0.072,0.072h0.144h0.144h2.88v1.944H12.239l0,0h-0.216l-0.216-0.072
	l-0.216-0.072l-0.216-0.072l-0.216-0.072l-0.144-0.144l-0.216-0.072l-0.144-0.144l-0.144-0.144l-0.072-0.216l-0.144-0.144
	l-0.072-0.216l-0.072-0.144l-0.072-0.216v-0.216l-0.072-0.216V4.823l0,0l0.072-0.216V4.391l0.072-0.216l0.072-0.216l0.072-0.144
	l0.144-0.216l0.072-0.144l0.144-0.144l0.144-0.144l0.216-0.144l0.144-0.072l0.216-0.144l0.216-0.072l0.216-0.072h0.216H12.239
	L12.239,2.663z"/>
</svg>
