<svg width="516.037" height="516.037" xmlns="http://www.w3.org/2000/svg">

 <g>
  <title>background</title>
  <rect fill="none" id="canvas_background" height="602" width="802" y="-1" x="-1"/>
 </g>
 <g>
  <title>Layer 1</title>
  <g id="svg_1">
   <path fill="#ffffff" id="svg_2" d="m408.644,411.413c-4.39,-3.356 -10.664,-2.514 -14.018,1.873c-3.354,4.388 -2.515,10.664 1.873,14.018l17.089,13.061c1.807,1.381 3.943,2.055 6.068,2.055c2.735,0 5.451,-1.118 7.416,-3.287l32.664,-36.066c3.707,-4.094 3.395,-10.418 -0.699,-14.125c-4.093,-3.707 -10.418,-3.394 -14.125,0.699l-26.488,29.248l-9.78,-7.476z"/>
   <path fill="#ffffff" id="svg_3" d="m514.82,358.033c-0.114,-5.099 -4.047,-9.293 -9.126,-9.737c-23.789,-2.079 -53.063,-18.059 -74.582,-40.708c-1.888,-1.986 -4.507,-3.111 -7.247,-3.112c-0.001,0 -0.002,0 -0.003,0c-2.738,0 -5.357,1.123 -7.245,3.107c-9.659,10.153 -20.871,18.96 -32.441,25.781c-20.302,-22.664 -45.29,-39.362 -74.577,-49.873c-0.255,-0.103 -0.513,-0.195 -0.777,-0.277c-2.281,-0.808 -4.589,-1.579 -6.922,-2.313c24.768,-24.702 41.428,-57.164 41.428,-86.285l0,-15.711c11.708,-5.098 19.919,-16.784 19.919,-30.357c0,-14.099 -8.874,-26.158 -21.327,-30.903c-5.14,-49.901 -40.297,-91.849 -88.59,-105.727c-1.427,-6.797 -7.466,-11.918 -14.68,-11.918l-36.237,0c-6.958,0 -12.807,4.768 -14.495,11.205c-23.755,6.335 -45.453,19.857 -61.721,38.657c-16.512,19.082 -26.78,42.912 -29.388,67.788c-12.459,4.748 -21.336,16.804 -21.336,30.899c0,13.578 8.223,25.267 19.947,30.362l0,15.706c0,29.094 16.663,61.568 41.43,86.287c-2.265,0.712 -4.508,1.457 -6.725,2.239c-0.436,0.124 -0.86,0.277 -1.273,0.458c-32.78,11.825 -60.147,31.399 -81.579,58.43c-20.612,25.998 -35.265,58.103 -43.551,95.431c-2.949,13.34 -5.167,30.104 3.929,41.43c8.885,11.063 24.783,12.481 37.642,12.481l65.415,0c5.523,0 10,-4.478 10,-10s-4.477,-10 -10,-10l-65.415,0c-11.963,0 -19.381,-1.684 -22.048,-5.005c-2.825,-3.518 -2.823,-11.791 0.003,-24.581c10.393,-46.812 35.805,-104.097 97.032,-133.02c-1.883,33.783 16.422,55.865 28.057,69.88c1.781,2.146 4.377,3.45 7.162,3.599c2.783,0.154 5.505,-0.872 7.504,-2.816l56.358,-54.808l56.385,54.81c1.871,1.818 4.373,2.829 6.97,2.829c0.179,0 0.358,-0.005 0.539,-0.015c2.785,-0.15 5.382,-1.457 7.162,-3.606c11.619,-14.027 29.897,-36.122 28.031,-69.834c17.763,8.426 33.457,19.695 46.953,33.733c-8.059,3.119 -15.983,5.112 -23.372,5.758c-5.076,0.443 -9.007,4.634 -9.126,9.729c-0.837,35.753 5.122,61.368 21.244,91.349c0.136,0.254 5.584,10.02 14.073,22l-166.979,0c-5.523,0 -10,4.478 -10,10s4.477,10 10,10l182.861,0c12.056,13.324 26.275,24.664 39.759,24.664c32.532,0 69.356,-65.997 69.71,-66.657c16.096,-29.986 22.053,-55.597 21.249,-91.349zm-193.312,-242.547l-55.058,0c-10.402,-27.173 -12.37,-49.58 -12.723,-82.473c36.069,12.757 62.29,44.583 67.781,82.473zm-114.1,-95.486l26.246,0c0.063,38.708 1.044,64.924 11.523,95.486l-49.272,0c10.461,-30.563 11.441,-56.782 11.503,-95.486zm-20.063,12.224c-0.33,33.326 -2.242,55.871 -12.708,83.263l-57.402,0c5.704,-38.383 33.296,-71.072 70.11,-83.263zm-78.781,103.262l66.898,0c0.589,0.478 1.159,0.539 1.637,0l153.085,0c7.203,0 13.063,5.859 13.063,13.063c0,7.219 -5.859,13.092 -13.063,13.092l-221.62,0c-7.218,0 -13.091,-5.873 -13.091,-13.092c0,-7.203 5.872,-13.063 13.091,-13.063zm6.856,59.131l0,-12.977l207.907,0l0,12.977c0,38.126 -36.936,85.279 -79.044,100.91c-18.425,6.847 -31.506,6.841 -49.974,-0.022c-42.025,-15.695 -78.889,-62.84 -78.889,-100.888zm41.502,162.828c-10.35,-13.512 -20.316,-31.252 -15.526,-57.003c4.411,-1.424 8.969,-2.723 13.695,-3.872c10.084,7.398 20.96,13.466 32.235,17.677c3.629,1.348 7.121,2.459 10.537,3.383l-40.941,39.815zm124.894,-0.006l-40.966,-39.821c3.372,-0.915 6.818,-2.012 10.396,-3.342c11.331,-4.206 22.26,-10.286 32.391,-17.708c4.668,1.136 9.233,2.423 13.687,3.865c4.801,25.715 -5.161,43.473 -15.508,57.006zm194.13,82.489c-11.826,22.071 -39.521,56.109 -52.085,56.109s-40.259,-34.038 -52.092,-56.123c-13.215,-24.572 -18.638,-45.063 -18.932,-72.963c10.788,-2.053 22.019,-6.079 33.063,-11.701c0.388,-0.169 0.766,-0.368 1.137,-0.59c12.896,-6.703 25.508,-15.574 36.82,-26.117c21.298,19.87 47.227,33.883 71.02,38.409c-0.315,27.904 -5.737,48.399 -18.931,72.976z"/>
   <path fill="#ffffff" id="svg_4" d="m155.974,471.373c-5.523,0 -10,4.478 -10,10s4.477,10 10,10l0.057,0c5.523,0 9.971,-4.478 9.971,-10s-4.505,-10 -10.028,-10z"/>
  </g>
 </g>
</svg>