<?xml version="1.0" encoding="utf-8"?>
<!-- Generator: Adobe Illustrator 16.0.0, SVG Export Plug-In . SVG Version: 6.00 Build 0)  -->
<!DOCTYPE svg PUBLIC "-//W3C//DTD SVG 1.1//EN" "http://www.w3.org/Graphics/SVG/1.1/DTD/svg11.dtd">
<svg version="1.1" id="圖層_1" xmlns="http://www.w3.org/2000/svg" xmlns:xlink="http://www.w3.org/1999/xlink" x="0px" y="0px"
	 width="50px" height="50px" viewBox="0 0 50 50" enable-background="new 0 0 50 50" xml:space="preserve">
<g>
	<path fill="#777777" d="M24.794,0.088c6.968,0,13.126,2.755,17.665,7.292c4.536,4.539,7.292,10.695,7.292,17.665
		C49.751,38.818,38.568,50,24.794,50v-2.594c12.476,0,22.526-10.047,22.526-22.361c0-6.159-2.594-11.831-6.646-15.883
		c-4.05-4.051-9.562-6.482-15.881-6.482V0.088z M24.794,50c-6.806,0-12.964-2.916-17.501-7.455C2.756,38.172,0,31.85,0,25.045
		C0,11.27,11.183,0.088,24.794,0.088V2.68c-12.315,0-22.363,10.047-22.363,22.365c0,6.156,2.593,11.666,6.644,15.88
		c4.051,4.05,9.561,6.481,15.719,6.481V50z"/>
	<path fill="#777777" d="M27.55,10.622c2.755,0.162,4.538,0.162,5.511,0.486c1.779,0.486,3.076,1.458,4.373,2.917
		c1.135,1.459,1.623,3.403,1.623,5.834c0,1.781-0.326,3.403-0.972,4.699c-0.651,1.135-1.46,2.106-2.595,2.917
		c-0.971,0.65-1.945,1.137-3.08,1.459c-1.137,0.162-2.753,0.323-4.86,0.323v-5.023c1.296-0.163,2.269-0.324,2.755-0.485
		c0.811-0.326,1.459-0.812,1.944-1.459c0.321-0.649,0.647-1.458,0.647-2.269c0-1.134-0.326-2.106-0.973-2.755
		c-0.65-0.648-1.458-1.134-2.431-1.296c-0.487-0.163-1.134-0.163-1.944-0.163L27.55,10.622L27.55,10.622z M16.205,40.602V10.622
		h9.725c0.485,0,1.135,0,1.62,0v5.185c-0.649,0-1.458-0.161-2.432-0.161h-2.917v8.588h3.24c0.811,0,1.459,0,2.108,0v5.023
		c-0.486,0-0.973,0-1.458,0H22.2v11.345H16.205z"/>
</g>
</svg>
