<?xml version="1.0" encoding="utf-8"?>
<!-- Generator: Adobe Illustrator 24.0.0, SVG Export Plug-In . SVG Version: 6.00 Build 0)  -->
<svg version="1.1" id="圖層_1" xmlns="http://www.w3.org/2000/svg" xmlns:xlink="http://www.w3.org/1999/xlink" x="0px" y="0px"
	 viewBox="0 0 20 18" style="enable-background:new 0 0 20 18;" xml:space="preserve">
<style type="text/css">
	.st0{fill:#C9CACA;}
</style>
<g>
	<path class="st0" d="M17.37,6.51L17.3,6.29l-0.22-0.22l-0.22-0.14l-0.22-0.14l-0.29-0.07l-0.29-0.07h-0.65v-1.8V3.7l-0.07-0.14
		l-0.07-0.14l-0.07-0.14L15.06,3.2l-0.07-0.07l-0.14-0.07h-0.22H14.2v0.58h0.43h0.07l0.07,0.07l0.07,0.07v0.07v1.8h-1.08V0.82V0.75
		L13.7,0.68l-0.07-0.07l-0.14-0.07h-3.17H7.07L7,0.61L6.86,0.68L6.78,0.75v0.07v4.82H5.78v-1.8V3.77L5.85,3.7V3.63h0.07H6.5V3.05
		H5.92H5.78L5.63,3.13L5.49,3.2L5.34,3.27L5.27,3.41L5.2,3.56V3.7L5.13,3.85v1.8H4.48L4.19,5.72L3.9,5.79L3.69,5.93L3.47,6.08
		L3.33,6.29L3.18,6.51L3.11,6.8L3.04,7.09v5.04l0.07,0.29l0.07,0.29l0.14,0.22l0.14,0.22l0.22,0.14l0.22,0.14l0.29,0.07l0.29,0.07
		h1.44H6.5v-0.58H6.21v-2.3v-0.22l0.07-0.14l0.07-0.22L6.5,9.97l0.14-0.14l0.14-0.07L7,9.68h0.22h3.1h3.1h0.22l0.14,0.07l0.22,0.07
		l0.14,0.14l0.14,0.14l0.07,0.22l0.07,0.14v0.22v2.3h-0.29v0.58h0.58h1.37l0.29-0.07l0.29-0.07l0.22-0.14l0.22-0.14l0.22-0.22
		l0.07-0.22l0.14-0.29v-0.29V7.09V6.8L17.37,6.51z M7.36,1.11h2.95h2.88v4.54h-2.88H7.36V1.11z M16.94,7.09v5.04v0.14l-0.07,0.22
		l-0.07,0.14l-0.07,0.07l-0.14,0.14l-0.14,0.07h-0.14l-0.22,0.07h-1.08v-2.3V10.4l-0.07-0.29l-0.14-0.36l-0.22-0.22l-0.22-0.22
		l-0.36-0.14L13.7,9.1h-0.29h-3.1h-3.1H6.86L6.57,9.17L6.28,9.32L6.06,9.53L5.85,9.75L5.7,10.11L5.56,10.4v0.29v2.3H4.48l-0.14-0.07
		H4.12l-0.14-0.07L3.9,12.7l-0.14-0.07l-0.07-0.14v-0.22l-0.07-0.14V7.09l0.07-0.22V6.73l0.07-0.14L3.9,6.51l0.07-0.14l0.14-0.07
		l0.22-0.07h0.14h0.86h0.07H7h0.07h3.24h3.17h0.14h1.51h0.14h0.79h0.22l0.14,0.07l0.14,0.07l0.14,0.14l0.07,0.07l0.07,0.14
		l0.07,0.14V7.09z"/>
	<path class="st0" d="M13.62,11.19h-0.14h-3.17H7.07H7l-0.14,0.07l-0.07,0.07v0.14v5.04v0.14l0.07,0.07L7,16.81h0.07h3.24h3.17h0.14
		l0.07-0.07l0.07-0.07v-0.14v-5.04v-0.14l-0.07-0.07L13.62,11.19z M13.19,16.23h-2.88H7.36v-4.46h2.95h2.88V16.23z"/>
	<rect x="13.48" y="6.73" class="st0" width="1.66" height="0.58"/>
</g>
</svg>
