<?xml version="1.0" encoding="utf-8"?>
<!-- Generator: Adobe Illustrator 16.0.2, SVG Export Plug-In . SVG Version: 6.00 Build 0)  -->
<!DOCTYPE svg PUBLIC "-//W3C//DTD SVG 1.1//EN" "http://www.w3.org/Graphics/SVG/1.1/DTD/svg11.dtd">
<svg version="1.1" id="圖層_1" xmlns="http://www.w3.org/2000/svg" xmlns:xlink="http://www.w3.org/1999/xlink" x="0px" y="0px"
	 width="171.44px" height="171.44px" viewBox="0 0 171.44 171.44" enable-background="new 0 0 171.44 171.44" xml:space="preserve">
<g>
	<g>
		<path fill="#B3B3B3" d="M8.33,136.215l1.389-7.982h5.9v8.329h-5.9L8.33,136.215L8.33,136.215z M9.719,136.562H9.025l-0.695-0.347
			L9.719,136.562L9.719,136.562z M11.105,128.58l-1.387,3.817l0,0l0,0l0,0L11.105,128.58L11.105,128.58z M9.719,136.562H9.025
			l-0.695-0.347L9.719,136.562L9.719,136.562z M6.248,135.52l2.777-7.635l2.081,0.695l-2.775,7.635L6.248,135.52L6.248,135.52z
			 M6.248,135.52L6.248,135.52L6.248,135.52L6.248,135.52L6.248,135.52z M1.39,132.05l5.206-4.859l2.429,0.694l-2.777,7.635
			l-2.08-0.694L1.39,132.05L1.39,132.05z M4.167,134.826l-2.083-0.693L1.39,132.05L4.167,134.826L4.167,134.826z M8.676,127.538
			L8.676,127.538l0.694,2.083l-7.98,2.429l-0.695-2.082L8.676,127.538L8.676,127.538z M0.695,129.968L0.695,129.968L0.695,129.968
			L0.695,129.968L0.695,129.968z M0.001,126.497l7.983-1.387l0.692,2.429l-7.981,2.43l-0.694-2.083V126.497L0.001,126.497z
			 M0.001,127.885v-0.694v-0.694V127.885L0.001,127.885z M3.819,20.303l4.166,4.164v102.03H0.001V24.467L3.819,20.303L3.819,20.303z
			 M0.001,24.467v-4.164h3.817L0.001,24.467L0.001,24.467z M113.135,24.467l-4.163,4.165H3.819v-8.329h105.153L113.135,24.467
			L113.135,24.467z M108.971,20.303h4.163v4.164L108.971,20.303L108.971,20.303z M108.971,107.41l-4.163-4.165V24.467h8.327v78.778
			L108.971,107.41L108.971,107.41z M113.135,103.245v4.165h-4.163L113.135,103.245L113.135,103.245z M3.819,99.081h105.153v8.329
			H3.819V99.081z"/>
	</g>
	<g>
		<rect x="44.77" y="128.232" fill="#B3B3B3" width="81.554" height="8.329"/>
	</g>
	<g>
		<path fill="#B3B3B3" d="M135.347,63.683L135.347,63.683h-26.376v-8.328h26.376V63.683L135.347,63.683z M135.347,55.355
			L135.347,55.355L135.347,55.355L135.347,55.355L135.347,55.355z M135.347,63.683v-4.164l0,0l0,0l0,0V63.683L135.347,63.683z
			 M135.347,55.355L135.347,55.355L135.347,55.355L135.347,55.355L135.347,55.355z M140.553,56.048l-2.429,7.635h-2.777v-8.328
			h2.777L140.553,56.048L140.553,56.048z M138.125,55.355h1.386l1.042,0.693L138.125,55.355L138.125,55.355z M143.328,58.131
			l-5.203,6.246l-2.431-1.388l4.86-6.942l2.081,1.388L143.328,58.131L143.328,58.131z M142.634,57.436l0.348,0.348l0.346,0.347
			L142.634,57.436L142.634,57.436z M145.063,60.213l-6.246,5.206l-1.389-1.736l5.9-5.552l1.389,1.387L145.063,60.213L145.063,60.213
			z M144.717,59.518l0.346,0.347v0.347L144.717,59.518L144.717,59.518z M146.799,62.99l-6.94,3.818l-1.389-2.083l6.592-4.511
			l1.737,2.083V62.99L146.799,62.99z M146.799,62.295v0.347v0.347V62.295L146.799,62.295z M153.394,94.916l-1.389-1.735
			l-12.495-27.069l7.289-3.123l12.492,26.722L153.394,94.916z M153.394,94.916l-1.042-0.693l-0.346-1.042L153.394,94.916
			L153.394,94.916z M166.581,94.57l-5.206,6.247l-7.981-5.901l4.509-6.594l8.329,5.901L166.581,94.57L166.581,94.57z
			 M166.232,94.223L166.232,94.223l0.348,0.347L166.232,94.223L166.232,94.223z M160.68,100.122l3.123-2.776l0,0l0,0l0,0
			L160.68,100.122L160.68,100.122z M166.232,94.223L166.232,94.223l0.348,0.347L166.232,94.223L166.232,94.223z M168.663,96.652
			l-6.594,5.206l-1.389-1.736l5.9-5.552l1.389,1.387L168.663,96.652L168.663,96.652z M167.969,95.958l0.346,0.347l0.348,0.347
			L167.969,95.958L167.969,95.958z M170.398,99.081l-7.289,4.164l-1.389-2.082l6.943-4.512l1.387,2.083L170.398,99.081
			L170.398,99.081z M170.05,98.735v0.346h0.348L170.05,98.735L170.05,98.735z M171.438,102.552l-7.635,1.735l-1.04-1.389
			l7.635-3.817l0.694,1.736L171.438,102.552L171.438,102.552z M171.093,100.817l0.346,0.694v1.041L171.093,100.817L171.093,100.817z
			 M163.109,104.634L163.109,104.634v-2.082h8.329v2.082H163.109L163.109,104.634z M171.438,104.634L171.438,104.634
			L171.438,104.634L171.438,104.634L171.438,104.634z M171.093,127.885l-7.983-1.388v-21.863h8.329v21.863L171.093,127.885
			L171.093,127.885z M171.438,126.497v0.694l-0.346,0.694L171.438,126.497L171.438,126.497z M163.458,125.11l3.817,1.387l0,0l0,0
			l0,0L163.458,125.11L163.458,125.11z M171.438,126.497v0.694l-0.346,0.694L171.438,126.497L171.438,126.497z M162.764,127.538
			L162.764,127.538l0.694-2.429l7.635,2.776l-0.694,2.083L162.764,127.538z M162.764,127.538L162.764,127.538L162.764,127.538
			L162.764,127.538L162.764,127.538z M167.275,134.826l-5.206-5.205l0.694-2.083l7.635,2.43l-0.694,2.082L167.275,134.826
			L167.275,134.826z M169.704,132.05l-0.694,2.083l-1.735,0.693L169.704,132.05L169.704,132.05z M162.415,127.885L162.415,127.885
			l2.083-0.694l2.777,7.635l-2.429,0.694L162.415,127.885z M162.415,127.885L162.415,127.885L162.415,127.885L162.415,127.885
			L162.415,127.885z M161.375,136.562l-1.042-7.982l2.083-0.695l2.431,7.635l-2.083,0.694L161.375,136.562L161.375,136.562z
			 M162.764,136.215l-0.694,0.347h-0.695L162.764,136.215L162.764,136.215z M155.475,128.232h5.9v8.329h-5.9V128.232z"/>
	</g>
	<g>
		<path fill="#B3B3B3" d="M116.606,70.972l4.164-3.817h25.335v7.98H120.77L116.606,70.972z M116.606,70.972v-3.817h4.164
			L116.606,70.972L116.606,70.972z M120.77,95.611l-4.164-4.165V70.972h7.983v20.474L120.77,95.611z M120.77,95.611h-4.164v-4.165
			L120.77,95.611L120.77,95.611z M155.475,95.611H120.77v-8.329h34.705V95.611z"/>
	</g>
	<g>
		<path fill="#B3B3B3" d="M40.604,132.397h4.166l0,0l0,0l0,0H40.604L40.604,132.397z M48.933,132.397L48.933,132.397L48.933,132.397
			L48.933,132.397L48.933,132.397z M48.587,137.256l-7.983-2.083v-2.776h8.329v2.776L48.587,137.256L48.587,137.256z
			 M48.933,135.173v1.041l-0.346,1.042L48.933,135.173L48.933,135.173z M39.564,136.909v-0.347l1.734-3.123l7.289,3.818
			l-1.737,2.776L39.564,136.909z M39.564,136.909v-0.347l0,0V136.909L39.564,136.909z M45.464,143.155l-6.595-4.164l0.694-2.082
			l7.635,2.429l-0.694,2.43L45.464,143.155L45.464,143.155z M46.504,141.768l-0.346,1.04l-0.694,0.347L46.504,141.768
			L46.504,141.768z M43.381,145.585l-5.9-5.9l2.083-2.082l5.9,5.552L43.381,145.585L43.381,145.585L43.381,145.585z M39.564,148.708
			l-4.166-6.941l2.083-2.083l5.9,5.9l-2.429,2.082L39.564,148.708L39.564,148.708z M40.953,147.667l-0.694,0.694l-0.694,0.347
			L40.953,147.667L40.953,147.667z M34.358,141.768h0.348l2.081-0.694l2.777,7.635l-2.429,0.694L34.358,141.768z M34.358,141.768
			L34.358,141.768h0.348H34.358L34.358,141.768z M32.969,151.137l-1.734-7.982l3.123-1.387l3.471,7.288l-2.777,1.735L32.969,151.137
			L32.969,151.137z M35.052,150.79l-1.042,0.347h-1.041L35.052,150.79L35.052,150.79z M30.192,142.808L30.192,142.808h2.777v8.329
			h-2.777V142.808L30.192,142.808z M30.192,151.137L30.192,151.137L30.192,151.137L30.192,151.137L30.192,151.137z M30.192,142.808
			v4.165l0,0l0,0l0,0V142.808L30.192,142.808z M30.192,151.137L30.192,151.137L30.192,151.137L30.192,151.137L30.192,151.137z
			 M25.334,150.79l2.083-7.982h2.774v8.329h-2.774L25.334,150.79L25.334,150.79z M27.418,151.137h-1.043l-1.041-0.347
			L27.418,151.137L27.418,151.137z M25.683,141.768h0.346l3.123,1.387l-3.817,7.635l-2.777-1.735L25.683,141.768z M25.683,141.768
			h0.346l0,0H25.683L25.683,141.768z M19.437,147.667l4.163-6.594l2.083,0.694l-2.777,7.635l-2.083-0.694L19.437,147.667
			L19.437,147.667z M20.823,148.708l-1.041-0.347l-0.346-0.694L20.823,148.708L20.823,148.708z M22.906,139.685L22.906,139.685
			l2.083,2.083l-5.552,5.899l-2.431-2.082L22.906,139.685L22.906,139.685z M13.882,141.768l6.94-4.164l2.083,2.082l-5.9,5.9
			l-2.083-2.43L13.882,141.768L13.882,141.768z M14.923,143.155l-0.692-0.694l-0.349-0.693L14.923,143.155L14.923,143.155z
			 M20.823,136.562v0.347l0.694,2.082l-7.635,2.777l-0.694-2.43L20.823,136.562z M20.823,136.562L20.823,136.562v0.347V136.562
			L20.823,136.562z M11.454,135.173l7.983-1.735l1.386,3.123l-7.287,3.47l-1.734-2.776L11.454,135.173L11.454,135.173z
			 M11.802,137.256l-0.348-1.042v-1.041L11.802,137.256L11.802,137.256z M19.782,132.397L19.782,132.397v2.776h-8.329v-2.776H19.782
			L19.782,132.397z M11.454,132.397L11.454,132.397L11.454,132.397L11.454,132.397L11.454,132.397z M19.782,132.397h-4.163l0,0l0,0
			l0,0H19.782L19.782,132.397z M11.454,132.397L11.454,132.397L11.454,132.397L11.454,132.397L11.454,132.397z M11.802,127.538
			l7.98,2.083v2.776h-8.329v-2.776L11.802,127.538L11.802,127.538z M11.454,129.621v-1.042l0.348-1.042L11.454,129.621
			L11.454,129.621z M20.823,127.885v0.347l-1.734,3.123l-7.287-3.817l1.734-2.776L20.823,127.885z M20.823,127.885v0.347l0,0
			V127.885L20.823,127.885z M14.923,121.292l6.594,4.512l-0.694,2.081l-7.635-2.776l0.694-2.083L14.923,121.292L14.923,121.292z
			 M13.882,123.027l0.349-1.04l0.692-0.695L13.882,123.027L13.882,123.027z M22.906,125.11L22.906,125.11l-2.083,2.082l-5.9-5.899
			l2.083-2.083L22.906,125.11z M22.906,125.11L22.906,125.11L22.906,125.11L22.906,125.11L22.906,125.11z M20.823,116.086
			l4.166,6.941l-2.083,2.083l-5.9-5.901l2.431-2.081L20.823,116.086L20.823,116.086z M19.437,117.128l0.346-0.694l1.041-0.347
			L19.437,117.128L19.437,117.128z M26.029,123.027h-0.346l-2.083,0.694l-2.777-7.635l2.083-0.694L26.029,123.027z M26.029,123.027
			L26.029,123.027h-0.346H26.029L26.029,123.027z M27.418,113.657l1.734,7.635l-3.123,1.735l-3.472-7.288l2.777-1.735
			L27.418,113.657L27.418,113.657z M25.334,114.004l1.041-0.347h1.043L25.334,114.004L25.334,114.004z M30.192,121.987
			L30.192,121.987h-2.774v-8.329h2.774V121.987L30.192,121.987z M30.192,113.657L30.192,113.657L30.192,113.657L30.192,113.657
			L30.192,113.657z M30.192,121.987v-4.165l0,0l0,0l0,0V121.987L30.192,121.987z M30.192,113.657L30.192,113.657L30.192,113.657
			L30.192,113.657L30.192,113.657z M35.052,114.004l-2.083,7.982h-2.777v-8.329h2.777L35.052,114.004L35.052,114.004z
			 M32.969,113.657h1.041l1.042,0.347L32.969,113.657L32.969,113.657z M34.706,123.027h-0.348l-3.123-1.735l3.817-7.288l2.777,1.735
			L34.706,123.027z M34.706,123.027h-0.348l0,0H34.706L34.706,123.027z M40.953,117.128l-4.166,6.593l-2.081-0.694l2.429-7.635
			l2.429,0.694L40.953,117.128L40.953,117.128z M39.564,116.086l1.04,0.347l0.349,0.694L39.564,116.086L39.564,116.086z
			 M37.481,125.11L37.481,125.11l-2.083-2.083l5.554-5.899l2.429,2.081L37.481,125.11L37.481,125.11z M43.381,119.209
			L43.381,119.209L43.381,119.209L43.381,119.209L43.381,119.209z M46.504,123.027l-6.94,4.164l-2.083-2.082l5.9-5.901l2.083,2.083
			L46.504,123.027L46.504,123.027z M45.464,121.292l0.694,0.695l0.346,1.04L45.464,121.292L45.464,121.292z M39.564,128.232v-0.347
			l-0.694-2.081l7.635-2.777l0.694,2.083L39.564,128.232z M39.564,128.232L39.564,128.232v-0.347V128.232L39.564,128.232z
			 M48.933,129.621l-7.635,1.734l-1.734-3.123l7.286-3.47l1.737,2.776L48.933,129.621L48.933,129.621z M48.587,127.538l0.346,1.042
			v1.042L48.587,127.538L48.587,127.538z M40.604,132.397L40.604,132.397v-2.776h8.329v2.776H40.604L40.604,132.397z
			 M48.933,132.397L48.933,132.397L48.933,132.397L48.933,132.397L48.933,132.397z M40.604,132.397h4.166l0,0l0,0l0,0H40.604
			L40.604,132.397z M48.933,132.397L48.933,132.397L48.933,132.397L48.933,132.397z"/>
	</g>
	<g>
		<path fill="#B3B3B3" d="M151.657,132.397h3.817l0,0l0,0l0,0H151.657L151.657,132.397z M159.64,132.397L159.64,132.397
			L159.64,132.397L159.64,132.397L159.64,132.397z M159.292,137.256l-7.635-2.083v-2.776h7.983v2.776L159.292,137.256
			L159.292,137.256z M159.64,135.173v1.041l-0.348,1.042L159.64,135.173L159.64,135.173z M150.269,136.909l0.348-0.347l1.389-3.123
			l7.286,3.818l-1.388,2.776L150.269,136.909z M150.269,136.909v-0.347h0.348L150.269,136.909L150.269,136.909z M156.515,143.155
			l-6.938-4.164l0.692-2.082l7.635,2.429l-0.692,2.43L156.515,143.155L156.515,143.155z M157.211,141.768l-0.348,1.04l-0.349,0.347
			L157.211,141.768L157.211,141.768z M154.086,145.585l-5.552-5.9l2.083-2.082l5.898,5.552L154.086,145.585L154.086,145.585
			L154.086,145.585z M150.269,148.708l-4.164-6.941l2.429-2.083l5.552,5.9l-2.081,2.082L150.269,148.708L150.269,148.708z
			 M152.005,147.667l-0.694,0.694l-1.042,0.347L152.005,147.667L152.005,147.667z M145.063,141.768h0.697l2.081-0.694l2.429,7.635
			l-2.081,0.694L145.063,141.768z M145.063,141.768h0.348h0.349H145.063L145.063,141.768z M144.022,151.137l-1.734-7.982
			l2.775-1.387l3.817,7.288l-3.121,1.735L144.022,151.137L144.022,151.137z M145.759,150.79l-0.697,0.347h-1.04L145.759,150.79
			L145.759,150.79z M140.899,142.808L140.899,142.808h3.123v8.329h-3.123V142.808L140.899,142.808z M140.899,151.137
			L140.899,151.137L140.899,151.137L140.899,151.137L140.899,151.137z M140.899,142.808v4.165l0,0l0,0l0,0V142.808L140.899,142.808z
			 M140.899,151.137L140.899,151.137L140.899,151.137L140.899,151.137L140.899,151.137z M136.388,150.79l1.737-7.982h2.775v8.329
			h-2.775L136.388,150.79L136.388,150.79z M138.125,151.137h-1.043l-0.694-0.347L138.125,151.137L138.125,151.137z M136.388,141.768
			h0.694l2.778,1.387l-3.471,7.635l-3.124-1.735L136.388,141.768z M136.388,141.768h0.348h0.346H136.388L136.388,141.768z
			 M130.141,147.667l4.166-6.594l2.081,0.694l-2.429,7.635l-2.083-0.694L130.141,147.667L130.141,147.667z M131.875,148.708
			l-1.04-0.347l-0.694-0.694L131.875,148.708L131.875,148.708z M133.611,139.685L133.611,139.685l2.431,2.083l-5.9,5.899
			l-2.083-2.082L133.611,139.685L133.611,139.685z M128.058,145.585L128.058,145.585L128.058,145.585L128.058,145.585
			L128.058,145.585z M124.935,141.768l6.595-4.164l2.081,2.082l-5.552,5.9l-2.428-2.43L124.935,141.768L124.935,141.768z
			 M125.63,143.155l-0.694-0.347v-1.04L125.63,143.155L125.63,143.155z M131.53,136.562l0.345,0.347l0.695,2.082l-7.635,2.777
			l-1.041-2.43L131.53,136.562z M131.53,136.562L131.53,136.562l0.345,0.347L131.53,136.562L131.53,136.562z M122.507,135.173
			l7.635-1.735l1.389,3.123l-7.289,3.47l-1.389-2.776L122.507,135.173L122.507,135.173z M122.852,137.256l-0.345-1.042v-1.041
			L122.852,137.256L122.852,137.256z M130.49,132.397L130.49,132.397v2.776h-7.983v-2.776H130.49L130.49,132.397z M122.507,132.397
			L122.507,132.397L122.507,132.397L122.507,132.397L122.507,132.397z M130.49,132.397h-4.166l0,0l0,0l0,0H130.49L130.49,132.397z
			 M122.507,132.397L122.507,132.397L122.507,132.397L122.507,132.397L122.507,132.397z M122.852,127.538l7.638,2.083v2.776h-7.983
			v-2.776L122.852,127.538L122.852,127.538z M122.507,129.621v-1.042l0.345-1.042L122.507,129.621L122.507,129.621z
			 M131.875,127.885l-0.345,0.347l-1.389,3.123l-7.289-3.817l1.389-2.776L131.875,127.885z M131.875,127.885l-0.345,0.347l0,0
			L131.875,127.885L131.875,127.885z M125.63,121.292l6.94,4.512l-0.695,2.081l-7.981-2.776l1.041-2.083L125.63,121.292
			L125.63,121.292z M124.935,123.027v-1.04l0.694-0.695L124.935,123.027L124.935,123.027z M133.611,125.11L133.611,125.11
			l-2.081,2.082l-5.9-5.899l2.428-2.083L133.611,125.11L133.611,125.11z M131.875,116.086l4.166,6.941l-2.431,2.083l-5.552-5.901
			l2.083-2.081L131.875,116.086L131.875,116.086z M130.141,117.128l0.694-0.694l1.04-0.347L130.141,117.128L130.141,117.128z
			 M137.082,123.027h-0.694l-2.081,0.694l-2.431-7.635l2.083-0.694L137.082,123.027z M137.082,123.027h-0.346h-0.348H137.082
			L137.082,123.027z M138.125,113.657l1.735,7.635l-2.778,1.735l-3.817-7.288l3.124-1.735L138.125,113.657L138.125,113.657z
			 M136.388,114.004l0.694-0.347h1.043L136.388,114.004L136.388,114.004z M140.899,121.987L140.899,121.987h-2.775v-8.329h2.775
			V121.987L140.899,121.987z M140.899,113.657L140.899,113.657L140.899,113.657L140.899,113.657L140.899,113.657z M140.899,121.987
			v-4.165l0,0l0,0l0,0V121.987L140.899,121.987z M140.899,113.657L140.899,113.657L140.899,113.657L140.899,113.657L140.899,113.657
			z M145.759,114.004l-1.737,7.982h-3.123v-8.329h3.123L145.759,114.004L145.759,114.004z M144.022,113.657h1.04l0.697,0.347
			L144.022,113.657L144.022,113.657z M145.759,123.027h-0.697l-2.775-1.735l3.471-7.288l3.121,1.735L145.759,123.027z
			 M145.759,123.027h-0.349h-0.348H145.759L145.759,123.027z M152.005,117.128l-4.166,6.593l-2.081-0.694l2.429-7.635l2.081,0.694
			L152.005,117.128L152.005,117.128z M150.269,116.086l1.042,0.347l0.694,0.694L150.269,116.086L150.269,116.086z M148.534,125.11
			L148.534,125.11l-2.429-2.083l5.9-5.899l2.081,2.081L148.534,125.11L148.534,125.11z M154.086,119.209L154.086,119.209
			L154.086,119.209L154.086,119.209L154.086,119.209z M157.211,123.027l-6.594,4.164l-2.083-2.082l5.552-5.901l2.429,2.083
			L157.211,123.027L157.211,123.027z M156.515,121.292l0.349,0.695l0.348,1.04L156.515,121.292L156.515,121.292z M150.617,128.232
			l-0.348-0.347l-0.692-2.081l7.635-2.777l0.692,2.083L150.617,128.232z M150.617,128.232h-0.348v-0.347L150.617,128.232
			L150.617,128.232z M159.64,129.621l-7.635,1.734l-1.389-3.123l7.287-3.47l1.388,2.776L159.64,129.621L159.64,129.621z
			 M159.292,127.538l0.348,1.042v1.042L159.292,127.538L159.292,127.538z M151.657,132.397L151.657,132.397v-2.776h7.983v2.776
			H151.657L151.657,132.397z M159.64,132.397L159.64,132.397L159.64,132.397L159.64,132.397L159.64,132.397z M151.657,132.397h3.817
			l0,0l0,0l0,0H151.657L151.657,132.397z M159.64,132.397L159.64,132.397L159.64,132.397L159.64,132.397z"/>
	</g>
</g>
</svg>
